Les 232 270 37 29
enfants 283 270 90 29
jouent 387 270 77 29
au 478 270 25 29
foot 517 270 50 29
avec 581 270 51 29
des 646 270 38 29
balles 698 270 76 29
de 231.8 334 25 29
tissus 270.8 334 77 29
noués 361.8 334 63 29
nagent 451.8 334 76 29
dans 541.8 334 51 29
la 606.8 334 24 29
rivière 644.8 334 87 29
s'entraînent 231.8 398 154 29
au 399.8 398 25 29
tir 438.8 398 38 29
à 490.8 398 12 29
l'arc 516.8 398 63 29
loin 606.8 398 50 29
du 670.8 398 25 29
regard 709.8 398 74 29
préoccupé 231.8 462 115 29
d'un 360.8 462 51 29
adulte 425.8 462 77 29
Ils 529.8 462 37 29
vont 580.8 462 51 29
aussi 645.8 462 64 29
à 723.8 462 12 29
l'école 231.8 526 89 29
