Lorsque 232 270 89 29
la 335 270 24 29
vague 373 270 64 29
des 451 270 38 29
réfugiés 503 270 100 29
déferlait 617 270 116 29
sur 747 270 37 29
le 231.8 334 24 29
camp 269.8 334 50 29
improvisé 333.8 334 115 29
les 475.8 334 37 29
microbus 526.8 334 103 29
et 643.8 334 25 29
les 682.8 334 37 29
tracteurs 231.8 398 116 29
mobilisés 361.8 398 116 29
par 491.8 398 37 29
l'organisation 542.8 398 180 29
macédonienne 231.8 462 155 29
El 400.8 462 24 29
Hilal 438.8 462 64 29
assuraient 516.8 462 129 29
un 659.8 462 24 29
mini-pont 231.8 526 116 29
humanitaire 361.8 526 141 29
qui 516.8 526 38 29
permettait 568.8 526 128 29
d'éviter 231.8 590 103 29
le 348.8 590 24 29
pire 386.8 590 50 29
