Entre 232 270 63 29
le 309 270 24 29
31 347 270 25 29
décembre 386 270 103 29
à 503 270 12 29
minuit 529 270 77 29
et 620 270 25 29
jusqu'à 659 270 90 29
la 763 270 24 29
fin 231.8 334 37 29
du 282.8 334 25 29
mois 321.8 334 51 29
de 386.8 334 25 29
janvier 425.8 334 90 29
les 542.8 334 37 29
clubs 593.8 334 63 29
de 670.8 334 25 29
football 231.8 398 102 29
sont 347.8 398 50 29
autorisés 411.8 398 116 29
à 541.8 398 12 29
renouveler 567.8 398 126 29
leur 707.8 398 50 29
effectif 231.8 462 103 29
