Le 232 270 24 29
bombardier 270 270 128 29
Spirit 412 270 76 29
que 502 270 38 29
les 554 270 37 29
visiteurs 605 270 116 29
du 735 270 25 29
salon 231.8 334 63 29
du 308.8 334 25 29
Bourget 347.8 334 89 29
ont 450.8 334 38 29
entraperçu 502.8 334 129 29
en 645.8 334 25 29
juin 684.8 334 51 29
le 762.8 334 24 29
temps 231.8 398 64 29
d'un 309.8 398 51 29
très 374.8 398 51 29
bref 439.8 398 50 29
passage 503.8 398 89 29
au-dessus 606.8 398 116 29
de 736.8 398 25 29
leurs 231.8 462 63 29
têtes 308.8 462 64 29
est 399.8 462 38 29
une 451.8 462 37 29
drôle 502.8 462 64 29
de 580.8 462 25 29
machine 619.8 462 90 29
volante 231.8 526 90 29
pour 335.8 526 50 29
les 399.8 526 37 29
non 450.8 526 37 29
initiés 501.8 526 89 29
