Banlieue 232 270 102 29
violence 361 270 103 29
et 478 270 25 29
parfois 517 270 89 29
urgence 620 270 89 29
Ces 231.8 334 38 29
mots 283.8 334 51 29
constamment 348.8 334 141 29
accolés 503.8 334 90 29
réapparaissent 607.8 334 178 29
en 231.8 398 25 29
force 270.8 398 63 29
à 347.8 398 12 29
chaque 373.8 398 76 29
fois 463.8 398 50 29
qu'il 527.8 398 64 29
est 605.8 398 38 29
question 657.8 398 103 29
dans 231.8 462 51 29
l'actualité 296.8 462 141 29
de 451.8 462 25 29
chauffeurs 490.8 462 128 29
de 632.8 462 25 29
bus 671.8 462 37 29
agressés 231.8 526 103 29
de 361.8 526 25 29
véhicules 400.8 526 116 29
incendiés 530.8 526 115 29
