Mme 232 270 38 29
aubry 284 270 64 29
a 362 270 12 29
annoncé 388 270 90 29
que 492 270 38 29
l'objectif 544 270 128 29
national 686 270 102 29
des 231.8 334 38 29
dépenses 283.8 334 103 29
d'assurance 400.8 334 142 29
maladie 556.8 334 90 29
voté 660.8 334 51 29
par 725.8 334 37 29
le 231.8 398 24 29
parlement 269.8 398 115 29
sera 398.8 398 50 29
dépassé 462.8 398 90 29
d'environ 566.8 398 116 29
2 696.8 398 11 29
milliards 231.8 462 116 29
d'euros 361.8 462 90 29
