En 232 270 24 29
raison 270 270 74 29
des 358 270 38 29
travaux 410 270 90 29
entrepris 514 270 116 29
dans 644 270 51 29
l'aile 709 270 76 29
nord 231.8 334 50 29
du 295.8 334 25 29
château 334.8 334 89 29
de 437.8 334 25 29
Versailles 476.8 334 130 29
les 633.8 334 37 29
salles 684.8 334 76 29
des 231.8 398 38 29
croisades 283.8 398 115 29
et 412.8 398 25 29
le 451.8 398 24 29
circuit 489.8 398 89 29
du 592.8 398 25 29
XVIIe 631.8 398 65 29
siècle 231.8 462 76 29
qui 334.8 462 38 29
font 386.8 462 50 29
partie 450.8 462 76 29
du 540.8 462 25 29
musée 579.8 462 64 29
de 657.8 462 25 29
l'histoire 231.8 526 128 29
de 373.8 526 25 29
France 412.8 526 76 29
seront 515.8 526 76 29
fermées 605.8 526 89 29
