On 232 270 25 29
se 271 270 24 29
souvient 309 270 102 29
du 425 270 25 29
fameux 464 270 76 29
symbole 554 270 89 29
du 657 270 25 29
dollar 696 270 77 29
revu 231.8 334 48 29
par 293.8 334 37 29
Andy 344.8 334 52 29
Warhol 410.8 334 78 29
Le 515.8 334 24 29
pop-artiste 553.8 334 141 29
américain 231.8 398 116 29
avait 361.8 398 64 29
d'un 439.8 398 51 29
signe 504.8 398 63 29
simple 581.8 398 76 29
amalgamé 671.8 398 103 29
l'art 231.8 462 63 29
et 308.8 462 25 29
l'argent 347.8 462 102 29
pour 463.8 462 50 29
la 527.8 462 24 29
plus 565.8 462 50 29
grande 629.8 462 77 29
joie 720.8 462 51 29
de 231.8 526 25 29
ses 270.8 526 37 29
collectionneurs 321.8 526 193 29
