La 232 270 24 29
déflagration 270 270 155 29
s'est 439 270 63 29
produite 516 270 102 29
au 632 270 25 29
passage 671 270 89 29
d'un 231.8 334 51 29
véhicule 296.8 334 103 29
militaire 413.8 334 116 29
sur 543.8 334 37 29
une 594.8 334 37 29
route 645.8 334 61 29
du 720.8 334 25 29
centre-ville 231.8 398 154 29
à 412.8 398 12 29
une 438.8 398 37 29
centaine 489.8 398 102 29
de 605.8 398 25 29
mètres 644.8 398 77 29
d'une 231.8 462 64 29
base 309.8 462 50 29
de 373.8 462 25 29
l'armée 412.8 462 89 29
turque 515.8 462 77 29
selon 619.8 462 63 29
la 696.8 462 24 29
police 231.8 526 76 29
