Plusieurs 232 270 115 29
tribunaux 361 270 116 29
administratifs 491 270 181 29
ont 686 270 38 29
sommé 231.8 334 63 29
les 308.8 334 37 29
préfets 359.8 334 89 29
de 462.8 334 25 29
treize 501.8 334 77 29
départements 592.8 334 155 29
de 761.8 334 25 29
prendre 231.8 398 89 29
des 334.8 398 38 29
arrêtés 386.8 398 90 29
de 490.8 398 25 29
fermeture 529.8 398 115 29
de 658.8 398 25 29
la 697.8 398 24 29
chasse 231.8 462 76 29
aux 321.8 462 38 29
oiseaux 373.8 462 90 29
migrateurs 477.8 462 129 29
au 620.8 462 25 29
31 659.8 462 25 29
janvier 231.8 526 90 29
réduisant 348.8 526 113 29
de 475.8 526 25 29
trois 514.8 526 64 29
semaines 592.8 526 102 29
la 708.8 526 24 29
durée 231.8 590 64 29
de 309.8 590 25 29
la 348.8 590 24 29
chasse 386.8 590 76 29
