La 232 270 24 29
place 270 270 63 29
financière 347 270 128 29
parisienne 489 270 128 29
est 631 270 38 29
privée 683 270 76 29
de 231.8 334 25 29
deux 270.8 334 51 29
piliers 335.8 334 89 29
majeurs 438.8 334 90 29
des 568.8 334 38 29
fonds 620.8 334 63 29
de 697.8 334 25 29
pension 231.8 398 89 29
qui 334.8 398 38 29
draineraient 386.8 398 155 29
une 555.8 398 37 29
épargne 606.8 398 90 29
investie 231.8 462 102 29
en 347.8 462 25 29
actions 386.8 462 90 29
et 490.8 462 25 29
des 529.8 462 38 29
banques 581.8 462 89 29
importantes 231.8 526 141 29
ayant 386.8 526 64 29
un 464.8 526 24 29
pied 502.8 526 50 29
aux 566.8 526 38 29
Etats-unis 618.8 526 128 29
