L'édition 232 270 115 29
d'art 361 270 64 29
offre 439 270 64 29
aux 517 270 38 29
jeunes 569 270 77 29
éditeurs 660 270 103 29
ambitieux 231.8 334 116 29
de 361.8 334 25 29
grandes 400.8 334 90 29
satisfactions 504.8 334 167 29
on 711.8 334 25 29
peut 231.8 398 50 29
y 295.8 398 12 29
avoir 321.8 398 64 29
le 399.8 398 24 29
sentiment 437.8 398 115 29
de 566.8 398 25 29
faire 605.8 398 63 29
les 682.8 398 37 29
livres 231.8 462 76 29
de 321.8 462 25 29
A 360.8 462 13 29
à 387.8 462 12 29
Z 413.8 462 11 29
comme 451.8 462 63 29
un 528.8 462 24 29
producteur 566.8 462 128 29
de 708.8 462 25 29
Hollywood 231.8 526 116 29
ses 361.8 526 37 29
films 412.8 526 63 29
