Le 232 270 24 29
tribunal 270 270 103 29
administratif 387 270 168 29
de 569 270 25 29
Paris 608 270 63 29
a 685 270 12 29
annulé 711 270 77 29
la 231.8 334 24 29
décision 269.8 334 103 29
du 386.8 334 25 29
Conseil 425.8 334 90 29
de 529.8 334 25 29
Paris 568.8 334 63 29
d'étendre 645.8 334 116 29
à 775.8 334 12 29
des 231.8 398 38 29
communes 283.8 398 102 29
de 399.8 398 25 29
banlieue 438.8 398 102 29
le 554.8 398 24 29
système 592.8 398 89 29
de 695.8 398 25 29
vélos 231.8 462 64 29
en 309.8 462 25 29
libre-service 348.8 462 167 29
