Il 232 270 24 29
n'est 270 270 63 29
point 347 270 63 29
de 424 270 25 29
bon 463 270 37 29
mercato 514 270 90 29
sans 618 270 50 29
un 682 270 24 29
feuilleton 231.8 334 128 29
pour 373.8 334 50 29
l'animer 437.8 334 102 29
Les 566.8 334 37 29
transferts 617.8 334 129 29
des 231.8 398 38 29
deux 283.8 398 51 29
footballeurs 348.8 398 154 29
n'ont 516.8 398 63 29
pas 593.8 398 37 29
électrisé 644.8 398 116 29
les 231.8 462 37 29
foules 282.8 462 76 29
en 372.8 462 25 29
dehors 411.8 462 77 29
du 502.8 462 25 29
premier 541.8 462 89 29
cercle 644.8 462 76 29
des 734.8 462 38 29
admirateurs 231.8 526 142 29
de 387.8 526 25 29
l'un 426.8 526 50 29
et 490.8 526 25 29
de 529.8 526 25 29
l'autre 568.8 526 89 29
