Une 232 270 37 29
bombe 283 270 63 29
de 360 270 25 29
forte 399 270 63 29
puissance 476 270 115 29
a 605 270 12 29
explosé 631 270 90 29
dans 735 270 51 29
le 231.8 334 24 29
centre 269.8 334 76 29
de 359.8 334 25 29
la 398.8 334 24 29
capitale 436.8 334 102 29
sur 552.8 334 37 29
le 603.8 334 24 29
passage 641.8 334 89 29
du 744.8 334 25 29
président 231.8 398 115 29
tchétchène 360.8 398 129 29
L'attentat 516.8 398 128 29
n'a 658.8 398 37 29
pas 709.8 398 37 29
encore 231.8 462 77 29
été 322.8 462 38 29
revendiqué 374.8 462 126 29
indique 527.8 462 89 29
Moscou 630.8 462 77 29
