L'Irak 232 270 76 29
a 322 270 12 29
demandé 348 270 90 29
à 452 270 12 29
l'ONU 478 270 63 29
d'empêcher 555 270 129 29
les 698 270 37 29
survols 231.8 334 89 29
américains 334.8 334 129 29
et 477.8 334 25 29
britanniques 516.8 334 154 29
et 684.8 334 25 29
de 723.8 334 25 29
permettre 231.8 398 115 29
à 360.8 398 12 29
ses 386.8 398 37 29
avions 437.8 398 77 29
civils 528.8 398 76 29
de 618.8 398 25 29
transporter 231.8 462 142 29
des 387.8 462 38 29
scientifiques 439.8 462 167 29
étrangers 620.8 462 116 29
L'Irak 231.8 526 76 29
est 321.8 526 38 29
soumis 373.8 526 76 29
à 463.8 526 12 29
un 489.8 526 24 29
embargo 527.8 526 90 29
aérien 631.8 526 77 29
depuis 231.8 590 77 29
1990 322.8 590 49 29
