Proche-orient 232 270 167 29
le 439 270 24 29
chef 477 270 50 29
du 541 270 25 29
gouvernement 580 270 155 29
a 749 270 12 29
promis 231.8 334 76 29
de 321.8 334 25 29
retirer 360.8 334 87 29
l'armée 461.8 334 89 29
israélienne 564.8 334 141 29
du 719.8 334 25 29
Liban 231.8 398 63 29
sud 308.8 398 37 29
dans 359.8 398 51 29
un 424.8 398 24 29
délai 462.8 398 64 29
d'un 540.8 398 51 29
an 605.8 398 25 29
Il 657.8 398 24 29
envisage 231.8 462 103 29
de 348.8 462 25 29
négocier 387.8 462 102 29
simultanément 503.8 462 167 29
avec 684.8 462 51 29
la 749.8 462 24 29
Syrie 231.8 526 63 29
qui 308.8 526 38 29
entretient 360.8 526 129 29
un 503.8 526 24 29
dispositif 541.8 526 129 29
militaire 231.8 590 116 29
propice 361.8 590 89 29
au 464.8 590 25 29
conflit 503.8 590 89 29
avec 606.8 590 51 29
Israël 671.8 590 76 29
