Le 232 270 24 29
chef 270 270 50 29
du 334 270 25 29
gouvernement 373 270 155 29
est 542 270 38 29
accusé 594 270 77 29
des 685 270 38 29
relations 231.8 334 113 29
tendues 358.8 334 90 29
avec 462.8 334 51 29
les 527.8 334 37 29
États-Unis 578.8 334 128 29
de 733.8 334 25 29
l'isolement 231.8 398 141 29
d'Israël 386.8 398 103 29
dans 503.8 398 51 29
le 568.8 398 24 29
monde 606.8 398 64 29
du 697.8 398 25 29
chômage 231.8 462 89 29
en 334.8 462 25 29
montée 373.8 462 77 29
vertigineuse 464.8 462 155 29
et 646.8 462 25 29
de 685.8 462 25 29
la 724.8 462 24 29
détérioration 231.8 526 168 29
de 413.8 526 25 29
toutes 452.8 526 77 29
les 543.8 526 37 29
normes 594.8 526 76 29
de 684.8 526 25 29
gouvernement 231.8 590 155 29
démocratique 400.8 590 155 29
