Le 232 270 24 29
juge 270 270 51 29
administratif 335 270 168 29
estime 517 270 77 29
que 608 270 38 29
cette 660 270 63 29
extension 231.8 334 116 29
du 361.8 334 25 29
système 400.8 334 89 29
de 503.8 334 25 29
locations 542.8 334 115 29
de 671.8 334 25 29
vélos 710.8 334 64 29
en 231.8 398 25 29
libre-service 270.8 398 167 29
constitue 451.8 398 115 29
un 580.8 398 24 29
nouveau 618.8 398 89 29
marché 231.8 462 77 29
Il 335.8 462 24 29
fournit 373.8 462 89 29
pour 476.8 462 50 29
les 540.8 462 37 29
communes 591.8 462 102 29
un 707.8 462 24 29
réel 231.8 526 48 29
service 293.8 526 89 29
de 396.8 526 25 29
bicyclettes 435.8 526 141 29
en 590.8 526 25 29
libre-service 231.8 590 167 29
