Depuis 232 270 77 29
l'interdiction 323 270 180 29
de 517 270 25 29
fumer 556 270 63 29
c'est 646 270 63 29
l'affluence 231.8 334 141 29
d'un 386.8 334 51 29
dimanche 451.8 334 103 29
D'un 581.8 334 51 29
côté 646.8 334 50 29
on 723.8 334 25 29
fait 231.8 398 50 29
la 295.8 398 24 29
queue 333.8 398 64 29
pour 411.8 398 50 29
acheter 475.8 398 90 29
des 579.8 398 38 29
cigarettes 631.8 398 128 29
de 231.8 462 25 29
l'autre 270.8 462 89 29
on 373.8 462 25 29
patiente 412.8 462 102 29
avec 528.8 462 51 29
le 593.8 462 24 29
bordereau 631.8 462 115 29
des 231.8 526 38 29
courses 283.8 526 89 29
hippiques 386.8 526 115 29
du 515.8 526 25 29
jour 554.8 526 51 29
