Le 232 270 24 29
navigateur 270 270 128 29
solitaire 412 270 115 29
voulait 541 270 90 29
gagner 645 270 77 29
pour 736 270 50 29
l'honneur 231.8 334 115 29
Un 373.8 334 24 29
choix 411.8 334 63 29
météo 488.8 334 64 29
décevant 566.8 334 103 29
et 683.8 334 25 29
une 722.8 334 37 29
grosse 231.8 398 77 29
avarie 322.8 398 77 29
dans 413.8 398 51 29
le 478.8 398 24 29
Pacifique 516.8 398 115 29
ont 645.8 398 38 29
eu 697.8 398 25 29
raison 231.8 462 74 29
de 319.8 462 25 29
ses 358.8 462 37 29
chances 409.8 462 89 29
Il 525.8 462 24 29
a 563.8 462 12 29
vécu 589.8 462 51 29
un 654.8 462 24 29
drôle 692.8 462 64 29
de 231.8 526 25 29
tour 270.8 526 51 29
du 335.8 526 25 29
monde 374.8 526 64 29
