Le 232 270 24 29
monocoque 270 270 116 29
Gartmore 400 270 103 29
du 517 270 25 29
Britannique 556 270 141 29
a 711 270 12 29
démâté 231.8 334 77 29
dans 322.8 334 51 29
la 387.8 334 24 29
troisième 425.8 334 116 29
étape 555.8 334 64 29
de 633.8 334 25 29
l'Around 672.8 334 102 29
Alone 231.8 398 65 29
tour 323.8 398 51 29
du 388.8 398 25 29
monde 427.8 398 64 29
à 505.8 398 12 29
la 531.8 398 24 29
voile 569.8 398 64 29
en 647.8 398 25 29
solitaire 231.8 462 115 29
avec 360.8 462 51 29
escales 425.8 462 90 29
entre 542.8 462 64 29
Auckland 620.8 462 104 29
et 738.8 462 25 29
Punta 231.8 526 63 29
del 308.8 526 38 29
Este 360.8 526 50 29
