L'équipe 232 270 102 29
cycliste 348 270 102 29
a 464 270 12 29
retrouvé 490 270 100 29
quelques 604 270 103 29
couleurs 231.8 334 102 29
sportives 347.8 334 115 29
alors 489.8 334 64 29
que 567.8 334 38 29
les 619.8 334 37 29
noms 670.8 334 50 29
de 734.8 334 25 29
ses 231.8 398 37 29
représentants 282.8 398 165 29
figuraient 461.8 398 128 29
plus 603.8 398 50 29
souvent 667.8 398 89 29
à 770.8 398 12 29
la 231.8 462 24 29
rubrique 269.8 462 100 29
des 383.8 462 38 29
affaires 435.8 462 103 29
au 565.8 462 25 29
gré 604.8 462 38 29
des 656.8 462 38 29
avancées 231.8 526 103 29
des 348.8 526 38 29
enquêtes 400.8 526 103 29
liées 517.8 526 63 29
au 594.8 526 25 29
dopage 633.8 526 77 29
