Le 232 270 24 29
lancement 270 270 115 29
d'Atlantis 399 270 129 29
a 542 270 12 29
été 568 270 38 29
encore 620 270 77 29
reporté 231.8 334 87 29
en 332.8 334 25 29
raison 371.8 334 74 29
de 459.8 334 25 29
problèmes 498.8 334 115 29
récurrents 627.8 334 126 29
de 231.8 398 25 29
lisibilité 270.8 398 128 29
du 412.8 398 25 29
capteur 451.8 398 89 29
Celui-ci 567.8 398 103 29
permet 684.8 398 76 29
de 231.8 462 25 29
connaître 270.8 462 115 29
le 399.8 462 24 29
taux 437.8 462 51 29
de 502.8 462 25 29
remplissage 541.8 462 139 29
du 694.8 462 25 29
réservoir 231.8 526 113 29
d'hydrogène 358.8 526 142 29
de 514.8 526 25 29
la 553.8 526 24 29
navette 591.8 526 89 29
