La 232 270 24 29
formule 270 270 89 29
1 373 270 10 29
a 397 270 12 29
réclamé 423 270 87 29
de 524 270 25 29
ses 563 270 37 29
pilotes 614 270 89 29
qu'ils 231.8 334 77 29
soient 322.8 334 76 29
les 412.8 334 37 29
plus 463.8 334 50 29
rapides 527.8 334 87 29
à 628.8 334 12 29
tout 654.8 334 51 29
moment 231.8 398 77 29
la 335.8 398 24 29
discipline 373.8 398 129 29
reine 516.8 398 61 29
du 591.8 398 25 29
sport 630.8 398 63 29
automobile 231.8 462 129 29
exige 374.8 462 64 29
parfois 452.8 462 89 29
de 555.8 462 25 29
ses 594.8 462 37 29
conducteurs 645.8 462 141 29
qu'ils 231.8 526 77 29
rongent 322.8 526 87 29
leur 423.8 526 50 29
frein 487.8 526 63 29
