Une 232 270 37 29
économie 283 270 103 29
New 400 270 38 29
Age 452 270 39 29
est 505 270 38 29
une 557 270 37 29
économie 608 270 103 29
dans 725 270 51 29
laquelle 231.8 334 102 29
la 347.8 334 24 29
croissance 385.8 334 128 29
de 527.8 334 25 29
l'efficacité 566.8 334 154 29
avec 734.8 334 51 29
laquelle 231.8 398 102 29
nous 347.8 398 50 29
utilisons 411.8 398 115 29
les 540.8 398 37 29
ressources 591.8 398 126 29
productives 231.8 462 141 29
se 386.8 462 24 29
trouve 424.8 462 77 29
durablement 515.8 462 142 29
accélérée 231.8 526 116 29
l'inflation 374.8 526 141 29
maîtrisée 529.8 526 116 29
et 659.8 526 25 29
le 698.8 526 24 29
cycle 231.8 590 63 29
aboli 308.8 590 64 29
