Les 232 270 37 29
marges 283 270 77 29
de 374 270 25 29
croissance 413 270 128 29
pourraient 555 270 128 29
être 697 270 51 29
augmentées 231.8 334 129 29
par 374.8 334 37 29
des 425.8 334 38 29
réformes 477.8 334 100 29
structurelles 591.8 334 167 29
sur 231.8 398 37 29
les 282.8 398 37 29
marchés 333.8 398 90 29
du 437.8 398 25 29
travail 476.8 398 90 29
et 580.8 398 25 29
des 619.8 398 38 29
biens 671.8 398 63 29
entraînant 231.8 462 129 29
une 374.8 462 37 29
accélération 425.8 462 155 29
de 594.8 462 25 29
la 633.8 462 24 29
croissance 231.8 526 128 29
la 386.8 526 24 29
stabilité 424.8 526 115 29
des 553.8 526 38 29
prix 605.8 526 50 29
et 669.8 526 25 29
un 708.8 526 24 29
excédent 231.8 590 103 29
de 348.8 590 25 29
la 387.8 590 24 29
balance 425.8 590 89 29
des 528.8 590 38 29
paiements 580.8 590 115 29
courants 231.8 654 102 29
