La 232 270 24 29
globalisation 270 270 168 29
de 452 270 25 29
l'économie 491 270 128 29
est 633 270 38 29
loin 685 270 50 29
d'être 231.8 334 77 29
achevée 322.8 334 90 29
et 426.8 334 25 29
dans 478.8 334 51 29
un 543.8 334 24 29
contexte 581.8 334 102 29
de 697.8 334 25 29
fort 736.8 334 50 29
chômage 231.8 398 89 29
la 347.8 398 24 29
probabilité 385.8 398 141 29
que 540.8 398 38 29
s'imposent 592.8 398 128 29
à 734.8 398 12 29
nouveau 231.8 462 89 29
les 334.8 462 37 29
vieux 385.8 462 64 29
mécanismes 463.8 462 129 29
de 606.8 462 25 29
hausse 645.8 462 76 29
des 735.8 462 38 29
prix 231.8 526 50 29
est 295.8 526 38 29
très 347.8 526 51 29
faible 412.8 526 76 29
