Dans 232 270 51 29
les 297 270 37 29
clairières 348 270 128 29
les 503 270 37 29
Indiennes 554 270 115 29
récoltent 231.8 334 113 29
du 358.8 334 25 29
manioc 397.8 334 77 29
du 501.8 334 25 29
maïs 540.8 334 51 29
des 618.8 334 38 29
bananes 670.8 334 89 29
des 231.8 398 38 29
coeurs 283.8 398 76 29
de 373.8 398 25 29
palmier 412.8 398 89 29
Leurs 528.8 398 63 29
paniers 605.8 398 89 29
sont 708.8 398 50 29
portés 231.8 462 76 29
sur 321.8 462 37 29
le 372.8 462 24 29
dos 410.8 462 38 29
et 462.8 462 25 29
équilibrés 501.8 462 129 29
par 644.8 462 37 29
une 695.8 462 37 29
lanière 231.8 526 89 29
passée 334.8 526 76 29
sur 424.8 526 37 29
le 475.8 526 24 29
front 513.8 526 63 29
