La 232 270 24 29
CRIIRAD 270 270 90 29
a 374 270 12 29
dénoncé 400 270 90 29
la 504 270 24 29
sous-évaluation 542 270 193 29
par 749 270 37 29
la 231.8 334 24 29
Cogema 269.8 334 77 29
de 360.8 334 25 29
la 399.8 334 24 29
radioactivité 437.8 334 165 29
produite 616.8 334 102 29
par 732.8 334 37 29
des 231.8 398 38 29
eaux 283.8 398 51 29
de 348.8 398 25 29
ruissellement 387.8 398 165 29
d'anciennes 566.8 398 142 29
mines 722.8 398 64 29
d'uranium 231.8 462 116 29
en 361.8 462 25 29
Loire-atlantique 400.8 462 206 29
