La 232 270 24 29
filiale 270 270 89 29
déchets 373 270 90 29
de 477 270 25 29
Suez 516 270 50 29
Lyonnaise 580 270 115 29
des 709 270 38 29
eaux 231.8 334 51 29
a 296.8 334 12 29
mis 322.8 334 38 29
en 374.8 334 25 29
garde 413.8 334 64 29
mercredi 491.8 334 103 29
27 608.8 334 24 29
janvier 646.8 334 90 29
les 750.8 334 37 29
marchés 231.8 398 90 29
d'une 335.8 398 64 29
possible 413.8 398 102 29
baisse 529.8 398 76 29
de 619.8 398 25 29
ses 658.8 398 37 29
résultats 231.8 462 113 29
à 358.8 462 12 29
la 384.8 462 24 29
suite 422.8 462 63 29
d'une 499.8 462 64 29
modification 577.8 462 155 29
de 746.8 462 25 29
la 231.8 526 24 29
réglementation 269.8 526 178 29
sur 461.8 526 37 29
les 512.8 526 37 29
décharges 563.8 526 116 29
