Plusieurs 232 270 115 29
points 361 270 76 29
de 451 270 25 29
contamination 490 270 167 29
radioactive 231.8 334 139 29
ont 384.8 334 38 29
été 436.8 334 38 29
détectés 488.8 334 103 29
dans 605.8 334 51 29
un 670.8 334 24 29
wagon 708.8 334 65 29
transportant 231.8 398 155 29
du 400.8 398 25 29
combustible 439.8 398 141 29
nucléaire 594.8 398 115 29
usé 723.8 398 37 29
provenant 231.8 462 115 29
de 360.8 462 25 29
la 399.8 462 24 29
centrale 437.8 462 102 29
de 553.8 462 25 29
Bugey 592.8 462 63 29
a 669.8 462 12 29
indiqué 695.8 462 89 29
EDF 231.8 526 37 29
