Aujourd'hui 232 270 143 29
les 402 270 37 29
grands 453 270 77 29
noms 544 270 50 29
de 608 270 25 29
la 647 270 24 29
pâtisserie 231.8 334 128 29
française 373.8 334 115 29
sont 502.8 334 50 29
présents 566.8 334 102 29
au 682.8 334 25 29
Japon 721.8 334 64 29
associés 231.8 398 103 29
à 348.8 398 12 29
des 374.8 398 38 29
nippons 426.8 398 89 29
Il 542.8 398 24 29
y 580.8 398 12 29
a 606.8 398 12 29
en 632.8 398 25 29
outre 671.8 398 64 29
pléthore 231.8 462 102 29
d'excellents 347.8 462 155 29
petits 516.8 462 76 29
pâtissiers 606.8 462 128 29
japonais 231.8 526 103 29
de 348.8 526 25 29
quartiers 387.8 526 116 29
