Chez 232 270 51 29
Vivendi 297 270 91 29
la 415 270 24 29
direction 453 270 116 29
générale 583 270 103 29
n'impose 231.8 334 102 29
aucune 347.8 334 77 29
norme 438.8 334 63 29
salariale 515.8 334 115 29
à 644.8 334 12 29
ses 670.8 334 37 29
filiales 231.8 398 102 29
Par 360.8 398 37 29
exemple 411.8 398 90 29
dans 528.8 398 51 29
le 593.8 398 24 29
pôle 631.8 398 50 29
Eau 695.8 398 37 29
les 231.8 462 37 29
salaires 282.8 462 102 29
sont 398.8 462 50 29
indexés 462.8 462 89 29
sur 565.8 462 37 29
la 616.8 462 24 29
valeur 654.8 462 77 29
du 745.8 462 25 29
point 231.8 526 63 29
de 308.8 526 25 29
la 347.8 526 24 29
fonction 385.8 526 102 29
publique 501.8 526 102 29
