A 232 270 13 29
Odense 259 270 77 29
au 363 270 25 29
Danemark 402 270 103 29
chaque 532 270 76 29
policier 622 270 102 29
doit 738 270 51 29
rester 231.8 334 74 29
au 319.8 334 25 29
moins 358.8 334 64 29
un 436.8 334 24 29
an 474.8 334 25 29
dans 513.8 334 51 29
un 578.8 334 24 29
quartier 616.8 334 103 29
populaire 231.8 398 115 29
de 360.8 398 25 29
la 399.8 398 24 29
ville 437.8 398 64 29
Il 528.8 398 24 29
passe 566.8 398 63 29
un 643.8 398 24 29
tiers 681.8 398 64 29
de 759.8 398 25 29
son 231.8 462 37 29
temps 282.8 462 64 29
à 360.8 462 12 29
patrouiller 386.8 462 141 29
à 541.8 462 12 29
pied 567.8 462 50 29
