Le 232 270 24 29
Yen 270 270 39 29
faisait 323 270 89 29
toujours 426 270 103 29
preuve 543 270 76 29
de 633 270 25 29
fermeté 672 270 89 29
face 231.8 334 50 29
au 295.8 334 25 29
billet 334.8 334 76 29
vert 424.8 334 51 29
De 502.8 334 25 29
même 541.8 334 51 29
l'Euro 619.8 334 76 29
a 709.8 334 12 29
encore 231.8 398 77 29
gagné 322.8 398 64 29
du 400.8 398 25 29
terrain 439.8 398 90 29
face 543.8 398 50 29
au 607.8 398 25 29
billet 646.8 398 76 29
vert 736.8 398 51 29
grâce 231.8 462 64 29
aux 309.8 462 38 29
perspectives 361.8 462 154 29
encourageantes 529.8 462 181 29
de 724.8 462 25 29
reprise 231.8 526 87 29
économique 332.8 526 129 29
