Le 232 270 24 29
football 270 270 102 29
est 386 270 38 29
un 438 270 24 29
sport 476 270 63 29
collectif 553 270 115 29
qui 682 270 38 29
oppose 231.8 334 77 29
deux 322.8 334 51 29
équipes 387.8 334 90 29
de 491.8 334 25 29
onze 530.8 334 51 29
joueurs 595.8 334 90 29
dans 699.8 334 51 29
un 764.8 334 24 29
stade 231.8 398 63 29
dont 321.8 398 51 29
le 386.8 398 24 29
but 424.8 398 37 29
est 475.8 398 38 29
de 527.8 398 25 29
mettre 566.8 398 77 29
un 657.8 398 24 29
ballon 695.8 398 76 29
sphérique 231.8 462 115 29
dans 360.8 462 51 29
le 425.8 462 24 29
but 463.8 462 37 29
adverse 514.8 462 90 29
Le 631.8 462 24 29
football 669.8 462 102 29
est 231.8 526 38 29
sans 283.8 526 50 29
doute 347.8 526 64 29
le 425.8 526 24 29
sport 463.8 526 63 29
le 540.8 526 24 29
plus 578.8 526 50 29
médiatisé 642.8 526 116 29
dans 231.8 590 51 29
le 296.8 590 24 29
monde 334.8 590 64 29
