Avec 232 270 52 29
l'aide 298 270 76 29
de 388 270 25 29
leurs 427 270 63 29
rabatteurs 504 270 126 29
déguenillés 231.8 334 142 29
elles 400.8 334 64 29
pesaient 478.8 334 102 29
l'offre 594.8 334 89 29
et 697.8 334 25 29
la 736.8 334 24 29
demande 231.8 398 90 29
Elles 348.8 398 63 29
savaient 425.8 398 102 29
précisément 541.8 398 141 29
quel 696.8 398 51 29
jour 231.8 462 51 29
du 296.8 462 25 29
mois 335.8 462 51 29
les 400.8 462 37 29
entreprises 451.8 462 142 29
chercheraient 607.8 462 167 29
de 231.8 526 25 29
la 270.8 526 24 29
monnaie 308.8 526 90 29
locale 412.8 526 76 29
pour 502.8 526 50 29
payer 566.8 526 63 29
leurs 643.8 526 63 29
salariés 231.8 590 102 29
