L'Euro 232 270 76 29
poursuivait 322 270 141 29
sa 477 270 24 29
remontée 515 270 100 29
face 629 270 50 29
au 693 270 25 29
dollar 231.8 334 77 29
vendredi 335.8 334 103 29
dans 452.8 334 51 29
les 517.8 334 37 29
premiers 568.8 334 102 29
échanges 684.8 334 103 29
entre 231.8 398 64 29
bourses 309.8 398 89 29
Soutenu 425.8 398 89 29
par 528.8 398 37 29
les 579.8 398 37 29
bonnes 630.8 398 76 29
perspectives 231.8 462 154 29
de 399.8 462 25 29
croissance 438.8 462 128 29
économique 580.8 462 129 29
et 723.8 462 25 29
sociale 231.8 526 89 29
il 347.8 526 24 29
atteignait 385.8 526 129 29
un 528.8 526 24 29
record 566.8 526 74 29
historique 231.8 590 128 29
