Si 232 270 24 29
la 270 270 24 29
Californie 308 270 129 29
avait 451 270 64 29
appliqué 529 270 103 29
sa 646 270 24 29
politique 231.8 334 115 29
de 360.8 334 25 29
réduction 399.8 334 113 29
des 526.8 334 38 29
émissions 578.8 334 116 29
de 708.8 334 25 29
gaz 231.8 398 38 29
près 296.8 398 50 29
de 360.8 398 25 29
la 399.8 398 24 29
moitié 437.8 398 77 29
des 528.8 398 38 29
véhicules 580.8 398 116 29
vendus 710.8 398 77 29
aux 231.8 462 38 29
États-Unis 283.8 462 128 29
auraient 425.8 462 103 29
pu 542.8 462 24 29
être 580.8 462 51 29
concernés 645.8 462 115 29
à 774.8 462 12 29
moyen 231.8 526 64 29
terme 309.8 526 64 29
