La 232 270 24 29
révision 270 270 100 29
par 384 270 37 29
la 435 270 24 29
Commission 473 270 129 29
des 616 270 38 29
prévisions 231.8 334 128 29
pour 373.8 334 50 29
l'année 437.8 334 89 29
confirme 540.8 334 102 29
en 656.8 334 25 29
tout 695.8 334 51 29
cas 231.8 398 37 29
qu'il 282.8 398 64 29
y 360.8 398 12 29
a 386.8 398 12 29
bien 412.8 398 50 29
un 476.8 398 24 29
problème 514.8 398 102 29
Cette 643.8 398 64 29
année 231.8 462 64 29
la 322.8 462 24 29
croissance 360.8 462 128 29
de 502.8 462 25 29
la 541.8 462 24 29
zone 579.8 462 50 29
euro 643.8 462 51 29
ne 708.8 462 24 29
devrait 231.8 526 90 29
être 335.8 526 51 29
que 400.8 526 38 29
légèrement 452.8 526 128 29
au-dessus 594.8 526 116 29
de 724.8 526 25 29
2% 231.8 590 24 29
