Un 232 270 24 29
domaine 270 270 90 29
de 374 270 25 29
réflexion 413 270 113 29
a 540 270 12 29
été 566 270 38 29
identifié 618 270 115 29
La 760 270 24 29
réticence 231.8 334 113 29
à 358.8 334 12 29
commercialiser 384.8 334 180 29
en 578.8 334 25 29
ligne 617.8 334 63 29
est 694.8 334 38 29
de 746.8 334 25 29
plus 231.8 398 50 29
en 295.8 398 25 29
plus 334.8 398 50 29
grande 398.8 398 77 29
chez 489.8 398 50 29
certains 553.8 398 102 29
propriétaires 231.8 462 167 29
de 412.8 462 25 29
contenus 451.8 462 102 29
par 567.8 462 37 29
crainte 618.8 462 89 29
du 721.8 462 25 29
piratage 231.8 526 102 29
et 347.8 526 25 29
du 386.8 526 25 29
téléchargement 425.8 526 181 29
illégal 620.8 526 89 29
