Facile 232 270 76 29
à 322 270 12 29
cultiver 348 270 102 29
décorative 477 270 129 29
variée 633 270 77 29
et 724 270 25 29
tellement 231.8 334 116 29
savoureuse 361.8 334 128 29
quand 503.8 334 64 29
on 581.8 334 25 29
la 620.8 334 24 29
cueille 658.8 334 89 29
à 761.8 334 12 29
même 231.8 398 51 29
le 296.8 398 24 29
pied 334.8 398 50 29
la 411.8 398 24 29
tomate 449.8 398 77 29
est 540.8 398 38 29
incontournable 592.8 398 180 29
au 231.8 462 25 29
potager 270.8 462 89 29
Venue 386.8 462 65 29
d'Amérique 465.8 462 129 29
centrale 608.8 462 102 29
il 737.8 462 24 29
faut 231.8 526 50 29
lui 295.8 526 37 29
fournir 346.8 526 89 29
un 449.8 526 24 29
sol 487.8 526 37 29
riche 538.8 526 61 29
et 613.8 526 25 29
une 652.8 526 37 29
bonne 703.8 526 63 29
dose 231.8 590 51 29
de 296.8 590 25 29
soleil 335.8 590 76 29
