Les 232 270 37 29
transports 283 270 129 29
connaissaient 426 270 167 29
toujours 607 270 103 29
d'importantes 231.8 334 168 29
perturbations 413.8 334 167 29
au 594.8 334 25 29
quatrième 633.8 334 116 29
jour 231.8 398 51 29
d'une 296.8 398 64 29
grève 374.8 398 64 29
lancée 452.8 398 76 29
par 542.8 398 37 29
les 593.8 398 37 29
syndicats 644.8 398 115 29
pour 231.8 462 50 29
protester 295.8 462 115 29
contre 424.8 462 76 29
le 514.8 462 24 29
projet 552.8 462 76 29
de 642.8 462 25 29
réduction 231.8 526 113 29
du 358.8 526 25 29
temps 397.8 526 64 29
de 475.8 526 25 29
travail 514.8 526 90 29
présenté 618.8 526 102 29
par 734.8 526 37 29
la 231.8 590 24 29
direction 269.8 590 116 29
