La 232 270 24 29
Commission 270 270 129 29
européenne 413 270 129 29
annonce 556 270 90 29
qu'elle 660 270 90 29
fera 231.8 334 50 29
des 295.8 334 38 29
propositions 347.8 334 154 29
pour 515.8 334 50 29
encourager 579.8 334 129 29
un 722.8 334 24 29
marché 231.8 398 77 29
commun 322.8 398 76 29
du 412.8 398 25 29
secteur 451.8 398 89 29
de 554.8 398 25 29
la 593.8 398 24 29
musique 631.8 398 90 29
des 748.8 398 38 29
films 231.8 462 63 29
et 308.8 462 25 29
des 347.8 462 38 29
jeux 399.8 462 51 29
sur 464.8 462 37 29
internet 515.8 462 102 29
La 644.8 462 24 29
situation 231.8 526 115 29
doit 360.8 526 51 29
être 425.8 526 51 29
maitrisée 490.8 526 116 29
