Cette 232 270 64 29
grève 310 270 64 29
et 388 270 25 29
cette 427 270 63 29
manifestation 504 270 168 29
affichaient 231.8 334 142 29
des 387.8 334 38 29
positions 439.8 334 115 29
et 568.8 334 25 29
des 607.8 334 38 29
objectifs 659.8 334 116 29
contradictoires 231.8 398 193 29
La 451.8 398 24 29
direction 489.8 398 116 29
croyait 619.8 398 89 29
que 722.8 398 38 29
le 231.8 462 24 29
mouvement 269.8 462 116 29
allait 399.8 462 77 29
pourrir 490.8 462 89 29
Elle 606.8 462 50 29
a 670.8 462 12 29
eu 696.8 462 25 29
tort 735.8 462 51 29
de 231.8 526 25 29
spéculer 270.8 526 102 29
sur 386.8 526 37 29
un 437.8 526 24 29
recul 475.8 526 61 29
des 550.8 526 38 29
salariés 602.8 526 102 29
