Le 232 270 24 29
football 270 270 102 29
américain 386 270 116 29
est 516 270 38 29
un 568 270 24 29
sport 606 270 63 29
collectif 231.8 334 115 29
connu 360.8 334 63 29
pour 437.8 334 50 29
mélanger 501.8 334 103 29
des 618.8 334 38 29
stratégies 231.8 398 128 29
complexes 373.8 398 115 29
et 502.8 398 25 29
un 541.8 398 24 29
jeu 579.8 398 38 29
physique 631.8 398 102 29
intense 231.8 462 89 29
Le 347.8 462 24 29
but 385.8 462 37 29
du 436.8 462 25 29
jeu 475.8 462 38 29
est 527.8 462 38 29
de 579.8 462 25 29
marquer 618.8 462 90 29
des 722.8 462 38 29
points 231.8 526 76 29
en 321.8 526 25 29
portant 360.8 526 89 29
un 463.8 526 24 29
ballon 501.8 526 76 29
ovale 591.8 526 64 29
jusqu'à 669.8 526 90 29
une 231.8 590 37 29
zone 282.8 590 50 29
de 346.8 590 25 29
but 385.8 590 37 29
nommée 436.8 590 76 29
end 526.8 590 38 29
