Cette 232 270 64 29
annonce 310 270 90 29
qui 427 270 38 29
avait 479 270 64 29
déjà 557 270 51 29
été 622 270 38 29
pronostiquée 231.8 334 154 29
par 399.8 334 37 29
certains 450.8 334 102 29
analystes 566.8 334 116 29
la 696.8 334 24 29
semaine 231.8 398 89 29
dernière 334.8 398 103 29
a 464.8 398 12 29
été 490.8 398 38 29
fraîchement 542.8 398 141 29
accueillie 231.8 462 129 29
Cette 387.8 462 64 29
diminution 465.8 462 129 29
ne 608.8 462 24 29
fait 646.8 462 50 29
que 710.8 462 38 29
poursuivre 231.8 526 128 29
une 373.8 526 37 29
tendance 424.8 526 103 29
à 541.8 526 12 29
la 567.8 526 24 29
baisse 605.8 526 76 29
du 695.8 526 25 29
titre 231.8 590 64 29
