L'étude 232 270 89 29
de 335 270 25 29
la 374 270 24 29
dynamique 412 270 116 29
des 542 270 38 29
anneaux 594 270 90 29
qui 698 270 38 29
entourent 231.8 334 116 29
toutes 361.8 334 77 29
les 452.8 334 37 29
planètes 503.8 334 102 29
géantes 619.8 334 90 29
en 723.8 334 25 29
orbite 231.8 398 77 29
autour 322.8 398 77 29
du 413.8 398 25 29
Soleil 452.8 398 76 29
aide 542.8 398 51 29
les 607.8 398 37 29
astronomes 658.8 398 129 29
à 231.8 462 12 29
comprendre 257.8 462 128 29
le 399.8 462 24 29
processus 437.8 462 115 29
de 566.8 462 25 29
formation 605.8 462 115 29
des 734.8 462 38 29
lunes 231.8 526 63 29
du 308.8 526 25 29
système 347.8 526 89 29
solaire 450.8 526 89 29
