L'étude 232 270 89 29
du 335 270 25 29
système 374 270 89 29
solaire 477 270 89 29
est 580 270 38 29
difficile 632 270 116 29
Ecartons 231.8 334 102 29
d'emblée 347.8 334 103 29
les 464.8 334 37 29
quatre 515.8 334 77 29
planètes 606.8 334 102 29
géantes 231.8 398 90 29
qui 335.8 398 38 29
contiennent 387.8 398 141 29
de 542.8 398 25 29
la 581.8 398 24 29
glace 619.8 398 64 29
dans 697.8 398 51 29
leur 231.8 462 50 29
noyau 295.8 462 63 29
et 372.8 462 25 29
de 411.8 462 25 29
l'eau 450.8 462 63 29
dans 527.8 462 51 29
leur 592.8 462 50 29
atmosphère 656.8 462 129 29
pour 231.8 526 50 29
nous 295.8 526 50 29
concentrer 359.8 526 128 29
sur 501.8 526 37 29
les 552.8 526 37 29
planètes 603.8 526 102 29
dites 719.8 526 64 29
telluriques 231.8 590 142 29
