Le 232 270 24 29
retour 270 270 74 29
à 358 270 12 29
la 384 270 24 29
vraie 422 270 64 29
vie 500 270 38 29
peut 552 270 50 29
s'avérer 616 270 102 29
douloureux 231.8 334 129 29
pour 374.8 334 50 29
ceux 438.8 334 50 29
qui 502.8 334 38 29
n'ont 554.8 334 63 29
pas 631.8 334 37 29
économisé 231.8 398 116 29
les 361.8 398 37 29
dollars 412.8 398 90 29
pour 516.8 398 50 29
garnir 580.8 398 77 29
le 671.8 398 24 29
matelas 231.8 462 90 29
qui 335.8 462 38 29
atténuerait 387.8 462 142 29
leur 543.8 462 50 29
atterrissage 607.8 462 155 29
C'est 231.8 526 64 29
le 309.8 526 24 29
cas 347.8 526 37 29
de 398.8 526 25 29
ce 437.8 526 24 29
basketteur 475.8 526 128 29
célèbre 617.8 526 89 29
