Une 232 270 37 29
équipe 283 270 77 29
d'un 374 270 51 29
laboratoire 439 270 141 29
japonais 594 270 103 29
a 711 270 12 29
mis 737 270 38 29
au 231.8 334 25 29
point 270.8 334 63 29
un 347.8 334 24 29
logiciel 385.8 334 102 29
de 501.8 334 25 29
traitement 540.8 334 129 29
d'images 683.8 334 103 29
capable 231.8 398 89 29
de 334.8 398 25 29
deviner 373.8 398 90 29
la 477.8 398 24 29
présence 515.8 398 102 29
de 631.8 398 25 29
mines 670.8 398 64 29
à 748.8 398 12 29
partir 231.8 462 76 29
de 321.8 462 25 29
photographies 360.8 462 167 29
aériennes 541.8 462 116 29
et 671.8 462 25 29
d'un 710.8 462 51 29
dispositif 231.8 526 129 29
de 374.8 526 25 29
filtrage 413.8 526 102 29
