Il 232 270 24 29
y 270 270 12 29
a 296 270 12 29
une 322 270 37 29
multitude 373 270 116 29
de 503 270 25 29
variantes 542 270 116 29
qui 672 270 38 29
vont 724 270 51 29
de 231.8 334 25 29
l'impossibilité 270.8 334 193 29
pour 477.8 334 50 29
la 541.8 334 24 29
sonde 579.8 334 63 29
de 656.8 334 25 29
pointer 695.8 334 89 29
son 231.8 398 37 29
antenne 282.8 398 90 29
vers 386.8 398 51 29
nous 451.8 398 50 29
à 528.8 398 12 29
un 554.8 398 24 29
basculement 592.8 398 141 29
de 747.8 398 25 29
l'engin 231.8 462 89 29
qui 334.8 462 38 29
aurait 386.8 462 77 29
été 477.8 462 38 29
déséquilibré 529.8 462 155 29
par 698.8 462 37 29
un 749.8 462 24 29
accident 231.8 526 103 29
de 348.8 526 25 29
terrain 387.8 526 90 29
