C'est 232 270 64 29
aux 310 270 38 29
modistes 362 270 103 29
parisiennes 479 270 141 29
que 634 270 38 29
le 686 270 24 29
printemps 231.8 334 115 29
fait 360.8 334 50 29
ses 424.8 334 37 29
premières 475.8 334 115 29
confidences 604.8 334 141 29
Il 231.8 398 24 29
leur 269.8 398 50 29
offre 333.8 398 64 29
ses 411.8 398 37 29
premiers 462.8 398 102 29
bouquets 578.8 398 102 29
ses 707.8 398 37 29
pailles 231.8 462 89 29
ses 347.8 462 37 29
rubans 398.8 462 74 29
ses 499.8 462 37 29
petits 550.8 462 76 29
canotiers 640.8 462 115 29
car 231.8 526 37 29
il 282.8 526 24 29
ne 320.8 526 24 29
saurait 358.8 526 89 29
y 461.8 526 12 29
avoir 487.8 526 64 29
de 565.8 526 25 29
printemps 604.8 526 115 29
sans 733.8 526 50 29
canotier 231.8 590 102 29
