Une 232 270 37 29
inquiétude 283 270 128 29
particulière 425 270 154 29
pointe 593 270 76 29
quant 683 270 64 29
à 761 270 12 29
la 231.8 334 24 29
responsabilité 269.8 334 178 29
pénale 461.8 334 76 29
des 551.8 334 38 29
chefs 603.8 334 63 29
d'établissement 231.8 398 194 29
mise 439.8 398 51 29
en 504.8 398 25 29
jeu 543.8 398 38 29
lors 595.8 398 50 29
d'accidents 231.8 462 142 29
survenus 387.8 462 102 29
à 503.8 462 12 29
cause 529.8 462 63 29
d'équipements 606.8 462 168 29
défectueux 231.8 526 129 29
alors 387.8 526 64 29
que 465.8 526 38 29
l'entretien 517.8 526 141 29
en 672.8 526 25 29
incombe 231.8 590 89 29
aux 334.8 590 38 29
collectivités 386.8 590 167 29
locales 567.8 590 89 29
