L'écrivain 232 270 128 29
Amélie 374 270 78 29
Nothomb 466 270 90 29
présidera 570 270 115 29
le 699 270 24 29
jury 737 270 51 29
du 231.8 334 25 29
Livre 270.8 334 63 29
Inter 347.8 334 63 29
Les 437.8 334 37 29
auditeurs 488.8 334 116 29
qui 618.8 334 38 29
souhaitent 231.8 398 128 29
participer 373.8 398 128 29
au 515.8 398 25 29
jury 554.8 398 51 29
sont 619.8 398 50 29
invités 683.8 398 89 29
à 231.8 462 12 29
écrire 257.8 462 77 29
à 348.8 462 12 29
la 374.8 462 24 29
station 412.8 462 89 29
en 515.8 462 25 29
exposant 554.8 462 103 29
leurs 671.8 462 63 29
goûts 231.8 526 64 29
littéraires 309.8 526 141 29
