Comment 232 270 90 29
la 336 270 24 29
France 374 270 76 29
pourra-t-elle 464 270 167 29
se 645 270 24 29
passer 683 270 76 29
de 231.8 334 25 29
la 270.8 334 24 29
cigarette 308.8 334 115 29
L'interdiction 463.8 334 180 29
de 657.8 334 25 29
fumer 696.8 334 63 29
dans 231.8 398 51 29
les 296.8 398 37 29
lieux 347.8 398 63 29
publics 424.8 398 89 29
est 527.8 398 38 29
largement 579.8 398 115 29
perçue 708.8 398 76 29
par 231.8 462 37 29
la 282.8 462 24 29
presse 320.8 462 76 29
étrangère 410.8 462 116 29
comme 540.8 462 63 29
une 617.8 462 37 29
atteinte 668.8 462 103 29
à 231.8 526 12 29
la 257.8 526 24 29
culture 295.8 526 89 29
française 398.8 526 115 29
