Le 232 270 24 29
vieux 270 270 64 29
moine 348 270 64 29
est 426 270 38 29
allé 478 270 51 29
lui-même 543 270 102 29
faire 659 270 63 29
de 736 270 25 29
nouveaux 231.8 334 102 29
clichés 347.8 334 89 29
sur 450.8 334 37 29
place 501.8 334 63 29
pour 578.8 334 50 29
les 642.8 334 37 29
publier 693.8 334 89 29
quelques 231.8 398 103 29
heures 348.8 398 76 29
plus 438.8 398 50 29
tard 502.8 398 51 29
sur 567.8 398 37 29
le 618.8 398 24 29
site 656.8 398 50 29
Internet 231.8 462 102 29
de 347.8 462 25 29
la 386.8 462 24 29
communauté 424.8 462 128 29
Ceux-ci 579.8 462 90 29
ont 683.8 462 38 29
eu 735.8 462 25 29
un 231.8 526 24 29
succès 269.8 526 76 29
immédiat 359.8 526 102 29
