La 232 270 24 29
voiture 270 270 90 29
de 374 270 25 29
la 413 270 24 29
présidente 451 270 128 29
de 593 270 25 29
la 632 270 24 29
cour 670 270 50 29
d'assises 231.8 334 116 29
de 361.8 334 25 29
Haute-Corse 400.8 334 142 29
a 556.8 334 12 29
été 582.8 334 38 29
incendiée 634.8 334 115 29
dans 231.8 398 51 29
la 296.8 398 24 29
nuit 334.8 398 50 29
de 398.8 398 25 29
samedi 437.8 398 76 29
à 527.8 398 12 29
dimanche 553.8 398 103 29
à 683.8 398 12 29
Bastia 231.8 462 76 29
Selon 334.8 462 63 29
les 411.8 462 37 29
enquêteurs 462.8 462 129 29
il 618.8 462 24 29
s'agirait 656.8 462 115 29
d'un 231.8 526 51 29
acte 296.8 526 51 29
criminel 361.8 526 102 29
