Outre 232 270 64 29
la 310 270 24 29
pollution 348 270 115 29
de 477 270 25 29
surface 516 270 89 29
se 632 270 24 29
pose 670 270 50 29
aussi 231.8 334 64 29
le 309.8 334 24 29
problème 347.8 334 102 29
des 463.8 334 38 29
tonnes 515.8 334 77 29
de 606.8 334 25 29
pétrole 645.8 334 89 29
encore 231.8 398 77 29
contenues 322.8 398 115 29
dans 451.8 398 51 29
les 516.8 398 37 29
soutes 567.8 398 76 29
du 657.8 398 25 29
navire 696.8 398 76 29
Les 231.8 462 37 29
sondages 282.8 462 102 29
effectués 398.8 462 116 29
indiquent 528.8 462 115 29
que 657.8 462 38 29
les 709.8 462 37 29
morceaux 231.8 526 103 29
du 348.8 526 25 29
bateau 387.8 526 76 29
sont 477.8 526 50 29
stabilisés 541.8 526 128 29
