Toutes 232 270 77 29
hélices 323 270 89 29
dehors 426 270 77 29
bigarré 530 270 89 29
comme 633 270 63 29
aucun 710 270 64 29
avion 231.8 334 64 29
occidental 309.8 334 129 29
n'oserait 452.8 334 115 29
plus 581.8 334 50 29
l'être 645.8 334 76 29
aujourd'hui 231.8 398 142 29
le 400.8 398 24 29
cargo 438.8 398 63 29
militaire 515.8 398 116 29
Antonov 645.8 398 91 29
est 750.8 398 38 29
la 231.8 462 24 29
vedette 269.8 462 90 29
du 373.8 462 25 29
salon 412.8 462 63 29
du 489.8 462 25 29
Bourget 528.8 462 89 29
Il 644.8 462 24 29
se 682.8 462 24 29
veut 720.8 462 51 29
le 231.8 526 24 29
concurrent 269.8 526 128 29
de 411.8 526 25 29
l'Hercules 450.8 526 128 29
C-130J 592.8 526 77 29
américain 231.8 590 116 29
