Dans 232 270 51 29
le 297 270 24 29
jugement 335 270 103 29
cité 465 270 50 29
par 529 270 37 29
La 580 270 24 29
Nacion 618 270 77 29
les 722 270 37 29
juges 231.8 334 64 29
mettent 309.8 334 90 29
en 413.8 334 25 29
avant 452.8 334 64 29
plusieurs 530.8 334 115 29
arguments 659.8 334 116 29
de 231.8 398 25 29
forme 270.8 398 63 29
arguant 360.8 398 90 29
que 464.8 398 38 29
le 516.8 398 24 29
type 554.8 398 51 29
de 619.8 398 25 29
procédure 658.8 398 115 29
lancé 231.8 462 63 29
par 308.8 462 37 29
le 359.8 462 24 29
juge 397.8 462 51 29
Cerda 462.8 462 64 29
serait 540.8 462 76 29
inapproprié 630.8 462 141 29
