Les 232 270 37 29
pluies 283 270 76 29
intenses 373 270 102 29
ont 489 270 38 29
duré 541 270 51 29
plusieurs 606 270 115 29
heures 231.8 334 76 29
causant 334.8 334 89 29
l'interruption 437.8 334 180 29
de 631.8 334 25 29
la 670.8 334 24 29
circulation 231.8 398 141 29
et 386.8 398 25 29
isolant 425.8 398 89 29
un 528.8 398 24 29
certain 566.8 398 89 29
nombre 669.8 398 76 29
de 759.8 398 25 29
régions 231.8 462 87 29
Le 345.8 462 24 29
bureau 383.8 462 76 29
prévoit 473.8 462 89 29
une 576.8 462 37 29
augmentation 627.8 462 155 29
de 231.8 526 25 29
ces 270.8 526 37 29
dérèglements 321.8 526 155 29
climatiques 490.8 526 141 29
au 645.8 526 25 29
niveau 684.8 526 76 29
de 231.8 590 25 29
la 270.8 590 24 29
planète 308.8 590 89 29
