La 232 270 24 29
Russie 270 270 77 29
a 361 270 12 29
menacé 387 270 77 29
de 478 270 25 29
sortir 517 270 76 29
du 607 270 25 29
traité 646 270 77 29
sur 737 270 37 29
les 231.8 334 37 29
forces 282.8 334 76 29
nucléaires 372.8 334 128 29
car 514.8 334 37 29
elle 565.8 334 51 29
est 630.8 334 38 29
courroucée 231.8 398 128 29
par 373.8 398 37 29
l'attitude 424.8 398 128 29
des 566.8 398 38 29
autres 618.8 398 77 29
pays 709.8 398 50 29
vis-à-vis 231.8 462 116 29
de 361.8 462 25 29
sa 400.8 462 24 29
politique 438.8 462 115 29
de 567.8 462 25 29
défense 606.8 462 90 29
nationale 231.8 526 115 29
