L'impact 232 270 102 29
du 348 270 25 29
tourisme 387 270 103 29
sur 504 270 37 29
l'évolution 555 270 141 29
du 710 270 25 29
climat 231.8 334 76 29
pourrait 321.8 334 102 29
plus 437.8 334 50 29
que 501.8 334 38 29
doubler 553.8 334 90 29
dans 657.8 334 51 29
les 722.8 334 37 29
trente 231.8 398 77 29
prochaines 322.8 398 128 29
années 464.8 398 77 29
en 555.8 398 25 29
raison 594.8 398 74 29
de 682.8 398 25 29
l'effet 231.8 462 89 29
de 334.8 462 25 29
serre 373.8 462 63 29
produit 450.8 462 89 29
par 553.8 462 37 29
les 604.8 462 37 29
rejets 655.8 462 74 29
massifs 231.8 526 90 29
de 335.8 526 25 29
carbone 374.8 526 89 29
associés 477.8 526 103 29
aux 594.8 526 38 29
activités 646.8 526 116 29
touristiques 231.8 590 155 29
