Une 232 270 37 29
famille 283 270 89 29
s'approche 386 270 128 29
lentement 528 270 115 29
du 657 270 25 29
juge 696 270 51 29
Le 231.8 334 24 29
père 269.8 334 50 29
tient 333.8 334 64 29
sa 411.8 334 24 29
petite 449.8 334 76 29
fille 539.8 334 63 29
dans 616.8 334 51 29
les 681.8 334 37 29
bras 231.8 398 50 29
La 308.8 398 24 29
mère 346.8 398 51 29
pose 411.8 398 50 29
son 475.8 398 37 29
sac 526.8 398 37 29
sur 577.8 398 37 29
le 628.8 398 24 29
bureau 666.8 398 76 29
et 756.8 398 25 29
cherche 231.8 462 89 29
ses 334.8 462 37 29
justificatifs 385.8 462 168 29
