Le 232 270 24 29
chanteur 270 270 102 29
Yannick 386 270 91 29
Noah 491 270 51 29
ici 569 270 37 29
en 620 270 25 29
concert 659 270 89 29
a 775 270 12 29
repris 231.8 334 74 29
sa 319.8 334 24 29
place 357.8 334 63 29
à 434.8 334 12 29
la 460.8 334 24 29
tete 498.8 334 51 29
du 563.8 334 25 29
classement 602.8 334 128 29
des 744.8 334 38 29
personnalités 231.8 398 167 29
préférées 412.8 398 115 29
des 541.8 398 38 29
Français 593.8 398 102 29
et 709.8 398 25 29
devance 231.8 462 90 29
Zinédine 335.8 462 102 29
Zidane 451.8 462 76 29
