Après 232 270 65 29
avoir 311 270 64 29
rappelé 389 270 87 29
que 490 270 38 29
les 542 270 37 29
gouvernements 593 270 168 29
successifs 231.8 334 128 29
et 373.8 334 25 29
le 412.8 334 24 29
corps 450.8 334 63 29
enseignant 527.8 334 129 29
ont 670.8 334 38 29
su 722.8 334 24 29
répondre 231.8 398 100 29
au 345.8 398 25 29
défi 384.8 398 51 29
démographique 449.8 398 168 29
le 644.8 398 24 29
ministre 682.8 398 103 29
a 231.8 462 12 29
rappelé 257.8 462 87 29
que 358.8 462 38 29
l'effort 410.8 462 102 29
devait 526.8 462 77 29
à 617.8 462 12 29
présent 643.8 462 89 29
garantir 231.8 526 103 29
la 348.8 526 24 29
qualité 386.8 526 90 29
pour 490.8 526 50 29
tous 554.8 526 51 29
