Malgré 232 270 77 29
un 323 270 24 29
accord 361 270 77 29
de 452 270 25 29
principe 491 270 102 29
sur 607 270 37 29
la 658 270 24 29
nécessité 231.8 334 115 29
d'une 360.8 334 64 29
réforme 438.8 334 87 29
comprenant 539.8 334 128 29
une 681.8 334 37 29
aide 732.8 334 51 29
individualisée 231.8 398 180 29
aux 425.8 398 38 29
élèves 477.8 398 77 29
le 581.8 398 24 29
syndicat 619.8 398 102 29
des 735.8 398 38 29
enseignants 231.8 462 142 29
affirmait 387.8 462 116 29
qu'il 517.8 462 64 29
fallait 595.8 462 89 29
abandonner 231.8 526 129 29
ce 374.8 526 24 29
projet 412.8 526 76 29
et 502.8 526 25 29
retravailler 541.8 526 152 29
sur 707.8 526 37 29
d'autres 231.8 590 103 29
bases 348.8 590 63 29
