Afin 232 270 52 29
d'apprendre 298 270 142 29
une 454 270 37 29
langue 505 270 76 29
étrangère 595 270 116 29
le 725 270 24 29
ministère 231.8 334 116 29
entend 361.8 334 77 29
embaucher 452.8 334 116 29
des 582.8 334 38 29
locuteurs 634.8 334 115 29
natifs 231.8 398 76 29
pour 321.8 398 50 29
faire 385.8 398 63 29
pratiquer 462.8 398 115 29
l'oral 591.8 398 76 29
aux 681.8 398 38 29
élèves 231.8 462 77 29
Cette 335.8 462 64 29
politique 413.8 462 115 29
est 542.8 462 38 29
généralisée 594.8 462 142 29
pour 231.8 526 50 29
les 295.8 526 37 29
enseignements 346.8 526 168 29
communs 528.8 526 89 29
les 644.8 526 37 29
options 695.8 526 90 29
obligatoires 231.8 590 155 29
et 400.8 590 25 29
facultatives 439.8 590 154 29
