Le 232 270 24 29
volume 270 270 77 29
de 361 270 25 29
fusions-acquisitions 400 270 258 29
dans 672 270 51 29
le 737 270 24 29
monde 231.8 334 64 29
a 309.8 334 12 29
atteint 335.8 334 90 29
un 439.8 334 24 29
record 477.8 334 74 29
historique 565.8 334 128 29
Ce 720.8 334 25 29
résultat 231.8 398 100 29
a 345.8 398 12 29
été 371.8 398 38 29
obtenu 423.8 398 77 29
malgré 514.8 398 77 29
un 605.8 398 24 29
fléchissement 231.8 462 167 29
au 412.8 462 25 29
second 451.8 462 76 29
semestre 541.8 462 102 29
lié 670.8 462 37 29
aux 721.8 462 38 29
inquiétudes 231.8 526 141 29
sur 386.8 526 37 29
le 437.8 526 24 29
marché 475.8 526 77 29
du 566.8 526 25 29
crédit 605.8 526 76 29
