La 232 270 24 29
baie 270 270 50 29
de 334 270 25 29
Somme 373 270 63 29
en 450 270 25 29
hiver 489 270 63 29
l'espace 592 270 102 29
le 721 270 24 29
silence 231.8 334 89 29
des 347.8 334 38 29
instants 399.8 334 102 29
fugaces 515.8 334 89 29
et 618.8 334 25 29
des 657.8 334 38 29
lumières 231.8 398 102 29
magiques 347.8 398 103 29
Comme 477.8 398 64 29
ce 555.8 398 24 29
coucher 593.8 398 89 29
de 696.8 398 25 29
soleil 231.8 462 76 29
sur 321.8 462 37 29
la 372.8 462 24 29
pointe 410.8 462 76 29
du 500.8 462 25 29
Hourdel 539.8 462 90 29
