Un 232 270 24 29
décret 270 270 77 29
a 361 270 12 29
été 387 270 38 29
émis 439 270 51 29
qui 504 270 38 29
modifie 556 270 90 29
le 660 270 24 29
code 698 270 50 29
de 762 270 25 29
la 231.8 334 24 29
construction 269.8 334 154 29
et 437.8 334 25 29
de 476.8 334 25 29
l'habitation 515.8 334 154 29
Il 696.8 334 24 29
est 734.8 334 38 29
relatif 231.8 398 87 29
aux 332.8 398 38 29
subventions 384.8 398 141 29
et 539.8 398 25 29
prêts 578.8 398 63 29
pour 655.8 398 50 29
la 719.8 398 24 29
construction 231.8 462 154 29
l'acquisition 412.8 462 167 29
et 593.8 462 25 29
l'amélioration 231.8 526 180 29
des 425.8 526 38 29
logements 477.8 526 115 29
locatifs 606.8 526 102 29
aidés 231.8 590 64 29
