La 232 270 24 29
neige 270 270 63 29
fait 347 270 50 29
défaut 411 270 77 29
dans 502 270 51 29
les 567 270 37 29
Hautes-Alpes 618 270 155 29
Cinq 231.8 334 51 29
cents 296.8 334 63 29
travailleurs 373.8 334 155 29
saisonniers 542.8 334 141 29
privés 697.8 334 76 29
d'emploi 231.8 398 103 29
ont 348.8 398 38 29
manifesté 400.8 398 116 29
dans 530.8 398 51 29
les 595.8 398 37 29
rues 646.8 398 48 29
de 708.8 398 25 29
Gap 747.8 398 38 29
pour 231.8 462 50 29
exiger 295.8 462 77 29
des 386.8 462 38 29
exploitants 438.8 462 142 29
de 594.8 462 25 29
remontées 633.8 462 113 29
mécaniques 231.8 526 129 29
des 374.8 526 38 29
indemnisations 426.8 526 180 29
