Un 232 270 24 29
miraculé 270 270 103 29
de 387 270 25 29
l'aviation 426 270 128 29
un 594 270 24 29
jeune 632 270 64 29
passager 231.8 334 102 29
clandestin 347.8 334 128 29
a 489.8 334 12 29
fait 515.8 334 50 29
le 579.8 334 24 29
trajet 617.8 334 77 29
Dakar-Lyon 231.8 398 129 29
mardi 387.8 398 64 29
dernier 465.8 398 90 29
dans 582.8 398 51 29
le 647.8 398 24 29
train 685.8 398 64 29
d'atterrissage 231.8 462 181 29
d'un 426.8 462 51 29
Airbus 491.8 462 78 29
A300 583.8 462 52 29
