L'exploit 232 270 115 29
de 361 270 25 29
Louis 400 270 63 29
Blériot 477 270 89 29
le 593 270 24 29
premier 631 270 89 29
aviateur 231.8 334 103 29
à 348.8 334 12 29
avoir 374.8 334 64 29
traversé 452.8 334 103 29
la 569.8 334 24 29
manche 607.8 334 77 29
en 698.8 334 25 29
avion 231.8 398 64 29
en 309.8 398 25 29
1909 348.8 398 49 29
a 424.8 398 12 29
été 450.8 398 38 29
reproduit 502.8 398 113 29
dimanche 629.8 398 103 29
25 746.8 398 24 29
juillet 231.8 462 90 29
90 348.8 462 25 29
ans 387.8 462 38 29
jour 439.8 462 51 29
pour 504.8 462 50 29
jour 568.8 462 51 29
aprés 633.8 462 64 29
par 724.8 462 37 29
un 231.8 526 24 29
pilote 269.8 526 76 29
de 359.8 526 25 29
ligne 398.8 526 63 29
suédois 475.8 526 89 29
