Le 232 270 24 29
gouvernement 270 270 155 29
chypriote 439 270 115 29
a 568 270 12 29
émis 594 270 51 29
l'espoir 659 270 102 29
que 231.8 334 38 29
sa 283.8 334 24 29
décision 321.8 334 103 29
de 438.8 334 25 29
renoncer 477.8 334 100 29
à 591.8 334 12 29
déployer 617.8 334 103 29
dans 734.8 334 51 29
le 231.8 398 24 29
sud 269.8 398 37 29
de 320.8 398 25 29
l'île 359.8 398 63 29
des 436.8 398 38 29
missiles 488.8 398 103 29
sol-air 605.8 398 89 29
russes 708.8 398 74 29
facilitera 231.8 462 128 29
l'adhésion 373.8 462 128 29
de 515.8 462 25 29
Chypre 554.8 462 77 29
à 645.8 462 12 29
l'union 671.8 462 89 29
européenne 231.8 526 129 29
