Les 232 270 37 29
syndicats 283 270 115 29
qui 412 270 38 29
avaient 464 270 90 29
lancé 568 270 63 29
l'ordre 645 270 89 29
de 748 270 25 29
grève 231.8 334 64 29
réclamaient 309.8 334 139 29
une 462.8 334 37 29
amélioration 513.8 334 155 29
de 682.8 334 25 29
l'aménagement 231.8 398 167 29
du 412.8 398 25 29
temps 451.8 398 64 29
de 529.8 398 25 29
travail 568.8 398 90 29
ainsi 685.8 398 64 29
que 231.8 462 38 29
l'embauche 283.8 462 128 29
de 425.8 462 25 29
trente 464.8 462 77 29
personnes 555.8 462 115 29
supplémentaires 231.8 526 193 29
