Les 232 270 37 29
via 283 270 38 29
ferrata 335 270 89 29
et 438 270 25 29
les 477 270 37 29
sports 528 270 76 29
d'eau 618 270 64 29
vive 696 270 51 29
connaissent 231.8 334 141 29
un 386.8 334 24 29
succès 424.8 334 76 29
constant 514.8 334 102 29
Les 643.8 334 37 29
candidats 231.8 398 115 29
au 360.8 398 25 29
vertige 399.8 398 90 29
se 503.8 398 24 29
comptent 541.8 398 102 29
par 657.8 398 37 29
milliers 231.8 462 103 29
sur 348.8 462 37 29
la 399.8 462 24 29
cinquantaine 437.8 462 154 29
de 605.8 462 25 29
parcours 644.8 462 102 29
de 760.8 462 25 29
via 231.8 526 38 29
ferrata 283.8 526 89 29
ancrés 386.8 526 77 29
en 477.8 526 25 29
pleine 516.8 526 76 29
falaise 606.8 526 89 29
