Pour 232 270 50 29
les 296 270 37 29
vacanciers 347 270 129 29
qui 490 270 38 29
souhaitent 542 270 128 29
avant 684 270 64 29
tout 231.8 334 51 29
se 296.8 334 24 29
reposer 334.8 334 87 29
dans 435.8 334 51 29
un 500.8 334 24 29
cadre 538.8 334 63 29
bucolique 615.8 334 115 29
les 231.8 398 37 29
résidences 282.8 398 126 29
proposent 422.8 398 115 29
un 551.8 398 24 29
hébergement 589.8 398 141 29
adapté 231.8 462 77 29
leur 322.8 462 50 29
permettant 386.8 462 128 29
de 528.8 462 25 29
partir 567.8 462 76 29
avec 657.8 462 51 29
des 722.8 462 38 29
amis 231.8 526 51 29
sportifs 296.8 526 102 29
sans 412.8 526 50 29
pour 476.8 526 50 29
autant 540.8 526 77 29
rester 631.8 526 74 29
inactifs 231.8 590 102 29
