Il 232 270 24 29
faut 270 270 50 29
profiter 334 270 102 29
de 450 270 25 29
la 489 270 24 29
crise 527 270 63 29
générale 604 270 103 29
que 721 270 38 29
traverse 231.8 334 103 29
le 348.8 334 24 29
gouvernement 386.8 334 155 29
et 555.8 334 25 29
de 594.8 334 25 29
la 633.8 334 24 29
fatigue 671.8 334 89 29
de 231.8 398 25 29
certaines 270.8 398 115 29
unités 399.8 398 76 29
militaires 489.8 398 129 29
Le 645.8 398 24 29
guérillero 231.8 462 129 29
juge 374.8 462 51 29
nécessaire 439.8 462 128 29
de 581.8 462 25 29
mener 620.8 462 64 29
des 698.8 462 38 29
actions 231.8 526 90 29
armées 335.8 526 77 29
sur 426.8 526 37 29
les 477.8 526 37 29
routes 528.8 526 74 29
