Le 232 270 24 29
chef 270 270 50 29
des 334 270 38 29
Forces 386 270 76 29
armées 476 270 77 29
révolutionnaires 567 270 204 29
de 231.8 334 25 29
Colombie 270.8 334 103 29
demande 387.8 334 90 29
à 491.8 334 12 29
ses 517.8 334 37 29
troupes 568.8 334 90 29
de 672.8 334 25 29
commencer 231.8 398 115 29
à 360.8 398 12 29
préparer 386.8 398 102 29
les 502.8 398 37 29
conditions 553.8 398 128 29
d'une 695.8 398 64 29
offensive 231.8 462 116 29
générale 361.8 462 103 29
contre 478.8 462 76 29
le 568.8 462 24 29
Président 606.8 462 115 29
Uribe 231.8 526 63 29
