La 232 270 24 29
Patagonie 270 270 115 29
chilienne 399 270 115 29
est 528 270 38 29
mal 580 270 38 29
connue 632 270 76 29
Coincée 231.8 334 90 29
entre 335.8 334 64 29
la 413.8 334 24 29
cordillère 451.8 334 128 29
des 593.8 334 38 29
Andes 645.8 334 65 29
et 724.8 334 25 29
l'océan 231.8 398 89 29
Pacifique 334.8 398 115 29
elle 476.8 398 51 29
séduit 541.8 398 76 29
les 631.8 398 37 29
amateurs 682.8 398 103 29
de 231.8 462 25 29
grands 270.8 462 77 29
espaces 361.8 462 90 29
de 478.8 462 25 29
solitude 517.8 462 102 29
et 633.8 462 25 29
de 672.8 462 25 29
paysages 231.8 526 102 29
grandioses 347.8 526 129 29
