Nos 232 270 38 29
gouvernements 284 270 168 29
coopéreront 466 270 141 29
avec 621 270 51 29
le 686 270 24 29
Tribunal 231.8 334 103 29
pénal 348.8 334 63 29
international 425.8 334 167 29
pour 606.8 334 50 29
l'ex-Yougoslavie 231.8 398 206 29
en 451.8 398 25 29
l'aidant 490.8 398 102 29
à 606.8 398 12 29
enquêter 632.8 398 103 29
sur 749.8 398 37 29
les 231.8 462 37 29
responsables 282.8 462 152 29
jusqu'aux 461.8 462 116 29
plus 591.8 462 50 29
hauts 655.8 462 63 29
niveaux 231.8 526 89 29
de 347.8 526 25 29
crimes 386.8 526 76 29
de 476.8 526 25 29
guerre 515.8 526 77 29
et 606.8 526 25 29
de 645.8 526 25 29
crimes 684.8 526 76 29
contre 231.8 590 76 29
l'humanité 321.8 590 128 29
