Des 232 270 38 29
livres 284 270 76 29
de 374 270 25 29
mémoires 413 270 103 29
d'anciens 530 270 116 29
déportés 660 270 103 29
il 231.8 334 24 29
en 269.8 334 25 29
paraît 308.8 334 76 29
régulièrement 398.8 334 165 29
De 590.8 334 25 29
qualité 629.8 334 90 29
inégale 231.8 398 89 29
et 334.8 398 25 29
d'intérêt 373.8 398 116 29
inégal 503.8 398 76 29
mais 593.8 398 51 29
ce 658.8 398 24 29
n'est 696.8 398 63 29
jamais 231.8 462 77 29
la 322.8 462 24 29
même 360.8 462 51 29
histoire 425.8 462 102 29
car 541.8 462 37 29
le 592.8 462 24 29
ressenti 630.8 462 100 29
est 744.8 462 38 29
à 231.8 526 12 29
chaque 257.8 526 76 29
fois 347.8 526 50 29
unique 411.8 526 76 29
