Les 232 270 37 29
rebelles 283 270 100 29
ivoiriens 397 270 115 29
toujours 526 270 103 29
maîtres 643 270 90 29
de 747 270 25 29
la 231.8 334 24 29
moitié 269.8 334 77 29
nord 360.8 334 50 29
du 424.8 334 25 29
pays 463.8 334 50 29
même 527.8 334 51 29
s'ils 592.8 334 63 29
participent 231.8 398 141 29
au 386.8 398 25 29
gouvernement 425.8 398 155 29
ont 594.8 398 38 29
reconnu 646.8 398 87 29
que 747.8 398 38 29
des 231.8 462 38 29
troubles 283.8 462 103 29
avaient 400.8 462 90 29
eu 504.8 462 25 29
lieu 543.8 462 50 29
à 607.8 462 12 29
Bouaké 633.8 462 76 29
