L'équipe 232 270 102 29
de 348 270 25 29
France 387 270 76 29
de 477 270 25 29
football 516 270 102 29
a 632 270 12 29
vaincu 658 270 77 29
l'Australie 231.8 334 141 29
en 386.8 334 25 29
finale 425.8 334 76 29
de 515.8 334 25 29
la 554.8 334 24 29
Coupe 592.8 334 64 29
du 670.8 334 25 29
Monde 709.8 334 64 29
L'entraineur 231.8 398 154 29
est 399.8 398 38 29
très 451.8 398 51 29
satisfait 516.8 398 115 29
de 645.8 398 25 29
son 684.8 398 37 29
équipe 231.8 462 77 29
et 322.8 462 25 29
envisage 361.8 462 103 29
les 478.8 462 37 29
rencontres 529.8 462 126 29
futures 669.8 462 89 29
avec 231.8 526 51 29
enthousiasme 296.8 526 155 29
et 465.8 526 25 29
sérénité 504.8 526 102 29
