Il 232 270 24 29
semble 270 270 76 29
que 360 270 38 29
à 425 270 12 29
l'instar 451 270 102 29
des 567 270 38 29
Anglais 619 270 91 29
les 737 270 37 29
Gallois 231.8 334 90 29
soient 335.8 334 76 29
parvenus 425.8 334 102 29
à 541.8 334 12 29
assimiler 567.8 334 116 29
les 697.8 334 37 29
éléments 231.8 398 103 29
qui 348.8 398 38 29
ont 400.8 398 38 29
permis 452.8 398 76 29
à 542.8 398 12 29
l'hémisphère 568.8 398 154 29
Sud 736.8 398 37 29
de 231.8 462 25 29
dominer 270.8 462 90 29
le 374.8 462 24 29
rugby 412.8 462 61 29
mondial 487.8 462 90 29
depuis 591.8 462 77 29
quelques 682.8 462 103 29
années 231.8 526 77 29
