Le 232 270 24 29
candidat 270 270 102 29
conservateur 386 270 154 29
a 554 270 12 29
bénéficié 580 270 115 29
du 709 270 25 29
soutien 231.8 334 89 29
du 334.8 334 25 29
fort 373.8 334 50 29
contingent 437.8 334 128 29
d'évangélistes 579.8 334 181 29
et 231.8 398 25 29
de 270.8 398 25 29
religieux 309.8 398 113 29
conservateurs 436.8 398 167 29
qui 617.8 398 38 29
habitent 669.8 398 102 29
cet 231.8 462 37 29
État 282.8 462 50 29
souvent 346.8 462 89 29
critiqué 449.8 462 102 29
pour 565.8 462 50 29
son 629.8 462 37 29
manque 680.8 462 77 29
de 231.8 526 25 29
représentativité 270.8 526 204 29
à 488.8 526 12 29
l'échelon 514.8 526 115 29
national 643.8 526 102 29
