En 232 270 24 29 8732.57
raison 270 270 74 29 247.5
des 358 270 38 29 10624.93
travaux 410 270 90 29 39.46
entrepris 514 270 116 29 10.74
dans 644 270 51 29 8296.08
l'aile 709 270 76 29 20.47
nord 231.8 334 50 29 11.89
du 295.8 334 25 29 6882.16
château 334.8 334 89 29 63.38
de 437.8 334 25 29 38928.92
Versailles 476.8 334 130 29 N/A
les 633.8 334 37 29 14662.3
salles 684.8 334 76 29 18.18
des 231.8 398 38 29 10624.93
croisades 283.8 398 115 29 2.97
et 412.8 398 25 29 20879.73
le 451.8 398 24 29 18310.95
circuit 489.8 398 89 29 7.77
du 592.8 398 25 29 6882.16
XVIIe 631.8 398 65 29 N/A
siècle 231.8 462 76 29 79.05
qui 334.8 462 38 29 7897.91
font 386.8 462 50 29 153.92
partie 450.8 462 76 29 187.97
du 540.8 462 25 29 6882.16
musée 579.8 462 64 29 21.55
de 657.8 462 25 29 38928.92
l'histoire 231.8 526 128 29 292.23
de 373.8 526 25 29 38928.92
France 412.8 526 76 29 N/A
seront 515.8 526 76 29 23.99
fermées 605.8 526 89 29 6.69
