La 232 270 24 29 23633.92
nageuse 270 270 89 29 0.41
a 373 270 12 29 2926.69
décroché 399 270 103 29 4.8
sa 516 270 24 29 3732.43
deuxième 554 270 103 29 58.58
médaille 671 270 103 29 9.53
d'or 231.8 334 51 29 127.23
aux 296.8 334 38 29 1907.57
championnats 348.8 334 154 29 0.41
d'Europe 516.8 334 103 29 N/A
de 633.8 334 25 29 38928.92
natation 672.8 334 102 29 1.22
en 231.8 398 25 29 8732.57
petit 270.8 398 63 29 653.78
bassin 347.8 398 76 29 21.22
en 437.8 398 25 29 212.09
s'imposant 476.8 398 128 29 2.91
dans 618.8 398 51 29 8296.08
son 683.8 398 37 29 4696.15
épreuve 231.8 462 90 29 27.91
de 335.8 462 25 29 38928.92
prédilection 374.8 462 154 29 3.11
La 555.8 462 24 29 23633.92
Française 593.8 462 115 29 12.84
l'a 722.8 462 37 29 2926.69
emporté 231.8 526 90 29 18.58
facilement 335.8 526 128 29 37.03
reléguant 490.8 526 113 29 0.27
sa 617.8 526 24 29 3732.43
grande 655.8 526 77 29 378.65
rivale 231.8 590 74 29 2.97
