Le 232 270 24 29
problème 270 270 102 29
que 386 270 38 29
devra 438 270 64 29
gérer 516 270 64 29
le 594 270 24 29
gouvernement 632 270 155 29
est 231.8 334 38 29
de 283.8 334 25 29
canaliser 322.8 334 115 29
le 451.8 334 24 29
retour 489.8 334 74 29
des 577.8 334 38 29
sinistrés 629.8 334 115 29
dans 231.8 398 51 29
les 296.8 398 37 29
familles 347.8 398 102 29
d'accueil 463.8 398 116 29
Le 606.8 398 24 29
préalable 644.8 398 115 29
est 231.8 462 38 29
leur 283.8 462 50 29
identification 347.8 462 180 29
car 541.8 462 37 29
ils 592.8 462 37 29
n'ont 643.8 462 63 29
plus 720.8 462 50 29
de 231.8 526 25 29
pièce 270.8 526 63 29
d'identité 347.8 526 129 29
