L'ortolan 232 270 115 29
petit 374 270 63 29
oiseau 451 270 77 29
très 542 270 51 29
prisé 607 270 63 29
par 684 270 37 29
les 735 270 37 29
gourmets 231.8 334 103 29
du 348.8 334 25 29
Sud-ouest 387.8 334 115 29
appartiendra 529.8 334 155 29
bientôt 698.8 334 89 29
aux 231.8 398 38 29
espèces 283.8 398 90 29
protégées 387.8 398 115 29
Un 529.8 398 24 29
décret 567.8 398 77 29
a 658.8 398 12 29
été 684.8 398 38 29
signé 231.8 462 63 29
qui 308.8 462 38 29
représente 360.8 462 126 29
le 500.8 462 24 29
premier 538.8 462 89 29
acte 641.8 462 51 29
d'un 706.8 462 51 29
compromis 231.8 526 115 29
global 360.8 526 77 29
entre 451.8 526 64 29
écologistes 529.8 526 142 29
et 685.8 526 25 29
chasseurs 231.8 590 115 29
