A 232 270 13 29 2926.69
Moscou 259 270 77 29 N/A
les 363 270 37 29 14662.3
communiqués 414 270 141 29 1.96
triomphants 569 270 142 29 1.42
se 725 270 24 29 6587.77
succèdent 231.8 334 115 29 5.07
Dans 373.8 334 51 29 8296.08
le 438.8 334 24 29 18310.95
Daghestan 476.8 334 116 29 N/A
les 619.8 334 37 29 14662.3
rebelles 670.8 334 100 29 4.26
sont 231.8 398 50 29 713.18
complètement 295.8 398 154 29 81.49
encerclés 463.8 398 116 29 0.68
leur 606.8 398 50 29 12.5
chef 670.8 398 50 29 172.57
militaire 231.8 462 116 29 69.19
est 361.8 462 38 29 6331.76
blessé 413.8 462 76 29 9.19
les 516.8 462 37 29 14662.3
islamistes 567.8 462 128 29 0.14
ont 709.8 462 38 29 553.31
subi 231.8 526 50 29 10.81
de 295.8 526 25 29 38928.92
lourdes 334.8 526 89 29 23.18
pertes 437.8 526 76 29 9.66
