Ribéry 232 270 77 29 N/A
respire 323 270 87 29 17.77
la 424 270 24 29 23633.92
joie 462 270 51 29 134.12
de 527 270 25 29 38928.92
vivre 566 270 64 29 3.45
il 657 270 24 29 15832.09
ne 695 270 24 29 7752.09
se 733 270 24 29 6587.77
pose 231.8 334 50 29 48.85
aucune 295.8 334 77 29 174.73
question 386.8 334 103 29 232.5
sur 503.8 334 37 29 5320.47
sa 554.8 334 24 29 3732.43
manière 592.8 334 90 29 134.66
de 696.8 334 25 29 38928.92
jouer 231.8 398 64 29 121.82
il 322.8 398 24 29 15832.09
ne 360.8 398 24 29 7752.09
peut 398.8 398 50 29 508.99
faire 462.8 398 63 29 1555.14
que 539.8 398 38 29 2975.34
du 591.8 398 25 29 6882.16
bien 630.8 398 50 29 56.89
Franck 707.8 398 76 29 N/A
deviendra 231.8 462 116 29 4.12
quelqu'un 361.8 462 116 29 N/A
d'important 491.8 462 142 29 49.66
