Quatre 232 270 77 29 282.64
jours 323 270 64 29 515.41
de 401 270 25 29 38928.92
grains 440 270 77 29 11.69
sont 531 270 50 29 386.35
venus 595 270 64 29 40.41
clore 673 270 63 29 2.57
sa 750 270 24 29 3732.43
traversée 231.8 334 116 29 13.58
du 361.8 334 25 29 6882.16
Pacifique 400.8 334 115 29 0.34
L'eau 542.8 334 63 29 417.84
a 619.8 334 12 29 2926.69
gagné 645.8 334 64 29 33.51
la 723.8 334 24 29 23633.92
bagarre 231.8 398 89 29 9.86
et 334.8 398 25 29 20879.73
tout 373.8 398 51 29 838.04
était 438.8 398 64 29 3688.99
trempé 516.8 398 77 29 3.85
à 607.8 398 12 29 19209.05
bord 633.8 398 50 29 197.36
Le 710.8 398 24 29 18310.95
navigateur 231.8 462 128 29 1.89
attend 373.8 462 77 29 74.46
le 464.8 462 24 29 18310.95
moment 502.8 462 77 29 611.62
idéal 593.8 462 63 29 7.97
pour 670.8 462 50 29 6198.24
aller 231.8 526 64 29 368.04
se 309.8 526 24 29 6587.77
reposer 347.8 526 87 29 20.95
