Les 232 270 37 29 14662.3
marges 283 270 77 29 2.23
de 374 270 25 29 38928.92
croissance 413 270 128 29 3.92
pourraient 555 270 128 29 26.62
être 697 270 51 29 505.61
augmentées 231.8 334 129 29 0.07
par 374.8 334 37 29 3727.09
des 425.8 334 38 29 10624.93
réformes 477.8 334 100 29 6.42
structurelles 591.8 334 167 29 N/A
sur 231.8 398 37 29 5320.47
les 282.8 398 37 29 14662.3
marchés 333.8 398 90 29 5.07
du 437.8 398 25 29 6882.16
travail 476.8 398 90 29 223.99
et 580.8 398 25 29 20879.73
des 619.8 398 38 29 10624.93
biens 671.8 398 63 29 13.31
entraînant 231.8 462 129 29 7.64
une 374.8 462 37 29 9587.97
accélération 425.8 462 155 29 2.64
de 594.8 462 25 29 38928.92
la 633.8 462 24 29 23633.92
croissance 231.8 526 128 29 3.92
la 386.8 526 24 29 23633.92
stabilité 424.8 526 115 29 3.18
des 553.8 526 38 29 10624.93
prix 605.8 526 50 29 107.5
et 669.8 526 25 29 20879.73
un 708.8 526 24 29 13550.68
excédent 231.8 590 103 29 0.54
de 348.8 590 25 29 38928.92
la 387.8 590 24 29 23633.92
balance 425.8 590 89 29 8.18
des 528.8 590 38 29 10624.93
paiements 580.8 590 115 29 0.41
courants 231.8 654 102 29 1.42
