Plus 232 270 50 29
de 296 270 25 29
200 335 270 37 29
infractions 386 270 141 29
à 541 270 12 29
l'environnement 567 270 193 29
ont 231.8 334 38 29
été 283.8 334 38 29
constatées 335.8 334 128 29
dans 477.8 334 51 29
le 542.8 334 24 29
marais 580.8 334 77 29
de 671.8 334 25 29
Fontenay-le-vicomte 231.8 398 245 29
lors 490.8 398 50 29
d'une 554.8 398 64 29
opération 632.8 398 116 29
lancée 231.8 462 76 29
par 321.8 462 37 29
le 372.8 462 24 29
parquet 410.8 462 89 29
d'Evry 513.8 462 77 29
plusieurs 630.8 462 115 29
constructions 231.8 526 167 29
ont 412.8 526 38 29
été 464.8 526 38 29
recensées 516.8 526 113 29
dans 643.8 526 51 29
cette 708.8 526 63 29
zone 231.8 590 50 29
non 295.8 590 37 29
constructible 346.8 590 167 29
