Plusieurs 232 270 115 29 203.58
points 361 270 76 29 51.01
de 451 270 25 29 38928.92
contamination 490 270 167 29 1.22
radioactive 231.8 334 139 29 0.07
ont 384.8 334 38 29 553.31
été 436.8 334 38 29 818.99
détectés 488.8 334 103 29 0.07
dans 605.8 334 51 29 8296.08
un 670.8 334 24 29 13550.68
wagon 708.8 334 65 29 18.11
transportant 231.8 398 155 29 1.69
du 400.8 398 25 29 6882.16
combustible 439.8 398 141 29 1.01
nucléaire 594.8 398 115 29 1.22
usé 723.8 398 37 29 7.09
provenant 231.8 462 115 29 6.15
de 360.8 462 25 29 38928.92
la 399.8 462 24 29 23633.92
centrale 437.8 462 102 29 4.73
de 553.8 462 25 29 38928.92
Bugey 592.8 462 63 29 N/A
a 669.8 462 12 29 2926.69
indiqué 695.8 462 89 29 5.61
EDF 231.8 526 37 29 N/A
