La 232 270 24 29 23633.92
filiale 270 270 89 29 0.54
déchets 373 270 90 29 4.46
de 477 270 25 29 38928.92
Suez 516 270 50 29 0.07
Lyonnaise 580 270 115 29 0.2
des 709 270 38 29 10624.93
eaux 231.8 334 51 29 42.03
a 296.8 334 12 29 2926.69
mis 322.8 334 38 29 245.68
en 374.8 334 25 29 8732.57
garde 413.8 334 64 29 89.86
mercredi 491.8 334 103 29 11.82
27 608.8 334 24 29 N/A
janvier 646.8 334 90 29 30.61
les 750.8 334 37 29 14662.3
marchés 231.8 398 90 29 5.07
d'une 335.8 398 64 29 9587.97
possible 413.8 398 102 29 197.16
baisse 529.8 398 76 29 3.38
de 619.8 398 25 29 38928.92
ses 658.8 398 37 29 3105.41
résultats 231.8 462 113 29 10.95
à 358.8 462 12 29 19209.05
la 384.8 462 24 29 23633.92
suite 422.8 462 63 29 270.88
d'une 499.8 462 64 29 9587.97
modification 577.8 462 155 29 1.96
de 746.8 462 25 29 38928.92
la 231.8 526 24 29 23633.92
réglementation 269.8 526 178 29 0.41
sur 461.8 526 37 29 5320.47
les 512.8 526 37 29 14662.3
décharges 563.8 526 116 29 1.42
