Un 232 270 24 29
petit 270 270 63 29
bimoteur 347 270 102 29
qui 463 270 38 29
effectuait 515 270 129 29
la 658 270 24 29
liaison 696 270 89 29
Boston-Chicago 231.8 334 180 29
a 425.8 334 12 29
atteri 451.8 334 77 29
en 542.8 334 25 29
urgence 581.8 334 89 29
à 684.8 334 12 29
Pittsburgh 231.8 398 128 29
hier 373.8 398 50 29
en 437.8 398 25 29
raison 476.8 398 74 29
d'un 564.8 398 51 29
défaut 629.8 398 77 29
sur 720.8 398 37 29
un 231.8 462 24 29
des 269.8 462 38 29
moteurs 321.8 462 90 29
