La 232 270 24 29 23633.92
sonde 270 270 63 29 0.81
américaine 347 270 129 29 19.53
Stardust 490 270 102 29 N/A
qui 606 270 38 29 7897.91
doit 658 270 51 29 224.59
ramener 231.8 334 87 29 24.93
sur 332.8 334 37 29 5320.47
terre 383.8 334 64 29 420.88
des 461.8 334 38 29 10624.93
échantillons 513.8 334 155 29 4.53
de 682.8 334 25 29 38928.92
la 721.8 334 24 29 23633.92
comète 231.8 398 76 29 2.3
Wild-2 321.8 398 78 29 N/A
a 413.8 398 12 29 2926.69
été 439.8 398 38 29 40.2
lancée 491.8 398 76 29 6.76
de 581.8 398 25 29 38928.92
Cap 620.8 398 38 29 15.68
Canaveral 672.8 398 116 29 N/A
en 231.8 462 25 29 8732.57
Floride 270.8 462 89 29 N/A
par 373.8 462 37 29 3727.09
une 424.8 462 37 29 9587.97
fusée 475.8 462 63 29 4.59
Delta-2 552.8 462 90 29 N/A
