Les 232 270 37 29
grands 283 270 77 29
constructeurs 374 270 167 29
automobiles 555 270 142 29
cherchent 231.8 334 115 29
à 360.8 334 12 29
rajeunir 386.8 334 100 29
leurs 500.8 334 63 29
effectifs 577.8 334 116 29
La 720.8 334 24 29
moyenne 231.8 398 90 29
d'âge 335.8 398 64 29
des 413.8 398 38 29
salariés 465.8 398 102 29
de 581.8 398 25 29
l'automobile 620.8 398 154 29
est 231.8 462 38 29
de 283.8 462 25 29
trente 322.8 462 77 29
ans 413.8 462 38 29
au 465.8 462 25 29
Japon 504.8 462 64 29
alors 582.8 462 64 29
qu'elle 660.8 462 90 29
atteint 231.8 526 90 29
quarante-cinq 335.8 526 168 29
ans 517.8 526 38 29
chez 569.8 526 50 29
Renault 633.8 526 90 29
