Si 232 270 24 29 933.99
la 270 270 24 29 23633.92
Californie 308 270 129 29 0.07
avait 451 270 64 29 3116.42
appliqué 529 270 103 29 5.07
sa 646 270 24 29 3732.43
politique 231.8 334 115 29 65.88
de 360.8 334 25 29 38928.92
réduction 399.8 334 113 29 2.91
des 526.8 334 38 29 10624.93
émissions 578.8 334 116 29 3.58
de 708.8 334 25 29 38928.92
gaz 231.8 398 38 29 28.65
près 296.8 398 50 29 285.41
de 360.8 398 25 29 38928.92
la 399.8 398 24 29 23633.92
moitié 437.8 398 77 29 76.96
des 528.8 398 38 29 10624.93
véhicules 580.8 398 116 29 7.23
vendus 710.8 398 77 29 0.74
aux 231.8 462 38 29 1907.57
États-Unis 283.8 462 128 29 N/A
auraient 425.8 462 103 29 69.53
pu 542.8 462 24 29 349.32
être 580.8 462 51 29 505.61
concernés 645.8 462 115 29 1.08
à 774.8 462 12 29 19209.05
moyen 231.8 526 64 29 28.24
terme 309.8 526 64 29 34.86
