Chez 232 270 51 29 680.54
les 297 270 37 29 14662.3
démocrates 348 270 129 29 0.74
les 504 270 37 29 14662.3
électeurs 555 270 116 29 2.23
débattent 231.8 334 116 29 0.74
de 361.8 334 25 29 38928.92
leurs 400.8 334 63 29 886.55
choix 477.8 334 63 29 51.42
respectifs 554.8 334 126 29 3.92
et 694.8 334 25 29 20879.73
tentent 231.8 398 90 29 1.76
de 335.8 398 25 29 38928.92
persuader 374.8 398 115 29 12.23
leurs 503.8 398 63 29 886.55
voisins 580.8 398 90 29 33.31
de 684.8 398 25 29 38928.92
se 723.8 398 24 29 6587.77
rallier 231.8 462 87 29 4.86
à 332.8 462 12 29 19209.05
leur 358.8 462 50 29 12.5
candidat 422.8 462 102 29 2.84
Côté 551.8 462 51 29 497.43
républicain 616.8 462 139 29 0.54
le 231.8 526 24 29 18310.95
scrutin 269.8 526 89 29 1.28
se 372.8 526 24 29 6587.77
déroule 410.8 526 90 29 6.15
rapidement 514.8 526 126 29 62.64
après 654.8 526 64 29 821.55
l'ouverture 231.8 590 141 29 23.04
des 386.8 590 38 29 10624.93
assemblées 438.8 590 129 29 4.05
