La 232 270 24 29
direction 270 270 116 29
de 400 270 25 29
l'entreprise 439 270 154 29
confirme 607 270 102 29
l'existence 231.8 334 141 29
du 386.8 334 25 29
document 425.8 334 103 29
incriminé 542.8 334 115 29
jugeant 671.8 334 90 29
que 231.8 398 38 29
l'initiative 283.8 398 154 29
d'un 451.8 398 51 29
collaborateur 516.8 398 167 29
externe 697.8 398 90 29
au 231.8 462 25 29
processus 270.8 462 115 29
de 399.8 462 25 29
recrutement 438.8 462 139 29
est 591.8 462 38 29
inadmissible 231.8 526 154 29
Elle 412.8 526 50 29
ne 476.8 526 24 29
cautionne 514.8 526 115 29
absolument 643.8 526 129 29
pas 231.8 590 37 29
cette 282.8 590 63 29
action 359.8 590 77 29
