Pour 232 270 50 29 6198.24
cette 296 270 63 29 2320.68
grande 373 270 77 29 378.65
fresque 464 270 89 29 3.24
historique 567 270 128 29 11.69
les 722 270 37 29 14662.3
scénaristes 231.8 334 141 29 0.27
ont 386.8 334 38 29 553.31
choisi 438.8 334 76 29 44.53
de 528.8 334 25 29 38928.92
mêler 567.8 334 64 29 17.23
étroitement 645.8 334 142 29 10.81
l'histoire 231.8 398 128 29 292.23
du 373.8 398 25 29 6882.16
château 412.8 398 89 29 63.38
et 515.8 398 25 29 20879.73
celle 554.8 398 63 29 299.46
du 631.8 398 25 29 6882.16
monarque 670.8 398 103 29 1.55
Celui-ci 231.8 462 103 29 71.76
avait 348.8 462 64 29 3116.42
conçu 426.8 462 63 29 6.01
Versailles 503.8 462 130 29 N/A
comme 647.8 462 63 29 3429.32
l'instrument 231.8 526 154 29 21.62
de 399.8 526 25 29 38928.92
son 438.8 526 37 29 4696.15
pouvoir 489.8 526 89 29 86.49
absolu 592.8 526 77 29 16.42
