Il 232 270 24 29 15832.09
aura 270 270 51 29 39.86
suffi 335 270 63 29 17.97
que 412 270 38 29 2975.34
le 464 270 24 29 18310.95
soleil 502 270 76 29 328.78
montre 592 270 77 29 38.99
le 683 270 24 29 18310.95
bout 721 270 50 29 375.68
de 231.8 334 25 29 38928.92
son 270.8 334 37 29 4696.15
nez 321.8 334 37 29 177.64
pour 372.8 334 50 29 6198.24
que 436.8 334 38 29 2975.34
les 488.8 334 37 29 14662.3
jardineries 539.8 334 142 29 N/A
soient 695.8 334 76 29 21.89
prises 231.8 398 76 29 12.16
d'assaut 321.8 398 103 29 27.36
On 451.8 398 25 29 4838.38
dépense 490.8 398 90 29 1.55
de 594.8 398 25 29 38928.92
plus 633.8 398 50 29 5014.53
en 697.8 398 25 29 8732.57
plus 736.8 398 50 29 5014.53
pour 231.8 462 50 29 6198.24
la 295.8 462 24 29 23633.92
plantation 333.8 462 128 29 3.72
de 475.8 462 25 29 38928.92
fleurs 514.8 462 76 29 121.42
dans 604.8 462 51 29 8296.08
son 669.8 462 37 29 4696.15
jardin 231.8 526 77 29 148.72
