Il 232 270 24 29 15832.09
pleut 270 270 63 29 10.41
sur 347 270 37 29 5320.47
la 398 270 24 29 23633.92
Haute-Saône 436 270 142 29 N/A
il 605 270 24 29 15832.09
fait 643 270 50 29 1459.26
froid 707 270 63 29 94.86
les 231.8 334 37 29 14662.3
jours 282.8 334 64 29 515.41
sont 360.8 334 50 29 713.18
encore 424.8 334 77 29 1579.05
courts 515.8 334 76 29 16.22
A 618.8 334 13 29 58.65
part 645.8 334 50 29 306.22
quelques 231.8 398 103 29 732.57
forsythias 348.8 398 128 29 0.07
héroïques 490.8 398 115 29 3.72
les 632.8 398 37 29 14662.3
arbustes 683.8 398 103 29 5.41
sont 231.8 462 50 29 713.18
nus 295.8 462 37 29 48.92
le 372.8 462 24 29 18310.95
printemps 410.8 462 115 29 60.88
rase 539.8 462 48 29 2.64
les 601.8 462 37 29 14662.3
murs 652.8 462 51 29 145.2
