Trois 232 270 64 29
jours 310 270 64 29
après 388 270 64 29
le 466 270 24 29
tir 504 270 38 29
du 556 270 25 29
missile 595 270 90 29
indien 699 270 76 29
Agni-2 231.8 334 78 29
le 336.8 334 24 29
Pakistan 374.8 334 102 29
a 490.8 334 12 29
répliqé 516.8 334 87 29
en 617.8 334 25 29
tirant 656.8 334 77 29
une 747.8 334 37 29
version 231.8 398 90 29
améliorée 335.8 398 116 29
de 465.8 398 25 29
son 504.8 398 37 29
missile 555.8 398 90 29
balistique 659.8 398 128 29
de 231.8 462 25 29
moyenne 270.8 462 90 29
portée 374.8 462 76 29
le 477.8 462 24 29
Ghauri 515.8 462 77 29
depuis 619.8 462 77 29
le 710.8 462 24 29
centre 231.8 526 76 29
d'essai 321.8 526 90 29
de 425.8 526 25 29
Jhelum 464.8 526 77 29
