Le 232 270 24 29
jeu 270 270 38 29
favori 322 270 76 29
des 412 270 38 29
biographes 464 270 128 29
de 606 270 25 29
Conrad 645 270 77 29
le 749 270 24 29
célèbre 231.8 334 89 29
écrivain 334.8 334 103 29
anglais 451.8 334 90 29
consiste 568.8 334 102 29
à 684.8 334 12 29
mesurer 231.8 398 90 29
l'écart 335.8 398 89 29
entre 438.8 398 64 29
les 516.8 398 37 29
événements 567.8 398 129 29
de 710.8 398 25 29
sa 749.8 398 24 29
vie 231.8 462 38 29
réelle 283.8 462 74 29
et 371.8 462 25 29
les 410.8 462 37 29
romans 461.8 462 74 29
qu'il 549.8 462 64 29
en 627.8 462 25 29
a 666.8 462 12 29
tirés 692.8 462 64 29
