Le 232 270 24 29
président 270 270 115 29
de 399 270 25 29
l'APM 438 270 63 29
a 515 270 12 29
vilipendé 541 270 116 29
la 671 270 24 29
réforme 231.8 334 87 29
de 332.8 334 25 29
la 371.8 334 24 29
ministre 409.8 334 103 29
de 526.8 334 25 29
la 565.8 334 24 29
justice 603.8 334 90 29
mais 720.8 334 51 29
il 231.8 398 24 29
a 269.8 398 12 29
surtout 295.8 398 89 29
mené 398.8 398 51 29
la 463.8 398 24 29
charge 501.8 398 76 29
contre 591.8 398 76 29
les 681.8 398 37 29
élus 231.8 462 51 29
accusés 309.8 462 90 29
de 413.8 462 25 29
dresser 452.8 462 90 29
le 556.8 462 24 29
procès 594.8 462 76 29
de 684.8 462 25 29
la 723.8 462 24 29
magistrature 231.8 526 155 29
