Cette 232 270 64 29
saison 310 270 76 29
Tony 413 270 51 29
Parker 478 270 76 29
n'a 568 270 37 29
plus 619 270 50 29
confiance 231.8 334 115 29
sur 360.8 334 37 29
le 411.8 334 24 29
terrain 449.8 334 90 29
Il 566.8 334 24 29
y 604.8 334 12 29
a 630.8 334 12 29
des 656.8 334 38 29
périodes 231.8 398 102 29
pendant 347.8 398 89 29
les 450.8 398 37 29
matches 501.8 398 90 29
où 605.8 398 25 29
il 644.8 398 24 29
comprend 682.8 398 102 29
qu'il 231.8 462 64 29
ne 309.8 462 24 29
peut 347.8 462 50 29
pas 411.8 462 37 29
totalement 462.8 462 129 29
dominer 605.8 462 90 29
