La 232 270 24 29
critique 270 270 102 29
s'est 386 270 63 29
exprimée 463 270 103 29
plus 580 270 50 29
radicalement 231.8 334 152 29
sur 397.8 334 37 29
la 448.8 334 24 29
nature 486.8 334 76 29
et 576.8 334 25 29
l'idéologie 615.8 334 141 29
du 231.8 398 25 29
projet 270.8 398 76 29
éducatif 360.8 398 103 29
Dans 490.8 398 51 29
ce 555.8 398 24 29
débat 593.8 398 64 29
déclenché 231.8 462 116 29
en 361.8 462 25 29
dehors 400.8 462 77 29
des 491.8 462 38 29
organisations 543.8 462 168 29
syndicales 231.8 526 128 29
les 386.8 526 37 29
enseignants 437.8 526 142 29
s'en 593.8 526 50 29
prennent 657.8 526 102 29
aux 231.8 590 38 29
orientations 283.8 590 155 29
fondamentales 452.8 590 167 29
