Mentir 232 270 77 29 15.2
sous 323 270 50 29 1032.7
serment 387 270 89 29 8.85
c'est 503 270 63 29 6331.76
une 580 270 37 29 9587.97
insulte 631 270 89 29 6.96
à 734 270 12 29 19209.05
la 760 270 24 29 23633.92
liberté 231.8 334 89 29 93.31
Faire 347.8 334 63 29 1555.14
obstruction 424.8 334 142 29 0.47
à 580.8 334 12 29 19209.05
la 606.8 334 24 29 23633.92
justice 644.8 334 90 29 46.22
c'est 231.8 398 63 29 6331.76
bafouer 308.8 398 89 29 0.68
la 411.8 398 24 29 23633.92
loi 449.8 398 37 29 44.46
Il 513.8 398 24 29 15832.09
y 551.8 398 12 29 0.27
a 577.8 398 12 29 1669.39
des 603.8 398 38 29 10624.93
gens 655.8 398 51 29 409.39
en 720.8 398 25 29 8732.57
prison 231.8 462 76 29 64.66
pour 321.8 462 50 29 6198.24
de 385.8 462 25 29 38928.92
tels 424.8 462 51 29 5.27
crimes 489.8 462 76 29 15.74
