Les 232 270 37 29 14662.3
labels 283 270 76 29 0.07
alertent 373 270 103 29 0
le 490 270 24 29 18310.95
public 528 270 76 29 37.91
avec 618 270 51 29 4000.41
le 683 270 24 29 18310.95
même 721 270 51 29 705.81
refrain 231.8 334 87 29 8.24
les 358.8 334 37 29 14662.3
plates-formes 409.8 334 167 29 2.7
de 590.8 334 25 29 38928.92
téléchargement 231.8 398 181 29 0
illégales 426.8 398 115 29 0.41
tuent 555.8 398 64 29 3.31
l'industrie 633.8 398 141 29 10.34
musicale 231.8 462 103 29 4.19
Pendant 361.8 462 89 29 450.14
ce 464.8 462 24 29 2436.55
temps 502.8 462 64 29 1289.39
les 593.8 462 37 29 14662.3
marchands 644.8 462 116 29 14.46
de 231.8 526 25 29 38928.92
disques 270.8 526 90 29 20.68
ont 374.8 526 38 29 240.61
le 426.8 526 24 29 18310.95
moral 464.8 526 64 29 14.19
en 542.8 526 25 29 8732.57
berne 581.8 526 63 29 1.49
