Bien 232 270 50 29
que 296 270 38 29
les 348 270 37 29
preuves 399 270 89 29
de 502 270 25 29
la 541 270 24 29
discrimination 579 270 181 29
à 774 270 12 29
l'embauche 231.8 334 128 29
soient 373.8 334 76 29
souvent 463.8 334 89 29
difficiles 566.8 334 129 29
à 709.8 334 12 29
établir 231.8 398 90 29
devant 335.8 398 77 29
les 426.8 398 37 29
juges 477.8 398 64 29
quelques 568.8 398 103 29
affaires 685.8 398 103 29
ont 231.8 462 38 29
pu 283.8 462 24 29
aboutir 321.8 462 90 29
à 425.8 462 12 29
confondre 451.8 462 115 29
des 580.8 462 38 29
employeurs 632.8 462 129 29
et 231.8 526 25 29
ont 270.8 526 38 29
entraîné 322.8 526 103 29
des 439.8 526 38 29
condamnations 491.8 526 167 29
