Aux 232 270 39 29
abords 285 270 77 29
de 376 270 25 29
la 415 270 24 29
gare 453 270 51 29
nulle 531 270 63 29
barre 608 270 63 29
de 685 270 25 29
logements 231.8 334 115 29
ni 373.8 334 24 29
cabine 411.8 334 76 29
téléphonique 501.8 334 155 29
dévastée 670.8 334 103 29
mais 231.8 398 51 29
un 296.8 398 24 29
habitat 334.8 398 89 29
constitué 437.8 398 115 29
d'immeubles 566.8 398 142 29
réhabilités 231.8 462 139 29
et 384.8 462 25 29
de 423.8 462 25 29
maisons 462.8 462 90 29
en 566.8 462 25 29
pierre 605.8 462 76 29
meulière 231.8 526 103 29
restaurées 348.8 526 126 29
et 488.8 526 25 29
ornées 527.8 526 77 29
de 618.8 526 25 29
charmants 657.8 526 115 29
balcons 231.8 590 89 29
