La 232 270 24 29 23633.92
baie 270 270 50 29 14.86
de 334 270 25 29 38928.92
Somme 373 270 63 29 72.7
en 450 270 25 29 8732.57
hiver 489 270 63 29 96.28
l'espace 592 270 102 29 78.58
le 721 270 24 29 18310.95
silence 231.8 334 89 29 313.24
des 347.8 334 38 29 10624.93
instants 399.8 334 102 29 54.32
fugaces 515.8 334 89 29 1.22
et 618.8 334 25 29 20879.73
des 657.8 334 38 29 10624.93
lumières 231.8 398 102 29 35.61
magiques 347.8 398 103 29 6.08
Comme 477.8 398 64 29 3429.32
ce 555.8 398 24 29 2958.58
coucher 593.8 398 89 29 8.11
de 696.8 398 25 29 38928.92
soleil 231.8 462 76 29 328.78
sur 321.8 462 37 29 5320.47
la 372.8 462 24 29 23633.92
pointe 410.8 462 76 29 69.05
du 500.8 462 25 29 6882.16
Hourdel 539.8 462 90 29 N/A
