Le 232 270 24 29 18310.95
rythme 270 270 74 29 42.57
des 358 270 38 29 10624.93
transformations 410 270 194 29 1.82
de 618 270 25 29 38928.92
bureaux 657 270 89 29 20
s'accélère 231.8 334 128 29 4.05
dans 373.8 334 51 29 8296.08
la 438.8 334 24 29 23633.92
capitale 476.8 334 102 29 23.18
En 605.8 334 24 29 212.09
réalité 643.8 334 87 29 75.95
la 757.8 334 24 29 23633.92
moitié 231.8 398 77 29 76.96
deviennent 322.8 398 129 29 16.22
des 465.8 398 38 29 10624.93
appartements 517.8 398 155 29 13.24
intermédiaires 231.8 462 180 29 0.88
d'un 425.8 462 51 29 13550.68
niveau 490.8 462 76 29 30.74
plus 580.8 462 50 29 5014.53
élevé 644.8 462 64 29 15.2
que 722.8 462 38 29 2975.34
celui 231.8 526 63 29 319.19
du 308.8 526 25 29 6882.16
parc 347.8 526 50 29 38.72
classique 411.8 526 115 29 15.81
