Le 232 270 24 29 18310.95
revenu 270 270 74 29 2.23
moyen 358 270 64 29 28.24
imposable 436 270 115 29 0.07
par 565 270 37 29 3727.09
foyer 616 270 63 29 25.81
fiscal 693 270 76 29 0.14
est 231.8 334 38 29 6331.76
le 283.8 334 24 29 2424.19
plus 321.8 334 50 29 5014.53
faible 385.8 334 76 29 40.95
des 475.8 334 38 29 10624.93
communes 527.8 334 102 29 2.57
de 643.8 334 25 29 38928.92
l'agglomération 231.8 398 193 29 1.62
Riches-pauvres 451.8 398 181 29 N/A
on 672.8 398 25 29 4838.38
n'échappe 231.8 462 115 29 18.65
pas 360.8 462 37 29 8795.14
au 411.8 462 25 29 5322.5
face-à-face 450.8 462 141 29 0.47
C'est 618.8 462 64 29 6331.76
celui 696.8 462 63 29 319.19
qui 231.8 526 38 29 7897.91
embrase 283.8 526 90 29 1.01
la 387.8 526 24 29 23633.92
plupart 425.8 526 89 29 0.07
des 528.8 526 38 29 10624.93
convulsions 580.8 526 141 29 4.32
de 735.8 526 25 29 38928.92
l'histoire 231.8 590 128 29 292.23
