Une 232 270 37 29
semaine 283 270 89 29
à 386 270 12 29
Santorin 412 270 102 29
l'une 541 270 63 29
des 618 270 38 29
plus 670 270 50 29
belles 231.8 334 76 29
et 321.8 334 25 29
assurément 373.8 334 129 29
en 529.8 334 25 29
raison 568.8 334 74 29
de 656.8 334 25 29
son 695.8 334 37 29
caractère 231.8 398 115 29
volcanique 360.8 398 129 29
la 516.8 398 24 29
plus 554.8 398 50 29
spectaculaire 618.8 398 167 29
des 231.8 462 38 29
îles 283.8 462 50 29
grecques 347.8 462 103 29
est 464.8 462 38 29
proposée 516.8 462 102 29
par 632.8 462 37 29
l'agence 683.8 462 102 29
de 231.8 526 25 29
voyage 270.8 526 77 29
