Dans 232 270 51 29 8296.08
ce 297 270 24 29 2436.55
contexte 335 270 102 29 2.16
relevé 451 270 74 29 4.19
les 552 270 37 29 14662.3
joueurs 603 270 90 29 9.53
marseillais 231.8 334 142 29 0.88
voulaient 387.8 334 116 29 30.2
surtout 517.8 334 89 29 291.49
satisfaire 620.8 334 128 29 12.36
leur 231.8 398 50 29 12.5
public 295.8 398 76 29 37.91
Avec 398.8 398 52 29 4000.41
cette 464.8 398 63 29 2320.68
finale 541.8 398 76 29 2.5
gagnée 631.8 398 77 29 0.81
l'équipe 231.8 462 102 29 26.28
phocéenne 347.8 462 115 29 0.07
a 476.8 462 12 29 2926.69
particulièrement 502.8 462 206 29 36.62
réussi 231.8 526 74 29 55.74
son 319.8 526 37 29 4696.15
retour 370.8 526 74 29 153.31
parmi 458.8 526 63 29 171.96
l'élite 535.8 526 89 29 8.65
du 638.8 526 25 29 6882.16
football 677.8 526 102 29 6.28
professionnel 231.8 590 167 29 7.23
