999 WORDS_économie~1 126
999 WORDFREQ_15.74 126
999 WORDSALL_Une~0_économie~1 126
999 COSIND_0.88 126
999 COSGEN_0.88 126
101 ESRank1 126
999 WORDS_New~2 141
999 WORDFREQ_3.51 141
999 WORDSALL_économie~1_New~2 141
999 COSIND_N/A 141
102 ESRank2 141
201 ESForwSacShort 141
999 WORDS_Age~3 128
999 WORDFREQ_0.47 128
999 WORDSALL_New~2_Age~3 128
999 COSIND_0.02 128
999 COSGEN_0.02 128
103 ESRank3 128
201 ESForwSacShort 128
999 WORDS_Age~3 101
999 WORDFREQ_0.47 101
999 WORDSALL_New~2_Age~3 101
999 COSIND_0.02 101
999 COSGEN_0.02 101
104 ESRank4 101
203 ESBackSacRefixation 101
999 WORDS_économie~6 129
999 WORDFREQ_15.74 129
999 WORDSALL_est~4_économie~6 129
999 COSIND_0.88 129
999 COSGEN_0.88 129
105 ESRank5 129
202 ESForwSacLong+3+9 129
999 WORDS_économie~6 106
999 WORDFREQ_15.74 106
999 WORDSALL_une~5_économie~6 106
999 COSIND_0.88 106
999 COSGEN_0.88 106
106 ESRank6 106
203 ESBackSacRefixation 106
999 WORDS_croissance~10 187
999 WORDFREQ_3.92 187
999 WORDSALL_laquelle~8_croissance~10 187
999 COSIND_0.79 187
999 COSGEN_0.79 187
107 ESRank7 187
202 ESForwSacLong+4+18 187
999 WORDS_croissance~10 185
999 WORDFREQ_3.92 185
999 WORDSALL_croissance~10 185
999 COSIND_0.79 185
999 COSGEN_0.79 185
108 ESRank8 185
203 ESBackSacRefixation 185
999 WORDS_l'efficacité~12 278
999 WORDFREQ_8.51 278
999 WORDSALL_de~11_l'efficacité~12 278
999 COSIND_0.04 278
999 COSGEN_0.04 278
109 ESRank9 278
202 ESForwSacLong+2+4 278
200 ESRankN 278
199 ESRankNMinus1 185
198 ESRankNMinus2 187
197 ESRankNMinus3 106
196 ESRankNMinus4 129
195 ESRankNMinus5 101
194 ESRankNMinus6 128
193 ESRankNMinus7 141
192 ESRankNMinus8 126
