999 WORDS_plupart~1 148
999 WORDFREQ_0.07 148
999 WORDSALL_La~0_plupart~1 148
999 COSIND_0.11 148
999 COSGEN_0.11 148
101 ESRank1 148
999 WORDS_des~2 128
999 WORDFREQ_10624.93 128
999 WORDSALL_des~2 128
999 COSIND_N/A 128
102 ESRank2 128
201 ESForwSacShort 128
999 WORDS_animateurs-modérateurs~3 148
999 WORDFREQ_N/A 148
999 WORDSALL_animateurs-modérateurs~3 148
999 COSIND_N/A 148
103 ESRank3 148
201 ESForwSacShort 148
999 WORDS_animateurs-modérateurs~3 267
999 WORDFREQ_N/A 267
999 WORDSALL_animateurs-modérateurs~3 267
999 COSIND_N/A 267
104 ESRank4 267
203 ESBackSacRefixation 267
999 WORDS_ont~4 120
999 WORDFREQ_240.61 120
999 WORDSALL_animateurs-modérateurs~3_ont~4 120
999 COSIND_0.02 120
999 COSGEN_0.02 120
105 ESRank5 120
201 ESForwSacShort 120
999 WORDS_formation~6 208
999 WORDFREQ_9.32 208
999 WORDSALL_formation~6 208
999 COSIND_0.93 208
999 COSGEN_0.93 208
106 ESRank6 208
202 ESForwSacLong+2+5 208
999 WORDS_journaliste~8 210
999 WORDFREQ_15.95 210
999 WORDSALL_journaliste~8 210
999 COSIND_0.03 210
999 COSGEN_0.03 210
107 ESRank7 210
202 ESForwSacLong+2+4 210
999 WORDS_n'existe~10 165
999 WORDFREQ_57.97 165
999 WORDSALL_Il~9_n'existe~10 165
999 COSIND_-0.02 165
999 COSGEN_-0.02 165
108 ESRank8 165
202 ESForwSacLong+2+4 165
999 WORDS_formation~13 182
999 WORDFREQ_9.32 182
999 WORDSALL_de~12_formation~13 182
999 COSIND_0.93 182
999 COSGEN_0.93 182
109 ESRank9 182
202 ESForwSacLong+3+8 182
999 WORDS_spécifique~14 224
999 WORDFREQ_1.42 224
999 WORDSALL_spécifique~14 224
999 COSIND_0.30 224
999 COSGEN_0.30 224
110 ESRank10 224
201 ESForwSacShort 224
999 WORDS_mais~15 122
999 WORDFREQ_4463.72 122
999 WORDSALL_mais~15 122
999 COSIND_N/A 122
111 ESRank11 122
201 ESForwSacShort 122
999 WORDS_écoles~17 161
999 WORDFREQ_15.47 161
999 WORDSALL_écoles~17 161
999 COSIND_0.21 161
999 COSGEN_0.21 161
112 ESRank12 161
202 ESForwSacLong+2+5 161
999 WORDS_journalisme~19 195
999 WORDFREQ_3.51 195
999 WORDSALL_journalisme~19 195
999 COSIND_0.13 195
999 COSGEN_0.13 195
113 ESRank13 195
202 ESForwSacLong+2+4 195
999 WORDS_communication~22 183
999 WORDFREQ_17.23 183
999 WORDSALL_ou~20_communication~22 183
999 COSIND_0.16 183
999 COSGEN_0.16 183
114 ESRank14 183
202 ESForwSacLong+3+7 183
999 WORDS_communication~22 137
999 WORDFREQ_17.23 137
999 WORDSALL_communication~22 137
999 COSIND_0.16 137
999 COSGEN_0.16 137
115 ESRank15 137
203 ESBackSacRefixation 137
999 WORDS_donnent~24 208
999 WORDFREQ_26.28 208
999 WORDSALL_qui~23_donnent~24 208
999 COSIND_0.04 208
999 COSGEN_0.04 208
116 ESRank16 208
202 ESForwSacLong+2+5 208
999 WORDS_cours~26 163
999 WORDFREQ_176.76 163
999 WORDSALL_des~25_cours~26 163
999 COSIND_-0.01 163
999 COSGEN_-0.01 163
117 ESRank17 163
202 ESForwSacLong+2+5 163
999 WORDS_multimédia~28 271
999 WORDFREQ_0 271
999 WORDSALL_en~27_multimédia~28 271
999 COSIND_N/A 271
118 ESRank18 271
202 ESForwSacLong+2+4 271
200 ESRankN 271
199 ESRankNMinus1 163
198 ESRankNMinus2 208
197 ESRankNMinus3 137
196 ESRankNMinus4 183
195 ESRankNMinus5 195
194 ESRankNMinus6 161
193 ESRankNMinus7 122
192 ESRankNMinus8 224
191 ESRankNMinus9 182
190 ESRankNMinus10 165
