999 WORDS_agences~1 128
999 WORDFREQ_3.65 128
999 WORDSALL_Les~0_agences~1 128
999 COSIND_-0.04 128
999 COSGEN_-0.04 128
101 ESRank1 128
999 WORDS_spatiales~2 138
999 WORDFREQ_0.14 138
999 WORDSALL_agences~1_spatiales~2 138
999 COSIND_0.01 138
999 COSGEN_0.01 138
102 ESRank2 138
201 ESForwSacShort 138
999 WORDS_spatiales~2 105
999 WORDFREQ_0.14 105
999 WORDSALL_spatiales~2 105
999 COSIND_0.01 105
999 COSGEN_0.01 105
103 ESRank3 105
203 ESBackSacRefixation 105
999 WORDS_françaises~3 185
999 WORDFREQ_45.07 185
999 WORDSALL_françaises~3 185
999 COSIND_-0.00 185
999 COSGEN_-0.00 185
104 ESRank4 185
201 ESForwSacShort 185
999 WORDS_japonaises~5 206
999 WORDFREQ_1.49 206
999 WORDSALL_Les~0_agences~1_japonaises~5 206
999 COSIND_-0.08 206
999 COSGEN_-0.08 206
105 ESRank5 206
202 ESForwSacLong+2+4 206
999 WORDS_décidé~7 244
999 WORDFREQ_73.78 244
999 WORDSALL_ont~6_décidé~7 244
999 COSIND_-0.05 244
999 COSGEN_-0.05 244
106 ESRank6 244
202 ESForwSacLong+2+5 244
999 WORDS_créer~9 164
999 WORDFREQ_16.22 164
999 WORDSALL_de~8_créer~9 164
999 COSIND_0.01 164
999 COSGEN_0.01 164
107 ESRank7 164
202 ESForwSacLong+2+4 164
999 WORDS_groupes~11 109
999 WORDFREQ_36.62 109
999 WORDSALL_et~4_groupes~11 109
999 COSIND_0.03 109
999 COSGEN_0.03 109
108 ESRank8 109
202 ESForwSacLong+2+5 109
999 WORDS_travail~13 107
999 WORDFREQ_223.99 107
999 WORDSALL_japonaises~5_ont~6_travail~13 107
999 COSIND_0.01 107
999 COSGEN_0.01 107
109 ESRank9 107
202 ESForwSacLong+2+4 107
999 WORDS_travail~13 207
999 WORDFREQ_223.99 207
999 WORDSALL_japonaises~5_travail~13 207
999 COSIND_0.01 207
999 COSGEN_0.01 207
110 ESRank10 207
203 ESBackSacRefixation 207
999 WORDS_travail~13 148
999 WORDFREQ_223.99 148
999 WORDSALL_travail~13 148
999 COSIND_0.01 148
999 COSGEN_0.01 148
111 ESRank11 148
203 ESBackSacRefixation 148
999 WORDS_sera~22 141
999 WORDFREQ_66.69 141
999 WORDSALL_le~15_suivi~16_sera~22 141
999 COSIND_-0.00 141
999 COSGEN_-0.00 141
112 ESRank12 141
202 ESForwSacLong+9+46 141
999 WORDS_sera~22 117
999 WORDFREQ_66.69 117
999 WORDSALL_suivi~16_sera~22 117
999 COSIND_-0.00 117
999 COSGEN_-0.00 117
113 ESRank13 117
203 ESBackSacRefixation 117
999 WORDS_chargé~23 167
999 WORDFREQ_40.07 167
999 WORDSALL_des~17_risques~18_chargé~23 167
999 COSIND_0.24 167
999 COSGEN_0.24 167
114 ESRank14 167
201 ESForwSacShort 167
999 WORDS_chargé~23 174
999 WORDFREQ_40.07 174
999 WORDSALL_sera~22_chargé~23 174
999 COSIND_0.24 174
999 COSGEN_0.24 174
115 ESRank15 174
203 ESBackSacRefixation 174
999 WORDS_réfléchir~25 183
999 WORDFREQ_36.55 183
999 WORDSALL_réfléchir~25 183
999 COSIND_-0.08 183
999 COSGEN_-0.08 183
116 ESRank16 183
202 ESForwSacLong+2+4 183
999 WORDS_à~26 132
999 WORDFREQ_19209.05 132
999 WORDSALL_à~26 132
999 COSIND_N/A 132
117 ESRank17 132
201 ESForwSacShort 132
200 ESRankN 132
199 ESRankNMinus1 183
198 ESRankNMinus2 174
197 ESRankNMinus3 167
196 ESRankNMinus4 117
195 ESRankNMinus5 141
194 ESRankNMinus6 148
193 ESRankNMinus7 207
192 ESRankNMinus8 107
191 ESRankNMinus9 109
190 ESRankNMinus10 164
