# 107 Fixation 1 (220.2,302.1): Le~0 3e~1
# 131 Fixation 2 (290.6,291.6): Le~0 3e~1
# 200 Fixation 3 (336,295.4): 3e~1 ligne~2
# 153 Fixation 4 (472.9,282.1): du~3 XV~4
# 206 Fixation 5 (532.5,269.3): d'Angleterre~5
# 190 Fixation 6 (298.6,348.8): Le~0 3e~1 sélections~8
# 196 Fixation 7 (269.2,357.4): sélections~8
# 237 Fixation 8 (301.1,401.2): sélections~8 internationale~13
# 189 Fixation 9 (534.1,412.5): annoncé~10 retraite~12 colonnes~16
# 242 Fixation 10 (565.7,423.7): les~15 colonnes~16
# 260 Fixation 11 (282.8,450.1): internationale~13 tabloïd~18
# 157 Fixation 12 (481,470.3): dans~14 colonnes~16 retraite~20
# 233 Fixation 13 (446.5,466.6): dans~14 retraite~20
# 281 Fixation 14 (596.1,486.3): bien~21 méritée~22
# 177 Fixation 15 (318.8,519): tabloïd~18 bien~26
# 277 Fixation 16 (395.4,517.2): Une~19 retraite~20 menée~27
# 224 Fixation 17 (295.7,519): tabloïd~18
# 260 Fixation 18 (512.2,385.5): annoncé~10
# 242 Fixation 19 (584.9,418.1): les~15 colonnes~16
%%
# Le~0 Fixations= "6/"
# 3e~1 Fixations= "6/"
# ligne~2 Fixations= "3/"
# du~3 Fixations= "4/"
# XV~4 Fixations= "4/"
# d'Angleterre~5 Fixations= "5/"
# aux~6 Fixations= ""
# 85~7 Fixations= ""
# sélections~8 Fixations= "8/"
# a~9 Fixations= ""
# annoncé~10 Fixations= "18/"
# sa~11 Fixations= ""
# retraite~12 Fixations= "9/"
# internationale~13 Fixations= "11/"
# dans~14 Fixations= "13/"
# les~15 Fixations= "19/"
# colonnes~16 Fixations= "19/"
# du~17 Fixations= ""
# tabloïd~18 Fixations= "17/"
# Une~19 Fixations= "16/"
# retraite~20 Fixations= "16/"
# bien~21 Fixations= "14/"
# méritée~22 Fixations= "14/"
# avec~23 Fixations= ""
# une~24 Fixations= ""
# vie~25 Fixations= ""
# bien~26 Fixations= "15/"
# menée~27 Fixations= "16/"
%%
#  LE[6] 3E[6] LIGNE[3] DU[4] XV[4] D'ANGLETERRE[5] aux 85 SéLECTIONS[8] a ANNONCé[18] sa RETRAITE[9] INTERNATIONALE[11] DANS[13] LES[19] COLONNES[19] du TABLOïD[17] UNE[16] RETRAITE[16] BIEN[14] MéRITéE[14] avec une vie BIEN[15] MENéE[16]
# s20 greve_cheminot-a2 PercentageOfWordsProcessed= 0.714285714285714 PercentageOfWordsReallyProcessed= 0.714285714285714
