999 WORDS_L'étude~0 96
999 WORDFREQ_19.66 96
999 WORDSALL_L'étude~0 96
999 COSIND_0.08 96
999 COSGEN_0.08 96
101 ESRank1 96
999 WORDS_système~2 154
999 WORDFREQ_42.23 154
999 WORDSALL_système~2 154
999 COSIND_0.20 154
999 COSGEN_0.20 154
102 ESRank2 154
202 ESForwSacLong+2+4 154
999 WORDS_solaire~3 123
999 WORDFREQ_6.49 123
999 WORDSALL_solaire~3 123
999 COSIND_0.84 123
999 COSGEN_0.84 123
103 ESRank3 123
201 ESForwSacShort 123
999 WORDS_difficile~5 163
999 WORDFREQ_100.74 163
999 WORDSALL_est~4_difficile~5 163
999 COSIND_-0.07 163
999 COSGEN_-0.07 163
104 ESRank4 163
202 ESForwSacLong+2+5 163
999 WORDS_Ecartons~6 192
999 WORDFREQ_N/A 192
999 WORDSALL_Ecartons~6 192
999 COSIND_N/A 192
105 ESRank5 192
201 ESForwSacShort 192
999 WORDS_d'emblée~7 228
999 WORDFREQ_N/A 228
999 WORDSALL_d'emblée~7 228
999 COSIND_N/A 228
106 ESRank6 228
201 ESForwSacShort 228
999 WORDS_quatre~9 201
999 WORDFREQ_282.64 201
999 WORDSALL_les~8_quatre~9 201
999 COSIND_0.10 201
999 COSGEN_0.10 201
107 ESRank7 201
202 ESForwSacLong+2+5 201
200 ESRankN 201
199 ESRankNMinus1 228
198 ESRankNMinus2 192
197 ESRankNMinus3 163
196 ESRankNMinus4 123
195 ESRankNMinus5 154
194 ESRankNMinus6 96
