999 WORDS_hélices~1 163
999 WORDFREQ_1.49 163
999 WORDSALL_hélices~1 163
999 COSIND_-0.00 163
999 COSGEN_-0.00 163
101 ESRank1 163
999 WORDS_dehors~2 84
999 WORDFREQ_109.05 84
999 WORDSALL_dehors~2 84
999 COSIND_-0.02 84
999 COSGEN_-0.02 84
102 ESRank2 84
201 ESForwSacShort 84
999 WORDS_hélices~1 133
999 WORDFREQ_1.49 133
999 WORDSALL_hélices~1 133
999 COSIND_-0.00 133
999 COSGEN_-0.00 133
103 ESRank3 133
205 ESBackSacRegrShort 133
999 WORDS_hélices~1 279
999 WORDFREQ_1.49 279
999 WORDSALL_Toutes~0_hélices~1 279
999 COSIND_-0.00 279
999 COSGEN_-0.00 279
104 ESRank4 279
203 ESBackSacRefixation 279
999 WORDS_dehors~2 205
999 WORDFREQ_109.05 205
999 WORDSALL_dehors~2 205
999 COSIND_-0.02 205
999 COSGEN_-0.02 205
105 ESRank5 205
201 ESForwSacShort 205
999 WORDS_bigarré~3 212
999 WORDFREQ_0.34 212
999 WORDSALL_bigarré~3 212
999 COSIND_-0.08 212
999 COSGEN_-0.08 212
106 ESRank6 212
201 ESForwSacShort 212
999 WORDS_comme~4 175
999 WORDFREQ_3429.32 175
999 WORDSALL_comme~4 175
999 COSIND_N/A 175
107 ESRank7 175
201 ESForwSacShort 175
999 WORDS_avion~6 177
999 WORDFREQ_46.82 177
999 WORDSALL_Toutes~0_avion~6 177
999 COSIND_0.01 177
999 COSGEN_0.01 177
108 ESRank8 177
202 ESForwSacLong+2+7 177
999 WORDS_occidental~7 140
999 WORDFREQ_3.65 140
999 WORDSALL_hélices~1_occidental~7 140
999 COSIND_0.01 140
999 COSGEN_0.01 140
109 ESRank9 140
201 ESForwSacShort 140
999 WORDS_n'oserait~8 244
999 WORDFREQ_5.34 244
999 WORDSALL_n'oserait~8 244
999 COSIND_0.00 244
999 COSGEN_0.00 244
110 ESRank10 244
201 ESForwSacShort 244
999 WORDS_comme~4 224
999 WORDFREQ_3429.32 224
999 WORDSALL_comme~4 224
999 COSIND_N/A 224
111 ESRank11 224
206 ESBackSacRegrLong-4-24 224
999 WORDS_comme~4 148
999 WORDFREQ_3429.32 148
999 WORDSALL_comme~4 148
999 COSIND_N/A 148
112 ESRank12 148
203 ESBackSacRefixation 148
999 WORDS_avion~6 244
999 WORDFREQ_46.82 244
999 WORDSALL_Toutes~0_avion~6 244
999 COSIND_0.01 244
999 COSGEN_0.01 244
113 ESRank13 244
202 ESForwSacLong+2+7 244
999 WORDS_occidental~7 142
999 WORDFREQ_3.65 142
999 WORDSALL_hélices~1_occidental~7 142
999 COSIND_0.01 142
999 COSGEN_0.01 142
114 ESRank14 142
201 ESForwSacShort 142
999 WORDS_n'oserait~8 170
999 WORDFREQ_5.34 170
999 WORDSALL_n'oserait~8 170
999 COSIND_0.00 170
999 COSGEN_0.00 170
115 ESRank15 170
201 ESForwSacShort 170
999 WORDS_plus~9 274
999 WORDFREQ_5014.53 274
999 WORDSALL_plus~9 274
999 COSIND_-0.02 274
999 COSGEN_-0.02 274
116 ESRank16 274
201 ESForwSacShort 274
999 WORDS_aujourd'hui~11 149
999 WORDFREQ_158.24 149
999 WORDSALL_avion~6_occidental~7_aujourd'hui~11 149
999 COSIND_N/A 149
117 ESRank17 149
202 ESForwSacLong+2+9 149
999 WORDS_cargo~13 136
999 WORDFREQ_3.99 136
999 WORDSALL_occidental~7_n'oserait~8_cargo~13 136
999 COSIND_-0.06 136
999 COSGEN_-0.06 136
118 ESRank18 136
202 ESForwSacLong+2+4 136
999 WORDS_militaire~14 285
999 WORDFREQ_69.19 285
999 WORDSALL_n'oserait~8_militaire~14 285
999 COSIND_-0.03 285
999 COSGEN_-0.03 285
119 ESRank19 285
201 ESForwSacShort 285
999 WORDS_cargo~13 238
999 WORDFREQ_3.99 238
999 WORDSALL_n'oserait~8_cargo~13 238
999 COSIND_-0.06 238
999 COSGEN_-0.06 238
120 ESRank20 238
205 ESBackSacRegrShort 238
999 WORDS_militaire~14 148
999 WORDFREQ_69.19 148
999 WORDSALL_militaire~14 148
999 COSIND_-0.03 148
999 COSGEN_-0.03 148
201 ESForwSacShort 148
999 WORDS_Antonov~15 204
999 WORDFREQ_N/A 204
999 WORDSALL_Antonov~15 204
999 COSIND_N/A 204
201 ESForwSacShort 204
999 WORDS_veut~25 100
999 WORDFREQ_210.61 100
999 WORDSALL_Antonov~15_veut~25 100
999 COSIND_0.03 100
999 COSGEN_0.03 100
202 ESForwSacLong+10+42 100
999 WORDS_vedette~18 228
999 WORDFREQ_13.92 228
999 WORDSALL_aujourd'hui~11_vedette~18 228
999 COSIND_-0.06 228
999 COSGEN_-0.06 228
206 ESBackSacRegrLong-7-27 228
999 WORDS_salon~20 163
999 WORDFREQ_84.12 163
999 WORDSALL_le~12_cargo~13_salon~20 163
999 COSIND_0.06 163
999 COSGEN_0.06 163
202 ESForwSacLong+2+4 163
999 WORDS_Bourget~22 166
999 WORDFREQ_N/A 166
999 WORDSALL_cargo~13_militaire~14_Bourget~22 166
999 COSIND_N/A 166
202 ESForwSacLong+2+4 166
999 WORDS_veut~25 138
999 WORDFREQ_210.61 138
999 WORDSALL_Il~23_veut~25 138
999 COSIND_0.03 138
999 COSGEN_0.03 138
202 ESForwSacLong+3+7 138
999 WORDS_concurrent~27 148
999 WORDFREQ_1.49 148
999 WORDSALL_vedette~18_concurrent~27 148
999 COSIND_0.09 148
999 COSGEN_0.09 148
202 ESForwSacLong+2+4 148
999 WORDS_l'Hercules~29 151
999 WORDFREQ_0.27 151
999 WORDSALL_du~21_Bourget~22_l'Hercules~29 151
999 COSIND_-0.08 151
999 COSGEN_-0.08 151
202 ESForwSacLong+2+4 151
999 WORDS_C-130J~30 200
999 WORDFREQ_N/A 200
999 WORDSALL_Bourget~22_C-130J~30 200
999 COSIND_N/A 200
201 ESForwSacShort 200
200 ESRankN 200
199 ESRankNMinus1 151
198 ESRankNMinus2 148
197 ESRankNMinus3 138
196 ESRankNMinus4 166
195 ESRankNMinus5 163
194 ESRankNMinus6 228
193 ESRankNMinus7 100
192 ESRankNMinus8 204
191 ESRankNMinus9 148
190 ESRankNMinus10 238
