999 WORDS_détresse~1 164
999 WORDFREQ_18.38 164
999 WORDSALL_La~0_détresse~1 164
999 COSIND_0.29 164
999 COSGEN_0.29 164
101 ESRank1 164
999 WORDS_détresse~1 131
999 WORDFREQ_18.38 131
999 WORDSALL_détresse~1 131
999 COSIND_0.29 131
999 COSGEN_0.29 131
102 ESRank2 131
203 ESBackSacRefixation 131
999 WORDS_souffrance~4 125
999 WORDFREQ_33.58 125
999 WORDSALL_et~2_souffrance~4 125
999 COSIND_0.17 125
999 COSGEN_0.17 125
103 ESRank3 125
202 ESForwSacLong+3+7 125
999 WORDS_souffrance~4 122
999 WORDFREQ_33.58 122
999 WORDSALL_la~3_souffrance~4 122
999 COSIND_0.17 122
999 COSGEN_0.17 122
104 ESRank4 122
203 ESBackSacRefixation 122
999 WORDS_réfugiés~6 157
999 WORDFREQ_8.18 157
999 WORDSALL_des~5_réfugiés~6 157
999 COSIND_0.12 157
999 COSGEN_0.12 157
105 ESRank5 157
202 ESForwSacLong+2+5 157
999 WORDS_largement~7 160
999 WORDFREQ_26.76 160
999 WORDSALL_largement~7 160
999 COSIND_0.09 160
999 COSGEN_0.09 160
106 ESRank6 160
201 ESForwSacShort 160
999 WORDS_médiatisées~8 244
999 WORDFREQ_0 244
999 WORDSALL_médiatisées~8 244
999 COSIND_0.12 244
999 COSGEN_0.12 244
107 ESRank7 244
201 ESForwSacShort 244
999 WORDS_suscitent~9 187
999 WORDFREQ_1.01 187
999 WORDSALL_suscitent~9 187
999 COSIND_0.02 187
999 COSGEN_0.02 187
108 ESRank8 187
201 ESForwSacShort 187
999 WORDS_d'immenses~10 129
999 WORDFREQ_22.91 129
999 WORDSALL_d'immenses~10 129
999 COSIND_-0.01 129
999 COSGEN_-0.01 129
109 ESRank9 129
201 ESForwSacShort 129
999 WORDS_élans~11 164
999 WORDFREQ_7.16 164
999 WORDSALL_élans~11 164
999 COSIND_0.14 164
999 COSGEN_0.14 164
110 ESRank10 164
201 ESForwSacShort 164
999 WORDS_générosité~13 199
999 WORDFREQ_10.95 199
999 WORDSALL_de~12_générosité~13 199
999 COSIND_0.26 199
999 COSGEN_0.26 199
111 ESRank11 199
202 ESForwSacLong+2+4 199
999 WORDS_convois~15 165
999 WORDFREQ_7.43 165
999 WORDSALL_Des~14_convois~15 165
999 COSIND_0.41 165
999 COSGEN_0.41 165
112 ESRank12 165
202 ESForwSacLong+2+5 165
999 WORDS_d'aide~16 143
999 WORDFREQ_52.3 143
999 WORDSALL_convois~15_d'aide~16 143
999 COSIND_0.52 143
999 COSGEN_0.52 143
113 ESRank13 143
201 ESForwSacShort 143
999 WORDS_humanitaire~17 160
999 WORDFREQ_1.22 160
999 WORDSALL_humanitaire~17 160
999 COSIND_1.00 160
999 COSGEN_1.00 160
114 ESRank14 160
201 ESForwSacShort 160
999 WORDS_humanitaire~17 188
999 WORDFREQ_1.22 188
999 WORDSALL_humanitaire~17 188
999 COSIND_1.00 188
999 COSGEN_1.00 188
115 ESRank15 188
203 ESBackSacRefixation 188
999 WORDS_constitués~18 254
999 WORDFREQ_0.47 254
999 WORDSALL_constitués~18 254
999 COSIND_0.05 254
999 COSGEN_0.05 254
116 ESRank16 254
201 ESForwSacShort 254
200 ESRankN 254
199 ESRankNMinus1 188
198 ESRankNMinus2 160
197 ESRankNMinus3 143
196 ESRankNMinus4 165
195 ESRankNMinus5 199
194 ESRankNMinus6 164
193 ESRankNMinus7 129
192 ESRankNMinus8 187
191 ESRankNMinus9 244
190 ESRankNMinus10 160
