# 155 Fixation 1 (221.1,273.5): Mentir~0
# 133 Fixation 2 (280.2,270.7): Mentir~0
# 426 Fixation 3 (402.2,267.8): sous~1 serment~2
# 174 Fixation 4 (603.7,209.6): c'est~3 insulte~5
# 227 Fixation 5 (676,192):
# 540 Fixation 6 (263.5,384.7): c'est~14 bafouer~15
# 308 Fixation 7 (724.9,193.7):
# 128 Fixation 8 (621.6,286.2): c'est~3 insulte~5
# 193 Fixation 9 (406.4,373.8): Faire~9
# 206 Fixation 10 (372.5,382): bafouer~15
# 248 Fixation 11 (310.2,451.3): prison~24
# 220 Fixation 12 (340.6,455.6): prison~24
%%
# Mentir~0 Fixations= "2/"
# sous~1 Fixations= "3/"
# serment~2 Fixations= "3/"
# c'est~3 Fixations= "8/"
# une~4 Fixations= ""
# insulte~5 Fixations= "8/"
# à~6 Fixations= ""
# la~7 Fixations= ""
# liberté~8 Fixations= ""
# Faire~9 Fixations= "9/"
# obstruction~10 Fixations= ""
# à~11 Fixations= ""
# la~12 Fixations= ""
# justice~13 Fixations= ""
# c'est~14 Fixations= "6/"
# bafouer~15 Fixations= "10/"
# la~16 Fixations= ""
# loi~17 Fixations= ""
# Il~18 Fixations= ""
# y~19 Fixations= ""
# a~20 Fixations= ""
# des~21 Fixations= ""
# gens~22 Fixations= ""
# en~23 Fixations= ""
# prison~24 Fixations= "12/"
# pour~25 Fixations= ""
# de~26 Fixations= ""
# tels~27 Fixations= ""
# crimes~28 Fixations= ""
%%
#  MENTIR[2] SOUS[3] SERMENT[3] C'EST[8] une INSULTE[8] à la liberté FAIRE[9] obstruction à la justice C'EST[6] BAFOUER[10] la loi Il y a des gens en PRISON[12] pour de tels crimes
# s20 reforme_justice-f2 PercentageOfWordsProcessed= 0.310344827586207 PercentageOfWordsReallyProcessed= 0.36
