999 WORDS_détresse~1 164
999 WORDFREQ_18.38 164
999 WORDSALL_détresse~1 164
999 COSIND_0.29 164
999 COSGEN_0.29 164
101 ESRank1 164
999 WORDS_détresse~1 166
999 WORDFREQ_18.38 166
999 WORDSALL_La~0_détresse~1 166
999 COSIND_0.29 166
999 COSGEN_0.29 166
102 ESRank2 166
203 ESBackSacRefixation 166
999 WORDS_souffrance~4 147
999 WORDFREQ_33.58 147
999 WORDSALL_et~2_souffrance~4 147
999 COSIND_0.17 147
999 COSGEN_0.17 147
103 ESRank3 147
202 ESForwSacLong+3+7 147
999 WORDS_souffrance~4 140
999 WORDFREQ_33.58 140
999 WORDSALL_souffrance~4 140
999 COSIND_0.17 140
999 COSGEN_0.17 140
104 ESRank4 140
203 ESBackSacRefixation 140
999 WORDS_réfugiés~6 300
999 WORDFREQ_8.18 300
999 WORDSALL_des~5_réfugiés~6 300
999 COSIND_0.12 300
999 COSGEN_0.12 300
105 ESRank5 300
202 ESForwSacLong+2+5 300
999 WORDS_médiatisées~8 149
999 WORDFREQ_0 149
999 WORDSALL_largement~7_médiatisées~8 149
999 COSIND_0.12 149
999 COSGEN_0.12 149
106 ESRank6 149
202 ESForwSacLong+2+11 149
999 WORDS_largement~7 156
999 WORDFREQ_26.76 156
999 WORDSALL_largement~7 156
999 COSIND_0.09 156
999 COSGEN_0.09 156
107 ESRank7 156
205 ESBackSacRegrShort 156
999 WORDS_médiatisées~8 477
999 WORDFREQ_0 477
999 WORDSALL_médiatisées~8 477
999 COSIND_0.12 477
999 COSGEN_0.12 477
108 ESRank8 477
201 ESForwSacShort 477
999 WORDS_suscitent~9 353
999 WORDFREQ_1.01 353
999 WORDSALL_suscitent~9 353
999 COSIND_0.02 353
999 COSGEN_0.02 353
109 ESRank9 353
201 ESForwSacShort 353
999 WORDS_suscitent~9 157
999 WORDFREQ_1.01 157
999 WORDSALL_suscitent~9 157
999 COSIND_0.02 157
999 COSGEN_0.02 157
110 ESRank10 157
203 ESBackSacRefixation 157
999 WORDS_d'immenses~10 164
999 WORDFREQ_22.91 164
999 WORDSALL_d'immenses~10 164
999 COSIND_-0.01 164
999 COSGEN_-0.01 164
111 ESRank11 164
201 ESForwSacShort 164
999 WORDS_générosité~13 213
999 WORDFREQ_10.95 213
999 WORDSALL_de~12_générosité~13 213
999 COSIND_0.26 213
999 COSGEN_0.26 213
112 ESRank12 213
202 ESForwSacLong+3+11 213
999 WORDS_élans~11 264
999 WORDFREQ_7.16 264
999 WORDSALL_élans~11 264
999 COSIND_0.14 264
999 COSGEN_0.14 264
113 ESRank13 264
206 ESBackSacRegrLong-2-4 264
999 WORDS_détresse~1 274
999 WORDFREQ_18.38 274
999 WORDSALL_détresse~1 274
999 COSIND_0.29 274
999 COSGEN_0.29 274
114 ESRank14 274
206 ESBackSacRegrLong-10-78 274
999 WORDS_détresse~1 109
999 WORDFREQ_18.38 109
999 WORDSALL_La~0_détresse~1 109
999 COSIND_0.29 109
999 COSGEN_0.29 109
115 ESRank15 109
203 ESBackSacRefixation 109
999 WORDS_souffrance~4 198
999 WORDFREQ_33.58 198
999 WORDSALL_et~2_souffrance~4 198
999 COSIND_0.17 198
999 COSGEN_0.17 198
116 ESRank16 198
202 ESForwSacLong+3+7 198
999 WORDS_réfugiés~6 152
999 WORDFREQ_8.18 152
999 WORDSALL_des~5_réfugiés~6 152
999 COSIND_0.12 152
999 COSGEN_0.12 152
117 ESRank17 152
202 ESForwSacLong+2+5 152
999 WORDS_largement~7 162
999 WORDFREQ_26.76 162
999 WORDSALL_largement~7 162
999 COSIND_0.09 162
999 COSGEN_0.09 162
118 ESRank18 162
201 ESForwSacShort 162
999 WORDS_médiatisées~8 196
999 WORDFREQ_0 196
999 WORDSALL_médiatisées~8 196
999 COSIND_0.12 196
999 COSGEN_0.12 196
119 ESRank19 196
201 ESForwSacShort 196
999 WORDS_convois~15 211
999 WORDFREQ_7.43 211
999 WORDSALL_Des~14_convois~15 211
999 COSIND_0.41 211
999 COSGEN_0.41 211
120 ESRank20 211
202 ESForwSacLong+7+50 211
999 WORDS_convois~15 286
999 WORDFREQ_7.43 286
999 WORDSALL_Des~14_convois~15 286
999 COSIND_0.41 286
999 COSGEN_0.41 286
203 ESBackSacRefixation 286
999 WORDS_d'aide~16 105
999 WORDFREQ_52.3 105
999 WORDSALL_convois~15_d'aide~16 105
999 COSIND_0.52 105
999 COSGEN_0.52 105
201 ESForwSacShort 105
999 WORDS_humanitaire~17 147
999 WORDFREQ_1.22 147
999 WORDSALL_humanitaire~17 147
999 COSIND_1.00 147
999 COSGEN_1.00 147
201 ESForwSacShort 147
999 WORDS_humanitaire~17 159
999 WORDFREQ_1.22 159
999 WORDSALL_humanitaire~17 159
999 COSIND_1.00 159
999 COSGEN_1.00 159
203 ESBackSacRefixation 159
999 WORDS_constitués~18 213
999 WORDFREQ_0.47 213
999 WORDSALL_constitués~18 213
999 COSIND_0.05 213
999 COSGEN_0.05 213
201 ESForwSacShort 213
999 WORDS_bénévoles~21 177
999 WORDFREQ_0.14 177
999 WORDSALL_par~19_bénévoles~21 177
999 COSIND_0.18 177
999 COSGEN_0.18 177
202 ESForwSacLong+3+9 177
999 WORDS_bénévoles~21 152
999 WORDFREQ_0.14 152
999 WORDSALL_bénévoles~21 152
999 COSIND_0.18 152
999 COSGEN_0.18 152
203 ESBackSacRefixation 152
999 WORDS_différentes~23 154
999 WORDFREQ_23.65 154
999 WORDSALL_différentes~23 154
999 COSIND_-0.03 154
999 COSGEN_-0.03 154
202 ESForwSacLong+2+4 154
999 WORDS_différentes~23 195
999 WORDFREQ_23.65 195
999 WORDSALL_différentes~23 195
999 COSIND_-0.03 195
999 COSGEN_-0.03 195
203 ESBackSacRefixation 195
999 WORDS_organisations~24 273
999 WORDFREQ_4.8 273
999 WORDSALL_organisations~24 273
999 COSIND_0.35 273
999 COSGEN_0.35 273
201 ESForwSacShort 273
999 WORDS_convergent~25 294
999 WORDFREQ_0.41 294
999 WORDSALL_convergent~25 294
999 COSIND_-0.01 294
999 COSGEN_-0.01 294
201 ESForwSacShort 294
999 WORDS_organisations~24 151
999 WORDFREQ_4.8 151
999 WORDSALL_organisations~24 151
999 COSIND_0.35 151
999 COSGEN_0.35 151
205 ESBackSacRegrShort 151
999 WORDS_convergent~25 284
999 WORDFREQ_0.41 284
999 WORDSALL_convergent~25 284
999 COSIND_-0.01 284
999 COSGEN_-0.01 284
201 ESForwSacShort 284
999 WORDS_réfugiés~30 158
999 WORDFREQ_8.18 158
999 WORDSALL_camps~28_réfugiés~30 158
999 COSIND_0.12 158
999 COSGEN_0.12 158
202 ESForwSacLong+5+19 158
999 WORDS_camps~28 185
999 WORDFREQ_21.62 185
999 WORDSALL_les~27_camps~28 185
999 COSIND_0.57 185
999 COSGEN_0.57 185
206 ESBackSacRegrLong-2-4 185
999 WORDS_réfugiés~30 139
999 WORDFREQ_8.18 139
999 WORDSALL_de~29_réfugiés~30 139
999 COSIND_0.12 139
999 COSGEN_0.12 139
202 ESForwSacLong+2+4 139
999 WORDS_convergent~25 183
999 WORDFREQ_0.41 183
999 WORDSALL_convergent~25 183
999 COSIND_-0.01 183
999 COSGEN_-0.01 183
206 ESBackSacRegrLong-5-19 183
999 WORDS_réfugiés~30 327
999 WORDFREQ_8.18 327
999 WORDSALL_de~29_réfugiés~30 327
999 COSIND_0.12 327
999 COSGEN_0.12 327
202 ESForwSacLong+5+19 327
200 ESRankN 327
199 ESRankNMinus1 183
198 ESRankNMinus2 139
197 ESRankNMinus3 185
196 ESRankNMinus4 158
195 ESRankNMinus5 284
194 ESRankNMinus6 151
193 ESRankNMinus7 294
192 ESRankNMinus8 273
191 ESRankNMinus9 195
190 ESRankNMinus10 154
