999 WORDS_Moscou~1 248
999 WORDFREQ_N/A 248
999 WORDSALL_A~0_Moscou~1 248
999 COSIND_N/A 248
101 ESRank1 248
999 WORDS_communiqués~3 146
999 WORDFREQ_1.96 146
999 WORDSALL_les~2_communiqués~3 146
999 COSIND_-0.03 146
999 COSGEN_-0.03 146
102 ESRank2 146
202 ESForwSacLong+2+5 146
999 WORDS_communiqués~3 244
999 WORDFREQ_1.96 244
999 WORDSALL_les~2_communiqués~3 244
999 COSIND_-0.03 244
999 COSGEN_-0.03 244
103 ESRank3 244
203 ESBackSacRefixation 244
999 WORDS_triomphants~4 279
999 WORDFREQ_1.42 279
999 WORDSALL_communiqués~3_triomphants~4 279
999 COSIND_0.08 279
999 COSGEN_0.08 279
104 ESRank4 279
201 ESForwSacShort 279
999 WORDS_triomphants~4 149
999 WORDFREQ_1.42 149
999 WORDSALL_triomphants~4 149
999 COSIND_0.08 149
999 COSGEN_0.08 149
105 ESRank5 149
203 ESBackSacRefixation 149
999 WORDS_succèdent~6 231
999 WORDFREQ_5.07 231
999 WORDSALL_succèdent~6 231
999 COSIND_0.06 231
999 COSGEN_0.06 231
106 ESRank6 231
202 ESForwSacLong+2+4 231
999 WORDS_Daghestan~9 195
999 WORDFREQ_N/A 195
999 WORDSALL_Dans~7_Daghestan~9 195
999 COSIND_N/A 195
107 ESRank7 195
202 ESForwSacLong+3+9 195
999 WORDS_Daghestan~9 246
999 WORDFREQ_N/A 246
999 WORDSALL_le~8_Daghestan~9 246
999 COSIND_N/A 246
108 ESRank8 246
203 ESBackSacRefixation 246
999 WORDS_rebelles~11 243
999 WORDFREQ_4.26 243
999 WORDSALL_les~10_rebelles~11 243
999 COSIND_0.20 243
999 COSGEN_0.20 243
109 ESRank9 243
202 ESForwSacLong+2+5 243
999 WORDS_rebelles~11 146
999 WORDFREQ_4.26 146
999 WORDSALL_les~10_rebelles~11 146
999 COSIND_0.20 146
999 COSGEN_0.20 146
110 ESRank10 146
203 ESBackSacRefixation 146
999 WORDS_sont~12 365
999 WORDFREQ_713.18 365
999 WORDSALL_sont~12 365
999 COSIND_0.02 365
999 COSGEN_0.02 365
111 ESRank11 365
201 ESForwSacShort 365
999 WORDS_encerclés~14 394
999 WORDFREQ_0.68 394
999 WORDSALL_encerclés~14 394
999 COSIND_-0.00 394
999 COSGEN_-0.00 394
112 ESRank12 394
202 ESForwSacLong+2+15 394
999 WORDS_chef~16 303
999 WORDFREQ_172.57 303
999 WORDSALL_leur~15_chef~16 303
999 COSIND_1.00 303
999 COSGEN_1.00 303
113 ESRank13 303
202 ESForwSacLong+2+6 303
999 WORDS_blessé~19 154
999 WORDFREQ_9.19 154
999 WORDSALL_est~18_blessé~19 154
999 COSIND_-0.00 154
999 COSGEN_-0.00 154
114 ESRank14 154
202 ESForwSacLong+3+15 154
999 WORDS_militaire~17 252
999 WORDFREQ_69.19 252
999 WORDSALL_militaire~17 252
999 COSIND_-0.03 252
999 COSGEN_-0.03 252
115 ESRank15 252
206 ESBackSacRegrLong-2-5 252
999 WORDS_militaire~17 270
999 WORDFREQ_69.19 270
999 WORDSALL_militaire~17 270
999 COSIND_-0.03 270
999 COSGEN_-0.03 270
116 ESRank16 270
203 ESBackSacRefixation 270
999 WORDS_blessé~19 238
999 WORDFREQ_9.19 238
999 WORDSALL_est~18_blessé~19 238
999 COSIND_-0.00 238
999 COSGEN_-0.00 238
117 ESRank17 238
202 ESForwSacLong+2+5 238
200 ESRankN 238
199 ESRankNMinus1 270
198 ESRankNMinus2 252
197 ESRankNMinus3 154
196 ESRankNMinus4 303
195 ESRankNMinus5 394
194 ESRankNMinus6 365
193 ESRankNMinus7 146
192 ESRankNMinus8 243
191 ESRankNMinus9 246
190 ESRankNMinus10 195
