999 WORDS_problème~1 122
999 WORDFREQ_55.2 122
999 WORDSALL_Le~0_problème~1 122
999 COSIND_0.00 122
999 COSGEN_0.00 122
101 ESRank1 122
999 WORDS_problème~1 118
999 WORDFREQ_55.2 118
999 WORDSALL_problème~1 118
999 COSIND_0.00 118
999 COSGEN_0.00 118
102 ESRank2 118
203 ESBackSacRefixation 118
999 WORDS_devra~3 164
999 WORDFREQ_8.04 164
999 WORDSALL_que~2_devra~3 164
999 COSIND_-0.00 164
999 COSGEN_-0.00 164
103 ESRank3 164
202 ESForwSacLong+2+5 164
999 WORDS_gérer~4 124
999 WORDFREQ_1.22 124
999 WORDSALL_devra~3_gérer~4 124
999 COSIND_0.14 124
999 COSGEN_0.14 124
104 ESRank4 124
201 ESForwSacShort 124
999 WORDS_gérer~4 138
999 WORDFREQ_1.22 138
999 WORDSALL_gérer~4 138
999 COSIND_0.14 138
999 COSGEN_0.14 138
105 ESRank5 138
203 ESBackSacRefixation 138
999 WORDS_gouvernement~6 148
999 WORDFREQ_119.73 148
999 WORDSALL_le~5_gouvernement~6 148
999 COSIND_0.03 148
999 COSGEN_0.03 148
106 ESRank6 148
202 ESForwSacLong+2+4 148
999 WORDS_canaliser~9 197
999 WORDFREQ_0.74 197
999 WORDSALL_est~7_canaliser~9 197
999 COSIND_0.27 197
999 COSGEN_0.27 197
107 ESRank7 197
202 ESForwSacLong+3+8 197
999 WORDS_canaliser~9 160
999 WORDFREQ_0.74 160
999 WORDSALL_canaliser~9 160
999 COSIND_0.27 160
999 COSGEN_0.27 160
108 ESRank8 160
203 ESBackSacRefixation 160
999 WORDS_retour~11 318
999 WORDFREQ_153.31 318
999 WORDSALL_le~10_retour~11 318
999 COSIND_0.20 318
999 COSGEN_0.20 318
109 ESRank9 318
202 ESForwSacLong+2+4 318
999 WORDS_sinistrés~13 216
999 WORDFREQ_0.54 216
999 WORDSALL_des~12_sinistrés~13 216
999 COSIND_0.32 216
999 COSGEN_0.32 216
110 ESRank10 216
202 ESForwSacLong+2+5 216
999 WORDS_familles~16 275
999 WORDFREQ_32.7 275
999 WORDSALL_les~15_familles~16 275
999 COSIND_0.09 275
999 COSGEN_0.09 275
111 ESRank11 275
202 ESForwSacLong+3+10 275
999 WORDS_d'accueil~17 170
999 WORDFREQ_16.22 170
999 WORDSALL_familles~16_d'accueil~17 170
999 COSIND_0.51 170
999 COSGEN_0.51 170
112 ESRank12 170
201 ESForwSacShort 170
999 WORDS_d'accueil~17 192
999 WORDFREQ_16.22 192
999 WORDSALL_d'accueil~17 192
999 COSIND_0.51 192
999 COSGEN_0.51 192
113 ESRank13 192
203 ESBackSacRefixation 192
999 WORDS_préalable~19 290
999 WORDFREQ_1.96 290
999 WORDSALL_Le~18_préalable~19 290
999 COSIND_-0.03 290
999 COSGEN_-0.03 290
114 ESRank14 290
202 ESForwSacLong+2+4 290
999 WORDS_identification~22 220
999 WORDFREQ_1.76 220
999 WORDSALL_leur~21_identification~22 220
999 COSIND_0.06 220
999 COSGEN_0.06 220
115 ESRank15 220
202 ESForwSacLong+3+10 220
999 WORDS_identification~22 139
999 WORDFREQ_1.76 139
999 WORDSALL_identification~22 139
999 COSIND_0.06 139
999 COSGEN_0.06 139
116 ESRank16 139
203 ESBackSacRefixation 139
999 WORDS_n'ont~25 251
999 WORDFREQ_240.61 251
999 WORDSALL_ils~24_n'ont~25 251
999 COSIND_0.00 251
999 COSGEN_0.00 251
117 ESRank17 251
202 ESForwSacLong+3+9 251
999 WORDS_d'identité~29 176
999 WORDFREQ_22.64 176
999 WORDSALL_pièce~28_d'identité~29 176
999 COSIND_-0.03 176
999 COSGEN_-0.03 176
118 ESRank18 176
202 ESForwSacLong+4+16 176
999 WORDS_pièce~28 255
999 WORDFREQ_193.78 255
999 WORDSALL_de~27_pièce~28 255
999 COSIND_-0.00 255
999 COSGEN_-0.00 255
119 ESRank19 255
205 ESBackSacRegrShort 255
200 ESRankN 255
199 ESRankNMinus1 176
198 ESRankNMinus2 251
197 ESRankNMinus3 139
196 ESRankNMinus4 220
195 ESRankNMinus5 290
194 ESRankNMinus6 192
193 ESRankNMinus7 170
192 ESRankNMinus8 275
191 ESRankNMinus9 216
190 ESRankNMinus10 318
