999 WORDS_football~1 105
999 WORDFREQ_6.28 105
999 WORDSALL_Le~0_football~1 105
999 COSIND_0.00 105
999 COSGEN_0.00 105
101 ESRank1 105
999 WORDS_équipes~9 146
999 WORDFREQ_8.04 146
999 WORDSALL_est~2_sport~4_équipes~9 146
999 COSIND_0.01 146
999 COSGEN_0.01 146
102 ESRank2 146
202 ESForwSacLong+8+40 146
999 WORDS_onze~11 244
999 WORDFREQ_38.85 244
999 WORDSALL_sport~4_collectif~5_onze~11 244
999 COSIND_0.09 244
999 COSGEN_0.09 244
103 ESRank3 244
202 ESForwSacLong+2+4 244
200 ESRankN 244
199 ESRankNMinus1 146
198 ESRankNMinus2 105
