999 WORDS_baie~1 462
999 WORDFREQ_14.86 462
999 WORDSALL_La~0_baie~1 462
999 COSIND_-0.02 462
999 COSGEN_-0.02 462
101 ESRank1 462
999 WORDS_Somme~3 504
999 WORDFREQ_72.7 504
999 WORDSALL_baie~1_Somme~3 504
999 COSIND_-0.02 504
999 COSGEN_-0.02 504
102 ESRank2 504
202 ESForwSacLong+2+4 504
999 WORDS_baie~1 149
999 WORDFREQ_14.86 149
999 WORDSALL_La~0_baie~1 149
999 COSIND_-0.02 149
999 COSGEN_-0.02 149
103 ESRank3 149
206 ESBackSacRegrLong-2-4 149
999 WORDS_Somme~3 206
999 WORDFREQ_72.7 206
999 WORDSALL_baie~1_Somme~3 206
999 COSIND_-0.02 206
999 COSGEN_-0.02 206
104 ESRank4 206
202 ESForwSacLong+2+4 206
999 WORDS_Somme~3 185
999 WORDFREQ_72.7 185
999 WORDSALL_de~2_Somme~3 185
999 COSIND_-0.02 185
999 COSGEN_-0.02 185
105 ESRank5 185
203 ESBackSacRefixation 185
999 WORDS_hiver~5 254
999 WORDFREQ_96.28 254
999 WORDSALL_Somme~3_hiver~5 254
999 COSIND_0.02 254
999 COSGEN_0.02 254
106 ESRank6 254
202 ESForwSacLong+2+4 254
999 WORDS_hiver~5 92
999 WORDFREQ_96.28 92
999 WORDSALL_en~4_hiver~5 92
999 COSIND_0.02 92
999 COSGEN_0.02 92
107 ESRank7 92
203 ESBackSacRefixation 92
999 WORDS_l'espace~6 259
999 WORDFREQ_78.58 259
999 WORDSALL_hiver~5_l'espace~6 259
999 COSIND_0.12 259
999 COSGEN_0.12 259
108 ESRank8 259
201 ESForwSacShort 259
999 WORDS_l'espace~6 202
999 WORDFREQ_78.58 202
999 WORDSALL_l'espace~6 202
999 COSIND_0.12 202
999 COSGEN_0.12 202
109 ESRank9 202
203 ESBackSacRefixation 202
999 WORDS_l'espace~6 134
999 WORDFREQ_78.58 134
999 WORDSALL_l'espace~6 134
999 COSIND_0.12 134
999 COSGEN_0.12 134
110 ESRank10 134
203 ESBackSacRefixation 134
999 WORDS_silence~8 214
999 WORDFREQ_313.24 214
999 WORDSALL_La~0_baie~1_silence~8 214
999 COSIND_0.06 214
999 COSGEN_0.06 214
111 ESRank11 214
202 ESForwSacLong+2+4 214
999 WORDS_silence~8 254
999 WORDFREQ_313.24 254
999 WORDSALL_silence~8 254
999 COSIND_0.06 254
999 COSGEN_0.06 254
112 ESRank12 254
203 ESBackSacRefixation 254
999 WORDS_instants~10 269
999 WORDFREQ_54.32 269
999 WORDSALL_de~2_Somme~3_instants~10 269
999 COSIND_0.05 269
999 COSGEN_0.05 269
113 ESRank13 269
202 ESForwSacLong+2+5 269
999 WORDS_instants~10 326
999 WORDFREQ_54.32 326
999 WORDSALL_des~9_instants~10 326
999 COSIND_0.05 326
999 COSGEN_0.05 326
114 ESRank14 326
203 ESBackSacRefixation 326
999 WORDS_fugaces~11 430
999 WORDFREQ_1.22 430
999 WORDSALL_fugaces~11 430
999 COSIND_-0.01 430
999 COSGEN_-0.01 430
115 ESRank15 430
201 ESForwSacShort 430
999 WORDS_coucher~18 162
999 WORDFREQ_8.11 162
999 WORDSALL_et~12_coucher~18 162
999 COSIND_0.03 162
999 COSGEN_0.03 162
116 ESRank16 162
202 ESForwSacLong+7+36 162
999 WORDS_lumières~14 231
999 WORDFREQ_35.61 231
999 WORDSALL_silence~8_lumières~14 231
999 COSIND_-0.04 231
999 COSGEN_-0.04 231
117 ESRank17 231
206 ESBackSacRegrLong-4-19 231
999 WORDS_lumières~14 149
999 WORDFREQ_35.61 149
999 WORDSALL_silence~8_lumières~14 149
999 COSIND_-0.04 149
999 COSGEN_-0.04 149
118 ESRank18 149
203 ESBackSacRefixation 149
999 WORDS_magiques~15 268
999 WORDFREQ_6.08 268
999 WORDSALL_des~9_instants~10_magiques~15 268
999 COSIND_-0.17 268
999 COSGEN_-0.17 268
119 ESRank19 268
201 ESForwSacShort 268
999 WORDS_fugaces~11 247
999 WORDFREQ_1.22 247
999 WORDSALL_instants~10_fugaces~11 247
999 COSIND_-0.01 247
999 COSGEN_-0.01 247
120 ESRank20 247
206 ESBackSacRegrLong-4-18 247
999 WORDS_coucher~18 421
999 WORDFREQ_8.11 421
999 WORDSALL_fugaces~11_coucher~18 421
999 COSIND_0.03 421
999 COSGEN_0.03 421
202 ESForwSacLong+7+36 421
999 WORDS_soleil~20 371
999 WORDFREQ_328.78 371
999 WORDSALL_soleil~20 371
999 COSIND_-0.08 371
999 COSGEN_-0.08 371
202 ESForwSacLong+2+4 371
200 ESRankN 371
199 ESRankNMinus1 421
198 ESRankNMinus2 247
197 ESRankNMinus3 268
196 ESRankNMinus4 149
195 ESRankNMinus5 231
194 ESRankNMinus6 162
193 ESRankNMinus7 430
192 ESRankNMinus8 326
191 ESRankNMinus9 269
190 ESRankNMinus10 254
