999 WORDS_soixantaine~1 99
999 WORDFREQ_4.53 99
999 WORDSALL_Une~0_soixantaine~1 99
999 COSIND_0.03 99
999 COSGEN_0.03 99
101 ESRank1 99
999 WORDS_jeunes~3 103
999 WORDFREQ_30.14 103
999 WORDSALL_de~2_jeunes~3 103
999 COSIND_0.28 103
999 COSGEN_0.28 103
102 ESRank2 103
202 ESForwSacLong+2+4 103
999 WORDS_jeunes~3 123
999 WORDFREQ_30.14 123
999 WORDSALL_jeunes~3 123
999 COSIND_0.28 123
999 COSGEN_0.28 123
103 ESRank3 123
203 ESBackSacRefixation 123
999 WORDS_Courneuve~6 174
999 WORDFREQ_N/A 174
999 WORDSALL_la~5_Courneuve~6 174
999 COSIND_N/A 174
104 ESRank4 174
202 ESForwSacLong+3+7 174
999 WORDS_ont~7 154
999 WORDFREQ_240.61 154
999 WORDSALL_ont~7 154
999 COSIND_-0.09 154
999 COSGEN_-0.09 154
105 ESRank5 154
201 ESForwSacShort 154
999 WORDS_incendié~8 137
999 WORDFREQ_0.47 137
999 WORDSALL_incendié~8 137
999 COSIND_0.01 137
999 COSGEN_0.01 137
106 ESRank6 137
201 ESForwSacShort 137
200 ESRankN 137
199 ESRankNMinus1 154
198 ESRankNMinus2 174
197 ESRankNMinus3 123
196 ESRankNMinus4 103
195 ESRankNMinus5 99
