999 WORDS_jours~1 124
999 WORDFREQ_515.41 124
999 WORDSALL_jours~1 124
999 COSIND_-0.00 124
999 COSGEN_-0.00 124
101 ESRank1 124
999 WORDS_grains~3 187
999 WORDFREQ_11.69 187
999 WORDSALL_de~2_grains~3 187
999 COSIND_-0.00 187
999 COSGEN_-0.00 187
102 ESRank2 187
202 ESForwSacLong+2+4 187
999 WORDS_venus~5 141
999 WORDFREQ_40.41 141
999 WORDSALL_sont~4_venus~5 141
999 COSIND_-0.00 141
999 COSGEN_-0.00 141
103 ESRank3 141
202 ESForwSacLong+2+6 141
999 WORDS_clore~6 138
999 WORDFREQ_2.57 138
999 WORDSALL_venus~5_clore~6 138
999 COSIND_-0.02 138
999 COSGEN_-0.02 138
104 ESRank4 138
201 ESForwSacShort 138
999 WORDS_traversée~8 180
999 WORDFREQ_13.58 180
999 WORDSALL_Quatre~0_traversée~8 180
999 COSIND_-0.01 180
999 COSGEN_-0.01 180
105 ESRank5 180
202 ESForwSacLong+2+4 180
999 WORDS_traversée~8 141
999 WORDFREQ_13.58 141
999 WORDSALL_Quatre~0_traversée~8 141
999 COSIND_-0.01 141
999 COSGEN_-0.01 141
106 ESRank6 141
203 ESBackSacRefixation 141
999 WORDS_Pacifique~10 105
999 WORDFREQ_0.34 105
999 WORDSALL_de~2_grains~3_Pacifique~10 105
999 COSIND_-0.02 105
999 COSGEN_-0.02 105
107 ESRank7 105
202 ESForwSacLong+2+4 105
999 WORDS_a~12 162
999 WORDFREQ_2926.69 162
999 WORDSALL_L'eau~11_a~12 162
999 COSIND_N/A 162
108 ESRank8 162
202 ESForwSacLong+2+7 162
999 WORDS_gagné~13 108
999 WORDFREQ_33.51 108
999 WORDSALL_L'eau~11_a~12_gagné~13 108
999 COSIND_-0.03 108
999 COSGEN_-0.03 108
109 ESRank9 108
201 ESForwSacShort 108
999 WORDS_bagarre~15 227
999 WORDFREQ_9.86 227
999 WORDSALL_traversée~8_bagarre~15 227
999 COSIND_-0.01 227
999 COSGEN_-0.01 227
110 ESRank10 227
202 ESForwSacLong+2+4 227
999 WORDS_était~18 210
999 WORDFREQ_3688.99 210
999 WORDSALL_du~9_Pacifique~10_était~18 210
999 COSIND_-0.01 210
999 COSGEN_-0.01 210
111 ESRank11 210
202 ESForwSacLong+3+9 210
999 WORDS_trempé~19 111
999 WORDFREQ_3.85 111
999 WORDSALL_Pacifique~10_L'eau~11_trempé~19 111
999 COSIND_-0.04 111
999 COSGEN_-0.04 111
112 ESRank12 111
201 ESForwSacShort 111
999 WORDS_trempé~19 181
999 WORDFREQ_3.85 181
999 WORDSALL_trempé~19 181
999 COSIND_-0.04 181
999 COSGEN_-0.04 181
113 ESRank13 181
203 ESBackSacRefixation 181
999 WORDS_idéal~27 96
999 WORDFREQ_7.97 96
999 WORDSALL_trempé~19_à~20_idéal~27 96
999 COSIND_-0.02 96
999 COSGEN_-0.02 96
114 ESRank14 96
202 ESForwSacLong+8+40 96
200 ESRankN 96
199 ESRankNMinus1 181
198 ESRankNMinus2 111
197 ESRankNMinus3 210
196 ESRankNMinus4 227
195 ESRankNMinus5 108
194 ESRankNMinus6 162
193 ESRankNMinus7 105
192 ESRankNMinus8 141
191 ESRankNMinus9 180
190 ESRankNMinus10 138
