999 WORDS_voiture~1 155
999 WORDFREQ_221.15 155
999 WORDSALL_voiture~1 155
999 COSIND_0.00 155
999 COSGEN_0.00 155
101 ESRank1 155
999 WORDS_présidente~4 163
999 WORDFREQ_1.08 163
999 WORDSALL_la~3_présidente~4 163
999 COSIND_0.04 163
999 COSGEN_0.04 163
102 ESRank2 163
202 ESForwSacLong+3+7 163
999 WORDS_cour~7 134
999 WORDFREQ_150.14 134
999 WORDSALL_de~5_cour~7 134
999 COSIND_-0.00 134
999 COSGEN_-0.00 134
103 ESRank3 134
202 ESForwSacLong+3+7 134
999 WORDS_d'assises~8 300
999 WORDFREQ_6.55 300
999 WORDSALL_La~0_voiture~1_d'assises~8 300
999 COSIND_-0.02 300
999 COSGEN_-0.02 300
104 ESRank4 300
201 ESForwSacShort 300
999 WORDS_nuit~16 112
999 WORDFREQ_672.36 112
999 WORDSALL_de~9_Haute-Corse~10_nuit~16 112
999 COSIND_0.04 112
999 COSGEN_0.04 112
105 ESRank5 112
202 ESForwSacLong+8+43 112
999 WORDS_samedi~18 177
999 WORDFREQ_34.26 177
999 WORDSALL_samedi~18 177
999 COSIND_0.00 177
999 COSGEN_0.00 177
106 ESRank6 177
202 ESForwSacLong+2+4 177
999 WORDS_enquêteurs~25 155
999 WORDFREQ_1.82 155
999 WORDSALL_enquêteurs~25 155
999 COSIND_-0.02 155
999 COSGEN_-0.02 155
107 ESRank7 155
202 ESForwSacLong+7+33 155
999 WORDS_s'agirait~27 158
999 WORDFREQ_3.85 158
999 WORDSALL_il~26_s'agirait~27 158
999 COSIND_0.03 158
999 COSGEN_0.03 158
108 ESRank8 158
202 ESForwSacLong+2+4 158
200 ESRankN 158
199 ESRankNMinus1 155
198 ESRankNMinus2 177
197 ESRankNMinus3 112
196 ESRankNMinus4 300
195 ESRankNMinus5 134
194 ESRankNMinus6 163
193 ESRankNMinus7 155
