999 WORDS_gouvernements~1 134
999 WORDFREQ_12.3 134
999 WORDSALL_Nos~0_gouvernements~1 134
999 COSIND_0.03 134
999 COSGEN_0.03 134
101 ESRank1 134
999 WORDS_gouvernements~1 129
999 WORDFREQ_12.3 129
999 WORDSALL_gouvernements~1 129
999 COSIND_0.03 129
999 COSGEN_0.03 129
102 ESRank2 129
203 ESBackSacRefixation 129
999 WORDS_coopéreront~2 167
999 WORDFREQ_0 167
999 WORDSALL_coopéreront~2 167
999 COSIND_0.16 167
999 COSGEN_0.16 167
103 ESRank3 167
201 ESForwSacShort 167
999 WORDS_avec~3 97
999 WORDFREQ_4000.41 97
999 WORDSALL_avec~3 97
999 COSIND_N/A 97
104 ESRank4 97
201 ESForwSacShort 97
999 WORDS_Tribunal~5 204
999 WORDFREQ_15 204
999 WORDSALL_Tribunal~5 204
999 COSIND_0.81 204
999 COSGEN_0.81 204
105 ESRank5 204
202 ESForwSacLong+2+4 204
999 WORDS_pénal~6 141
999 WORDFREQ_2.91 141
999 WORDSALL_pénal~6 141
999 COSIND_0.53 141
999 COSGEN_0.53 141
106 ESRank6 141
201 ESForwSacShort 141
999 WORDS_international~7 161
999 WORDFREQ_9.12 161
999 WORDSALL_international~7 161
999 COSIND_0.87 161
999 COSGEN_0.87 161
107 ESRank7 161
201 ESForwSacShort 161
999 WORDS_pour~8 104
999 WORDFREQ_6198.24 104
999 WORDSALL_pour~8 104
999 COSIND_N/A 104
108 ESRank8 104
201 ESForwSacShort 104
999 WORDS_l'ex-Yougoslavie~9 274
999 WORDFREQ_N/A 274
999 WORDSALL_l'ex-Yougoslavie~9 274
999 COSIND_N/A 274
109 ESRank9 274
201 ESForwSacShort 274
200 ESRankN 274
199 ESRankNMinus1 104
198 ESRankNMinus2 161
197 ESRankNMinus3 141
196 ESRankNMinus4 204
195 ESRankNMinus5 97
194 ESRankNMinus6 167
193 ESRankNMinus7 129
192 ESRankNMinus8 134
