# 207 Fixation 1 (328.4,257.5): On~0 souvient~2
# 290 Fixation 2 (445.8,306): souvient~2 fameux~4
# 219 Fixation 3 (378.5,344.9): par~9 Andy~10
# 228 Fixation 4 (548.4,340.1): Le~12 pop-artiste~13
# 107 Fixation 5 (620.3,338.5): pop-artiste~13
# 152 Fixation 6 (379,401.8): américain~14 avait~15
# 230 Fixation 7 (296.1,414.5): américain~14
%%
# On~0 Fixations= "1/"
# se~1 Fixations= ""
# souvient~2 Fixations= "2/"
# du~3 Fixations= ""
# fameux~4 Fixations= "2/"
# symbole~5 Fixations= ""
# du~6 Fixations= ""
# dollar~7 Fixations= ""
# revu~8 Fixations= ""
# par~9 Fixations= "3/"
# Andy~10 Fixations= "3/"
# Warhol~11 Fixations= ""
# Le~12 Fixations= "4/"
# pop-artiste~13 Fixations= "5/"
# américain~14 Fixations= "7/"
# avait~15 Fixations= "6/"
# d'un~16 Fixations= ""
# signe~17 Fixations= ""
# simple~18 Fixations= ""
# amalgamé~19 Fixations= ""
# l'art~20 Fixations= ""
# et~21 Fixations= ""
# l'argent~22 Fixations= ""
# pour~23 Fixations= ""
# la~24 Fixations= ""
# plus~25 Fixations= ""
# grande~26 Fixations= ""
# joie~27 Fixations= ""
# de~28 Fixations= ""
# ses~29 Fixations= ""
# collectionneurs~30 Fixations= ""
%%
#  ON[1] se SOUVIENT[2] du FAMEUX[2] symbole du dollar revu PAR[3] ANDY[3] Warhol LE[4] POP-ARTISTE[5] AMéRICAIN[7] AVAIT[6] d'un signe simple amalgamé l'art et l'argent pour la plus grande joie de ses collectionneurs
# s21 art_contemporain-f1 PercentageOfWordsProcessed= 0.290322580645161 PercentageOfWordsReallyProcessed= 0.5625
