# 188 Fixation 1 (360,347.5): jours~1 Agni-2~8 Pakistan~10
# 117 Fixation 2 (314.5,322.3): Trois~0 jours~1 Agni-2~8
# 155 Fixation 3 (369.6,288.9): jours~1
# 145 Fixation 4 (461.3,273.4): après~2
# 172 Fixation 5 (570,277.1): tir~4
# 143 Fixation 6 (641.5,285.3): du~5 missile~6
# 99 Fixation 7 (727.5,284.8): missile~6 indien~7
# 257 Fixation 8 (319.3,357.8): Agni-2~8
# 82 Fixation 9 (438.1,344.4): après~2 Pakistan~10
# 299 Fixation 10 (282.9,347.8): Trois~0 Agni-2~8
# 179 Fixation 11 (463.7,340.7): après~2 Pakistan~10 a~11
# 255 Fixation 12 (564.7,346.2): tir~4 a~11 répliqué~12
%%
# Trois~0 Fixations= "10/"
# jours~1 Fixations= "3/"
# après~2 Fixations= "11/"
# le~3 Fixations= ""
# tir~4 Fixations= "12/"
# du~5 Fixations= "6/"
# missile~6 Fixations= "7/"
# indien~7 Fixations= "7/"
# Agni-2~8 Fixations= "10/"
# le~9 Fixations= ""
# Pakistan~10 Fixations= "11/"
# a~11 Fixations= "12/"
# répliqué~12 Fixations= "12/"
# en~13 Fixations= ""
# tirant~14 Fixations= ""
# une~15 Fixations= ""
# version~16 Fixations= ""
# améliorée~17 Fixations= ""
# de~18 Fixations= ""
# son~19 Fixations= ""
# missile~20 Fixations= ""
# balistique~21 Fixations= ""
# de~22 Fixations= ""
# moyenne~23 Fixations= ""
# portée~24 Fixations= ""
# le~25 Fixations= ""
# Ghauri~26 Fixations= ""
# depuis~27 Fixations= ""
# le~28 Fixations= ""
# centre~29 Fixations= ""
# d'essai~30 Fixations= ""
# de~31 Fixations= ""
# Jhelum~32 Fixations= ""
%%
#  TROIS[10] JOURS[3] APRèS[11] le TIR[12] DU[6] MISSILE[7] INDIEN[7] AGNI-2[10] le PAKISTAN[11] A[12] RéPLIQUé[12] en tirant une version améliorée de son missile balistique de moyenne portée le Ghauri depuis le centre d'essai de Jhelum
# s04 plantation_fleurs-a2 PercentageOfWordsProcessed= 0.333333333333333 PercentageOfWordsReallyProcessed= 0.846153846153846
