# 133 Fixation 1 (354.3,289.9): malaise~1
# 126 Fixation 2 (454.5,296.6): des~2 personnels~3
# 116 Fixation 3 (513,296.7): personnels~3
# 177 Fixation 4 (621.5,292.8): porte~4
# 109 Fixation 5 (672.9,292): porte~4 également~5
# 173 Fixation 6 (346.6,338.6): une~7 réforme~8
# 117 Fixation 7 (411.9,346.7): réforme~8
# 146 Fixation 8 (525,349.8): de~9 statut~11
# 149 Fixation 9 (578.1,353.3): leur~10 statut~11
# 148 Fixation 10 (680.2,360.1): Ils~12 ont~13
# 106 Fixation 11 (729.4,363.9): Ils~12 ont~13
# 122 Fixation 12 (423.2,399.9): par~16 direction~18
# 140 Fixation 13 (342.9,401.2): avertis~15
# 193 Fixation 14 (460.6,407.8): la~17 direction~18
# 267 Fixation 15 (644.9,425.3): de~19 teneur~21
# 163 Fixation 16 (615.8,473.4): la~27 réunion~28
# 100 Fixation 17 (644.3,475.3): la~27 réunion~28
# 113 Fixation 18 (402.8,495.7): réforme~24 juste~25
# 135 Fixation 19 (344.6,499.1): cette~23 réforme~24
# 177 Fixation 20 (519.5,512): procéder~33
%%
# Le~0 Fixations= ""
# malaise~1 Fixations= "1/"
# des~2 Fixations= "2/"
# personnels~3 Fixations= "3/"
# porte~4 Fixations= "5/"
# également~5 Fixations= "5/"
# sur~6 Fixations= ""
# une~7 Fixations= "6/"
# réforme~8 Fixations= "7/"
# de~9 Fixations= "8/"
# leur~10 Fixations= "9/"
# statut~11 Fixations= "9/"
# Ils~12 Fixations= "11/"
# ont~13 Fixations= "11/"
# été~14 Fixations= ""
# avertis~15 Fixations= "13/"
# par~16 Fixations= "12/"
# la~17 Fixations= "14/"
# direction~18 Fixations= "14/"
# de~19 Fixations= "15/"
# la~20 Fixations= ""
# teneur~21 Fixations= "15/"
# de~22 Fixations= ""
# cette~23 Fixations= "19/"
# réforme~24 Fixations= "19/"
# juste~25 Fixations= "18/"
# avant~26 Fixations= ""
# la~27 Fixations= "17/"
# réunion~28 Fixations= "17/"
# du~29 Fixations= ""
# comité~30 Fixations= ""
# qui~31 Fixations= ""
# devait~32 Fixations= ""
# procéder~33 Fixations= "20/"
# à~34 Fixations= ""
# son~35 Fixations= ""
# examen~36 Fixations= ""
%%
#  Le MALAISE[1] DES[2] PERSONNELS[3] PORTE[5] éGALEMENT[5] sur UNE[6] RéFORME[7] DE[8] LEUR[9] STATUT[9] ILS[11] ONT[11] été AVERTIS[13] PAR[12] LA[14] DIRECTION[14] DE[15] la TENEUR[15] de CETTE[19] RéFORME[19] JUSTE[18] avant LA[17] RéUNION[17] du comité qui devait PROCéDER[20] à son examen
# s08 greve_cheminot-m2 PercentageOfWordsProcessed= 0.648648648648649 PercentageOfWordsReallyProcessed= 0.705882352941177
