999 WORDS_producteurs~1 135
999 WORDFREQ_2.03 135
999 WORDSALL_Les~0_producteurs~1 135
999 COSIND_0.32 135
999 COSGEN_0.32 135
101 ESRank1 135
999 WORDS_producteurs~1 122
999 WORDFREQ_2.03 122
999 WORDSALL_producteurs~1 122
999 COSIND_0.32 122
999 COSGEN_0.32 122
102 ESRank2 122
203 ESBackSacRefixation 122
999 WORDS_fruits~3 137
999 WORDFREQ_42.09 137
999 WORDSALL_de~2_fruits~3 137
999 COSIND_0.34 137
999 COSGEN_0.34 137
103 ESRank3 137
202 ESForwSacLong+2+4 137
999 WORDS_fruits~3 102
999 WORDFREQ_42.09 102
999 WORDSALL_de~2_fruits~3 102
999 COSIND_0.34 102
999 COSGEN_0.34 102
104 ESRank4 102
203 ESBackSacRefixation 102
999 WORDS_légumes~5 98
999 WORDFREQ_21.35 98
999 WORDSALL_et~4_légumes~5 98
999 COSIND_0.43 98
999 COSGEN_0.43 98
105 ESRank5 98
202 ESForwSacLong+2+4 98
999 WORDS_producteurs~1 210
999 WORDFREQ_2.03 210
999 WORDSALL_producteurs~1 210
999 COSIND_0.32 210
999 COSGEN_0.32 210
106 ESRank6 210
206 ESBackSacRegrLong-4-14 210
999 WORDS_à~8 136
999 WORDFREQ_19209.05 136
999 WORDSALL_à~8 136
999 COSIND_N/A 136
107 ESRank7 136
202 ESForwSacLong+7+41 136
999 WORDS_puissante~10 126
999 WORDFREQ_14.26 126
999 WORDSALL_la~9_puissante~10 126
999 COSIND_0.28 126
999 COSGEN_0.28 126
108 ESRank8 126
202 ESForwSacLong+2+4 126
999 WORDS_Fédération~11 144
999 WORDFREQ_2.23 144
999 WORDSALL_Fédération~11 144
999 COSIND_0.39 144
999 COSGEN_0.39 144
109 ESRank9 144
201 ESForwSacShort 144
999 WORDS_affiliés~7 130
999 WORDFREQ_0.07 130
999 WORDSALL_affiliés~7 130
999 COSIND_-0.05 130
999 COSGEN_-0.05 130
110 ESRank10 130
206 ESBackSacRegrLong-4-17 130
999 WORDS_affiliés~7 209
999 WORDFREQ_0.07 209
999 WORDSALL_surtout~6_affiliés~7 209
999 COSIND_-0.05 209
999 COSGEN_-0.05 209
111 ESRank11 209
203 ESBackSacRefixation 209
999 WORDS_à~8 177
999 WORDFREQ_19209.05 177
999 WORDSALL_affiliés~7_à~8 177
999 COSIND_N/A 177
112 ESRank12 177
201 ESForwSacShort 177
200 ESRankN 177
199 ESRankNMinus1 209
198 ESRankNMinus2 130
197 ESRankNMinus3 144
196 ESRankNMinus4 126
195 ESRankNMinus5 136
194 ESRankNMinus6 210
193 ESRankNMinus7 98
192 ESRankNMinus8 102
191 ESRankNMinus9 137
190 ESRankNMinus10 122
