# 117 Fixation 1 (274.5,267.6): Le~0 football~1
# 157 Fixation 2 (318.5,267): Le~0 football~1
# 208 Fixation 3 (425.5,267.8): américain~2
# 96 Fixation 4 (492.9,273.4): américain~2
# 155 Fixation 5 (575.5,284.5): est~3 sport~5
# 227 Fixation 6 (292.4,340.9): Le~0 football~1 collectif~6
# 190 Fixation 7 (454.8,344.3): américain~2 connu~7
# 148 Fixation 8 (325.4,421.1): stratégies~11
# 129 Fixation 9 (382.9,414.2): stratégies~11 complexes~12
# 185 Fixation 10 (430.3,413.8): complexes~12
# 190 Fixation 11 (417.8,484.9): Le~18 but~19
# 159 Fixation 12 (498.8,478.7): du~20 jeu~21
# 191 Fixation 13 (630.8,480.9): est~22 marquer~24
# 207 Fixation 14 (335.4,530.5): intense~17 points~26
# 134 Fixation 15 (280.2,534.3): intense~17 points~26
%%
# Le~0 Fixations= "6/"
# football~1 Fixations= "6/"
# américain~2 Fixations= "7/"
# est~3 Fixations= "5/"
# un~4 Fixations= ""
# sport~5 Fixations= "5/"
# collectif~6 Fixations= "6/"
# connu~7 Fixations= "7/"
# pour~8 Fixations= ""
# mélanger~9 Fixations= ""
# des~10 Fixations= ""
# stratégies~11 Fixations= "9/"
# complexes~12 Fixations= "10/"
# et~13 Fixations= ""
# un~14 Fixations= ""
# jeu~15 Fixations= ""
# physique~16 Fixations= ""
# intense~17 Fixations= "15/"
# Le~18 Fixations= "11/"
# but~19 Fixations= "11/"
# du~20 Fixations= "12/"
# jeu~21 Fixations= "12/"
# est~22 Fixations= "13/"
# de~23 Fixations= ""
# marquer~24 Fixations= "13/"
# des~25 Fixations= ""
# points~26 Fixations= "15/"
# en~27 Fixations= ""
# portant~28 Fixations= ""
# un~29 Fixations= ""
# ballon~30 Fixations= ""
# ovale~31 Fixations= ""
# jusqu'à~32 Fixations= ""
# une~33 Fixations= ""
# zone~34 Fixations= ""
# de~35 Fixations= ""
# but~36 Fixations= ""
# nommée~37 Fixations= ""
# end~38 Fixations= ""
%%
#  LE[6] FOOTBALL[6] AMéRICAIN[7] EST[5] un SPORT[5] COLLECTIF[6] CONNU[7] pour mélanger des STRATéGIES[9] COMPLEXES[10] et un jeu physique INTENSE[15] LE[11] BUT[11] DU[12] JEU[12] EST[13] de MARQUER[13] des POINTS[15] en portant un ballon ovale jusqu'à une zone de but nommée end
# s01 hausse_bourse-a2 PercentageOfWordsProcessed= 0.435897435897436 PercentageOfWordsReallyProcessed= 0.62962962962963
