# 97 Fixation 1 (278.4,277.6): Après~0
# 172 Fixation 2 (354.8,279.5): Après~0 l'Amérique~1
# 167 Fixation 3 (514.4,279.7): du~2 Sud~3
# 180 Fixation 4 (613.9,282.3): où~4 continue~6
# 161 Fixation 5 (654.3,280.6): il~5 continue~6
# 146 Fixation 6 (313.2,337.7): Après~0 nourrir~8
# 143 Fixation 7 (280.1,341.7): Après~0 nourrir~8
# 189 Fixation 8 (415.6,339.9): l'Amérique~1 populations~10
# 108 Fixation 9 (448.5,340.9): l'Amérique~1 Sud~3 populations~10
# 186 Fixation 10 (616.8,346.9): où~4 continue~6 maïs~12
# 284 Fixation 11 (699.3,345): continue~6 maïs~12 a~13 conquis~14
# 179 Fixation 12 (341.8,395.3): nourrir~8 reste~16
# 146 Fixation 13 (409.7,395.4): les~9 populations~10 monde~18
# 160 Fixation 14 (546.9,395.8): populations~10 maïs~12 où~19
# 156 Fixation 15 (635.2,401.1): le~11 maïs~12
# 154 Fixation 16 (721.8,405.9): a~13 conquis~14 utilisé~23
%%
# Après~0 Fixations= "7/"
# l'Amérique~1 Fixations= "9/"
# du~2 Fixations= "3/"
# Sud~3 Fixations= "9/"
# où~4 Fixations= "10/"
# il~5 Fixations= "5/"
# continue~6 Fixations= "11/"
# de~7 Fixations= ""
# nourrir~8 Fixations= "12/"
# les~9 Fixations= "13/"
# populations~10 Fixations= "14/"
# le~11 Fixations= "15/"
# maïs~12 Fixations= "15/"
# a~13 Fixations= "16/"
# conquis~14 Fixations= "16/"
# le~15 Fixations= ""
# reste~16 Fixations= "12/"
# du~17 Fixations= ""
# monde~18 Fixations= "13/"
# où~19 Fixations= "14/"
# il~20 Fixations= ""
# est~21 Fixations= ""
# surtout~22 Fixations= ""
# utilisé~23 Fixations= "16/"
# pour~24 Fixations= ""
# engraisser~25 Fixations= ""
# les~26 Fixations= ""
# troupeaux~27 Fixations= ""
%%
#  APRèS[7] L'AMéRIQUE[9] DU[3] SUD[9] Où[10] IL[5] CONTINUE[11] de NOURRIR[12] LES[13] POPULATIONS[14] LE[15] MAïS[15] A[16] CONQUIS[16] le RESTE[12] du MONDE[13] Où[14] il est surtout UTILISé[16] pour engraisser les troupeaux
# s05 delinquance_juvenile-a1 PercentageOfWordsProcessed= 0.642857142857143 PercentageOfWordsReallyProcessed= 0.75
