999 WORDS_Laure~0 242
999 WORDFREQ_N/A 242
999 WORDSALL_Laure~0 242
999 COSIND_N/A 242
101 ESRank1 242
999 WORDS_a~2 205
999 WORDFREQ_2926.69 205
999 WORDSALL_Manaudou~1_a~2 205
999 COSIND_N/A 205
102 ESRank2 205
202 ESForwSacLong+2+10 205
999 WORDS_remporté~3 191
999 WORDFREQ_2.84 191
999 WORDSALL_a~2_remporté~3 191
999 COSIND_-0.06 191
999 COSGEN_-0.06 191
103 ESRank3 191
201 ESForwSacShort 191
999 WORDS_a~2 173
999 WORDFREQ_2926.69 173
999 WORDSALL_Manaudou~1_a~2 173
999 COSIND_N/A 173
104 ESRank4 173
205 ESBackSacRegrShort 173
999 WORDS_remporté~3 195
999 WORDFREQ_2.84 195
999 WORDSALL_remporté~3 195
999 COSIND_-0.06 195
999 COSGEN_-0.06 195
105 ESRank5 195
201 ESForwSacShort 195
999 WORDS_médaille~5 212
999 WORDFREQ_9.53 212
999 WORDSALL_la~4_médaille~5 212
999 COSIND_-0.03 212
999 COSGEN_-0.03 212
106 ESRank6 212
202 ESForwSacLong+2+4 212
999 WORDS_petit~18 167
999 WORDFREQ_653.78 167
999 WORDSALL_aux~12_natation~16_petit~18 167
999 COSIND_-0.01 167
999 COSGEN_-0.01 167
107 ESRank7 167
202 ESForwSacLong+13+72 167
200 ESRankN 167
199 ESRankNMinus1 212
198 ESRankNMinus2 195
197 ESRankNMinus3 173
196 ESRankNMinus4 191
195 ESRankNMinus5 205
194 ESRankNMinus6 242
