# 203 Fixation 1 (270.8,273.5): L'économie~0
# 133 Fixation 2 (313.9,267.7): L'économie~0
# 261 Fixation 3 (431,273.5): algérienne~1
# 89 Fixation 4 (414.5,270): algérienne~1
# 251 Fixation 5 (562.6,271.5): dépend~2
# 284 Fixation 6 (671.5,285.1): de~3 l'évolution~4
# 184 Fixation 7 (275.9,342.8): des~5 cours~6
# 180 Fixation 8 (329.8,340.3): des~5 cours~6
# 244 Fixation 9 (411.1,337): du~7 pétrole~8
# 88 Fixation 10 (457.8,334.5): pétrole~8
# 247 Fixation 11 (557.5,339.9): brut~9
# 198 Fixation 12 (598.2,336.3): brut~9 Après~10
%%
# L'économie~0 Fixations= "2/"
# algérienne~1 Fixations= "4/"
# dépend~2 Fixations= "5/"
# de~3 Fixations= "6/"
# l'évolution~4 Fixations= "6/"
# des~5 Fixations= "8/"
# cours~6 Fixations= "8/"
# du~7 Fixations= "9/"
# pétrole~8 Fixations= "10/"
# brut~9 Fixations= "12/"
# Après~10 Fixations= "12/"
# être~11 Fixations= ""
# tombés~12 Fixations= ""
# à~13 Fixations= ""
# des~14 Fixations= ""
# niveaux~15 Fixations= ""
# jamais~16 Fixations= ""
# observés~17 Fixations= ""
# l'annonce~18 Fixations= ""
# par~19 Fixations= ""
# les~20 Fixations= ""
# pays~21 Fixations= ""
# producteurs~22 Fixations= ""
# d'une~23 Fixations= ""
# réduction~24 Fixations= ""
# de~25 Fixations= ""
# la~26 Fixations= ""
# production~27 Fixations= ""
# a~28 Fixations= ""
# redressé~29 Fixations= ""
# les~30 Fixations= ""
# prix~31 Fixations= ""
%%
#  L'éCONOMIE[2] ALGéRIENNE[4] DéPEND[5] DE[6] L'éVOLUTION[6] DES[8] COURS[8] DU[9] PéTROLE[10] BRUT[12] APRèS[12] être tombés à des niveaux jamais observés l'annonce par les pays producteurs d'une réduction de la production a redressé les prix
# s13 prix_petrole-f1 PercentageOfWordsProcessed= 0.34375 PercentageOfWordsReallyProcessed= 1
