999 WORDS_a~1 150
999 WORDFREQ_2926.69 150
999 WORDSALL_Il~0_a~1 150
999 COSIND_N/A 150
101 ESRank1 150
999 WORDS_a~1 160
999 WORDFREQ_2926.69 160
999 WORDSALL_Il~0_a~1 160
999 COSIND_N/A 160
102 ESRank2 160
203 ESBackSacRefixation 160
999 WORDS_forme~4 182
999 WORDFREQ_137.91 182
999 WORDSALL_une~3_forme~4 182
999 COSIND_-0.01 182
999 COSGEN_-0.01 182
103 ESRank3 182
202 ESForwSacLong+3+14 182
999 WORDS_tennis~6 239
999 WORDFREQ_13.24 239
999 WORDSALL_de~5_tennis~6 239
999 COSIND_0.46 239
999 COSGEN_0.46 239
104 ESRank4 239
202 ESForwSacLong+2+4 239
999 WORDS_tennis~6 152
999 WORDFREQ_13.24 152
999 WORDSALL_tennis~6 152
999 COSIND_0.46 152
999 COSGEN_0.46 152
105 ESRank5 152
203 ESBackSacRefixation 152
999 WORDS_convient~9 159
999 WORDFREQ_0.68 159
999 WORDSALL_convient~9 159
999 COSIND_0.03 159
999 COSGEN_0.03 159
106 ESRank6 159
202 ESForwSacLong+3+9 159
999 WORDS_convient~9 152
999 WORDFREQ_0.68 152
999 WORDSALL_convient~9 152
999 COSIND_0.03 152
999 COSGEN_0.03 152
107 ESRank7 152
203 ESBackSacRefixation 152
999 WORDS_parfaitement~10 261
999 WORDFREQ_71.08 261
999 WORDSALL_parfaitement~10 261
999 COSIND_0.00 261
999 COSGEN_0.00 261
108 ESRank8 261
201 ESForwSacShort 261
999 WORDS_rend~13 252
999 WORDFREQ_40 252
999 WORDSALL_et~11_rend~13 252
999 COSIND_-0.06 252
999 COSGEN_-0.06 252
109 ESRank9 252
202 ESForwSacLong+3+7 252
999 WORDS_rend~13 224
999 WORDFREQ_40 224
999 WORDSALL_rend~13 224
999 COSIND_-0.06 224
999 COSGEN_-0.06 224
110 ESRank10 224
203 ESBackSacRefixation 224
999 WORDS_dangereux~15 167
999 WORDFREQ_32.77 167
999 WORDSALL_dangereux~15 167
999 COSIND_0.07 167
999 COSGEN_0.07 167
111 ESRank11 167
202 ESForwSacLong+2+10 167
999 WORDS_dangereux~15 149
999 WORDFREQ_32.77 149
999 WORDSALL_dangereux~15 149
999 COSIND_0.07 149
999 COSGEN_0.07 149
112 ESRank12 149
203 ESBackSacRefixation 149
999 WORDS_façon~18 183
999 WORDFREQ_259.26 183
999 WORDSALL_Avec~16_façon~18 183
999 COSIND_0.00 183
999 COSGEN_0.00 183
113 ESRank13 183
202 ESForwSacLong+3+12 183
200 ESRankN 183
199 ESRankNMinus1 149
198 ESRankNMinus2 167
197 ESRankNMinus3 224
196 ESRankNMinus4 252
195 ESRankNMinus5 261
194 ESRankNMinus6 152
193 ESRankNMinus7 159
192 ESRankNMinus8 152
191 ESRankNMinus9 239
190 ESRankNMinus10 182
