# 189 Fixation 1 (328.2,254.1): petit~1
# 389 Fixation 2 (299.9,284.8): Un~0 petit~1
# 285 Fixation 3 (385.9,272.9): petit~1 bimoteur~2
# 168 Fixation 4 (361.7,276.6): petit~1 bimoteur~2
# 260 Fixation 5 (292.7,282.8): Un~0 petit~1
# 246 Fixation 6 (440.5,265.3): bimoteur~2
# 235 Fixation 7 (562.9,236): qui~3 effectuait~4
# 143 Fixation 8 (595,230): effectuait~4
# 319 Fixation 9 (758.9,164.6):
# 188 Fixation 10 (288.6,348.1): Boston-Chicago~7
# 251 Fixation 11 (267.4,353.2): Boston-Chicago~7
# 279 Fixation 12 (370.5,355.6): Boston-Chicago~7
# 218 Fixation 13 (484.3,345): a~8 atteri~9
# 157 Fixation 14 (610.7,292.3): effectuait~4
# 111 Fixation 15 (642.7,277.8): effectuait~4
# 213 Fixation 16 (295.6,400.7): Pittsburgh~13
# 256 Fixation 17 (281,418.4): Pittsburgh~13
# 194 Fixation 18 (309.2,279.1): Un~0 petit~1
# 397 Fixation 19 (378.8,290.1): petit~1 bimoteur~2
# 161 Fixation 20 (465,423.1): hier~14 raison~16
# 152 Fixation 21 (518.6,416.4): en~15 raison~16
%%
# Un~0 Fixations= "18/"
# petit~1 Fixations= "19/"
# bimoteur~2 Fixations= "19/"
# qui~3 Fixations= "7/"
# effectuait~4 Fixations= "15/"
# la~5 Fixations= ""
# liaison~6 Fixations= ""
# Boston-Chicago~7 Fixations= "12/"
# a~8 Fixations= "13/"
# atteri~9 Fixations= "13/"
# en~10 Fixations= ""
# urgence~11 Fixations= ""
# à~12 Fixations= ""
# Pittsburgh~13 Fixations= "17/"
# hier~14 Fixations= "20/"
# en~15 Fixations= "21/"
# raison~16 Fixations= "21/"
# d'un~17 Fixations= ""
# défaut~18 Fixations= ""
# sur~19 Fixations= ""
# un~20 Fixations= ""
# des~21 Fixations= ""
# moteurs~22 Fixations= ""
%%
#  UN[18] PETIT[19] BIMOTEUR[19] QUI[7] EFFECTUAIT[15] la liaison BOSTON-CHICAGO[12] A[13] ATTERI[13] en urgence à PITTSBURGH[17] HIER[20] EN[21] RAISON[21] d'un défaut sur un des moteurs
# s20 decollage_fusee-m1 PercentageOfWordsProcessed= 0.521739130434783 PercentageOfWordsReallyProcessed= 0.705882352941177
