# 150 Fixation 1 (255,279.4): En~0 Inde~1
# 156 Fixation 2 (285.6,282.2): En~0 Inde~1
# 175 Fixation 3 (377,289.3): Inde~1 l'épais~2
# 309 Fixation 4 (493,287.8): brouillard~3
# 97 Fixation 5 (545.4,292.8): brouillard~3
# 161 Fixation 6 (639,296.3): qui~4 recouvre~5 plusieurs~11 jours~12
# 217 Fixation 7 (711.3,293.9): recouvre~5
# 181 Fixation 8 (264.8,347.8): En~0 Inde~1 nord~7
# 96 Fixation 9 (304.6,347.8): En~0 Inde~1 nord~7
# 238 Fixation 10 (376.8,353.8): nord~7 pays~9
# 207 Fixation 11 (484.5,358.4): pays~9 vague~18
# 196 Fixation 12 (571,358.5): plusieurs~11
# 408 Fixation 13 (699.8,360.9): jours~12
# 106 Fixation 14 (276.4,402.3): le~6 nord~7
# 103 Fixation 15 (252.2,409.8): le~6 nord~7
# 165 Fixation 16 (317.4,402.7): le~6 nord~7 s'ajoute~15
# 163 Fixation 17 (464.4,410.6): pays~9 à~16 vague~18
# 138 Fixation 18 (516.8,418.4): une~17 vague~18
# 140 Fixation 19 (617.5,421.9): de~19 froid~20
# 136 Fixation 20 (702.6,427.3): froid~20
# 103 Fixation 21 (260.1,477.2): l'état~22
# 89 Fixation 22 (312.1,472.7): qui~14 s'ajoute~15 l'état~22
# 215 Fixation 23 (410.7,471.8): s'ajoute~15 à~16 Rajasthan~24
# 228 Fixation 24 (551.9,479.8): paralyse~25
# 91 Fixation 25 (627.1,482.9): paralyse~25
# 180 Fixation 26 (275.9,542.4): transports~27
# 134 Fixation 27 (426.8,533.9): Rajasthan~24 aériens~28
# 527 Fixation 28 (409.4,550.6): aériens~28
%%
# En~0 Fixations= "9/"
# Inde~1 Fixations= "9/"
# l'épais~2 Fixations= "3/"
# brouillard~3 Fixations= "5/"
# qui~4 Fixations= "6/"
# recouvre~5 Fixations= "7/"
# le~6 Fixations= "16/"
# nord~7 Fixations= "16/"
# du~8 Fixations= ""
# pays~9 Fixations= "17/"
# depuis~10 Fixations= ""
# plusieurs~11 Fixations= "12/"
# jours~12 Fixations= "13/"
# et~13 Fixations= ""
# qui~14 Fixations= "22/"
# s'ajoute~15 Fixations= "23/"
# à~16 Fixations= "23/"
# une~17 Fixations= "18/"
# vague~18 Fixations= "18/"
# de~19 Fixations= "19/"
# froid~20 Fixations= "20/"
# dans~21 Fixations= ""
# l'état~22 Fixations= "22/"
# du~23 Fixations= ""
# Rajasthan~24 Fixations= "27/"
# paralyse~25 Fixations= "25/"
# les~26 Fixations= ""
# transports~27 Fixations= "26/"
# aériens~28 Fixations= "28/"
%%
#  EN[9] INDE[9] L'éPAIS[3] BROUILLARD[5] QUI[6] RECOUVRE[7] LE[16] NORD[16] du PAYS[17] depuis PLUSIEURS[12] JOURS[13] et QUI[22] S'AJOUTE[23] à[23] UNE[18] VAGUE[18] DE[19] FROID[20] dans L'éTAT[22] du RAJASTHAN[27] PARALYSE[25] les TRANSPORTS[26] AéRIENS[28]
# s06 syndicat_agricole-a2 PercentageOfWordsProcessed= 0.793103448275862 PercentageOfWordsReallyProcessed= 0.793103448275862
