999 WORDS_L'entraîneur~0 165
999 WORDFREQ_2.77 165
999 WORDSALL_L'entraîneur~0 165
999 COSIND_-0.01 165
999 COSGEN_-0.01 165
101 ESRank1 165
999 WORDS_L'entraîneur~0 125
999 WORDFREQ_2.77 125
999 WORDSALL_L'entraîneur~0 125
999 COSIND_-0.01 125
999 COSGEN_-0.01 125
102 ESRank2 125
203 ESBackSacRefixation 125
999 WORDS_dirige~1 228
999 WORDFREQ_12.77 228
999 WORDSALL_dirige~1 228
999 COSIND_0.04 228
999 COSGEN_0.04 228
103 ESRank3 228
201 ESForwSacShort 228
999 WORDS_l'équipe~2 188
999 WORDFREQ_26.28 188
999 WORDSALL_l'équipe~2 188
999 COSIND_0.05 188
999 COSGEN_0.05 188
104 ESRank4 188
201 ESForwSacShort 188
999 WORDS_féminine~3 336
999 WORDFREQ_13.38 336
999 WORDSALL_féminine~3 336
999 COSIND_-0.06 336
999 COSGEN_-0.06 336
105 ESRank5 336
201 ESForwSacShort 336
999 WORDS_L'entraîneur~0 228
999 WORDFREQ_2.77 228
999 WORDSALL_L'entraîneur~0 228
999 COSIND_-0.01 228
999 COSGEN_-0.01 228
106 ESRank6 228
206 ESBackSacRegrLong-3-18 228
999 WORDS_cinq~5 152
999 WORDFREQ_220.61 152
999 WORDSALL_L'entraîneur~0_dirige~1_cinq~5 152
999 COSIND_0.03 152
999 COSGEN_0.03 152
107 ESRank7 152
202 ESForwSacLong+5+38 152
999 WORDS_après~7 176
999 WORDFREQ_821.55 176
999 WORDSALL_l'équipe~2_après~7 176
999 COSIND_-0.12 176
999 COSGEN_-0.12 176
108 ESRank8 176
202 ESForwSacLong+2+5 176
999 WORDS_adjoint~15 153
999 WORDFREQ_1.89 153
999 WORDSALL_adjoint~15 153
999 COSIND_0.02 153
999 COSGEN_0.02 153
109 ESRank9 153
202 ESForwSacLong+8+43 153
999 WORDS_habitudes~22 228
999 WORDFREQ_25.95 228
999 WORDSALL_comme~13_coach~14_habitudes~22 228
999 COSIND_0.06 228
999 COSGEN_0.06 228
110 ESRank10 228
202 ESForwSacLong+7+29 228
999 WORDS_petites~21 191
999 WORDFREQ_152.16 191
999 WORDSALL_monde~12_petites~21 191
999 COSIND_-0.05 191
999 COSGEN_-0.05 191
111 ESRank11 191
205 ESBackSacRegrShort 191
200 ESRankN 191
199 ESRankNMinus1 228
198 ESRankNMinus2 153
197 ESRankNMinus3 176
196 ESRankNMinus4 152
195 ESRankNMinus5 228
194 ESRankNMinus6 336
193 ESRankNMinus7 188
192 ESRankNMinus8 228
191 ESRankNMinus9 125
190 ESRankNMinus10 165
