# 150 Fixation 1 (268.9,281.2): L'étude~0
# 177 Fixation 2 (402,284.9): du~1 système~2
# 115 Fixation 3 (484.8,288.5): système~2 solaire~3
# 179 Fixation 4 (548.5,292.2): solaire~3
# 255 Fixation 5 (664,287.7): est~4 difficile~5
# 206 Fixation 6 (273.2,342.7): Ecartons~6
# 165 Fixation 7 (399.3,347.6): d'emblée~7
# 116 Fixation 8 (463.9,357.5): d'emblée~7
# 177 Fixation 9 (548.4,356.8): les~8 quatre~9
# 138 Fixation 10 (637.9,355.8): quatre~9 planètes~10
# 190 Fixation 11 (301.6,406.4): géantes~11
%%
# L'étude~0 Fixations= "1/"
# du~1 Fixations= "2/"
# système~2 Fixations= "3/"
# solaire~3 Fixations= "4/"
# est~4 Fixations= "5/"
# difficile~5 Fixations= "5/"
# Ecartons~6 Fixations= "6/"
# d'emblée~7 Fixations= "8/"
# les~8 Fixations= "9/"
# quatre~9 Fixations= "10/"
# planètes~10 Fixations= "10/"
# géantes~11 Fixations= "11/"
# qui~12 Fixations= ""
# contiennent~13 Fixations= ""
# de~14 Fixations= ""
# la~15 Fixations= ""
# glace~16 Fixations= ""
# dans~17 Fixations= ""
# leur~18 Fixations= ""
# noyau~19 Fixations= ""
# et~20 Fixations= ""
# de~21 Fixations= ""
# l'eau~22 Fixations= ""
# dans~23 Fixations= ""
# leur~24 Fixations= ""
# atmosphère~25 Fixations= ""
# pour~26 Fixations= ""
# nous~27 Fixations= ""
# concentrer~28 Fixations= ""
# sur~29 Fixations= ""
# les~30 Fixations= ""
# planètes~31 Fixations= ""
# dites~32 Fixations= ""
# telluriques~33 Fixations= ""
%%
#  L'éTUDE[1] DU[2] SYSTèME[3] SOLAIRE[4] EST[5] DIFFICILE[5] ECARTONS[6] D'EMBLéE[8] LES[9] QUATRE[10] PLANèTES[10] GéANTES[11] qui contiennent de la glace dans leur noyau et de l'eau dans leur atmosphère pour nous concentrer sur les planètes dites telluriques
# s02 observation_planetes-f2 PercentageOfWordsProcessed= 0.352941176470588 PercentageOfWordsReallyProcessed= 1
