# 103 Fixation 1 (269.8,292.4): Une~0 inquiétude~1
# 141 Fixation 2 (314.6,286.4): Une~0 inquiétude~1
# 247 Fixation 3 (478.9,279.2): particulière~2
# 157 Fixation 4 (518.9,279.8): particulière~2
# 177 Fixation 5 (569.1,281.2): particulière~2 pointe~3
# 208 Fixation 6 (650.6,281.7): pointe~3
# 184 Fixation 7 (722.9,290.2): pointe~3 à~5
# 222 Fixation 8 (286.1,343.1): Une~0 inquiétude~1 responsabilité~7
# 145 Fixation 9 (373.1,345): inquiétude~1 responsabilité~7
# 201 Fixation 10 (518,350.2): pénale~8
# 192 Fixation 11 (612.5,357.8): des~9 chefs~10
# 148 Fixation 12 (637.5,363.3): des~9 chefs~10
# 97 Fixation 13 (311.6,377.2): la~6 responsabilité~7 d'établissement~11
# 164 Fixation 14 (261.2,397.3): la~6 responsabilité~7 d'établissement~11
# 87 Fixation 15 (386.3,395.8): responsabilité~7
# 153 Fixation 16 (533.3,411.1): pénale~8 mise~12 jeu~14
%%
# Une~0 Fixations= "8/"
# inquiétude~1 Fixations= "9/"
# particulière~2 Fixations= "5/"
# pointe~3 Fixations= "7/"
# quant~4 Fixations= ""
# à~5 Fixations= "7/"
# la~6 Fixations= "14/"
# responsabilité~7 Fixations= "15/"
# pénale~8 Fixations= "16/"
# des~9 Fixations= "12/"
# chefs~10 Fixations= "12/"
# d'établissement~11 Fixations= "14/"
# mise~12 Fixations= "16/"
# en~13 Fixations= ""
# jeu~14 Fixations= "16/"
# lors~15 Fixations= ""
# d'accidents~16 Fixations= ""
# survenus~17 Fixations= ""
# à~18 Fixations= ""
# cause~19 Fixations= ""
# d'équipements~20 Fixations= ""
# défectueux~21 Fixations= ""
# alors~22 Fixations= ""
# que~23 Fixations= ""
# l'entretien~24 Fixations= ""
# en~25 Fixations= ""
# incombe~26 Fixations= ""
# aux~27 Fixations= ""
# collectivités~28 Fixations= ""
# locales~29 Fixations= ""
%%
#  UNE[8] INQUIéTUDE[9] PARTICULIèRE[5] POINTE[7] quant à[7] LA[14] RESPONSABILITé[15] PéNALE[16] DES[12] CHEFS[12] D'éTABLISSEMENT[14] MISE[16] en JEU[16] lors d'accidents survenus à cause d'équipements défectueux alors que l'entretien en incombe aux collectivités locales
# s06 plantation_fleurs-a1 PercentageOfWordsProcessed= 0.433333333333333 PercentageOfWordsReallyProcessed= 0.866666666666667
