# 84 Fixation 1 (272.7,298.2): La~0 Patagonie~1 Coincée~6
# 156 Fixation 2 (323.1,295): La~0 Patagonie~1
# 105 Fixation 3 (383.7,296.5): Patagonie~1
# 255 Fixation 4 (439.6,294.2): chilienne~2
# 96 Fixation 5 (608.3,301.2): est~3 mal~4
# 202 Fixation 6 (293.4,347.4): La~0 Patagonie~1 Coincée~6
# 140 Fixation 7 (340.7,339.6): Patagonie~1 Coincée~6
# 125 Fixation 8 (468.9,343.2): chilienne~2 cordillère~9
# 155 Fixation 9 (522.9,347.6): chilienne~2 cordillère~9
# 203 Fixation 10 (657.9,356.6): des~10 Andes~11
# 155 Fixation 11 (323.2,407): Coincée~6 l'océan~13
# 270 Fixation 12 (394.4,403.5): entre~7 cordillère~9 Pacifique~14
# 148 Fixation 13 (538.2,410): cordillère~9 séduit~16
# 113 Fixation 14 (604.4,417.1): séduit~16
# 145 Fixation 15 (700.8,422): les~17 amateurs~18
# 142 Fixation 16 (338.6,450.7): l'océan~13 Pacifique~14 grands~20
# 165 Fixation 17 (312.4,466.2): l'océan~13 grands~20
%%
# La~0 Fixations= "6/"
# Patagonie~1 Fixations= "7/"
# chilienne~2 Fixations= "9/"
# est~3 Fixations= "5/"
# mal~4 Fixations= "5/"
# connue~5 Fixations= ""
# Coincée~6 Fixations= "11/"
# entre~7 Fixations= "12/"
# la~8 Fixations= ""
# cordillère~9 Fixations= "13/"
# des~10 Fixations= "10/"
# Andes~11 Fixations= "10/"
# et~12 Fixations= ""
# l'océan~13 Fixations= "17/"
# Pacifique~14 Fixations= "16/"
# elle~15 Fixations= ""
# séduit~16 Fixations= "14/"
# les~17 Fixations= "15/"
# amateurs~18 Fixations= "15/"
# de~19 Fixations= ""
# grands~20 Fixations= "17/"
# espaces~21 Fixations= ""
# de~22 Fixations= ""
# solitude~23 Fixations= ""
# et~24 Fixations= ""
# de~25 Fixations= ""
# paysages~26 Fixations= ""
# grandioses~27 Fixations= ""
%%
#  LA[6] PATAGONIE[7] CHILIENNE[9] EST[5] MAL[5] connue COINCéE[11] ENTRE[12] la CORDILLèRE[13] DES[10] ANDES[10] et L'OCéAN[17] PACIFIQUE[16] elle SéDUIT[14] LES[15] AMATEURS[15] de GRANDS[17] espaces de solitude et de paysages grandioses
# s02 tribunal_international-a2 PercentageOfWordsProcessed= 0.571428571428571 PercentageOfWordsReallyProcessed= 0.761904761904762
