999 WORDS_Mentir~0 169
999 WORDFREQ_15.2 169
999 WORDSALL_Mentir~0 169
999 COSIND_0.01 169
999 COSGEN_0.01 169
101 ESRank1 169
999 WORDS_sous~1 241
999 WORDFREQ_1032.7 241
999 WORDSALL_sous~1 241
999 COSIND_0.05 241
999 COSGEN_0.05 241
102 ESRank2 241
201 ESForwSacShort 241
999 WORDS_insulte~5 183
999 WORDFREQ_6.96 183
999 WORDSALL_c'est~3_insulte~5 183
999 COSIND_-0.04 183
999 COSGEN_-0.04 183
103 ESRank3 183
202 ESForwSacLong+4+19 183
999 WORDS_insulte~5 216
999 WORDFREQ_6.96 216
999 WORDSALL_une~4_insulte~5 216
999 COSIND_-0.04 216
999 COSGEN_-0.04 216
104 ESRank4 216
203 ESBackSacRefixation 216
999 WORDS_liberté~8 225
999 WORDFREQ_93.31 225
999 WORDSALL_liberté~8 225
999 COSIND_-0.05 225
999 COSGEN_-0.05 225
105 ESRank5 225
202 ESForwSacLong+3+7 225
999 WORDS_Faire~9 153
999 WORDFREQ_1555.14 153
999 WORDSALL_Faire~9 153
999 COSIND_0.03 153
999 COSGEN_0.03 153
106 ESRank6 153
201 ESForwSacShort 153
999 WORDS_obstruction~10 214
999 WORDFREQ_0.47 214
999 WORDSALL_Faire~9_obstruction~10 214
999 COSIND_0.32 214
999 COSGEN_0.32 214
107 ESRank7 214
201 ESForwSacShort 214
999 WORDS_à~11 201
999 WORDFREQ_19209.05 201
999 WORDSALL_à~11 201
999 COSIND_N/A 201
108 ESRank8 201
201 ESForwSacShort 201
999 WORDS_bafouer~15 291
999 WORDFREQ_0.68 291
999 WORDSALL_c'est~14_bafouer~15 291
999 COSIND_0.13 291
999 COSGEN_0.13 291
109 ESRank9 291
202 ESForwSacLong+4+18 291
999 WORDS_loi~17 128
999 WORDFREQ_44.46 128
999 WORDSALL_bafouer~15_loi~17 128
999 COSIND_-0.06 128
999 COSGEN_-0.06 128
110 ESRank10 128
202 ESForwSacLong+2+4 128
999 WORDS_a~20 100
999 WORDFREQ_1669.39 100
999 WORDSALL_Il~18_a~20 100
999 COSIND_N/A 100
111 ESRank11 100
202 ESForwSacLong+3+6 100
999 WORDS_gens~22 151
999 WORDFREQ_409.39 151
999 WORDSALL_y~19_a~20_gens~22 151
999 COSIND_-0.01 151
999 COSGEN_-0.01 151
112 ESRank12 151
202 ESForwSacLong+2+5 151
999 WORDS_prison~24 213
999 WORDFREQ_64.66 213
999 WORDSALL_prison~24 213
999 COSIND_0.02 213
999 COSGEN_0.02 213
113 ESRank13 213
202 ESForwSacLong+2+4 213
999 WORDS_crimes~28 206
999 WORDFREQ_15.74 206
999 WORDSALL_de~26_crimes~28 206
999 COSIND_0.17 206
999 COSGEN_0.17 206
114 ESRank14 206
202 ESForwSacLong+4+14 206
999 WORDS_prison~24 297
999 WORDFREQ_64.66 297
999 WORDSALL_prison~24 297
999 COSIND_0.02 297
999 COSGEN_0.02 297
115 ESRank15 297
206 ESBackSacRegrLong-4-14 297
200 ESRankN 297
199 ESRankNMinus1 206
198 ESRankNMinus2 213
197 ESRankNMinus3 151
196 ESRankNMinus4 100
195 ESRankNMinus5 128
194 ESRankNMinus6 291
193 ESRankNMinus7 201
192 ESRankNMinus8 214
191 ESRankNMinus9 153
190 ESRankNMinus10 225
