999 WORDS_avion~1 149
999 WORDFREQ_46.82 149
999 WORDSALL_Un~0_avion~1 149
999 COSIND_0.34 149
999 COSGEN_0.34 149
101 ESRank1 149
999 WORDS_combat~3 172
999 WORDFREQ_52.36 172
999 WORDSALL_de~2_combat~3 172
999 COSIND_0.15 172
999 COSGEN_0.15 172
102 ESRank2 172
202 ESForwSacLong+2+4 172
999 WORDS_russe~4 143
999 WORDFREQ_35.34 143
999 WORDSALL_russe~4 143
999 COSIND_0.01 143
999 COSGEN_0.01 143
103 ESRank3 143
201 ESForwSacShort 143
999 WORDS_biréacteur~5 133
999 WORDFREQ_N/A 133
999 WORDSALL_russe~4_biréacteur~5 133
999 COSIND_N/A 133
104 ESRank4 133
201 ESForwSacShort 133
999 WORDS_Sukhoi-30~6 191
999 WORDFREQ_N/A 191
999 WORDSALL_Sukhoi-30~6 191
999 COSIND_N/A 191
105 ESRank5 191
201 ESForwSacShort 191
999 WORDS_écrasé~8 267
999 WORDFREQ_13.24 267
999 WORDSALL_s'est~7_écrasé~8 267
999 COSIND_0.15 267
999 COSGEN_0.15 267
106 ESRank6 267
202 ESForwSacLong+2+7 267
999 WORDS_vol~13 137
999 WORDFREQ_41.22 137
999 WORDSALL_en~12_vol~13 137
999 COSIND_0.28 137
999 COSGEN_0.28 137
107 ESRank7 137
202 ESForwSacLong+5+31 137
999 WORDS_samedi~14 280
999 WORDFREQ_34.26 280
999 WORDSALL_samedi~14 280
999 COSIND_0.09 280
999 COSGEN_0.09 280
108 ESRank8 280
201 ESForwSacShort 280
999 WORDS_l'inauguration~20 126
999 WORDFREQ_2.57 126
999 WORDSALL_l'inauguration~20 126
999 COSIND_0.15 126
999 COSGEN_0.15 126
109 ESRank9 126
202 ESForwSacLong+6+24 126
999 WORDS_salon~22 87
999 WORDFREQ_84.12 87
999 WORDSALL_du~21_salon~22 87
999 COSIND_0.89 87
999 COSGEN_0.89 87
110 ESRank10 87
202 ESForwSacLong+2+4 87
999 WORDS_l'inauguration~20 252
999 WORDFREQ_2.57 252
999 WORDSALL_l'inauguration~20 252
999 COSIND_0.15 252
999 COSGEN_0.15 252
111 ESRank11 252
206 ESBackSacRegrLong-2-4 252
999 WORDS_aéronautique~23 124
999 WORDFREQ_0.07 124
999 WORDSALL_aéronautique~23 124
999 COSIND_0.60 124
999 COSGEN_0.60 124
112 ESRank12 124
202 ESForwSacLong+3+10 124
999 WORDS_aéronautique~23 111
999 WORDFREQ_0.07 111
999 WORDSALL_aéronautique~23 111
999 COSIND_0.60 111
999 COSGEN_0.60 111
113 ESRank13 111
203 ESBackSacRefixation 111
999 WORDS_Bourget~25 143
999 WORDFREQ_N/A 143
999 WORDSALL_du~24_Bourget~25 143
999 COSIND_N/A 143
114 ESRank14 143
202 ESForwSacLong+2+4 143
999 WORDS_Bourget~25 116
999 WORDFREQ_N/A 116
999 WORDSALL_du~24_Bourget~25 116
999 COSIND_N/A 116
115 ESRank15 116
203 ESBackSacRefixation 116
200 ESRankN 116
199 ESRankNMinus1 143
198 ESRankNMinus2 111
197 ESRankNMinus3 124
196 ESRankNMinus4 252
195 ESRankNMinus5 87
194 ESRankNMinus6 126
193 ESRankNMinus7 280
192 ESRankNMinus8 137
191 ESRankNMinus9 267
190 ESRankNMinus10 191
