# 82 Fixation 1 (290.6,287.8): Après~0
# 133 Fixation 2 (367,289.5): avoir~1
# 164 Fixation 3 (444,291.8): rappelé~2
# 122 Fixation 4 (569.9,299.8): que~3 gouvernements~5
# 135 Fixation 5 (653,297.4): gouvernements~5
# 242 Fixation 6 (294.2,344.4): successifs~6
# 144 Fixation 7 (450.3,347.4): et~7 corps~9
# 85 Fixation 8 (497.3,348.2): le~8 corps~9
# 278 Fixation 9 (594.5,352.9): enseignant~10
# 153 Fixation 10 (321.4,400.5): répondre~13
# 129 Fixation 11 (297.3,400): répondre~13
# 261 Fixation 12 (407.1,399.8): au~14 défi~15
# 196 Fixation 13 (531.4,405.9): démographique~16
# 102 Fixation 14 (562.3,412.6): démographique~16
# 131 Fixation 15 (502.4,409.9): démographique~16
# 154 Fixation 16 (488.2,411.7): défi~15 démographique~16
# 157 Fixation 17 (672.6,419.7): le~17 ministre~18
# 173 Fixation 18 (721.6,421.2): le~17 ministre~18
# 181 Fixation 19 (305,473.5): a~19 rappelé~20
# 105 Fixation 20 (349.9,474.9): rappelé~20
# 194 Fixation 21 (462,471.3): que~21 l'effort~22
# 221 Fixation 22 (572.6,474.1): devait~23
# 145 Fixation 23 (679,478.3): à~24 présent~25
# 249 Fixation 24 (312.2,523.2): garantir~26
# 203 Fixation 25 (427.4,527): la~27 qualité~28
# 146 Fixation 26 (543.4,527.1): pour~29
# 128 Fixation 27 (585.9,531.9): pour~29
%%
# Après~0 Fixations= "1/"
# avoir~1 Fixations= "2/"
# rappelé~2 Fixations= "3/"
# que~3 Fixations= "4/"
# les~4 Fixations= ""
# gouvernements~5 Fixations= "5/"
# successifs~6 Fixations= "6/"
# et~7 Fixations= "7/"
# le~8 Fixations= "8/"
# corps~9 Fixations= "8/"
# enseignant~10 Fixations= "9/"
# ont~11 Fixations= ""
# su~12 Fixations= ""
# répondre~13 Fixations= "11/"
# au~14 Fixations= "12/"
# défi~15 Fixations= "16/"
# démographique~16 Fixations= "16/"
# le~17 Fixations= "18/"
# ministre~18 Fixations= "18/"
# a~19 Fixations= "19/"
# rappelé~20 Fixations= "20/"
# que~21 Fixations= "21/"
# l'effort~22 Fixations= "21/"
# devait~23 Fixations= "22/"
# à~24 Fixations= "23/"
# présent~25 Fixations= "23/"
# garantir~26 Fixations= "24/"
# la~27 Fixations= "25/"
# qualité~28 Fixations= "25/"
# pour~29 Fixations= "27/"
# tous~30 Fixations= ""
%%
#  APRèS[1] AVOIR[2] RAPPELé[3] QUE[4] les GOUVERNEMENTS[5] SUCCESSIFS[6] ET[7] LE[8] CORPS[8] ENSEIGNANT[9] ont su RéPONDRE[11] AU[12] DéFI[16] DéMOGRAPHIQUE[16] LE[18] MINISTRE[18] A[19] RAPPELé[20] QUE[21] L'EFFORT[21] DEVAIT[22] à[23] PRéSENT[23] GARANTIR[24] LA[25] QUALITé[25] POUR[27] tous
# s02 reforme_enseignement-m2 PercentageOfWordsProcessed= 0.870967741935484 PercentageOfWordsReallyProcessed= 0.9
