# 146 Fixation 1 (301.5,269.8): Il~0 aura~1
# 173 Fixation 2 (398.3,267): suffi~2
# 215 Fixation 3 (505.9,269.4): que~3 soleil~5
# 170 Fixation 4 (613.6,273.6): soleil~5 montre~6
# 106 Fixation 5 (686.4,278.4): montre~6
# 294 Fixation 6 (339.3,333.9): son~10 nez~11
# 152 Fixation 7 (508.5,335.9): que~13 jardineries~15
# 145 Fixation 8 (576.5,333.1): les~14 jardineries~15
# 144 Fixation 9 (691.5,336.5): jardineries~15 soient~16
# 192 Fixation 10 (287.6,397): prises~17
# 265 Fixation 11 (373.3,399.7): d'assaut~18
# 177 Fixation 12 (518.5,396.6): On~19 dépense~20
# 288 Fixation 13 (654.1,399.8): de~21 plus~22
%%
# Il~0 Fixations= "1/"
# aura~1 Fixations= "1/"
# suffi~2 Fixations= "2/"
# que~3 Fixations= "3/"
# le~4 Fixations= ""
# soleil~5 Fixations= "4/"
# montre~6 Fixations= "5/"
# le~7 Fixations= ""
# bout~8 Fixations= ""
# de~9 Fixations= ""
# son~10 Fixations= "6/"
# nez~11 Fixations= "6/"
# pour~12 Fixations= ""
# que~13 Fixations= "7/"
# les~14 Fixations= "8/"
# jardineries~15 Fixations= "9/"
# soient~16 Fixations= "9/"
# prises~17 Fixations= "10/"
# d'assaut~18 Fixations= "11/"
# On~19 Fixations= "12/"
# dépense~20 Fixations= "12/"
# de~21 Fixations= "13/"
# plus~22 Fixations= "13/"
# en~23 Fixations= ""
# plus~24 Fixations= ""
# pour~25 Fixations= ""
# la~26 Fixations= ""
# plantation~27 Fixations= ""
# de~28 Fixations= ""
# fleurs~29 Fixations= ""
# dans~30 Fixations= ""
# son~31 Fixations= ""
# jardin~32 Fixations= ""
%%
#  IL[1] AURA[1] SUFFI[2] QUE[3] le SOLEIL[4] MONTRE[5] le bout de SON[6] NEZ[6] pour QUE[7] LES[8] JARDINERIES[9] SOIENT[9] PRISES[10] D'ASSAUT[11] ON[12] DéPENSE[12] DE[13] PLUS[13] en plus pour la plantation de fleurs dans son jardin
# s18 plantation_fleurs-f1 PercentageOfWordsProcessed= 0.545454545454545 PercentageOfWordsReallyProcessed= 0.782608695652174
