# 137 Fixation 1 (269.2,261): L'équipe~0
# 145 Fixation 2 (430,264): de~1 France~2
# 148 Fixation 3 (554.4,265.7): de~3 football~4
# 125 Fixation 4 (674.2,277.5): a~5 vaincu~6
# 194 Fixation 5 (300.6,317.2): l'Australie~7
# 217 Fixation 6 (486.4,334.2): finale~9
# 129 Fixation 7 (371.3,426.3): L'entraineur~15
# 154 Fixation 8 (276.8,401.1): L'entraineur~15
# 265 Fixation 9 (516,408.2): très~17
# 127 Fixation 10 (459.6,485): envisage~23
# 142 Fixation 11 (532.4,494.3): les~24 rencontres~25
%%
# L'équipe~0 Fixations= "1/"
# de~1 Fixations= "2/"
# France~2 Fixations= "2/"
# de~3 Fixations= "3/"
# football~4 Fixations= "3/"
# a~5 Fixations= "4/"
# vaincu~6 Fixations= "4/"
# l'Australie~7 Fixations= "5/"
# en~8 Fixations= ""
# finale~9 Fixations= "6/"
# de~10 Fixations= ""
# la~11 Fixations= ""
# Coupe~12 Fixations= ""
# du~13 Fixations= ""
# Monde~14 Fixations= ""
# L'entraineur~15 Fixations= "8/"
# est~16 Fixations= ""
# très~17 Fixations= "9/"
# satisfait~18 Fixations= ""
# de~19 Fixations= ""
# son~20 Fixations= ""
# équipe~21 Fixations= ""
# et~22 Fixations= ""
# envisage~23 Fixations= "10/"
# les~24 Fixations= "11/"
# rencontres~25 Fixations= "11/"
# futures~26 Fixations= ""
# avec~27 Fixations= ""
# enthousiasme~28 Fixations= ""
# et~29 Fixations= ""
# sérénité~30 Fixations= ""
%%
#  L'éQUIPE[1] DE[2] FRANCE[2] DE[3] FOOTBALL[3] A[4] VAINCU[4] L'AUSTRALIE[5] en FINALE[6] de la Coupe du Monde L'ENTRAINEUR[8] est TRèS[9] satisfait de son équipe et ENVISAGE[10] LES[11] RENCONTRES[11] futures avec enthousiasme et sérénité
# s07 victoire_footballeurs-f2 PercentageOfWordsProcessed= 0.451612903225806 PercentageOfWordsReallyProcessed= 0.538461538461538
