# 168 Fixation 1 (279.9,277.7): Lorsque~0 vague~2
# 122 Fixation 2 (301.3,276.1): Lorsque~0 vague~2
# 257 Fixation 3 (388.3,276.6): la~1 vague~2
# 158 Fixation 4 (499.1,274.3): des~3 réfugiés~4
# 260 Fixation 5 (551.2,276.6): des~3 réfugiés~4
# 218 Fixation 6 (679,287.7): déferlait~5
# 134 Fixation 7 (655.1,286.6): déferlait~5
# 182 Fixation 8 (758.5,293.6): déferlait~5
# 170 Fixation 9 (275.2,361.1): le~7 camp~8
# 111 Fixation 10 (313.5,347.2): le~7 camp~8
# 204 Fixation 11 (427.9,347.9): improvisé~9
# 240 Fixation 12 (538.7,348.9): les~10 microbus~11
# 88 Fixation 13 (576.8,349.4): les~10 microbus~11
# 203 Fixation 14 (697.8,347.5): et~12
# 413 Fixation 15 (285.9,406.9): tracteurs~14
# 232 Fixation 16 (430.9,406.6): mobilisés~15
# 223 Fixation 17 (640.1,410.1): l'organisation~17
# 246 Fixation 18 (572.6,408.5): par~16 l'organisation~17
%%
# Lorsque~0 Fixations= "2/"
# la~1 Fixations= "3/"
# vague~2 Fixations= "3/"
# des~3 Fixations= "5/"
# réfugiés~4 Fixations= "5/"
# déferlait~5 Fixations= "8/"
# sur~6 Fixations= ""
# le~7 Fixations= "10/"
# camp~8 Fixations= "10/"
# improvisé~9 Fixations= "11/"
# les~10 Fixations= "13/"
# microbus~11 Fixations= "13/"
# et~12 Fixations= "14/"
# les~13 Fixations= ""
# tracteurs~14 Fixations= "15/"
# mobilisés~15 Fixations= "16/"
# par~16 Fixations= "18/"
# l'organisation~17 Fixations= "18/"
# macédonienne~18 Fixations= ""
# El~19 Fixations= ""
# Hilal~20 Fixations= ""
# assuraient~21 Fixations= ""
# un~22 Fixations= ""
# mini-pont~23 Fixations= ""
# humanitaire~24 Fixations= ""
# qui~25 Fixations= ""
# permettait~26 Fixations= ""
# d'éviter~27 Fixations= ""
# le~28 Fixations= ""
# pire~29 Fixations= ""
%%
#  LORSQUE[2] LA[3] VAGUE[3] DES[5] RéFUGIéS[5] DéFERLAIT[8] sur LE[10] CAMP[10] IMPROVISé[11] LES[13] MICROBUS[13] ET[14] les TRACTEURS[15] MOBILISéS[16] PAR[18] L'ORGANISATION[18] macédonienne El Hilal assuraient un mini-pont humanitaire qui permettait d'éviter le pire
# s13 aide_refugies-f1 PercentageOfWordsProcessed= 0.533333333333333 PercentageOfWordsReallyProcessed= 0.888888888888889
