# 213 Fixation 1 (303.2,338.8): Trois~0 jours~1 Agni-2~8
# 172 Fixation 2 (393.6,321.4): jours~1 après~2 Pakistan~10
# 317 Fixation 3 (533.2,261.7): le~3 tir~4
# 352 Fixation 4 (633.7,209.9): du~5 missile~6
# 179 Fixation 5 (743.8,209.4): indien~7
# 208 Fixation 6 (279.7,384.5): Agni-2~8 version~16
%%
# Trois~0 Fixations= "1/"
# jours~1 Fixations= "2/"
# après~2 Fixations= "2/"
# le~3 Fixations= "3/"
# tir~4 Fixations= "3/"
# du~5 Fixations= "4/"
# missile~6 Fixations= "4/"
# indien~7 Fixations= "5/"
# Agni-2~8 Fixations= "6/"
# le~9 Fixations= ""
# Pakistan~10 Fixations= "2/"
# a~11 Fixations= ""
# répliqué~12 Fixations= ""
# en~13 Fixations= ""
# tirant~14 Fixations= ""
# une~15 Fixations= ""
# version~16 Fixations= "6/"
# améliorée~17 Fixations= ""
# de~18 Fixations= ""
# son~19 Fixations= ""
# missile~20 Fixations= ""
# balistique~21 Fixations= ""
# de~22 Fixations= ""
# moyenne~23 Fixations= ""
# portée~24 Fixations= ""
# le~25 Fixations= ""
# Ghauri~26 Fixations= ""
# depuis~27 Fixations= ""
# le~28 Fixations= ""
# centre~29 Fixations= ""
# d'essai~30 Fixations= ""
# de~31 Fixations= ""
# Jhelum~32 Fixations= ""
%%
#  TROIS[1] JOURS[2] APRèS[2] LE[3] TIR[3] DU[4] MISSILE[4] INDIEN[5] AGNI-2[6] le PAKISTAN[2] a répliqué en tirant une VERSION[6] améliorée de son missile balistique de moyenne portée le Ghauri depuis le centre d'essai de Jhelum
# s20 plantation_fleurs-a2 PercentageOfWordsProcessed= 0.333333333333333 PercentageOfWordsReallyProcessed= 0.647058823529412
