# 154 Fixation 1 (280.6,280.9): Chez~0 démocrates~2
# 115 Fixation 2 (334.3,282.5): Chez~0 démocrates~2
# 328 Fixation 3 (398.9,281.6): les~1 démocrates~2
# 227 Fixation 4 (380,287): les~1 démocrates~2
# 364 Fixation 5 (562.4,290.8): les~3 électeurs~4
# 339 Fixation 6 (287.4,348.3): Chez~0 démocrates~2 débattent~5
# 157 Fixation 7 (465.3,357.8): leurs~7 choix~8
# 179 Fixation 8 (528.5,356.9): choix~8
# 345 Fixation 9 (615.2,356.7): respectifs~9
# 127 Fixation 10 (685.7,355.2): respectifs~9
# 189 Fixation 11 (325.1,450.8): tentent~11 rallier~18 à~19
# 265 Fixation 12 (288.8,407): débattent~5 tentent~11
# 276 Fixation 13 (424.1,409.5): de~6 choix~8 persuader~13
# 205 Fixation 14 (575.5,419.7): leurs~14 voisins~15
# 113 Fixation 15 (605.4,414.8): leurs~14 voisins~15
# 156 Fixation 16 (415.7,519): à~19 candidat~21 déroule~27
# 253 Fixation 17 (432.4,543.1): se~26 déroule~27
# 146 Fixation 18 (447.5,541.4): se~26 déroule~27
# 278 Fixation 19 (563.6,533.7): candidat~21 Côté~22 rapidement~28
# 120 Fixation 20 (674.6,542.9): rapidement~28 après~29
%%
# Chez~0 Fixations= "6/"
# les~1 Fixations= "4/"
# démocrates~2 Fixations= "6/"
# les~3 Fixations= "5/"
# électeurs~4 Fixations= "5/"
# débattent~5 Fixations= "12/"
# de~6 Fixations= "13/"
# leurs~7 Fixations= "7/"
# choix~8 Fixations= "13/"
# respectifs~9 Fixations= "10/"
# et~10 Fixations= ""
# tentent~11 Fixations= "12/"
# de~12 Fixations= ""
# persuader~13 Fixations= "13/"
# leurs~14 Fixations= "15/"
# voisins~15 Fixations= "15/"
# de~16 Fixations= ""
# se~17 Fixations= ""
# rallier~18 Fixations= "11/"
# à~19 Fixations= "16/"
# leur~20 Fixations= ""
# candidat~21 Fixations= "19/"
# Côté~22 Fixations= "19/"
# républicain~23 Fixations= ""
# le~24 Fixations= ""
# scrutin~25 Fixations= ""
# se~26 Fixations= "18/"
# déroule~27 Fixations= "18/"
# rapidement~28 Fixations= "20/"
# après~29 Fixations= "20/"
# l'ouverture~30 Fixations= ""
# des~31 Fixations= ""
# assemblées~32 Fixations= ""
%%
#  CHEZ[6] LES[4] DéMOCRATES[6] LES[5] éLECTEURS[5] DéBATTENT[12] DE[13] LEURS[7] CHOIX[13] RESPECTIFS[10] et TENTENT[12] de PERSUADER[13] LEURS[15] VOISINS[15] de se RALLIER[11] à[16] leur CANDIDAT[19] CôTé[19] républicain le scrutin SE[18] DéROULE[18] RAPIDEMENT[20] APRèS[20] l'ouverture des assemblées
# s13 formation_informatique-a1 PercentageOfWordsProcessed= 0.666666666666667 PercentageOfWordsReallyProcessed= 0.733333333333333
