999 WORDS_pleut~1 173
999 WORDFREQ_10.41 173
999 WORDSALL_Il~0_pleut~1 173
999 COSIND_0.23 173
999 COSGEN_0.23 173
101 ESRank1 173
999 WORDS_Haute-Saône~4 268
999 WORDFREQ_N/A 268
999 WORDSALL_sur~2_Haute-Saône~4 268
999 COSIND_N/A 268
102 ESRank2 268
202 ESForwSacLong+3+8 268
999 WORDS_pleut~1 233
999 WORDFREQ_10.41 233
999 WORDSALL_Il~0_pleut~1 233
999 COSIND_0.23 233
999 COSGEN_0.23 233
103 ESRank3 233
206 ESBackSacRegrLong-3-8 233
999 WORDS_pleut~1 188
999 WORDFREQ_10.41 188
999 WORDSALL_pleut~1 188
999 COSIND_0.23 188
999 COSGEN_0.23 188
104 ESRank4 188
203 ESBackSacRefixation 188
999 WORDS_Haute-Saône~4 183
999 WORDFREQ_N/A 183
999 WORDSALL_la~3_Haute-Saône~4 183
999 COSIND_N/A 183
105 ESRank5 183
202 ESForwSacLong+3+8 183
999 WORDS_Haute-Saône~4 184
999 WORDFREQ_N/A 184
999 WORDSALL_Haute-Saône~4 184
999 COSIND_N/A 184
106 ESRank6 184
203 ESBackSacRefixation 184
999 WORDS_fait~6 303
999 WORDFREQ_1459.26 303
999 WORDSALL_il~5_fait~6 303
999 COSIND_-0.02 303
999 COSGEN_-0.02 303
107 ESRank7 303
202 ESForwSacLong+2+4 303
999 WORDS_froid~7 151
999 WORDFREQ_94.86 151
999 WORDSALL_fait~6_froid~7 151
999 COSIND_0.51 151
999 COSGEN_0.51 151
108 ESRank8 151
201 ESForwSacShort 151
999 WORDS_jours~9 207
999 WORDFREQ_515.41 207
999 WORDSALL_les~8_jours~9 207
999 COSIND_0.01 207
999 COSGEN_0.01 207
109 ESRank9 207
202 ESForwSacLong+2+5 207
999 WORDS_sont~10 171
999 WORDFREQ_713.18 171
999 WORDSALL_sont~10 171
999 COSIND_0.10 171
999 COSGEN_0.10 171
110 ESRank10 171
201 ESForwSacShort 171
999 WORDS_courts~12 162
999 WORDFREQ_16.22 162
999 WORDSALL_encore~11_courts~12 162
999 COSIND_0.01 162
999 COSGEN_0.01 162
111 ESRank11 162
202 ESForwSacLong+2+8 162
999 WORDS_sont~10 173
999 WORDFREQ_713.18 173
999 WORDSALL_sont~10 173
999 COSIND_0.10 173
999 COSGEN_0.10 173
112 ESRank12 173
206 ESBackSacRegrLong-2-8 173
999 WORDS_courts~12 203
999 WORDFREQ_16.22 203
999 WORDSALL_encore~11_courts~12 203
999 COSIND_0.01 203
999 COSGEN_0.01 203
113 ESRank13 203
202 ESForwSacLong+2+8 203
999 WORDS_A~13 224
999 WORDFREQ_58.65 224
999 WORDSALL_courts~12_A~13 224
999 COSIND_N/A 224
114 ESRank14 224
201 ESForwSacShort 224
999 WORDS_courts~12 189
999 WORDFREQ_16.22 189
999 WORDSALL_encore~11_courts~12 189
999 COSIND_0.01 189
999 COSGEN_0.01 189
115 ESRank15 189
205 ESBackSacRegrShort 189
999 WORDS_sont~10 230
999 WORDFREQ_713.18 230
999 WORDSALL_sont~10 230
999 COSIND_0.10 230
999 COSGEN_0.10 230
116 ESRank16 230
206 ESBackSacRegrLong-2-8 230
999 WORDS_courts~12 145
999 WORDFREQ_16.22 145
999 WORDSALL_encore~11_courts~12 145
999 COSIND_0.01 145
999 COSGEN_0.01 145
117 ESRank17 145
202 ESForwSacLong+2+8 145
999 WORDS_A~13 206
999 WORDFREQ_58.65 206
999 WORDSALL_courts~12_A~13 206
999 COSIND_N/A 206
118 ESRank18 206
201 ESForwSacShort 206
999 WORDS_forsythias~16 225
999 WORDFREQ_0.07 225
999 WORDSALL_quelques~15_forsythias~16 225
999 COSIND_0.57 225
999 COSGEN_0.57 225
119 ESRank19 225
202 ESForwSacLong+3+15 225
999 WORDS_forsythias~16 210
999 WORDFREQ_0.07 210
999 WORDSALL_quelques~15_forsythias~16 210
999 COSIND_0.57 210
999 COSGEN_0.57 210
120 ESRank20 210
203 ESBackSacRefixation 210
999 WORDS_forsythias~16 346
999 WORDFREQ_0.07 346
999 WORDSALL_forsythias~16 346
999 COSIND_0.57 346
999 COSGEN_0.57 346
203 ESBackSacRefixation 346
999 WORDS_forsythias~16 347
999 WORDFREQ_0.07 347
999 WORDSALL_forsythias~16 347
999 COSIND_0.57 347
999 COSGEN_0.57 347
203 ESBackSacRefixation 347
999 WORDS_forsythias~16 329
999 WORDFREQ_0.07 329
999 WORDSALL_forsythias~16 329
999 COSIND_0.57 329
999 COSGEN_0.57 329
203 ESBackSacRefixation 329
999 WORDS_héroïques~17 324
999 WORDFREQ_3.72 324
999 WORDSALL_héroïques~17 324
999 COSIND_0.01 324
999 COSGEN_0.01 324
201 ESForwSacShort 324
999 WORDS_arbustes~19 250
999 WORDFREQ_5.41 250
999 WORDSALL_les~18_arbustes~19 250
999 COSIND_0.83 250
999 COSGEN_0.83 250
202 ESForwSacLong+2+5 250
999 WORDS_nus~21 237
999 WORDFREQ_48.92 237
999 WORDSALL_sont~20_nus~21 237
999 COSIND_0.43 237
999 COSGEN_0.43 237
202 ESForwSacLong+2+6 237
999 WORDS_printemps~23 170
999 WORDFREQ_60.88 170
999 WORDSALL_printemps~23 170
999 COSIND_0.46 170
999 COSGEN_0.46 170
202 ESForwSacLong+2+4 170
999 WORDS_rase~24 161
999 WORDFREQ_2.64 161
999 WORDSALL_rase~24 161
999 COSIND_0.45 161
999 COSGEN_0.45 161
201 ESForwSacShort 161
999 WORDS_printemps~23 214
999 WORDFREQ_60.88 214
999 WORDSALL_printemps~23 214
999 COSIND_0.46 214
999 COSGEN_0.46 214
205 ESBackSacRegrShort 214
999 WORDS_rase~24 129
999 WORDFREQ_2.64 129
999 WORDSALL_rase~24 129
999 COSIND_0.45 129
999 COSGEN_0.45 129
201 ESForwSacShort 129
999 WORDS_murs~26 164
999 WORDFREQ_145.2 164
999 WORDSALL_les~25_murs~26 164
999 COSIND_0.28 164
999 COSGEN_0.28 164
202 ESForwSacLong+2+5 164
999 WORDS_sont~10 140
999 WORDFREQ_713.18 140
999 WORDSALL_jours~9_sont~10 140
999 COSIND_0.10 140
999 COSGEN_0.10 140
206 ESBackSacRegrLong-16-98 140
999 WORDS_pleut~1 187
999 WORDFREQ_10.41 187
999 WORDSALL_pleut~1 187
999 COSIND_0.23 187
999 COSGEN_0.23 187
206 ESBackSacRegrLong-9-45 187
200 ESRankN 187
199 ESRankNMinus1 140
198 ESRankNMinus2 164
197 ESRankNMinus3 129
196 ESRankNMinus4 214
195 ESRankNMinus5 161
194 ESRankNMinus6 170
193 ESRankNMinus7 237
192 ESRankNMinus8 250
191 ESRankNMinus9 324
190 ESRankNMinus10 329
