999 WORDS_pluies~1 145
999 WORDFREQ_10.81 145
999 WORDSALL_Les~0_pluies~1 145
999 COSIND_0.41 145
999 COSGEN_0.41 145
101 ESRank1 145
999 WORDS_intenses~2 355
999 WORDFREQ_2.3 355
999 WORDSALL_pluies~1_intenses~2 355
999 COSIND_0.24 355
999 COSGEN_0.24 355
102 ESRank2 355
201 ESForwSacShort 355
999 WORDS_intenses~2 136
999 WORDFREQ_2.3 136
999 WORDSALL_intenses~2 136
999 COSIND_0.24 136
999 COSGEN_0.24 136
103 ESRank3 136
203 ESBackSacRefixation 136
999 WORDS_duré~4 274
999 WORDFREQ_13.85 274
999 WORDSALL_ont~3_duré~4 274
999 COSIND_0.05 274
999 COSGEN_0.05 274
104 ESRank4 274
202 ESForwSacLong+2+5 274
999 WORDS_ont~3 83
999 WORDFREQ_553.31 83
999 WORDSALL_ont~3 83
999 COSIND_0.01 83
999 COSGEN_0.01 83
105 ESRank5 83
205 ESBackSacRegrShort 83
999 WORDS_plusieurs~5 118
999 WORDFREQ_203.58 118
999 WORDSALL_duré~4_plusieurs~5 118
999 COSIND_0.02 118
999 COSGEN_0.02 118
106 ESRank6 118
202 ESForwSacLong+2+7 118
999 WORDS_heures~6 141
999 WORDFREQ_484.19 141
999 WORDSALL_heures~6 141
999 COSIND_-0.02 141
999 COSGEN_-0.02 141
107 ESRank7 141
201 ESForwSacShort 141
999 WORDS_heures~6 135
999 WORDFREQ_484.19 135
999 WORDSALL_heures~6 135
999 COSIND_-0.02 135
999 COSGEN_-0.02 135
108 ESRank8 135
203 ESBackSacRefixation 135
999 WORDS_causant~7 147
999 WORDFREQ_1.76 147
999 WORDSALL_causant~7 147
999 COSIND_N/A 147
109 ESRank9 147
201 ESForwSacShort 147
999 WORDS_causant~7 291
999 WORDFREQ_1.76 291
999 WORDSALL_causant~7 291
999 COSIND_N/A 291
110 ESRank10 291
203 ESBackSacRefixation 291
999 WORDS_l'interruption~8 205
999 WORDFREQ_4.86 205
999 WORDSALL_l'interruption~8 205
999 COSIND_0.02 205
999 COSGEN_0.02 205
111 ESRank11 205
201 ESForwSacShort 205
999 WORDS_l'interruption~8 136
999 WORDFREQ_4.86 136
999 WORDSALL_l'interruption~8 136
999 COSIND_0.02 136
999 COSGEN_0.02 136
112 ESRank12 136
203 ESBackSacRefixation 136
999 WORDS_circulation~11 214
999 WORDFREQ_14.32 214
999 WORDSALL_circulation~11 214
999 COSIND_0.16 214
999 COSGEN_0.16 214
113 ESRank13 214
202 ESForwSacLong+3+7 214
999 WORDS_circulation~11 115
999 WORDFREQ_14.32 115
999 WORDSALL_circulation~11 115
999 COSIND_0.16 115
999 COSGEN_0.16 115
114 ESRank14 115
203 ESBackSacRefixation 115
999 WORDS_isolant~13 329
999 WORDFREQ_0.95 329
999 WORDSALL_isolant~13 329
999 COSIND_0.16 329
999 COSGEN_0.16 329
115 ESRank15 329
202 ESForwSacLong+2+4 329
999 WORDS_isolant~13 124
999 WORDFREQ_0.95 124
999 WORDSALL_et~12_isolant~13 124
999 COSIND_0.16 124
999 COSGEN_0.16 124
116 ESRank16 124
203 ESBackSacRefixation 124
999 WORDS_certain~15 173
999 WORDFREQ_6.89 173
999 WORDSALL_certain~15 173
999 COSIND_0.00 173
999 COSGEN_0.00 173
117 ESRank17 173
202 ESForwSacLong+2+4 173
999 WORDS_nombre~16 88
999 WORDFREQ_76.28 88
999 WORDSALL_certain~15_nombre~16 88
999 COSIND_0.03 88
999 COSGEN_0.03 88
118 ESRank18 88
201 ESForwSacShort 88
999 WORDS_bureau~20 168
999 WORDFREQ_130.07 168
999 WORDSALL_Le~19_bureau~20 168
999 COSIND_-0.06 168
999 COSGEN_-0.06 168
119 ESRank19 168
202 ESForwSacLong+4+16 168
999 WORDS_prévoit~21 155
999 WORDFREQ_1.96 155
999 WORDSALL_bureau~20_prévoit~21 155
999 COSIND_0.18 155
999 COSGEN_0.18 155
120 ESRank20 155
201 ESForwSacShort 155
999 WORDS_prévoit~21 165
999 WORDFREQ_1.96 165
999 WORDSALL_prévoit~21 165
999 COSIND_0.18 165
999 COSGEN_0.18 165
203 ESBackSacRefixation 165
999 WORDS_augmentation~23 247
999 WORDFREQ_3.24 247
999 WORDSALL_une~22_augmentation~23 247
999 COSIND_0.17 247
999 COSGEN_0.17 247
202 ESForwSacLong+2+5 247
999 WORDS_dérèglements~26 408
999 WORDFREQ_0.27 408
999 WORDSALL_ces~25_dérèglements~26 408
999 COSIND_0.16 408
999 COSGEN_0.16 408
202 ESForwSacLong+3+8 408
999 WORDS_dérèglements~26 115
999 WORDFREQ_0.27 115
999 WORDSALL_dérèglements~26 115
999 COSIND_0.16 115
999 COSGEN_0.16 115
203 ESBackSacRefixation 115
999 WORDS_climatiques~27 340
999 WORDFREQ_0.2 340
999 WORDSALL_climatiques~27 340
999 COSIND_0.98 340
999 COSGEN_0.98 340
201 ESForwSacShort 340
999 WORDS_niveau~29 142
999 WORDFREQ_30.74 142
999 WORDSALL_au~28_niveau~29 142
999 COSIND_0.05 142
999 COSGEN_0.05 142
202 ESForwSacLong+2+4 142
200 ESRankN 142
199 ESRankNMinus1 340
198 ESRankNMinus2 115
197 ESRankNMinus3 408
196 ESRankNMinus4 247
195 ESRankNMinus5 165
194 ESRankNMinus6 155
193 ESRankNMinus7 168
192 ESRankNMinus8 88
191 ESRankNMinus9 173
190 ESRankNMinus10 124
