999 WORDS_L'indivision~0 162
999 WORDFREQ_0.07 162
999 WORDSALL_L'indivision~0 162
999 COSIND_0.05 162
999 COSGEN_0.05 162
101 ESRank1 162
999 WORDS_L'indivision~0 184
999 WORDFREQ_0.07 184
999 WORDSALL_L'indivision~0 184
999 COSIND_0.05 184
999 COSGEN_0.05 184
102 ESRank2 184
203 ESBackSacRefixation 184
999 WORDS_fléau~3 143
999 WORDFREQ_3.04 143
999 WORDSALL_est~1_fléau~3 143
999 COSIND_-0.05 143
999 COSGEN_-0.05 143
103 ESRank3 143
202 ESForwSacLong+3+8 143
999 WORDS_fléau~3 187
999 WORDFREQ_3.04 187
999 WORDSALL_est~1_fléau~3 187
999 COSIND_-0.05 187
999 COSGEN_-0.05 187
104 ESRank4 187
203 ESBackSacRefixation 187
999 WORDS_fléau~3 169
999 WORDFREQ_3.04 169
999 WORDSALL_un~2_fléau~3 169
999 COSIND_-0.05 169
999 COSGEN_-0.05 169
105 ESRank5 169
203 ESBackSacRefixation 169
999 WORDS_Corse~5 248
999 WORDFREQ_1.22 248
999 WORDSALL_fléau~3_Corse~5 248
999 COSIND_0.02 248
999 COSGEN_0.02 248
106 ESRank6 248
202 ESForwSacLong+2+4 248
999 WORDS_Corse~5 250
999 WORDFREQ_1.22 250
999 WORDSALL_Corse~5 250
999 COSIND_0.02 250
999 COSGEN_0.02 250
107 ESRank7 250
203 ESBackSacRefixation 250
999 WORDS_l'intérieur~8 197
999 WORDFREQ_133.51 197
999 WORDSALL_dans~7_l'intérieur~8 197
999 COSIND_-0.03 197
999 COSGEN_-0.03 197
108 ESRank8 197
202 ESForwSacLong+3+14 197
999 WORDS_l'intérieur~8 95
999 WORDFREQ_133.51 95
999 WORDSALL_l'intérieur~8 95
999 COSIND_-0.03 95
999 COSGEN_-0.03 95
109 ESRank9 95
203 ESBackSacRefixation 95
999 WORDS_terres~10 218
999 WORDFREQ_32.03 218
999 WORDSALL_des~9_terres~10 218
999 COSIND_0.17 218
999 COSGEN_0.17 218
110 ESRank10 218
202 ESForwSacLong+2+5 218
999 WORDS_empêche~12 224
999 WORDFREQ_41.15 224
999 WORDSALL_Elle~11_empêche~12 224
999 COSIND_0.02 224
999 COSGEN_0.02 224
111 ESRank11 224
202 ESForwSacLong+2+6 224
999 WORDS_jeunes~14 134
999 WORDFREQ_136.55 134
999 WORDSALL_les~13_jeunes~14 134
999 COSIND_-0.03 134
999 COSGEN_-0.03 134
112 ESRank12 134
202 ESForwSacLong+2+5 134
999 WORDS_jeunes~14 152
999 WORDFREQ_136.55 152
999 WORDSALL_les~13_jeunes~14 152
999 COSIND_-0.03 152
999 COSGEN_-0.03 152
113 ESRank13 152
203 ESBackSacRefixation 152
999 WORDS_agriculteurs~15 221
999 WORDFREQ_1.08 221
999 WORDSALL_agriculteurs~15 221
999 COSIND_0.63 221
999 COSGEN_0.63 221
114 ESRank14 221
201 ESForwSacShort 221
999 WORDS_s'installer~17 250
999 WORDFREQ_29.73 250
999 WORDSALL_de~16_s'installer~17 250
999 COSIND_-0.03 250
999 COSGEN_-0.03 250
115 ESRank15 250
202 ESForwSacLong+2+4 250
999 WORDS_s'installer~17 176
999 WORDFREQ_29.73 176
999 WORDSALL_de~16_s'installer~17 176
999 COSIND_-0.03 176
999 COSGEN_-0.03 176
116 ESRank16 176
203 ESBackSacRefixation 176
999 WORDS_s'installer~17 142
999 WORDFREQ_29.73 142
999 WORDSALL_de~16_s'installer~17 142
999 COSIND_-0.03 142
999 COSGEN_-0.03 142
117 ESRank17 142
203 ESBackSacRefixation 142
999 WORDS_savoir~20 154
999 WORDFREQ_250 154
999 WORDSALL_de~19_savoir~20 154
999 COSIND_0.02 154
999 COSGEN_0.02 154
118 ESRank18 154
202 ESForwSacLong+3+10 154
999 WORDS_savoir~20 137
999 WORDFREQ_250 137
999 WORDSALL_faute~18_savoir~20 137
999 COSIND_0.02 137
999 COSGEN_0.02 137
119 ESRank19 137
203 ESBackSacRefixation 137
999 WORDS_faute~18 111
999 WORDFREQ_81.08 111
999 WORDSALL_faute~18 111
999 COSIND_-0.03 111
999 COSGEN_-0.03 111
120 ESRank20 111
206 ESBackSacRegrLong-2-4 111
999 WORDS_à~21 190
999 WORDFREQ_19209.05 190
999 WORDSALL_à~21 190
999 COSIND_N/A 190
202 ESForwSacLong+3+11 190
999 WORDS_racheter~23 223
999 WORDFREQ_6.08 223
999 WORDSALL_racheter~23 223
999 COSIND_-0.02 223
999 COSGEN_-0.02 223
202 ESForwSacLong+2+5 223
999 WORDS_terre~25 260
999 WORDFREQ_420.88 260
999 WORDSALL_la~24_terre~25 260
999 COSIND_0.17 260
999 COSGEN_0.17 260
202 ESForwSacLong+2+4 260
999 WORDS_fléau~3 104
999 WORDFREQ_3.04 104
999 WORDSALL_un~2_fléau~3 104
999 COSIND_-0.05 104
999 COSGEN_-0.05 104
206 ESBackSacRegrLong-22-135 104
200 ESRankN 104
199 ESRankNMinus1 260
198 ESRankNMinus2 223
197 ESRankNMinus3 190
196 ESRankNMinus4 111
195 ESRankNMinus5 137
194 ESRankNMinus6 154
193 ESRankNMinus7 142
192 ESRankNMinus8 176
191 ESRankNMinus9 250
190 ESRankNMinus10 221
