# 141 Fixation 1 (310.1,294.7): Il~0 pleut~1
# 144 Fixation 2 (451.8,288.2): la~3 Haute-Saône~4
# 113 Fixation 3 (528.8,290.9): Haute-Saône~4
# 198 Fixation 4 (652.2,282.9): il~5 fait~6
# 94 Fixation 5 (708.4,274): fait~6 froid~7
# 154 Fixation 6 (595.1,353.6): courts~12 A~13
# 103 Fixation 7 (633,356.1): courts~12 A~13
# 192 Fixation 8 (544.3,399.4): héroïques~17
# 185 Fixation 9 (688.1,411.6): les~18 arbustes~19
# 125 Fixation 10 (345.6,430.3): quelques~15 forsythias~16
# 203 Fixation 11 (315.2,437.4): quelques~15 forsythias~16
# 176 Fixation 12 (484.9,439): forsythias~16 héroïques~17
# 158 Fixation 13 (615.9,456.8): rase~24
# 227 Fixation 14 (659.4,472.7): les~25 murs~26
# 184 Fixation 15 (347.9,365.1): jours~9
# 142 Fixation 16 (310.3,372.6): les~8 jours~9
# 150 Fixation 17 (324.7,349): les~8 jours~9
# 168 Fixation 18 (456.9,345.2): sont~10
# 164 Fixation 19 (538.7,352.7): encore~11 courts~12
# 107 Fixation 20 (638.4,357.2): courts~12 A~13
# 132 Fixation 21 (370.6,381.2): quelques~15 forsythias~16
# 144 Fixation 22 (333.8,389.7): quelques~15 forsythias~16
# 147 Fixation 23 (467.7,391.8): forsythias~16
%%
# Il~0 Fixations= "1/"
# pleut~1 Fixations= "1/"
# sur~2 Fixations= ""
# la~3 Fixations= "2/"
# Haute-Saône~4 Fixations= "3/"
# il~5 Fixations= "4/"
# fait~6 Fixations= "5/"
# froid~7 Fixations= "5/"
# les~8 Fixations= "17/"
# jours~9 Fixations= "17/"
# sont~10 Fixations= "18/"
# encore~11 Fixations= "19/"
# courts~12 Fixations= "20/"
# A~13 Fixations= "20/"
# part~14 Fixations= ""
# quelques~15 Fixations= "22/"
# forsythias~16 Fixations= "23/"
# héroïques~17 Fixations= "12/"
# les~18 Fixations= "9/"
# arbustes~19 Fixations= "9/"
# sont~20 Fixations= ""
# nus~21 Fixations= ""
# le~22 Fixations= ""
# printemps~23 Fixations= ""
# rase~24 Fixations= "13/"
# les~25 Fixations= "14/"
# murs~26 Fixations= "14/"
%%
#  IL[1] PLEUT[1] sur LA[2] HAUTE-SAôNE[3] IL[4] FAIT[5] FROID[5] LES[17] JOURS[17] SONT[18] ENCORE[19] COURTS[20] A[20] part QUELQUES[22] FORSYTHIAS[23] HéROïQUES[12] LES[9] ARBUSTES[9] sont nus le printemps RASE[13] LES[14] MURS[14]
# s08 plantation_fleurs-m1 PercentageOfWordsProcessed= 0.777777777777778 PercentageOfWordsReallyProcessed= 0.777777777777778
