999 WORDS_l'instant~1 172
999 WORDFREQ_285.88 172
999 WORDSALL_Pour~0_l'instant~1 172
999 COSIND_-0.05 172
999 COSGEN_-0.05 172
101 ESRank1 172
999 WORDS_l'instant~1 274
999 WORDFREQ_285.88 274
999 WORDSALL_Pour~0_l'instant~1 274
999 COSIND_-0.05 274
999 COSGEN_-0.05 274
102 ESRank2 274
203 ESBackSacRefixation 274
999 WORDS_l'instant~1 147
999 WORDFREQ_285.88 147
999 WORDSALL_l'instant~1 147
999 COSIND_-0.05 147
999 COSGEN_-0.05 147
103 ESRank3 147
203 ESBackSacRefixation 147
999 WORDS_télécommunications~3 209
999 WORDFREQ_0.14 209
999 WORDSALL_les~2_télécommunications~3 209
999 COSIND_-0.04 209
999 COSGEN_-0.04 209
104 ESRank4 209
202 ESForwSacLong+2+5 209
999 WORDS_télécommunications~3 187
999 WORDFREQ_0.14 187
999 WORDSALL_les~2_télécommunications~3 187
999 COSIND_-0.04 187
999 COSGEN_-0.04 187
105 ESRank5 187
203 ESBackSacRefixation 187
999 WORDS_télécommunications~3 196
999 WORDFREQ_0.14 196
999 WORDSALL_télécommunications~3 196
999 COSIND_-0.04 196
999 COSGEN_-0.04 196
106 ESRank6 196
203 ESBackSacRefixation 196
999 WORDS_télécommunications~3 177
999 WORDFREQ_0.14 177
999 WORDSALL_télécommunications~3 177
999 COSIND_-0.04 177
999 COSGEN_-0.04 177
107 ESRank7 177
203 ESBackSacRefixation 177
999 WORDS_l'instant~1 180
999 WORDFREQ_285.88 180
999 WORDSALL_Pour~0_l'instant~1 180
999 COSIND_-0.05 180
999 COSGEN_-0.05 180
108 ESRank8 180
206 ESBackSacRegrLong-2-5 180
999 WORDS_palestiniennes~4 208
999 WORDFREQ_N/A 208
999 WORDSALL_palestiniennes~4 208
999 COSIND_N/A 208
109 ESRank9 208
202 ESForwSacLong+3+26 208
999 WORDS_palestiniennes~4 161
999 WORDFREQ_N/A 161
999 WORDSALL_palestiniennes~4 161
999 COSIND_N/A 161
110 ESRank10 161
203 ESBackSacRefixation 161
999 WORDS_sous-traitent~5 197
999 WORDFREQ_0 197
999 WORDSALL_sous-traitent~5 197
999 COSIND_N/A 197
111 ESRank11 197
201 ESForwSacShort 197
999 WORDS_sous-traitent~5 287
999 WORDFREQ_0 287
999 WORDSALL_sous-traitent~5 287
999 COSIND_N/A 287
112 ESRank12 287
203 ESBackSacRefixation 287
200 ESRankN 287
199 ESRankNMinus1 197
198 ESRankNMinus2 161
197 ESRankNMinus3 208
196 ESRankNMinus4 180
195 ESRankNMinus5 177
194 ESRankNMinus6 196
193 ESRankNMinus7 187
192 ESRankNMinus8 209
191 ESRankNMinus9 147
190 ESRankNMinus10 274
