999 WORDS_Comment~0 132
999 WORDFREQ_164.93 132
999 WORDSALL_Comment~0 132
999 COSIND_N/A 132
101 ESRank1 132
999 WORDS_France~2 145
999 WORDFREQ_N/A 145
999 WORDSALL_France~2 145
999 COSIND_N/A 145
102 ESRank2 145
202 ESForwSacLong+2+4 145
999 WORDS_L'interdiction~9 142
999 WORDFREQ_5.95 142
999 WORDSALL_France~2_L'interdiction~9 142
999 COSIND_-0.04 142
999 COSGEN_-0.04 142
103 ESRank3 142
202 ESForwSacLong+7+41 142
999 WORDS_cigarette~8 182
999 WORDFREQ_77.57 182
999 WORDSALL_cigarette~8 182
999 COSIND_0.09 182
999 COSGEN_0.09 182
104 ESRank4 182
205 ESBackSacRegrShort 182
999 WORDS_cigarette~8 126
999 WORDFREQ_77.57 126
999 WORDSALL_de~6_cigarette~8 126
999 COSIND_0.09 126
999 COSGEN_0.09 126
105 ESRank5 126
203 ESBackSacRefixation 126
999 WORDS_pourra-t-elle~3 255
999 WORDFREQ_N/A 255
999 WORDSALL_pourra-t-elle~3 255
999 COSIND_N/A 255
106 ESRank6 255
206 ESBackSacRegrLong-5-17 255
999 WORDS_passer~5 86
999 WORDFREQ_288.78 86
999 WORDSALL_se~4_passer~5 86
999 COSIND_-0.02 86
999 COSGEN_-0.02 86
107 ESRank7 86
202 ESForwSacLong+2+4 86
999 WORDS_L'interdiction~9 181
999 WORDFREQ_5.95 181
999 WORDSALL_L'interdiction~9 181
999 COSIND_-0.04 181
999 COSGEN_-0.04 181
108 ESRank8 181
202 ESForwSacLong+4+17 181
999 WORDS_largement~17 242
999 WORDFREQ_26.76 242
999 WORDSALL_est~16_largement~17 242
999 COSIND_-0.07 242
999 COSGEN_-0.07 242
109 ESRank9 242
202 ESForwSacLong+8+37 242
999 WORDS_atteinte~25 104
999 WORDFREQ_5.95 104
999 WORDSALL_comme~23_atteinte~25 104
999 COSIND_0.07 104
999 COSGEN_0.07 104
110 ESRank10 104
202 ESForwSacLong+8+45 104
200 ESRankN 104
199 ESRankNMinus1 242
198 ESRankNMinus2 181
197 ESRankNMinus3 86
196 ESRankNMinus4 255
195 ESRankNMinus5 126
194 ESRankNMinus6 182
193 ESRankNMinus7 142
192 ESRankNMinus8 145
191 ESRankNMinus9 132
