# 210 Fixation 1 (398.5,323.3): incendié~8
# 155 Fixation 2 (317.1,296.1): Une~0 soixantaine~1
# 136 Fixation 3 (480.7,282.6): de~2 jeunes~3
# 137 Fixation 4 (575.4,261.9): jeunes~3
# 142 Fixation 5 (652.1,269.7): de~4 Courneuve~6
# 156 Fixation 6 (295.1,359.8): ont~7 incendié~8
# 124 Fixation 7 (404,341.8): incendié~8
# 200 Fixation 8 (502.1,348.7): des~9 voitures~10
# 193 Fixation 9 (613.8,346.6): brisé~11
# 206 Fixation 10 (330.5,409.1): vitrines~13
%%
# Une~0 Fixations= "2/"
# soixantaine~1 Fixations= "2/"
# de~2 Fixations= "3/"
# jeunes~3 Fixations= "4/"
# de~4 Fixations= "5/"
# la~5 Fixations= ""
# Courneuve~6 Fixations= "5/"
# ont~7 Fixations= "6/"
# incendié~8 Fixations= "7/"
# des~9 Fixations= "8/"
# voitures~10 Fixations= "8/"
# brisé~11 Fixations= "9/"
# des~12 Fixations= ""
# vitrines~13 Fixations= "10/"
# et~14 Fixations= ""
# s'en~15 Fixations= ""
# sont~16 Fixations= ""
# pris~17 Fixations= ""
# aux~18 Fixations= ""
# policiers~19 Fixations= ""
# auxquels~20 Fixations= ""
# ils~21 Fixations= ""
# attribuent~22 Fixations= ""
# la~23 Fixations= ""
# responsabilité~24 Fixations= ""
# de~25 Fixations= ""
# la~26 Fixations= ""
# mort~27 Fixations= ""
# d'un~28 Fixations= ""
# des~29 Fixations= ""
# leurs~30 Fixations= ""
%%
#  UNE[2] SOIXANTAINE[2] DE[3] JEUNES[4] DE[5] la COURNEUVE[5] ONT[6] INCENDIé[7] DES[8] VOITURES[8] BRISé[9] des VITRINES[10] et s'en sont pris aux policiers auxquels ils attribuent la responsabilité de la mort d'un des leurs
# s10 delinquance_juvenile-f2 PercentageOfWordsProcessed= 0.387096774193548 PercentageOfWordsReallyProcessed= 0.857142857142857
