# 193 Fixation 1 (253.4,274.5): Toute~0
# 130 Fixation 2 (312.3,269.7): Toute~0
# 393 Fixation 3 (362.6,269.5): la~1 magie~2
# 226 Fixation 4 (476.8,271.7): des~3 hauts~4
# 154 Fixation 5 (576.2,278.5): hauts~4 plateaux~5
# 157 Fixation 6 (278.5,307.8): Toute~0
# 758 Fixation 7 (272.4,326.5): basaltiques~6
# 157 Fixation 8 (250.3,333.6): basaltiques~6
%%
# Toute~0 Fixations= "6/"
# la~1 Fixations= "3/"
# magie~2 Fixations= "3/"
# des~3 Fixations= "4/"
# hauts~4 Fixations= "5/"
# plateaux~5 Fixations= "5/"
# basaltiques~6 Fixations= "8/"
# avec~7 Fixations= ""
# la~8 Fixations= ""
# neige~9 Fixations= ""
# en~10 Fixations= ""
# plus~11 Fixations= ""
# Au~12 Fixations= ""
# programme~13 Fixations= ""
# randonnée~14 Fixations= ""
# en~15 Fixations= ""
# raquettes~16 Fixations= ""
# avec~17 Fixations= ""
# guide~18 Fixations= ""
# ski~19 Fixations= ""
# de~20 Fixations= ""
# fond~21 Fixations= ""
# et~22 Fixations= ""
# relaxation~23 Fixations= ""
# dans~24 Fixations= ""
# les~25 Fixations= ""
# eaux~26 Fixations= ""
# chaudes~27 Fixations= ""
# thermales~28 Fixations= ""
# de~29 Fixations= ""
# la~30 Fixations= ""
# montagne~31 Fixations= ""
%%
#  TOUTE[6] LA[3] MAGIE[3] DES[4] HAUTS[5] PLATEAUX[5] BASALTIQUES[8] avec la neige en plus Au programme randonnée en raquettes avec guide ski de fond et relaxation dans les eaux chaudes thermales de la montagne
# s13 tourisme_montagne-f2 PercentageOfWordsProcessed= 0.21875 PercentageOfWordsReallyProcessed= 1
