# 89 Fixation 1 (264,285): Cette~0 annonce~1
# 215 Fixation 2 (348.7,285): Cette~0 annonce~1
# 168 Fixation 3 (493.3,287.5): qui~2 avait~3
# 133 Fixation 4 (609.2,283.4): déjà~4
# 195 Fixation 5 (289.4,345): pronostiquée~6
# 115 Fixation 6 (416.1,344.3): par~7 certains~8
# 210 Fixation 7 (522.1,344.2): certains~8
# 229 Fixation 8 (644.7,342.9): analystes~9
# 136 Fixation 9 (694.7,349.7): analystes~9
# 227 Fixation 10 (311.4,401.6): semaine~11
# 223 Fixation 11 (395.4,402.4): dernière~12
# 106 Fixation 12 (507,409.4): a~13 été~14
# 90 Fixation 13 (577.8,412.4): été~14 fraîchement~15
# 159 Fixation 14 (291.8,461.8): accueillie~16
# 98 Fixation 15 (344.6,463.6): accueillie~16
# 158 Fixation 16 (440.1,467.1): Cette~17 diminution~18
# 208 Fixation 17 (537,467.9): diminution~18
# 141 Fixation 18 (665.6,470.2): ne~19 fait~20
# 120 Fixation 19 (699.9,470.6): ne~19 fait~20
# 185 Fixation 20 (294.7,519): poursuivre~22
# 113 Fixation 21 (447.3,525.2): une~23 tendance~24
# 128 Fixation 22 (518.8,529.9): tendance~24 à~25
# 222 Fixation 23 (628.7,539.3): à~25 baisse~27
# 112 Fixation 24 (277.6,606.1): titre~29
# 146 Fixation 25 (275.2,599.5): titre~29
# 107 Fixation 26 (258.3,599.9): titre~29
%%
# Cette~0 Fixations= "2/"
# annonce~1 Fixations= "2/"
# qui~2 Fixations= "3/"
# avait~3 Fixations= "3/"
# déjà~4 Fixations= "4/"
# été~5 Fixations= ""
# pronostiquée~6 Fixations= "5/"
# par~7 Fixations= "6/"
# certains~8 Fixations= "7/"
# analystes~9 Fixations= "9/"
# la~10 Fixations= ""
# semaine~11 Fixations= "10/"
# dernière~12 Fixations= "11/"
# a~13 Fixations= "12/"
# été~14 Fixations= "13/"
# fraîchement~15 Fixations= "13/"
# accueillie~16 Fixations= "15/"
# Cette~17 Fixations= "16/"
# diminution~18 Fixations= "17/"
# ne~19 Fixations= "19/"
# fait~20 Fixations= "19/"
# que~21 Fixations= ""
# poursuivre~22 Fixations= "20/"
# une~23 Fixations= "21/"
# tendance~24 Fixations= "22/"
# à~25 Fixations= "23/"
# la~26 Fixations= ""
# baisse~27 Fixations= "23/"
# du~28 Fixations= ""
# titre~29 Fixations= "26/"
%%
#  CETTE[2] ANNONCE[2] QUI[3] AVAIT[3] DéJà[4] été PRONOSTIQUéE[5] PAR[6] CERTAINS[7] ANALYSTES[9] la SEMAINE[10] DERNIèRE[11] A[12] éTé[13] FRAîCHEMENT[13] ACCUEILLIE[15] CETTE[16] DIMINUTION[17] NE[19] FAIT[19] que POURSUIVRE[20] UNE[21] TENDANCE[22] à[23] la BAISSE[23] du TITRE[26]
# s02 hausse_bourse-m1 PercentageOfWordsProcessed= 0.833333333333333 PercentageOfWordsReallyProcessed= 0.833333333333333
