999 WORDS_faut~1 136
999 WORDFREQ_653.92 136
999 WORDSALL_Il~0_faut~1 136
999 COSIND_0.02 136
999 COSGEN_0.02 136
101 ESRank1 136
999 WORDS_profiter~2 220
999 WORDFREQ_25.14 220
999 WORDSALL_profiter~2 220
999 COSIND_-0.02 220
999 COSGEN_-0.02 220
102 ESRank2 220
201 ESForwSacShort 220
999 WORDS_crise~5 159
999 WORDFREQ_37.97 159
999 WORDSALL_la~4_crise~5 159
999 COSIND_-0.07 159
999 COSGEN_-0.07 159
103 ESRank3 159
202 ESForwSacLong+3+7 159
999 WORDS_générale~6 142
999 WORDFREQ_34.73 142
999 WORDSALL_crise~5_générale~6 142
999 COSIND_0.02 142
999 COSGEN_0.02 142
104 ESRank4 142
201 ESForwSacShort 142
999 WORDS_traverse~8 198
999 WORDFREQ_25.27 198
999 WORDSALL_Il~0_faut~1_traverse~8 198
999 COSIND_0.16 198
999 COSGEN_0.16 198
105 ESRank5 198
202 ESForwSacLong+2+5 198
999 WORDS_gouvernement~10 187
999 WORDFREQ_119.73 187
999 WORDSALL_profiter~2_gouvernement~10 187
999 COSIND_-0.01 187
999 COSGEN_-0.01 187
106 ESRank6 187
202 ESForwSacLong+2+4 187
999 WORDS_fatigue~14 161
999 WORDFREQ_65.81 161
999 WORDSALL_et~11_fatigue~14 161
999 COSIND_-0.07 161
999 COSGEN_-0.07 161
107 ESRank7 161
202 ESForwSacLong+4+10 161
999 WORDS_certaines~16 225
999 WORDFREQ_51.55 225
999 WORDSALL_certaines~16 225
999 COSIND_0.02 225
999 COSGEN_0.02 225
108 ESRank8 225
202 ESForwSacLong+2+4 225
999 WORDS_unités~17 288
999 WORDFREQ_15.34 288
999 WORDSALL_unités~17 288
999 COSIND_0.04 288
999 COSGEN_0.04 288
109 ESRank9 288
201 ESForwSacShort 288
999 WORDS_guérillero~20 257
999 WORDFREQ_0.14 257
999 WORDSALL_guérillero~20 257
999 COSIND_0.19 257
999 COSGEN_0.19 257
110 ESRank10 257
202 ESForwSacLong+3+15 257
999 WORDS_nécessaire~22 266
999 WORDFREQ_48.45 266
999 WORDSALL_juge~21_nécessaire~22 266
999 COSIND_-0.04 266
999 COSGEN_-0.04 266
111 ESRank11 266
202 ESForwSacLong+2+6 266
999 WORDS_juge~21 105
999 WORDFREQ_11.15 105
999 WORDSALL_juge~21 105
999 COSIND_-0.02 105
999 COSGEN_-0.02 105
112 ESRank12 105
205 ESBackSacRegrShort 105
999 WORDS_mener~24 174
999 WORDFREQ_29.53 174
999 WORDSALL_de~23_mener~24 174
999 COSIND_0.18 174
999 COSGEN_0.18 174
113 ESRank13 174
202 ESForwSacLong+3+16 174
999 WORDS_armées~27 132
999 WORDFREQ_2.97 132
999 WORDSALL_guérillero~20_juge~21_armées~27 132
999 COSIND_0.06 132
999 COSGEN_0.06 132
114 ESRank14 132
202 ESForwSacLong+3+13 132
999 WORDS_actions~26 143
999 WORDFREQ_14.53 143
999 WORDSALL_actions~26 143
999 COSIND_-0.03 143
999 COSGEN_-0.03 143
115 ESRank15 143
205 ESBackSacRegrShort 143
200 ESRankN 143
199 ESRankNMinus1 132
198 ESRankNMinus2 174
197 ESRankNMinus3 105
196 ESRankNMinus4 266
195 ESRankNMinus5 257
194 ESRankNMinus6 288
193 ESRankNMinus7 225
192 ESRankNMinus8 161
191 ESRankNMinus9 187
190 ESRankNMinus10 198
