999 WORDS_particulière~2 139
999 WORDFREQ_20 139
999 WORDSALL_inquiétude~1_particulière~2 139
999 COSIND_-0.00 139
999 COSGEN_-0.00 139
101 ESRank1 139
999 WORDS_pointe~3 155
999 WORDFREQ_7.84 155
999 WORDSALL_pointe~3 155
999 COSIND_0.22 155
999 COSGEN_0.22 155
102 ESRank2 155
201 ESForwSacShort 155
999 WORDS_d'établissement~11 214
999 WORDFREQ_17.36 214
999 WORDSALL_la~6_responsabilité~7_d'établissement~11 214
999 COSIND_-0.00 214
999 COSGEN_-0.00 214
103 ESRank3 214
202 ESForwSacLong+8+47 214
999 WORDS_pénale~8 174
999 WORDFREQ_0.2 174
999 WORDSALL_pénale~8 174
999 COSIND_0.02 174
999 COSGEN_0.02 174
104 ESRank4 174
206 ESBackSacRegrLong-3-11 174
999 WORDS_chefs~10 120
999 WORDFREQ_33.38 120
999 WORDSALL_des~9_chefs~10 120
999 COSIND_-0.02 120
999 COSGEN_-0.02 120
105 ESRank5 120
202 ESForwSacLong+2+5 120
999 WORDS_d'établissement~11 230
999 WORDFREQ_17.36 230
999 WORDSALL_la~6_responsabilité~7_d'établissement~11 230
999 COSIND_-0.00 230
999 COSGEN_-0.00 230
106 ESRank6 230
201 ESForwSacShort 230
999 WORDS_mise~12 230
999 WORDFREQ_2.5 230
999 WORDSALL_mise~12 230
999 COSIND_0.03 230
999 COSGEN_0.03 230
107 ESRank7 230
201 ESForwSacShort 230
999 WORDS_l'entretien~24 159
999 WORDFREQ_20.54 159
999 WORDSALL_l'entretien~24 159
999 COSIND_0.00 159
999 COSGEN_0.00 159
108 ESRank8 159
202 ESForwSacLong+12+80 159
200 ESRankN 159
199 ESRankNMinus1 230
198 ESRankNMinus2 230
197 ESRankNMinus3 120
196 ESRankNMinus4 174
195 ESRankNMinus5 214
194 ESRankNMinus6 155
193 ESRankNMinus7 139
