# 120 Fixation 1 (269.7,282.1): Comment~0
# 138 Fixation 2 (386.2,279.2): la~1 France~2
# 140 Fixation 3 (507.4,272.8): pourra-t-elle~3
# 142 Fixation 4 (630.9,265.7): pourra-t-elle~3
# 131 Fixation 5 (694.2,273.2): se~4 passer~5
# 194 Fixation 6 (319.2,336.5): Comment~0 cigarette~8
# 125 Fixation 7 (409.2,342.3): la~1 France~2 cigarette~8
# 203 Fixation 8 (523.2,345.1): pourra-t-elle~3 L'interdiction~9
# 135 Fixation 9 (488.2,447.9): publics~15 étrangère~22
# 216 Fixation 10 (594.2,433.9): est~16 largement~17
# 164 Fixation 11 (682.9,480.2): une~24 atteinte~25
# 139 Fixation 12 (386.9,532.8): presse~21 culture~28
# 139 Fixation 13 (451.6,533.6): presse~21 étrangère~22 française~29
# 141 Fixation 14 (345.2,532.7): la~20 presse~21 culture~28
# 108 Fixation 15 (449.5,433.3): lieux~14 publics~15
# 102 Fixation 16 (511.6,417): publics~15
# 146 Fixation 17 (634.5,420.3): largement~17
# 201 Fixation 18 (733,421): largement~17 perçue~18
%%
# Comment~0 Fixations= "6/"
# la~1 Fixations= "7/"
# France~2 Fixations= "7/"
# pourra-t-elle~3 Fixations= "8/"
# se~4 Fixations= "5/"
# passer~5 Fixations= "5/"
# de~6 Fixations= ""
# la~7 Fixations= ""
# cigarette~8 Fixations= "7/"
# L'interdiction~9 Fixations= "8/"
# de~10 Fixations= ""
# fumer~11 Fixations= ""
# dans~12 Fixations= ""
# les~13 Fixations= ""
# lieux~14 Fixations= "15/"
# publics~15 Fixations= "16/"
# est~16 Fixations= "10/"
# largement~17 Fixations= "18/"
# perçue~18 Fixations= "18/"
# par~19 Fixations= ""
# la~20 Fixations= "14/"
# presse~21 Fixations= "14/"
# étrangère~22 Fixations= "13/"
# comme~23 Fixations= ""
# une~24 Fixations= "11/"
# atteinte~25 Fixations= "11/"
# à~26 Fixations= ""
# la~27 Fixations= ""
# culture~28 Fixations= "14/"
# française~29 Fixations= "13/"
%%
#  COMMENT[6] LA[7] FRANCE[7] POURRA-T-ELLE[8] SE[5] PASSER[5] de la CIGARETTE[7] L'INTERDICTION[8] de fumer dans les LIEUX[15] PUBLICS[16] EST[10] LARGEMENT[18] PERçUE[18] par LA[14] PRESSE[14] éTRANGèRE[13] comme UNE[11] ATTEINTE[11] à la CULTURE[14] FRANçAISE[13]
# s10 prix_petrole-a1 PercentageOfWordsProcessed= 0.666666666666667 PercentageOfWordsReallyProcessed= 0.666666666666667
