999 WORDS_L'idée~0 132
999 WORDFREQ_241.08 132
999 WORDSALL_L'idée~0 132
999 COSIND_-0.01 132
999 COSGEN_-0.01 132
101 ESRank1 132
999 WORDS_L'idée~0 163
999 WORDFREQ_241.08 163
999 WORDSALL_L'idée~0 163
999 COSIND_-0.01 163
999 COSGEN_-0.01 163
102 ESRank2 163
203 ESBackSacRefixation 163
999 WORDS_pousser~3 116
999 WORDFREQ_45.68 116
999 WORDSALL_est~1_pousser~3 116
999 COSIND_-0.07 116
999 COSGEN_-0.07 116
103 ESRank3 116
202 ESForwSacLong+3+8 116
999 WORDS_pousser~3 117
999 WORDFREQ_45.68 117
999 WORDSALL_pousser~3 117
999 COSIND_-0.07 117
999 COSGEN_-0.07 117
104 ESRank4 117
203 ESBackSacRefixation 117
999 WORDS_compagnies~5 173
999 WORDFREQ_6.28 173
999 WORDSALL_les~4_compagnies~5 173
999 COSIND_0.08 173
999 COSGEN_0.08 173
105 ESRank5 173
202 ESForwSacLong+2+5 173
999 WORDS_pétrolières~6 206
999 WORDFREQ_0.61 206
999 WORDSALL_pétrolières~6 206
999 COSIND_0.33 206
999 COSGEN_0.33 206
106 ESRank6 206
201 ESForwSacShort 206
999 WORDS_réorienter~8 195
999 WORDFREQ_0 195
999 WORDSALL_à~7_réorienter~8 195
999 COSIND_0.10 195
999 COSGEN_0.10 195
107 ESRank7 195
202 ESForwSacLong+2+4 195
999 WORDS_réorienter~8 127
999 WORDFREQ_0 127
999 WORDSALL_réorienter~8 127
999 COSIND_0.10 127
999 COSGEN_0.10 127
108 ESRank8 127
203 ESBackSacRefixation 127
999 WORDS_zone~13 148
999 WORDFREQ_34.39 148
999 WORDSALL_zone~13 148
999 COSIND_0.02 148
999 COSGEN_0.02 148
109 ESRank9 148
202 ESForwSacLong+5+31 148
999 WORDS_zone~13 132
999 WORDFREQ_34.39 132
999 WORDSALL_zone~13 132
999 COSIND_0.02 132
999 COSGEN_0.02 132
110 ESRank10 132
203 ESBackSacRefixation 132
200 ESRankN 132
199 ESRankNMinus1 148
198 ESRankNMinus2 127
197 ESRankNMinus3 195
196 ESRankNMinus4 206
195 ESRankNMinus5 173
194 ESRankNMinus6 117
193 ESRankNMinus7 116
192 ESRankNMinus8 163
191 ESRankNMinus9 132
