# 101 Fixation 1 (277.9,270.1): Un~0 avion~1
# 177 Fixation 2 (416.1,287.6): de~2 combat~3
# 148 Fixation 3 (513.1,279.1): combat~3 russe~4
# 155 Fixation 4 (552.3,287.6): russe~4
# 224 Fixation 5 (297,352.9): Sukhoi-30~6
# 174 Fixation 6 (441.9,350): s'est~7 écrasé~8
# 173 Fixation 7 (472.3,351.5): s'est~7 écrasé~8
# 141 Fixation 8 (577.1,349.5): pendant~9
# 272 Fixation 9 (314,411.4): démonstration~11
# 115 Fixation 10 (451.5,403.2): en~12 vol~13
# 123 Fixation 11 (578,408.7): samedi~14
# 163 Fixation 12 (635.5,404.1): samedi~14 15~16
# 206 Fixation 13 (318.8,459.1): heures~17
# 241 Fixation 14 (458,453.8): de~19 l'inauguration~20
# 124 Fixation 15 (413.6,527.8): aéronautique~23 Bourget~25
%%
# Un~0 Fixations= "1/"
# avion~1 Fixations= "1/"
# de~2 Fixations= "2/"
# combat~3 Fixations= "3/"
# russe~4 Fixations= "4/"
# biréacteur~5 Fixations= ""
# Sukhoi-30~6 Fixations= "5/"
# s'est~7 Fixations= "7/"
# écrasé~8 Fixations= "7/"
# pendant~9 Fixations= "8/"
# une~10 Fixations= ""
# démonstration~11 Fixations= "9/"
# en~12 Fixations= "10/"
# vol~13 Fixations= "10/"
# samedi~14 Fixations= "12/"
# vers~15 Fixations= ""
# 15~16 Fixations= "12/"
# heures~17 Fixations= "13/"
# lors~18 Fixations= ""
# de~19 Fixations= "14/"
# l'inauguration~20 Fixations= "14/"
# du~21 Fixations= ""
# salon~22 Fixations= ""
# aéronautique~23 Fixations= "15/"
# du~24 Fixations= ""
# Bourget~25 Fixations= "15/"
%%
#  UN[1] AVION[1] DE[2] COMBAT[3] RUSSE[4] biréacteur SUKHOI-30[5] S'EST[7] éCRASé[7] PENDANT[8] une DéMONSTRATION[9] EN[10] VOL[10] SAMEDI[12] vers 15[12] HEURES[13] lors DE[14] L'INAUGURATION[14] du salon AéRONAUTIQUE[15] du BOURGET[15]
# s18 salon_aeronautique-f1 PercentageOfWordsProcessed= 0.730769230769231 PercentageOfWordsReallyProcessed= 0.730769230769231
