# 162 Fixation 1 (277.7,234.8): Le~0 chanteur~1
# 182 Fixation 2 (419,282.2): Yannick~2
# 170 Fixation 3 (529.6,257.6): Noah~3
# 246 Fixation 4 (689.9,267.6): en~5 concert~6
# 109 Fixation 5 (606.3,273.7): ici~4 concert~6
# 173 Fixation 6 (364.1,343.6): chanteur~1 place~10
# 117 Fixation 7 (285,368.6): repris~8
# 183 Fixation 8 (621,372.3): du~14 classement~15 Français~20
# 82 Fixation 9 (641.9,366.6): du~14 classement~15
# 258 Fixation 10 (391,395.2): sa~9 place~10
# 176 Fixation 11 (610.3,413.7): des~19 Français~20
%%
# Le~0 Fixations= "1/"
# chanteur~1 Fixations= "6/"
# Yannick~2 Fixations= "2/"
# Noah~3 Fixations= "3/"
# ici~4 Fixations= "5/"
# en~5 Fixations= "4/"
# concert~6 Fixations= "5/"
# a~7 Fixations= ""
# repris~8 Fixations= "7/"
# sa~9 Fixations= "10/"
# place~10 Fixations= "10/"
# à~11 Fixations= ""
# la~12 Fixations= ""
# tete~13 Fixations= ""
# du~14 Fixations= "9/"
# classement~15 Fixations= "9/"
# des~16 Fixations= ""
# personnalités~17 Fixations= ""
# préférées~18 Fixations= ""
# des~19 Fixations= "11/"
# Français~20 Fixations= "11/"
# et~21 Fixations= ""
# devance~22 Fixations= ""
# Zinédine~23 Fixations= ""
# Zidane~24 Fixations= ""
%%
#  LE[1] CHANTEUR[6] YANNICK[2] NOAH[3] ICI[5] EN[4] CONCERT[5] a REPRIS[7] SA[10] PLACE[10] à la tete DU[9] CLASSEMENT[9] des personnalités préférées DES[11] FRANçAIS[11] et devance Zinédine Zidane
# s21 reforme_justice-a2 PercentageOfWordsProcessed= 0.56 PercentageOfWordsReallyProcessed= 0.666666666666667
