# 135 Fixation 1 (317.1,275): Les~0 producteurs~1
# 122 Fixation 2 (416,282.3): producteurs~1
# 137 Fixation 3 (507.9,271.9): de~2 fruits~3
# 102 Fixation 4 (526.5,272.9): de~2 fruits~3
# 98 Fixation 5 (637.3,268): et~4 légumes~5
# 210 Fixation 6 (362.5,315.1): producteurs~1
# 136 Fixation 7 (494.8,335.2): à~8
# 126 Fixation 8 (556.8,337.6): la~9 puissante~10
# 144 Fixation 9 (685,333): Fédération~11
# 130 Fixation 10 (373.8,357.2): affiliés~7
# 209 Fixation 11 (342.5,362.3): surtout~6 affiliés~7
# 177 Fixation 12 (471.1,367.2): affiliés~7 à~8
%%
# Les~0 Fixations= "1/"
# producteurs~1 Fixations= "6/"
# de~2 Fixations= "4/"
# fruits~3 Fixations= "4/"
# et~4 Fixations= "5/"
# légumes~5 Fixations= "5/"
# surtout~6 Fixations= "11/"
# affiliés~7 Fixations= "12/"
# à~8 Fixations= "12/"
# la~9 Fixations= "8/"
# puissante~10 Fixations= "8/"
# Fédération~11 Fixations= "9/"
# Nationale~12 Fixations= ""
# des~13 Fixations= ""
# Syndicats~14 Fixations= ""
# d'Exploitants~15 Fixations= ""
# Agricoles~16 Fixations= ""
# ont~17 Fixations= ""
# les~18 Fixations= ""
# grandes~19 Fixations= ""
# surfaces~20 Fixations= ""
# dans~21 Fixations= ""
# leur~22 Fixations= ""
# ligne~23 Fixations= ""
# de~24 Fixations= ""
# mire~25 Fixations= ""
%%
#  LES[1] PRODUCTEURS[6] DE[4] FRUITS[4] ET[5] LéGUMES[5] SURTOUT[11] AFFILIéS[12] à[12] LA[8] PUISSANTE[8] FéDéRATION[9] Nationale des Syndicats d'Exploitants Agricoles ont les grandes surfaces dans leur ligne de mire
# s08 syndicat_agricole-f2 PercentageOfWordsProcessed= 0.461538461538462 PercentageOfWordsReallyProcessed= 1
