999 WORDS_incendiés~6 270
999 WORDFREQ_0.88 270
999 WORDSALL_incendiés~6 270
999 COSIND_0.01 270
999 COSGEN_0.01 270
101 ESRank1 270
999 WORDS_incendiés~6 99
999 WORDFREQ_0.88 99
999 WORDSALL_incendiés~6 99
999 COSIND_0.01 99
999 COSGEN_0.01 99
102 ESRank2 99
203 ESBackSacRefixation 99
999 WORDS_quarantaine~1 279
999 WORDFREQ_10.07 279
999 WORDSALL_Une~0_quarantaine~1 279
999 COSIND_0.20 279
999 COSGEN_0.20 279
103 ESRank3 279
206 ESBackSacRegrLong-5-25 279
999 WORDS_véhicules~3 205
999 WORDFREQ_7.23 205
999 WORDSALL_de~2_véhicules~3 205
999 COSIND_0.09 205
999 COSGEN_0.09 205
104 ESRank4 205
202 ESForwSacLong+2+4 205
999 WORDS_véhicules~3 209
999 WORDFREQ_7.23 209
999 WORDSALL_de~2_véhicules~3 209
999 COSIND_0.09 209
999 COSGEN_0.09 209
105 ESRank5 209
203 ESBackSacRefixation 209
999 WORDS_ 229
999 WORDFREQ_ 229
999 WORDSALL_ 229
106 ESRank6 229
999 WORDS_ 101
999 WORDFREQ_ 101
999 WORDSALL_ 101
107 ESRank7 101
999 WORDS_ 155
999 WORDFREQ_ 155
999 WORDSALL_ 155
108 ESRank8 155
999 WORDS_incendiés~6 304
999 WORDFREQ_0.88 304
999 WORDSALL_incendiés~6 304
999 COSIND_0.01 304
999 COSGEN_0.01 304
109 ESRank9 304
999 WORDS_banlieues~13 163
999 WORDFREQ_2.5 163
999 WORDSALL_banlieues~13 163
999 COSIND_0.39 163
999 COSGEN_0.39 163
110 ESRank10 163
202 ESForwSacLong+7+33 163
999 WORDS_Strasbourg~15 203
999 WORDFREQ_N/A 203
999 WORDSALL_de~14_Strasbourg~15 203
999 COSIND_N/A 203
111 ESRank11 203
202 ESForwSacLong+2+4 203
999 WORDS_Strasbourg~15 180
999 WORDFREQ_N/A 180
999 WORDSALL_Strasbourg~15 180
999 COSIND_N/A 180
112 ESRank12 180
203 ESBackSacRefixation 180
999 WORDS_mineurs~10 284
999 WORDFREQ_6.01 284
999 WORDSALL_mineurs~10 284
999 COSIND_0.73 284
999 COSGEN_0.73 284
113 ESRank13 284
206 ESBackSacRegrLong-5-23 284
200 ESRankN 284
199 ESRankNMinus1 180
198 ESRankNMinus2 203
197 ESRankNMinus3 163
196 ESRankNMinus4 304
195 ESRankNMinus5 155
194 ESRankNMinus6 101
193 ESRankNMinus7 229
192 ESRankNMinus8 209
191 ESRankNMinus9 205
190 ESRankNMinus10 279
