999 WORDS_L'Irak~0 161
999 WORDFREQ_N/A 161
999 WORDSALL_L'Irak~0 161
999 COSIND_N/A 161
101 ESRank1 161
999 WORDS_demandé~2 158
999 WORDFREQ_128.92 158
999 WORDSALL_a~1_demandé~2 158
999 COSIND_-0.04 158
999 COSGEN_-0.04 158
102 ESRank2 158
202 ESForwSacLong+2+3 158
999 WORDS_l'ONU~4 174
999 WORDFREQ_N/A 174
999 WORDSALL_à~3_l'ONU~4 174
999 COSIND_N/A 174
103 ESRank3 174
202 ESForwSacLong+2+4 174
999 WORDS_d'empêcher~5 107
999 WORDFREQ_70.2 107
999 WORDSALL_d'empêcher~5 107
999 COSIND_0.11 107
999 COSGEN_0.11 107
104 ESRank4 107
201 ESForwSacShort 107
999 WORDS_survols~7 318
999 WORDFREQ_0 318
999 WORDSALL_survols~7 318
999 COSIND_-0.04 318
999 COSGEN_-0.04 318
105 ESRank5 318
202 ESForwSacLong+2+5 318
999 WORDS_américains~8 182
999 WORDFREQ_18.78 182
999 WORDSALL_américains~8 182
999 COSIND_0.00 182
999 COSGEN_0.00 182
106 ESRank6 182
201 ESForwSacShort 182
999 WORDS_britanniques~10 201
999 WORDFREQ_20.74 201
999 WORDSALL_et~9_britanniques~10 201
999 COSIND_-0.08 201
999 COSGEN_-0.08 201
107 ESRank7 201
202 ESForwSacLong+2+4 201
999 WORDS_et~11 177
999 WORDFREQ_20879.73 177
999 WORDSALL_et~11 177
999 COSIND_N/A 177
108 ESRank8 177
201 ESForwSacShort 177
999 WORDS_permettre~13 266
999 WORDFREQ_25.81 266
999 WORDSALL_permettre~13 266
999 COSIND_0.03 266
999 COSGEN_0.03 266
109 ESRank9 266
202 ESForwSacLong+2+4 266
999 WORDS_avions~16 185
999 WORDFREQ_31.22 185
999 WORDSALL_ses~15_avions~16 185
999 COSIND_0.01 185
999 COSGEN_0.01 185
110 ESRank10 185
202 ESForwSacLong+3+8 185
999 WORDS_civils~17 167
999 WORDFREQ_5.41 167
999 WORDSALL_avions~16_civils~17 167
999 COSIND_0.24 167
999 COSGEN_0.24 167
111 ESRank11 167
201 ESForwSacShort 167
999 WORDS_civils~17 98
999 WORDFREQ_5.41 98
999 WORDSALL_civils~17 98
999 COSIND_0.24 98
999 COSGEN_0.24 98
112 ESRank12 98
203 ESBackSacRefixation 98
999 WORDS_transporter~19 216
999 WORDFREQ_10.34 216
999 WORDSALL_transporter~19 216
999 COSIND_0.02 216
999 COSGEN_0.02 216
113 ESRank13 216
202 ESForwSacLong+2+4 216
999 WORDS_scientifiques~21 168
999 WORDFREQ_0.74 168
999 WORDSALL_des~20_scientifiques~21 168
999 COSIND_-0.05 168
999 COSGEN_-0.05 168
114 ESRank14 168
202 ESForwSacLong+2+5 168
999 WORDS_étrangers~22 253
999 WORDFREQ_14.86 253
999 WORDSALL_étrangers~22 253
999 COSIND_-0.01 253
999 COSGEN_-0.01 253
115 ESRank15 253
201 ESForwSacShort 253
999 WORDS_transporter~19 302
999 WORDFREQ_10.34 302
999 WORDSALL_transporter~19 302
999 COSIND_0.02 302
999 COSGEN_0.02 302
116 ESRank16 302
206 ESBackSacRegrLong-3-19 302
999 WORDS_à~26 112
999 WORDFREQ_19209.05 112
999 WORDSALL_soumis~25_à~26 112
999 COSIND_N/A 112
117 ESRank17 112
202 ESForwSacLong+7+48 112
200 ESRankN 112
199 ESRankNMinus1 302
198 ESRankNMinus2 253
197 ESRankNMinus3 168
196 ESRankNMinus4 216
195 ESRankNMinus5 98
194 ESRankNMinus6 167
193 ESRankNMinus7 185
192 ESRankNMinus8 266
191 ESRankNMinus9 177
190 ESRankNMinus10 201
