# 142 Fixation 1 (273.7,282.2): Le~0 football~1
# 127 Fixation 2 (353.4,290.9): football~1
# 162 Fixation 3 (430.8,285.6): américain~2
# 192 Fixation 4 (562.6,288.7): est~3 sport~5 mélanger~9
# 240 Fixation 5 (309.3,351.2): collectif~6
%%
# Le~0 Fixations= "1/"
# football~1 Fixations= "2/"
# américain~2 Fixations= "3/"
# est~3 Fixations= "4/"
# un~4 Fixations= ""
# sport~5 Fixations= "4/"
# collectif~6 Fixations= "5/"
# connu~7 Fixations= ""
# pour~8 Fixations= ""
# mélanger~9 Fixations= "4/"
# des~10 Fixations= ""
# stratégies~11 Fixations= ""
# complexes~12 Fixations= ""
# et~13 Fixations= ""
# un~14 Fixations= ""
# jeu~15 Fixations= ""
# physique~16 Fixations= ""
# intense~17 Fixations= ""
# Le~18 Fixations= ""
# but~19 Fixations= ""
# du~20 Fixations= ""
# jeu~21 Fixations= ""
# est~22 Fixations= ""
# de~23 Fixations= ""
# marquer~24 Fixations= ""
# des~25 Fixations= ""
# points~26 Fixations= ""
# en~27 Fixations= ""
# portant~28 Fixations= ""
# un~29 Fixations= ""
# ballon~30 Fixations= ""
# ovale~31 Fixations= ""
# jusqu'à~32 Fixations= ""
# une~33 Fixations= ""
# zone~34 Fixations= ""
# de~35 Fixations= ""
# but~36 Fixations= ""
# nommée~37 Fixations= ""
# end~38 Fixations= ""
%%
#  LE[1] FOOTBALL[2] AMéRICAIN[3] EST[4] un SPORT[4] COLLECTIF[5] connu pour MéLANGER[4] des stratégies complexes et un jeu physique intense Le but du jeu est de marquer des points en portant un ballon ovale jusqu'à une zone de but nommée end
# s18 hausse_bourse-a2 PercentageOfWordsProcessed= 0.179487179487179 PercentageOfWordsReallyProcessed= 0.7
