999 WORDS_faut~1 154
999 WORDFREQ_653.92 154
999 WORDSALL_faut~1 154
999 COSIND_-0.01 154
999 COSGEN_-0.01 154
101 ESRank1 154
999 WORDS_culture~3 81
999 WORDFREQ_24.32 81
999 WORDSALL_culture~3 81
999 COSIND_-0.01 81
999 COSGEN_-0.01 81
102 ESRank2 81
202 ESForwSacLong+2+12 81
999 WORDS_civilisation~5 169
999 WORDFREQ_16.62 169
999 WORDSALL_et~4_civilisation~5 169
999 COSIND_0.00 169
999 COSGEN_0.00 169
103 ESRank3 169
202 ESForwSacLong+2+4 169
999 WORDS_culture~7 166
999 WORDFREQ_24.32 166
999 WORDSALL_faut~1_culture~7 166
999 COSIND_-0.01 166
999 COSGEN_-0.01 166
104 ESRank4 166
202 ESForwSacLong+2+4 166
999 WORDS_l'ensemble~9 157
999 WORDFREQ_61.42 157
999 WORDSALL_culture~3_l'ensemble~9 157
999 COSIND_0.05 157
999 COSGEN_0.05 157
105 ESRank5 157
202 ESForwSacLong+2+5 157
999 WORDS_croyances~11 164
999 WORDFREQ_3.18 164
999 WORDSALL_et~4_civilisation~5_croyances~11 164
999 COSIND_-0.00 164
999 COSGEN_-0.00 164
106 ESRank6 164
202 ESForwSacLong+2+5 164
999 WORDS_valeurs~13 164
999 WORDFREQ_11.55 164
999 WORDSALL_des~12_valeurs~13 164
999 COSIND_0.54 164
999 COSGEN_0.54 164
107 ESRank7 164
202 ESForwSacLong+2+5 164
999 WORDS_particulière~18 106
999 WORDFREQ_20 106
999 WORDSALL_particulière~18 106
999 COSIND_-0.03 106
999 COSGEN_-0.03 106
108 ESRank8 106
202 ESForwSacLong+5+28 106
999 WORDS_civilisation~20 167
999 WORDFREQ_16.62 167
999 WORDSALL_civilisation~20 167
999 COSIND_0.00 167
999 COSGEN_0.00 167
109 ESRank9 167
202 ESForwSacLong+2+4 167
999 WORDS_communauté~17 149
999 WORDFREQ_10.95 149
999 WORDSALL_communauté~17 149
999 COSIND_0.05 149
999 COSGEN_0.05 149
110 ESRank10 149
206 ESBackSacRegrLong-3-18 149
999 WORDS_transmis~25 120
999 WORDFREQ_5.27 120
999 WORDSALL_transmis~25 120
999 COSIND_0.06 120
999 COSGEN_0.06 120
111 ESRank11 120
202 ESForwSacLong+8+48 120
200 ESRankN 120
199 ESRankNMinus1 149
198 ESRankNMinus2 167
197 ESRankNMinus3 106
196 ESRankNMinus4 164
195 ESRankNMinus5 164
194 ESRankNMinus6 157
193 ESRankNMinus7 166
192 ESRankNMinus8 169
191 ESRankNMinus9 81
190 ESRankNMinus10 154
