# 135 Fixation 1 (310,289): Les~0 familles~1
# 157 Fixation 2 (447,296.3): ayant~2
# 110 Fixation 3 (586,306.2): jumeaux~4
# 121 Fixation 4 (697.3,297.7): bénéficient~5
# 183 Fixation 5 (283.5,346.4): des~6 mêmes~7
# 149 Fixation 6 (438.5,363.3): prestations~8
# 151 Fixation 7 (581,358): familiales~9
# 236 Fixation 8 (321.6,409): autres~12
# 135 Fixation 9 (433.9,425.1): mais~13 congés~15
# 210 Fixation 10 (542.1,409.3): congés~15
# 93 Fixation 11 (737.6,399.8): sont~17 plus~18
%%
# Les~0 Fixations= "1/"
# familles~1 Fixations= "1/"
# ayant~2 Fixations= "2/"
# des~3 Fixations= ""
# jumeaux~4 Fixations= "3/"
# bénéficient~5 Fixations= "4/"
# des~6 Fixations= "5/"
# mêmes~7 Fixations= "5/"
# prestations~8 Fixations= "6/"
# familiales~9 Fixations= "7/"
# que~10 Fixations= ""
# les~11 Fixations= ""
# autres~12 Fixations= "8/"
# mais~13 Fixations= "9/"
# les~14 Fixations= ""
# congés~15 Fixations= "10/"
# maternité~16 Fixations= ""
# sont~17 Fixations= "11/"
# plus~18 Fixations= "11/"
# longs~19 Fixations= ""
# de~20 Fixations= ""
# 18~21 Fixations= ""
# semaines~22 Fixations= ""
%%
#  LES[1] FAMILLES[1] AYANT[2] des JUMEAUX[3] BéNéFICIENT[4] DES[5] MêMES[5] PRESTATIONS[6] FAMILIALES[7] que les AUTRES[8] MAIS[9] les CONGéS[10] maternité SONT[11] PLUS[11] longs de 18 semaines
# s07 allocation_familiale-f1 PercentageOfWordsProcessed= 0.608695652173913 PercentageOfWordsReallyProcessed= 0.736842105263158
