# 177 Fixation 1 (334.4,280.4): Aucune~0 preuve~1
# 191 Fixation 2 (480.7,330.6): scientifique~2 démontrer~7
# 270 Fixation 3 (645.5,355.3): que~8 l'utilisation~9
# 155 Fixation 4 (676.5,413.1): présente~13 risque~15
# 127 Fixation 5 (700.1,417.1): un~14 risque~15
# 270 Fixation 6 (634.3,467.8): présente~13 communiqué~21
# 212 Fixation 7 (645.9,516.6): communiqué~21
# 133 Fixation 8 (484.5,554.2): laisse~25 place~26
# 161 Fixation 9 (372.8,558.5): ministère~23 laisse~25
# 207 Fixation 10 (304.8,557.2): ministère~23
%%
# Aucune~0 Fixations= "1/"
# preuve~1 Fixations= "1/"
# scientifique~2 Fixations= "2/"
# ne~3 Fixations= ""
# permet~4 Fixations= ""
# aujourd'hui~5 Fixations= ""
# de~6 Fixations= ""
# démontrer~7 Fixations= "2/"
# que~8 Fixations= "3/"
# l'utilisation~9 Fixations= "3/"
# des~10 Fixations= ""
# téléphones~11 Fixations= ""
# mobiles~12 Fixations= ""
# présente~13 Fixations= "6/"
# un~14 Fixations= "5/"
# risque~15 Fixations= "5/"
# notable~16 Fixations= ""
# pour~17 Fixations= ""
# la~18 Fixations= ""
# santé~19 Fixations= ""
# Le~20 Fixations= ""
# communiqué~21 Fixations= "7/"
# du~22 Fixations= ""
# ministère~23 Fixations= "10/"
# ne~24 Fixations= ""
# laisse~25 Fixations= "9/"
# place~26 Fixations= "8/"
# à~27 Fixations= ""
# aucun~28 Fixations= ""
# doute~29 Fixations= ""
%%
#  AUCUNE[1] PREUVE[1] SCIENTIFIQUE[2] ne permet aujourd'hui de DéMONTRER[2] QUE[3] L'UTILISATION[3] des téléphones mobiles PRéSENTE[6] UN[5] RISQUE[5] notable pour la santé Le COMMUNIQUé[7] du MINISTèRE[10] ne LAISSE[9] PLACE[8] à aucun doute
# s21 tribunal_international-a1 PercentageOfWordsProcessed= 0.433333333333333 PercentageOfWordsReallyProcessed= 0.481481481481481
