999 WORDS_filiale~1 110
999 WORDFREQ_0.54 110
999 WORDSALL_La~0_filiale~1 110
999 COSIND_0.07 110
999 COSGEN_0.07 110
101 ESRank1 110
999 WORDS_filiale~1 151
999 WORDFREQ_0.54 151
999 WORDSALL_La~0_filiale~1 151
999 COSIND_0.07 151
999 COSGEN_0.07 151
102 ESRank2 151
203 ESBackSacRefixation 151
999 WORDS_déchets~2 185
999 WORDFREQ_4.46 185
999 WORDSALL_déchets~2 185
999 COSIND_0.92 185
999 COSGEN_0.92 185
103 ESRank3 185
201 ESForwSacShort 185
999 WORDS_Suez~4 113
999 WORDFREQ_0.07 113
999 WORDSALL_déchets~2_Suez~4 113
999 COSIND_0.14 113
999 COSGEN_0.14 113
104 ESRank4 113
202 ESForwSacLong+2+4 113
999 WORDS_Suez~4 139
999 WORDFREQ_0.07 139
999 WORDSALL_de~3_Suez~4 139
999 COSIND_0.14 139
999 COSGEN_0.14 139
105 ESRank5 139
203 ESBackSacRefixation 139
999 WORDS_Lyonnaise~5 236
999 WORDFREQ_0.2 236
999 WORDSALL_Lyonnaise~5 236
999 COSIND_0.10 236
999 COSGEN_0.10 236
106 ESRank6 236
201 ESForwSacShort 236
999 WORDS_Lyonnaise~5 114
999 WORDFREQ_0.2 114
999 WORDSALL_Lyonnaise~5 114
999 COSIND_0.10 114
999 COSGEN_0.10 114
107 ESRank7 114
203 ESBackSacRefixation 114
999 WORDS_eaux~7 183
999 WORDFREQ_42.03 183
999 WORDSALL_eaux~7 183
999 COSIND_0.22 183
999 COSGEN_0.22 183
108 ESRank8 183
202 ESForwSacLong+2+5 183
999 WORDS_mis~9 235
999 WORDFREQ_245.68 235
999 WORDSALL_eaux~7_a~8_mis~9 235
999 COSIND_0.03 235
999 COSGEN_0.03 235
109 ESRank9 235
202 ESForwSacLong+2+3 235
999 WORDS_mis~9 260
999 WORDFREQ_245.68 260
999 WORDSALL_eaux~7_a~8_mis~9 260
999 COSIND_0.03 260
999 COSGEN_0.03 260
110 ESRank10 260
203 ESBackSacRefixation 260
999 WORDS_garde~11 161
999 WORDFREQ_89.86 161
999 WORDSALL_en~10_garde~11 161
999 COSIND_-0.02 161
999 COSGEN_-0.02 161
111 ESRank11 161
202 ESForwSacLong+2+4 161
999 WORDS_mercredi~12 195
999 WORDFREQ_11.82 195
999 WORDSALL_mercredi~12 195
999 COSIND_0.02 195
999 COSGEN_0.02 195
112 ESRank12 195
201 ESForwSacShort 195
999 WORDS_27~13 87
999 WORDFREQ_N/A 87
999 WORDSALL_mercredi~12_27~13 87
999 COSIND_N/A 87
113 ESRank13 87
201 ESForwSacShort 87
999 WORDS_janvier~14 112
999 WORDFREQ_30.61 112
999 WORDSALL_janvier~14 112
999 COSIND_0.12 112
999 COSGEN_0.12 112
114 ESRank14 112
201 ESForwSacShort 112
999 WORDS_marchés~16 129
999 WORDFREQ_5.07 129
999 WORDSALL_marchés~16 129
999 COSIND_-0.04 129
999 COSGEN_-0.04 129
115 ESRank15 129
202 ESForwSacLong+2+5 129
999 WORDS_possible~18 197
999 WORDFREQ_197.16 197
999 WORDSALL_possible~18 197
999 COSIND_0.02 197
999 COSGEN_0.02 197
116 ESRank16 197
202 ESForwSacLong+2+7 197
999 WORDS_baisse~19 193
999 WORDFREQ_3.38 193
999 WORDSALL_baisse~19 193
999 COSIND_-0.04 193
999 COSGEN_-0.04 193
117 ESRank17 193
201 ESForwSacShort 193
999 WORDS_de~20 88
999 WORDFREQ_38928.92 88
999 WORDSALL_de~20 88
999 COSIND_N/A 88
118 ESRank18 88
201 ESForwSacShort 88
999 WORDS_résultats~22 192
999 WORDFREQ_10.95 192
999 WORDSALL_résultats~22 192
999 COSIND_-0.06 192
999 COSGEN_-0.06 192
119 ESRank19 192
202 ESForwSacLong+2+5 192
999 WORDS_suite~25 202
999 WORDFREQ_270.88 202
999 WORDSALL_la~24_suite~25 202
999 COSIND_0.00 202
999 COSGEN_0.00 202
120 ESRank20 202
202 ESForwSacLong+3+7 202
999 WORDS_modification~27 131
999 WORDFREQ_1.96 131
999 WORDSALL_d'une~26_modification~27 131
999 COSIND_-0.03 131
999 COSGEN_-0.03 131
202 ESForwSacLong+2+7 131
999 WORDS_modification~27 131
999 WORDFREQ_1.96 131
999 WORDSALL_modification~27 131
999 COSIND_-0.03 131
999 COSGEN_-0.03 131
203 ESBackSacRefixation 131
999 WORDS_réglementation~30 138
999 WORDFREQ_0.41 138
999 WORDSALL_réglementation~30 138
999 COSIND_0.01 138
999 COSGEN_0.01 138
202 ESForwSacLong+3+7 138
999 WORDS_décharges~33 158
999 WORDFREQ_1.42 158
999 WORDSALL_les~32_décharges~33 158
999 COSIND_0.33 158
999 COSGEN_0.33 158
202 ESForwSacLong+3+9 158
999 WORDS_décharges~33 160
999 WORDFREQ_1.42 160
999 WORDSALL_décharges~33 160
999 COSIND_0.33 160
999 COSGEN_0.33 160
203 ESBackSacRefixation 160
200 ESRankN 160
199 ESRankNMinus1 158
198 ESRankNMinus2 138
197 ESRankNMinus3 131
196 ESRankNMinus4 131
195 ESRankNMinus5 202
194 ESRankNMinus6 192
193 ESRankNMinus7 88
192 ESRankNMinus8 193
191 ESRankNMinus9 197
190 ESRankNMinus10 129
