# 103 Fixation 1 (294.7,285.8): Il~0 point~2 feuilleton~8
# 201 Fixation 2 (363.5,289.4): n'est~1 point~2
# 187 Fixation 3 (467.9,287.4): point~2 bon~4
# 208 Fixation 4 (563.4,286.2): bon~4 mercato~5
# 195 Fixation 5 (550.2,286.6): bon~4 mercato~5
# 140 Fixation 6 (631.5,282.2): mercato~5
# 150 Fixation 7 (299.5,343.4): Il~0 point~2 feuilleton~8
# 109 Fixation 8 (314.9,340.5): Il~0 point~2 feuilleton~8
# 141 Fixation 9 (454.3,342.6): point~2 bon~4 l'animer~10
# 200 Fixation 10 (498.7,344.5): de~3 bon~4 l'animer~10
# 129 Fixation 11 (590.1,351.6): Les~11 transferts~12 n'ont~16
# 210 Fixation 12 (662.9,350.6): Les~11 transferts~12
# 208 Fixation 13 (328.7,399.3): feuilleton~8 deux~14
# 162 Fixation 14 (393.7,402): feuilleton~8 l'animer~10 deux~14 footballeurs~15
# 133 Fixation 15 (446.5,408.1): pour~9 l'animer~10 footballeurs~15
# 147 Fixation 16 (593.1,420.6): n'ont~16
%%
# Il~0 Fixations= "8/"
# n'est~1 Fixations= "2/"
# point~2 Fixations= "9/"
# de~3 Fixations= "10/"
# bon~4 Fixations= "10/"
# mercato~5 Fixations= "6/"
# sans~6 Fixations= ""
# un~7 Fixations= ""
# feuilleton~8 Fixations= "14/"
# pour~9 Fixations= "15/"
# l'animer~10 Fixations= "15/"
# Les~11 Fixations= "12/"
# transferts~12 Fixations= "12/"
# des~13 Fixations= ""
# deux~14 Fixations= "14/"
# footballeurs~15 Fixations= "15/"
# n'ont~16 Fixations= "16/"
# pas~17 Fixations= ""
# électrisé~18 Fixations= ""
# les~19 Fixations= ""
# foules~20 Fixations= ""
# en~21 Fixations= ""
# dehors~22 Fixations= ""
# du~23 Fixations= ""
# premier~24 Fixations= ""
# cercle~25 Fixations= ""
# des~26 Fixations= ""
# admirateurs~27 Fixations= ""
# de~28 Fixations= ""
# l'un~29 Fixations= ""
# et~30 Fixations= ""
# de~31 Fixations= ""
# l'autre~32 Fixations= ""
%%
#  IL[8] N'EST[2] POINT[9] DE[10] BON[10] MERCATO[6] sans un FEUILLETON[14] POUR[15] L'ANIMER[15] LES[12] TRANSFERTS[12] des DEUX[14] FOOTBALLEURS[15] N'ONT[16] pas électrisé les foules en dehors du premier cercle des admirateurs de l'un et de l'autre
# s02 chef_russie-a1 PercentageOfWordsProcessed= 0.424242424242424 PercentageOfWordsReallyProcessed= 0.823529411764706
