# 111 Fixation 1 (261.9,285): La~0 Russie~1
# 136 Fixation 2 (300.9,288.7): La~0 Russie~1
# 145 Fixation 3 (372.9,290.1): Russie~1 a~2
# 173 Fixation 4 (424,290.5): a~2 menacé~3
# 218 Fixation 5 (542.7,292.8): de~4 sortir~5
# 147 Fixation 6 (668.2,298.5): du~6 traité~7
# 139 Fixation 7 (708.7,296.1): traité~7
# 203 Fixation 8 (304.2,334.7): La~0 Russie~1 forces~10
# 263 Fixation 9 (434,343.2): a~2 menacé~3 nucléaires~11
# 136 Fixation 10 (570.5,352.6): car~12 l'attitude~17
# 177 Fixation 11 (292.4,395.5): les~9 forces~10 courroucée~15
# 122 Fixation 12 (451.1,403.2): nucléaires~11 l'attitude~17
# 151 Fixation 13 (513.7,407.2): nucléaires~11 l'attitude~17
# 149 Fixation 14 (649.2,414.1): des~18 autres~19
# 120 Fixation 15 (711.4,420.5): autres~19 pays~20
# 134 Fixation 16 (314.4,469.6): courroucée~15 vis-à-vis~21
# 105 Fixation 17 (328.6,463.4): courroucée~15 vis-à-vis~21
# 84 Fixation 18 (427.3,462.5): par~16 l'attitude~17 politique~24
# 168 Fixation 19 (507.9,460.3): l'attitude~17 politique~24
# 175 Fixation 20 (624.9,475.3): des~18 autres~19 défense~26
# 155 Fixation 21 (298.4,530.3): vis-à-vis~21 nationale~27
# 105 Fixation 22 (268.9,524.5): vis-à-vis~21 nationale~27
%%
# La~0 Fixations= "8/"
# Russie~1 Fixations= "8/"
# a~2 Fixations= "9/"
# menacé~3 Fixations= "9/"
# de~4 Fixations= "5/"
# sortir~5 Fixations= "5/"
# du~6 Fixations= "6/"
# traité~7 Fixations= "7/"
# sur~8 Fixations= ""
# les~9 Fixations= "11/"
# forces~10 Fixations= "11/"
# nucléaires~11 Fixations= "13/"
# car~12 Fixations= "10/"
# elle~13 Fixations= ""
# est~14 Fixations= ""
# courroucée~15 Fixations= "17/"
# par~16 Fixations= "18/"
# l'attitude~17 Fixations= "19/"
# des~18 Fixations= "20/"
# autres~19 Fixations= "20/"
# pays~20 Fixations= "15/"
# vis-à-vis~21 Fixations= "22/"
# de~22 Fixations= ""
# sa~23 Fixations= ""
# politique~24 Fixations= "19/"
# de~25 Fixations= ""
# défense~26 Fixations= "20/"
# nationale~27 Fixations= "22/"
%%
#  LA[8] RUSSIE[8] A[9] MENACé[9] DE[5] SORTIR[5] DU[6] TRAITé[7] sur LES[11] FORCES[11] NUCLéAIRES[13] CAR[10] elle est COURROUCéE[17] PAR[18] L'ATTITUDE[19] DES[20] AUTRES[20] PAYS[15] VIS-à-VIS[22] de sa POLITIQUE[19] de DéFENSE[20] NATIONALE[22]
# s02 rechauffement_climatique-a2 PercentageOfWordsProcessed= 0.785714285714286 PercentageOfWordsReallyProcessed= 0.785714285714286
