999 WORDS_L'économie~0 203
999 WORDFREQ_15.74 203
999 WORDSALL_L'économie~0 203
999 COSIND_-0.00 203
999 COSGEN_-0.00 203
101 ESRank1 203
999 WORDS_L'économie~0 133
999 WORDFREQ_15.74 133
999 WORDSALL_L'économie~0 133
999 COSIND_-0.00 133
999 COSGEN_-0.00 133
102 ESRank2 133
203 ESBackSacRefixation 133
999 WORDS_algérienne~1 261
999 WORDFREQ_2.03 261
999 WORDSALL_algérienne~1 261
999 COSIND_0.02 261
999 COSGEN_0.02 261
103 ESRank3 261
201 ESForwSacShort 261
999 WORDS_algérienne~1 89
999 WORDFREQ_2.03 89
999 WORDSALL_algérienne~1 89
999 COSIND_0.02 89
999 COSGEN_0.02 89
104 ESRank4 89
203 ESBackSacRefixation 89
999 WORDS_dépend~2 251
999 WORDFREQ_15.2 251
999 WORDSALL_dépend~2 251
999 COSIND_0.05 251
999 COSGEN_0.05 251
105 ESRank5 251
201 ESForwSacShort 251
999 WORDS_l'évolution~4 284
999 WORDFREQ_11.69 284
999 WORDSALL_de~3_l'évolution~4 284
999 COSIND_0.05 284
999 COSGEN_0.05 284
106 ESRank6 284
202 ESForwSacLong+2+4 284
999 WORDS_cours~6 184
999 WORDFREQ_176.76 184
999 WORDSALL_des~5_cours~6 184
999 COSIND_0.04 184
999 COSGEN_0.04 184
107 ESRank7 184
202 ESForwSacLong+2+5 184
999 WORDS_cours~6 180
999 WORDFREQ_176.76 180
999 WORDSALL_des~5_cours~6 180
999 COSIND_0.04 180
999 COSGEN_0.04 180
108 ESRank8 180
203 ESBackSacRefixation 180
999 WORDS_pétrole~8 244
999 WORDFREQ_14.73 244
999 WORDSALL_du~7_pétrole~8 244
999 COSIND_0.55 244
999 COSGEN_0.55 244
109 ESRank9 244
202 ESForwSacLong+2+4 244
999 WORDS_pétrole~8 88
999 WORDFREQ_14.73 88
999 WORDSALL_pétrole~8 88
999 COSIND_0.55 88
999 COSGEN_0.55 88
110 ESRank10 88
203 ESBackSacRefixation 88
999 WORDS_brut~9 247
999 WORDFREQ_3.31 247
999 WORDSALL_brut~9 247
999 COSIND_0.09 247
999 COSGEN_0.09 247
111 ESRank11 247
201 ESForwSacShort 247
999 WORDS_Après~10 198
999 WORDFREQ_137.23 198
999 WORDSALL_brut~9_Après~10 198
999 COSIND_0.02 198
999 COSGEN_0.02 198
112 ESRank12 198
201 ESForwSacShort 198
200 ESRankN 198
199 ESRankNMinus1 247
198 ESRankNMinus2 88
197 ESRankNMinus3 244
196 ESRankNMinus4 180
195 ESRankNMinus5 184
194 ESRankNMinus6 284
193 ESRankNMinus7 251
192 ESRankNMinus8 89
191 ESRankNMinus9 261
190 ESRankNMinus10 133
