999 WORDS_sonde~1 278
999 WORDFREQ_0.81 278
999 WORDSALL_La~0_sonde~1 278
999 COSIND_0.46 278
999 COSGEN_0.46 278
101 ESRank1 278
999 WORDS_américaine~2 284
999 WORDFREQ_19.53 284
999 WORDSALL_sonde~1_américaine~2 284
999 COSIND_0.15 284
999 COSGEN_0.15 284
102 ESRank2 284
201 ESForwSacShort 284
999 WORDS_Stardust~3 171
999 WORDFREQ_N/A 171
999 WORDSALL_américaine~2_Stardust~3 171
999 COSIND_N/A 171
103 ESRank3 171
201 ESForwSacShort 171
999 WORDS_Stardust~3 148
999 WORDFREQ_N/A 148
999 WORDSALL_Stardust~3 148
999 COSIND_N/A 148
104 ESRank4 148
203 ESBackSacRefixation 148
999 WORDS_doit~5 214
999 WORDFREQ_224.59 214
999 WORDSALL_Stardust~3_doit~5 214
999 COSIND_0.04 214
999 COSGEN_0.04 214
105 ESRank5 214
202 ESForwSacLong+2+5 214
999 WORDS_doit~5 264
999 WORDFREQ_224.59 264
999 WORDSALL_qui~4_doit~5 264
999 COSIND_0.04 264
999 COSGEN_0.04 264
106 ESRank6 264
203 ESBackSacRefixation 264
999 WORDS_ramener~6 259
999 WORDFREQ_24.93 259
999 WORDSALL_ramener~6 259
999 COSIND_0.17 259
999 COSGEN_0.17 259
107 ESRank7 259
201 ESForwSacShort 259
999 WORDS_terre~8 225
999 WORDFREQ_420.88 225
999 WORDSALL_sur~7_terre~8 225
999 COSIND_0.30 225
999 COSGEN_0.30 225
108 ESRank8 225
202 ESForwSacLong+2+5 225
999 WORDS_échantillons~10 289
999 WORDFREQ_4.53 289
999 WORDSALL_des~9_échantillons~10 289
999 COSIND_0.04 289
999 COSGEN_0.04 289
109 ESRank9 289
202 ESForwSacLong+2+5 289
999 WORDS_de~11 224
999 WORDFREQ_38928.92 224
999 WORDSALL_de~11 224
999 COSIND_N/A 224
110 ESRank10 224
201 ESForwSacShort 224
999 WORDS_comète~13 254
999 WORDFREQ_2.3 254
999 WORDSALL_comète~13 254
999 COSIND_0.32 254
999 COSGEN_0.32 254
111 ESRank11 254
202 ESForwSacLong+2+4 254
999 WORDS_Wild-2~14 175
999 WORDFREQ_N/A 175
999 WORDSALL_Wild-2~14 175
999 COSIND_N/A 175
112 ESRank12 175
201 ESForwSacShort 175
999 WORDS_Wild-2~14 149
999 WORDFREQ_N/A 149
999 WORDSALL_comète~13_Wild-2~14 149
999 COSIND_N/A 149
113 ESRank13 149
203 ESBackSacRefixation 149
999 WORDS_Wild-2~14 134
999 WORDFREQ_N/A 134
999 WORDSALL_Wild-2~14 134
999 COSIND_N/A 134
114 ESRank14 134
203 ESBackSacRefixation 134
999 WORDS_été~16 239
999 WORDFREQ_40.2 239
999 WORDSALL_Wild-2~14_a~15_été~16 239
999 COSIND_0.01 239
999 COSGEN_0.01 239
115 ESRank15 239
202 ESForwSacLong+2+3 239
999 WORDS_Cap~19 148
999 WORDFREQ_15.68 148
999 WORDSALL_lancée~17_Cap~19 148
999 COSIND_0.16 148
999 COSGEN_0.16 148
116 ESRank16 148
202 ESForwSacLong+3+12 148
999 WORDS_Canaveral~20 276
999 WORDFREQ_N/A 276
999 WORDSALL_Cap~19_Canaveral~20 276
999 COSIND_N/A 276
117 ESRank17 276
201 ESForwSacShort 276
999 WORDS_Floride~22 116
999 WORDFREQ_N/A 116
999 WORDSALL_en~21_Floride~22 116
999 COSIND_N/A 116
118 ESRank18 116
202 ESForwSacLong+2+4 116
999 WORDS_Floride~22 169
999 WORDFREQ_N/A 169
999 WORDSALL_en~21_Floride~22 169
999 COSIND_N/A 169
119 ESRank19 169
203 ESBackSacRefixation 169
999 WORDS_Floride~22 112
999 WORDFREQ_N/A 112
999 WORDSALL_en~21_Floride~22 112
999 COSIND_N/A 112
120 ESRank20 112
203 ESBackSacRefixation 112
999 WORDS_fusée~25 217
999 WORDFREQ_4.59 217
999 WORDSALL_par~23_fusée~25 217
999 COSIND_0.91 217
999 COSGEN_0.91 217
202 ESForwSacLong+3+9 217
999 WORDS_fusée~25 130
999 WORDFREQ_4.59 130
999 WORDSALL_une~24_fusée~25 130
999 COSIND_0.91 130
999 COSGEN_0.91 130
203 ESBackSacRefixation 130
200 ESRankN 130
199 ESRankNMinus1 217
198 ESRankNMinus2 112
197 ESRankNMinus3 169
196 ESRankNMinus4 116
195 ESRankNMinus5 276
194 ESRankNMinus6 148
193 ESRankNMinus7 239
192 ESRankNMinus8 134
191 ESRankNMinus9 149
190 ESRankNMinus10 175
