# 211 Fixation 1 (283.3,287.4): Cette~0 grève~1
# 202 Fixation 2 (348.9,277.9): Cette~0 grève~1
# 415 Fixation 3 (438.5,270.7): et~2
# 115 Fixation 4 (456.9,271.2): et~2 manifestation~4
# 302 Fixation 5 (548.2,273.1): cette~3 manifestation~4
# 88 Fixation 6 (540.9,274.2): cette~3 manifestation~4
# 228 Fixation 7 (298.2,324.1): affichaient~5
# 108 Fixation 8 (316.9,343.4): affichaient~5
# 265 Fixation 9 (458.4,346.5): des~6 positions~7
# 199 Fixation 10 (627,352.5): et~8 objectifs~10
# 279 Fixation 11 (690.6,347.4): des~9 objectifs~10
# 252 Fixation 12 (290.9,402.2): contradictoires~11
# 190 Fixation 13 (337.6,410.7): contradictoires~11
# 307 Fixation 14 (511.1,409.4): La~12 direction~13
# 130 Fixation 15 (553.6,411.6): direction~13
# 279 Fixation 16 (671.1,415): croyait~14
# 121 Fixation 17 (742.5,413.8): croyait~14
# 173 Fixation 18 (263.3,495.9): le~16 mouvement~17
# 161 Fixation 19 (318.4,487.6): le~16 mouvement~17
# 185 Fixation 20 (487.1,481.9): allait~18 pourrir~19
# 118 Fixation 21 (525.4,482.2): allait~18 pourrir~19
# 239 Fixation 22 (672.4,482.6): Elle~20 a~21
# 128 Fixation 23 (740.8,483.7): a~21 eu~22 tort~23
# 172 Fixation 24 (315.8,555.9): de~24 spéculer~25
# 160 Fixation 25 (298.5,556.1): de~24 spéculer~25
# 149 Fixation 26 (474.4,543): sur~26 recul~28
%%
# Cette~0 Fixations= "2/"
# grève~1 Fixations= "2/"
# et~2 Fixations= "4/"
# cette~3 Fixations= "6/"
# manifestation~4 Fixations= "6/"
# affichaient~5 Fixations= "8/"
# des~6 Fixations= "9/"
# positions~7 Fixations= "9/"
# et~8 Fixations= "10/"
# des~9 Fixations= "11/"
# objectifs~10 Fixations= "11/"
# contradictoires~11 Fixations= "13/"
# La~12 Fixations= "14/"
# direction~13 Fixations= "15/"
# croyait~14 Fixations= "17/"
# que~15 Fixations= ""
# le~16 Fixations= "19/"
# mouvement~17 Fixations= "19/"
# allait~18 Fixations= "21/"
# pourrir~19 Fixations= "21/"
# Elle~20 Fixations= "22/"
# a~21 Fixations= "23/"
# eu~22 Fixations= "23/"
# tort~23 Fixations= "23/"
# de~24 Fixations= "25/"
# spéculer~25 Fixations= "25/"
# sur~26 Fixations= "26/"
# un~27 Fixations= ""
# recul~28 Fixations= "26/"
# des~29 Fixations= ""
# salariés~30 Fixations= ""
%%
#  CETTE[2] GRèVE[2] ET[4] CETTE[6] MANIFESTATION[6] AFFICHAIENT[8] DES[9] POSITIONS[9] ET[10] DES[11] OBJECTIFS[11] CONTRADICTOIRES[13] LA[14] DIRECTION[15] CROYAIT[17] que LE[19] MOUVEMENT[19] ALLAIT[21] POURRIR[21] ELLE[22] A[23] EU[23] TORT[23] DE[25] SPéCULER[25] SUR[26] un RECUL[26] des salariés
# s13 greve_cheminot-f1 PercentageOfWordsProcessed= 0.870967741935484 PercentageOfWordsReallyProcessed= 0.931034482758621
