999 WORDS_souvient~2 102
999 WORDFREQ_15.68 102
999 WORDSALL_On~0_souvient~2 102
999 COSIND_-0.03 102
999 COSGEN_-0.03 102
101 ESRank1 102
999 WORDS_souvient~2 148
999 WORDFREQ_15.68 148
999 WORDSALL_se~1_souvient~2 148
999 COSIND_-0.03 148
999 COSGEN_-0.03 148
102 ESRank2 148
203 ESBackSacRefixation 148
999 WORDS_fameux~4 224
999 WORDFREQ_33.31 224
999 WORDSALL_du~3_fameux~4 224
999 COSIND_0.00 224
999 COSGEN_0.00 224
103 ESRank3 224
202 ESForwSacLong+2+4 224
999 WORDS_symbole~5 233
999 WORDFREQ_12.57 233
999 WORDSALL_fameux~4_symbole~5 233
999 COSIND_0.03 233
999 COSGEN_0.03 233
104 ESRank4 233
201 ESForwSacShort 233
999 WORDS_dollar~7 224
999 WORDFREQ_3.85 224
999 WORDSALL_du~6_dollar~7 224
999 COSIND_0.04 224
999 COSGEN_0.04 224
105 ESRank5 224
202 ESForwSacLong+2+4 224
999 WORDS_dollar~7 129
999 WORDFREQ_3.85 129
999 WORDSALL_du~6_dollar~7 129
999 COSIND_0.04 129
999 COSGEN_0.04 129
106 ESRank6 129
203 ESBackSacRefixation 129
999 WORDS_revu~8 147
999 WORDFREQ_0.68 147
999 WORDSALL_revu~8 147
999 COSIND_0.01 147
999 COSGEN_0.01 147
107 ESRank7 147
201 ESForwSacShort 147
999 WORDS_revu~8 251
999 WORDFREQ_0.68 251
999 WORDSALL_revu~8 251
999 COSIND_0.01 251
999 COSGEN_0.01 251
108 ESRank8 251
203 ESBackSacRefixation 251
999 WORDS_Andy~10 220
999 WORDFREQ_N/A 220
999 WORDSALL_par~9_Andy~10 220
999 COSIND_N/A 220
109 ESRank9 220
202 ESForwSacLong+2+5 220
999 WORDS_Warhol~11 131
999 WORDFREQ_N/A 131
999 WORDSALL_Andy~10_Warhol~11 131
999 COSIND_N/A 131
110 ESRank10 131
201 ESForwSacShort 131
999 WORDS_pop-artiste~13 303
999 WORDFREQ_N/A 303
999 WORDSALL_Le~12_pop-artiste~13 303
999 COSIND_N/A 303
111 ESRank11 303
202 ESForwSacLong+2+4 303
999 WORDS_pop-artiste~13 200
999 WORDFREQ_N/A 200
999 WORDSALL_pop-artiste~13 200
999 COSIND_N/A 200
112 ESRank12 200
203 ESBackSacRefixation 200
999 WORDS_pop-artiste~13 178
999 WORDFREQ_N/A 178
999 WORDSALL_pop-artiste~13 178
999 COSIND_N/A 178
113 ESRank13 178
203 ESBackSacRefixation 178
999 WORDS_pop-artiste~13 140
999 WORDFREQ_N/A 140
999 WORDSALL_pop-artiste~13 140
999 COSIND_N/A 140
114 ESRank14 140
203 ESBackSacRefixation 140
999 WORDS_américain~14 187
999 WORDFREQ_25.95 187
999 WORDSALL_américain~14 187
999 COSIND_0.02 187
999 COSGEN_0.02 187
115 ESRank15 187
201 ESForwSacShort 187
999 WORDS_américain~14 100
999 WORDFREQ_25.95 100
999 WORDSALL_américain~14 100
999 COSIND_0.02 100
999 COSGEN_0.02 100
116 ESRank16 100
203 ESBackSacRefixation 100
999 WORDS_avait~15 202
999 WORDFREQ_3116.42 202
999 WORDSALL_avait~15 202
999 COSIND_0.03 202
999 COSGEN_0.03 202
117 ESRank17 202
201 ESForwSacShort 202
999 WORDS_signe~17 120
999 WORDFREQ_119.19 120
999 WORDSALL_avait~15_signe~17 120
999 COSIND_0.08 120
999 COSGEN_0.08 120
118 ESRank18 120
202 ESForwSacLong+2+6 120
999 WORDS_signe~17 137
999 WORDFREQ_119.19 137
999 WORDSALL_d'un~16_signe~17 137
999 COSIND_0.08 137
999 COSGEN_0.08 137
119 ESRank19 137
203 ESBackSacRefixation 137
999 WORDS_simple~18 218
999 WORDFREQ_124.26 218
999 WORDSALL_signe~17_simple~18 218
999 COSIND_0.01 218
999 COSGEN_0.01 218
120 ESRank20 218
201 ESForwSacShort 218
999 WORDS_amalgamé~19 400
999 WORDFREQ_0.14 400
999 WORDSALL_simple~18_amalgamé~19 400
999 COSIND_0.28 400
999 COSGEN_0.28 400
201 ESForwSacShort 400
999 WORDS_l'art~20 130
999 WORDFREQ_81.49 130
999 WORDSALL_l'art~20 130
999 COSIND_1.00 130
999 COSGEN_1.00 130
201 ESForwSacShort 130
200 ESRankN 130
199 ESRankNMinus1 400
198 ESRankNMinus2 218
197 ESRankNMinus3 137
196 ESRankNMinus4 120
195 ESRankNMinus5 202
194 ESRankNMinus6 100
193 ESRankNMinus7 187
192 ESRankNMinus8 140
191 ESRankNMinus9 178
190 ESRankNMinus10 200
