999 WORDS_L'ortolan~0 143
999 WORDFREQ_0.27 143
999 WORDSALL_L'ortolan~0 143
999 COSIND_0.54 143
999 COSGEN_0.54 143
101 ESRank1 143
999 WORDS_petit~1 179
999 WORDFREQ_653.78 179
999 WORDSALL_petit~1 179
999 COSIND_0.09 179
999 COSGEN_0.09 179
102 ESRank2 179
201 ESForwSacShort 179
999 WORDS_très~3 167
999 WORDFREQ_1120.81 167
999 WORDSALL_oiseau~2_très~3 167
999 COSIND_N/A 167
103 ESRank3 167
202 ESForwSacLong+2+8 167
999 WORDS_prisé~4 159
999 WORDFREQ_0.54 159
999 WORDSALL_très~3_prisé~4 159
999 COSIND_0.09 159
999 COSGEN_0.09 159
104 ESRank4 159
201 ESForwSacShort 159
999 WORDS_appartiendra~10 170
999 WORDFREQ_1.01 170
999 WORDSALL_appartiendra~10 170
999 COSIND_-0.02 170
999 COSGEN_-0.02 170
105 ESRank5 170
202 ESForwSacLong+6+31 170
999 WORDS_décret~16 171
999 WORDFREQ_6.42 171
999 WORDSALL_Un~15_décret~16 171
999 COSIND_0.18 171
999 COSGEN_0.18 171
106 ESRank6 171
202 ESForwSacLong+6+38 171
999 WORDS_appartiendra~10 188
999 WORDFREQ_1.01 188
999 WORDSALL_appartiendra~10 188
999 COSIND_-0.02 188
999 COSGEN_-0.02 188
107 ESRank7 188
206 ESBackSacRegrLong-6-38 188
999 WORDS_bientôt~11 121
999 WORDFREQ_169.59 121
999 WORDSALL_bientôt~11 121
999 COSIND_0.02 121
999 COSGEN_0.02 121
108 ESRank8 121
201 ESForwSacShort 121
999 WORDS_espèces~13 181
999 WORDFREQ_14.46 181
999 WORDSALL_aux~12_espèces~13 181
999 COSIND_0.54 181
999 COSGEN_0.54 181
109 ESRank9 181
202 ESForwSacLong+2+5 181
999 WORDS_protégées~14 153
999 WORDFREQ_0.14 153
999 WORDSALL_espèces~13_protégées~14 153
999 COSIND_0.25 153
999 COSGEN_0.25 153
110 ESRank10 153
201 ESForwSacShort 153
999 WORDS_Sud-ouest~9 171
999 WORDFREQ_3.51 171
999 WORDSALL_gourmets~7_Sud-ouest~9 171
999 COSIND_N/A 171
111 ESRank11 171
206 ESBackSacRegrLong-5-36 171
999 WORDS_décret~16 265
999 WORDFREQ_6.42 265
999 WORDSALL_Un~15_décret~16 265
999 COSIND_0.18 265
999 COSGEN_0.18 265
112 ESRank12 265
202 ESForwSacLong+7+51 265
999 WORDS_représente~21 231
999 WORDFREQ_17.64 231
999 WORDSALL_représente~21 231
999 COSIND_-0.09 231
999 COSGEN_-0.09 231
113 ESRank13 231
202 ESForwSacLong+5+20 231
999 WORDS_acte~24 207
999 WORDFREQ_35.88 207
999 WORDSALL_premier~23_acte~24 207
999 COSIND_0.04 207
999 COSGEN_0.04 207
114 ESRank14 207
202 ESForwSacLong+3+12 207
999 WORDS_compromis~26 244
999 WORDFREQ_5.88 244
999 WORDSALL_compromis~26 244
999 COSIND_0.13 244
999 COSGEN_0.13 244
115 ESRank15 244
202 ESForwSacLong+2+6 244
999 WORDS_global~27 120
999 WORDFREQ_1.15 120
999 WORDSALL_global~27 120
999 COSIND_0.03 120
999 COSGEN_0.03 120
116 ESRank16 120
201 ESForwSacShort 120
999 WORDS_écologistes~29 235
999 WORDFREQ_0.2 235
999 WORDSALL_entre~28_écologistes~29 235
999 COSIND_0.46 235
999 COSGEN_0.46 235
117 ESRank17 235
202 ESForwSacLong+2+7 235
999 WORDS_compromis~26 170
999 WORDFREQ_5.88 170
999 WORDSALL_compromis~26 170
999 COSIND_0.13 170
999 COSGEN_0.13 170
118 ESRank18 170
206 ESBackSacRegrLong-3-14 170
999 WORDS_signé~19 215
999 WORDFREQ_14.66 215
999 WORDSALL_signé~19 215
999 COSIND_-0.05 215
999 COSGEN_-0.05 215
119 ESRank19 215
206 ESBackSacRegrLong-7-38 215
200 ESRankN 215
199 ESRankNMinus1 170
198 ESRankNMinus2 235
197 ESRankNMinus3 120
196 ESRankNMinus4 244
195 ESRankNMinus5 207
194 ESRankNMinus6 231
193 ESRankNMinus7 265
192 ESRankNMinus8 171
191 ESRankNMinus9 153
190 ESRankNMinus10 181
