# 276 Fixation 1 (298,284.9): Les~0 habitants~1
# 255 Fixation 2 (436.2,275.1): habitants~1 Tirana~3
# 314 Fixation 3 (475.6,269.2): de~2 Tirana~3
# 319 Fixation 4 (561.1,259): Tirana~3 compatissent~4
# 340 Fixation 5 (588.3,267.9): compatissent~4
# 228 Fixation 6 (605.3,266.1): compatissent~4
# 241 Fixation 7 (693,271.6): compatissent~4
# 231 Fixation 8 (285.2,343.7): malheurs~6
# 209 Fixation 9 (252.9,346.5): malheurs~6
# 223 Fixation 10 (379.4,337.6): malheurs~6
# 179 Fixation 11 (481,336.2): leurs~8 frères~9
# 194 Fixation 12 (594.5,343.2): frères~9 kosovars~10
# 212 Fixation 13 (695.4,334.2): kosovars~10
# 316 Fixation 14 (279,406.4): déclarent~13
# 241 Fixation 15 (409.1,409.5): ulcérés~14
# 183 Fixation 16 (351.3,431.8): déclarent~13 ulcérés~14
# 159 Fixation 17 (464.9,481.5): qu'ils~18
# 168 Fixation 18 (551.9,487): ressentent~19
# 227 Fixation 19 (590.8,433.3): l'enchaînement~16
# 122 Fixation 20 (603.8,610.8): opérations~31 armées~32
# 236 Fixation 21 (560.8,589.5): opérations~31
%%
# Les~0 Fixations= "1/"
# habitants~1 Fixations= "2/"
# de~2 Fixations= "3/"
# Tirana~3 Fixations= "4/"
# compatissent~4 Fixations= "7/"
# aux~5 Fixations= ""
# malheurs~6 Fixations= "10/"
# de~7 Fixations= ""
# leurs~8 Fixations= "11/"
# frères~9 Fixations= "12/"
# kosovars~10 Fixations= "13/"
# Ils~11 Fixations= ""
# se~12 Fixations= ""
# déclarent~13 Fixations= "16/"
# ulcérés~14 Fixations= "16/"
# par~15 Fixations= ""
# l'enchaînement~16 Fixations= "19/"
# d'événements~17 Fixations= ""
# qu'ils~18 Fixations= "17/"
# ressentent~19 Fixations= "18/"
# comme~20 Fixations= ""
# une~21 Fixations= ""
# profonde~22 Fixations= ""
# injustice~23 Fixations= ""
# et~24 Fixations= ""
# reprochent~25 Fixations= ""
# à~26 Fixations= ""
# l'UCK~27 Fixations= ""
# d'avoir~28 Fixations= ""
# lancé~29 Fixations= ""
# des~30 Fixations= ""
# opérations~31 Fixations= "21/"
# armées~32 Fixations= "20/"
%%
#  LES[1] HABITANTS[2] DE[3] TIRANA[4] COMPATISSENT[7] aux MALHEURS[10] de LEURS[11] FRèRES[12] KOSOVARS[13] Ils se DéCLARENT[16] ULCéRéS[16] par L'ENCHAîNEMENT[19] d'événements QU'ILS[17] RESSENTENT[18] comme une profonde injustice et reprochent à l'UCK d'avoir lancé des OPéRATIONS[21] ARMéES[20]
# s14 aide_refugies-m2 PercentageOfWordsProcessed= 0.484848484848485 PercentageOfWordsReallyProcessed= 0.484848484848485
