999 WORDS_Moscou~1 151
999 WORDFREQ_N/A 151
999 WORDSALL_Moscou~1 151
999 COSIND_N/A 151
101 ESRank1 151
999 WORDS_communiqués~3 142
999 WORDFREQ_1.96 142
999 WORDSALL_communiqués~3 142
999 COSIND_-0.03 142
999 COSGEN_-0.03 142
102 ESRank2 142
202 ESForwSacLong+2+5 142
999 WORDS_triomphants~4 177
999 WORDFREQ_1.42 177
999 WORDSALL_triomphants~4 177
999 COSIND_0.08 177
999 COSGEN_0.08 177
103 ESRank3 177
201 ESForwSacShort 177
999 WORDS_succèdent~6 141
999 WORDFREQ_5.07 141
999 WORDSALL_succèdent~6 141
999 COSIND_0.06 141
999 COSGEN_0.06 141
104 ESRank4 141
202 ESForwSacLong+2+4 141
999 WORDS_succèdent~6 98
999 WORDFREQ_5.07 98
999 WORDSALL_succèdent~6 98
999 COSIND_0.06 98
999 COSGEN_0.06 98
105 ESRank5 98
203 ESBackSacRefixation 98
999 WORDS_Daghestan~9 148
999 WORDFREQ_N/A 148
999 WORDSALL_Dans~7_Daghestan~9 148
999 COSIND_N/A 148
106 ESRank6 148
202 ESForwSacLong+3+9 148
999 WORDS_Daghestan~9 126
999 WORDFREQ_N/A 126
999 WORDSALL_Daghestan~9 126
999 COSIND_N/A 126
107 ESRank7 126
203 ESBackSacRefixation 126
999 WORDS_rebelles~11 216
999 WORDFREQ_4.26 216
999 WORDSALL_les~10_rebelles~11 216
999 COSIND_0.20 216
999 COSGEN_0.20 216
108 ESRank8 216
202 ESForwSacLong+2+5 216
999 WORDS_complètement~13 204
999 WORDFREQ_81.49 204
999 WORDSALL_sont~12_complètement~13 204
999 COSIND_0.02 204
999 COSGEN_0.02 204
109 ESRank9 204
202 ESForwSacLong+2+6 204
999 WORDS_encerclés~14 131
999 WORDFREQ_0.68 131
999 WORDSALL_encerclés~14 131
999 COSIND_-0.00 131
999 COSGEN_-0.00 131
110 ESRank10 131
201 ESForwSacShort 131
999 WORDS_islamistes~21 146
999 WORDFREQ_0.14 146
999 WORDSALL_les~20_islamistes~21 146
999 COSIND_N/A 146
111 ESRank11 146
202 ESForwSacLong+7+37 146
999 WORDS_lourdes~25 132
999 WORDFREQ_23.18 132
999 WORDSALL_de~24_lourdes~25 132
999 COSIND_0.03 132
999 COSGEN_0.03 132
112 ESRank12 132
202 ESForwSacLong+4+13 132
200 ESRankN 132
199 ESRankNMinus1 146
198 ESRankNMinus2 131
197 ESRankNMinus3 204
196 ESRankNMinus4 216
195 ESRankNMinus5 126
194 ESRankNMinus6 148
193 ESRankNMinus7 98
192 ESRankNMinus8 141
191 ESRankNMinus9 177
190 ESRankNMinus10 142
