# 198 Fixation 1 (273.7,296): La~0 neige~1
# 172 Fixation 2 (288.5,289.3): La~0 neige~1
# 221 Fixation 3 (370.8,290.8): neige~1 fait~2
# 276 Fixation 4 (441.2,290.3): fait~2 défaut~3
# 224 Fixation 5 (574.4,291.9): dans~4 Hautes-Alpes~6 saisonniers~10
# 287 Fixation 6 (632,295): les~5 Hautes-Alpes~6 saisonniers~10
# 134 Fixation 7 (702.6,296.8): Hautes-Alpes~6
# 281 Fixation 8 (298.1,344): La~0 neige~1 Cinq~7 cents~8
# 130 Fixation 9 (326.3,349.8): Cinq~7 cents~8
# 262 Fixation 10 (437.1,352.7): travailleurs~9
# 334 Fixation 11 (607.6,357.2): saisonniers~10
# 205 Fixation 12 (705.1,358.5): saisonniers~10 privés~11
# 244 Fixation 13 (266.2,425.3): d'emploi~12
# 152 Fixation 14 (301.1,415.6): d'emploi~12
# 303 Fixation 15 (415.5,418.9): ont~13 manifesté~14
# 143 Fixation 16 (456,425.6): manifesté~14
# 188 Fixation 17 (366.2,543.8): mécaniques~26
# 206 Fixation 18 (473.3,545.5): des~27 indemnisations~28
%%
# La~0 Fixations= "8/"
# neige~1 Fixations= "8/"
# fait~2 Fixations= "4/"
# défaut~3 Fixations= "4/"
# dans~4 Fixations= "5/"
# les~5 Fixations= "6/"
# Hautes-Alpes~6 Fixations= "7/"
# Cinq~7 Fixations= "9/"
# cents~8 Fixations= "9/"
# travailleurs~9 Fixations= "10/"
# saisonniers~10 Fixations= "12/"
# privés~11 Fixations= "12/"
# d'emploi~12 Fixations= "14/"
# ont~13 Fixations= "15/"
# manifesté~14 Fixations= "16/"
# dans~15 Fixations= ""
# les~16 Fixations= ""
# rues~17 Fixations= ""
# de~18 Fixations= ""
# Gap~19 Fixations= ""
# pour~20 Fixations= ""
# exiger~21 Fixations= ""
# des~22 Fixations= ""
# exploitants~23 Fixations= ""
# de~24 Fixations= ""
# remontées~25 Fixations= ""
# mécaniques~26 Fixations= "17/"
# des~27 Fixations= "18/"
# indemnisations~28 Fixations= "18/"
%%
#  LA[8] NEIGE[8] FAIT[4] DéFAUT[4] DANS[5] LES[6] HAUTES-ALPES[7] CINQ[9] CENTS[9] TRAVAILLEURS[10] SAISONNIERS[12] PRIVéS[12] D'EMPLOI[14] ONT[15] MANIFESTé[16] dans les rues de Gap pour exiger des exploitants de remontées MéCANIQUES[17] DES[18] INDEMNISATIONS[18]
# s13 salon_aeronautique-a2 PercentageOfWordsProcessed= 0.620689655172414 PercentageOfWordsReallyProcessed= 0.620689655172414
