999 WORDS_faut~1 233
999 WORDFREQ_653.92 233
999 WORDSALL_Il~0_faut~1 233
999 COSIND_0.02 233
999 COSGEN_0.02 233
101 ESRank1 233
999 WORDS_faut~1 126
999 WORDFREQ_653.92 126
999 WORDSALL_Il~0_faut~1 126
999 COSIND_0.02 126
999 COSGEN_0.02 126
102 ESRank2 126
203 ESBackSacRefixation 126
999 WORDS_profiter~2 274
999 WORDFREQ_25.14 274
999 WORDSALL_faut~1_profiter~2 274
999 COSIND_-0.02 274
999 COSGEN_-0.02 274
103 ESRank3 274
201 ESForwSacShort 274
999 WORDS_crise~5 239
999 WORDFREQ_37.97 239
999 WORDSALL_de~3_crise~5 239
999 COSIND_-0.07 239
999 COSGEN_-0.07 239
104 ESRank4 239
202 ESForwSacLong+3+7 239
999 WORDS_crise~5 236
999 WORDFREQ_37.97 236
999 WORDSALL_la~4_crise~5 236
999 COSIND_-0.07 236
999 COSGEN_-0.07 236
105 ESRank5 236
203 ESBackSacRefixation 236
999 WORDS_crise~5 134
999 WORDFREQ_37.97 134
999 WORDSALL_la~4_crise~5 134
999 COSIND_-0.07 134
999 COSGEN_-0.07 134
106 ESRank6 134
203 ESBackSacRefixation 134
999 WORDS_gouvernement~10 440
999 WORDFREQ_119.73 440
999 WORDSALL_le~9_gouvernement~10 440
999 COSIND_-0.01 440
999 COSGEN_-0.01 440
107 ESRank7 440
202 ESForwSacLong+5+28 440
999 WORDS_unités~17 193
999 WORDFREQ_15.34 193
999 WORDSALL_certaines~16_unités~17 193
999 COSIND_0.04 193
999 COSGEN_0.04 193
108 ESRank8 193
202 ESForwSacLong+7+31 193
999 WORDS_nécessaire~22 201
999 WORDFREQ_48.45 201
999 WORDSALL_juge~21_nécessaire~22 201
999 COSIND_-0.04 201
999 COSGEN_-0.04 201
109 ESRank9 201
202 ESForwSacLong+5+32 201
999 WORDS_militaires~18 245
999 WORDFREQ_27.03 245
999 WORDSALL_gouvernement~10_militaires~18 245
999 COSIND_-0.05 245
999 COSGEN_-0.05 245
110 ESRank10 245
206 ESBackSacRegrLong-4-21 245
999 WORDS_fatigue~14 373
999 WORDFREQ_65.81 373
999 WORDSALL_générale~6_fatigue~14 373
999 COSIND_-0.07 373
999 COSGEN_-0.07 373
111 ESRank11 373
206 ESBackSacRegrLong-4-22 373
999 WORDS_guérillero~20 210
999 WORDFREQ_0.14 210
999 WORDSALL_de~15_certaines~16_guérillero~20 210
999 COSIND_0.19 210
999 COSGEN_0.19 210
112 ESRank12 210
202 ESForwSacLong+6+36 210
999 WORDS_guérillero~20 275
999 WORDFREQ_0.14 275
999 WORDSALL_de~15_certaines~16_guérillero~20 275
999 COSIND_0.19 275
999 COSGEN_0.19 275
113 ESRank13 275
203 ESBackSacRefixation 275
200 ESRankN 275
199 ESRankNMinus1 210
198 ESRankNMinus2 373
197 ESRankNMinus3 245
196 ESRankNMinus4 201
195 ESRankNMinus5 193
194 ESRankNMinus6 440
193 ESRankNMinus7 134
192 ESRankNMinus8 236
191 ESRankNMinus9 239
190 ESRankNMinus10 274
