# 134 Fixation 1 (281.6,261.7): La~0 neige~1
# 90 Fixation 2 (336.4,260.2): neige~1
# 168 Fixation 3 (401,266.8): fait~2
# 151 Fixation 4 (458.8,269.3): fait~2 défaut~3
# 196 Fixation 5 (600.8,280.8): dans~4 Hautes-Alpes~6
# 169 Fixation 6 (664.8,286.3): les~5 Hautes-Alpes~6
# 200 Fixation 7 (322.1,358.8): Cinq~7 cents~8
# 231 Fixation 8 (444.6,341.5): fait~2 défaut~3 travailleurs~9
# 317 Fixation 9 (605.5,342.7): dans~4 Hautes-Alpes~6 saisonniers~10
# 140 Fixation 10 (331.3,429.1): d'emploi~12 ont~13
# 82 Fixation 11 (340.6,417.4): d'emploi~12 ont~13
# 270 Fixation 12 (490.1,413): manifesté~14
# 94 Fixation 13 (591.6,423): dans~15 rues~17
# 150 Fixation 14 (618.5,472.9): dans~15 rues~17 remontées~25
%%
# La~0 Fixations= "1/"
# neige~1 Fixations= "2/"
# fait~2 Fixations= "8/"
# défaut~3 Fixations= "8/"
# dans~4 Fixations= "9/"
# les~5 Fixations= "6/"
# Hautes-Alpes~6 Fixations= "9/"
# Cinq~7 Fixations= "7/"
# cents~8 Fixations= "7/"
# travailleurs~9 Fixations= "8/"
# saisonniers~10 Fixations= "9/"
# privés~11 Fixations= ""
# d'emploi~12 Fixations= "11/"
# ont~13 Fixations= "11/"
# manifesté~14 Fixations= "12/"
# dans~15 Fixations= "14/"
# les~16 Fixations= ""
# rues~17 Fixations= "14/"
# de~18 Fixations= ""
# Gap~19 Fixations= ""
# pour~20 Fixations= ""
# exiger~21 Fixations= ""
# des~22 Fixations= ""
# exploitants~23 Fixations= ""
# de~24 Fixations= ""
# remontées~25 Fixations= "14/"
# mécaniques~26 Fixations= ""
# des~27 Fixations= ""
# indemnisations~28 Fixations= ""
%%
#  LA[1] NEIGE[2] FAIT[8] DéFAUT[8] DANS[9] LES[6] HAUTES-ALPES[9] CINQ[7] CENTS[7] TRAVAILLEURS[8] SAISONNIERS[9] privés D'EMPLOI[11] ONT[11] MANIFESTé[12] DANS[14] les RUES[14] de Gap pour exiger des exploitants de REMONTéES[14] mécaniques des indemnisations
# s01 salon_aeronautique-a2 PercentageOfWordsProcessed= 0.586206896551724 PercentageOfWordsReallyProcessed= 0.653846153846154
