# 113 Fixation 1 (267,282.6): Les~0 familles~1
# 109 Fixation 2 (310.8,279.4): Les~0 familles~1
# 238 Fixation 3 (429.8,292.1): familles~1 ayant~2
# 155 Fixation 4 (544.3,292.1): des~3 jumeaux~4
# 124 Fixation 5 (508,291.7): ayant~2 jumeaux~4
# 163 Fixation 6 (655.1,298.9): jumeaux~4 bénéficient~5
# 159 Fixation 7 (638.4,300.5): jumeaux~4
# 213 Fixation 8 (325.5,344.9): des~6 mêmes~7
# 215 Fixation 9 (411.8,341.2): prestations~8
# 201 Fixation 10 (543.9,342.9): familiales~9
# 101 Fixation 11 (582.5,343.4): familiales~9
# 208 Fixation 12 (678.1,348.6): familiales~9
# 245 Fixation 13 (307.2,401.3): autres~12
# 132 Fixation 14 (433,397.8): mais~13 congés~15
# 104 Fixation 15 (404.9,402.9): mais~13 congés~15
# 212 Fixation 16 (478.1,402.6): les~14 congés~15
# 147 Fixation 17 (599.3,401.9): maternité~16
# 164 Fixation 18 (576.8,403.2): congés~15 maternité~16
# 171 Fixation 19 (713,410): sont~17
# 157 Fixation 20 (344.6,469.7): longs~19 18~21
%%
# Les~0 Fixations= "2/"
# familles~1 Fixations= "3/"
# ayant~2 Fixations= "5/"
# des~3 Fixations= "4/"
# jumeaux~4 Fixations= "7/"
# bénéficient~5 Fixations= "6/"
# des~6 Fixations= "8/"
# mêmes~7 Fixations= "8/"
# prestations~8 Fixations= "9/"
# familiales~9 Fixations= "12/"
# que~10 Fixations= ""
# les~11 Fixations= ""
# autres~12 Fixations= "13/"
# mais~13 Fixations= "15/"
# les~14 Fixations= "16/"
# congés~15 Fixations= "18/"
# maternité~16 Fixations= "18/"
# sont~17 Fixations= "19/"
# plus~18 Fixations= ""
# longs~19 Fixations= "20/"
# de~20 Fixations= ""
# 18~21 Fixations= "20/"
# semaines~22 Fixations= ""
%%
#  LES[2] FAMILLES[3] AYANT[5] DES[4] JUMEAUX[7] BéNéFICIENT[6] DES[8] MêMES[8] PRESTATIONS[9] FAMILIALES[12] que les AUTRES[13] MAIS[15] LES[16] CONGéS[18] MATERNITé[18] SONT[19] plus LONGS[20] de 18[20] semaines
# s05 allocation_familiale-f1 PercentageOfWordsProcessed= 0.782608695652174 PercentageOfWordsReallyProcessed= 0.818181818181818
