999 WORDS_s'agit~1 133
999 WORDFREQ_73.72 133
999 WORDSALL_Il~0_s'agit~1 133
999 COSIND_0.05 133
999 COSGEN_0.05 133
101 ESRank1 133
999 WORDS_s'agit~1 89
999 WORDFREQ_73.72 89
999 WORDSALL_s'agit~1 89
999 COSIND_0.05 89
999 COSGEN_0.05 89
102 ESRank2 89
203 ESBackSacRefixation 89
999 WORDS_citoyens~4 362
999 WORDFREQ_8.65 362
999 WORDSALL_nos~3_citoyens~4 362
999 COSIND_-0.03 362
999 COSGEN_-0.03 362
103 ESRank3 362
202 ESForwSacLong+3+8 362
999 WORDS_ 181
999 WORDFREQ_ 181
999 WORDSALL_ 181
104 ESRank4 181
999 WORDS_ 118
999 WORDFREQ_ 118
999 WORDSALL_ 118
105 ESRank5 118
999 WORDS_n'importe~9 207
999 WORDFREQ_151.08 207
999 WORDSALL_n'importe~9 207
999 COSIND_-0.03 207
999 COSGEN_-0.03 207
106 ESRank6 207
999 WORDS_gouvernement~11 260
999 WORDFREQ_119.73 260
999 WORDSALL_quel~10_gouvernement~11 260
999 COSIND_0.03 260
999 COSGEN_0.03 260
107 ESRank7 260
202 ESForwSacLong+2+6 260
999 WORDS_devoir~7 178
999 WORDFREQ_33.04 178
999 WORDSALL_devoir~7 178
999 COSIND_-0.00 178
999 COSGEN_-0.00 178
108 ESRank8 178
206 ESBackSacRegrLong-4-19 178
999 WORDS_devoir~7 189
999 WORDFREQ_33.04 189
999 WORDSALL_devoir~7 189
999 COSIND_-0.00 189
999 COSGEN_-0.00 189
109 ESRank9 189
203 ESBackSacRefixation 189
999 WORDS_intérêts~16 180
999 WORDFREQ_22.36 180
999 WORDSALL_intérêts~16 180
999 COSIND_-0.02 180
999 COSGEN_-0.02 180
110 ESRank10 180
202 ESForwSacLong+9+53 180
999 WORDS_intérêts~16 132
999 WORDFREQ_22.36 132
999 WORDSALL_les~15_intérêts~16 132
999 COSIND_-0.02 132
999 COSGEN_-0.02 132
111 ESRank11 132
203 ESBackSacRefixation 132
999 WORDS_citoyens~19 248
999 WORDFREQ_8.65 248
999 WORDSALL_ses~18_citoyens~19 248
999 COSIND_-0.03 248
999 COSGEN_-0.03 248
112 ESRank12 248
202 ESForwSacLong+3+8 248
999 WORDS_citoyens~19 221
999 WORDFREQ_8.65 221
999 WORDSALL_de~17_citoyens~19 221
999 COSIND_-0.03 221
999 COSGEN_-0.03 221
113 ESRank13 221
203 ESBackSacRefixation 221
999 WORDS_mesures~21 242
999 WORDFREQ_20.68 242
999 WORDSALL_Des~20_mesures~21 242
999 COSIND_-0.05 242
999 COSGEN_-0.05 242
114 ESRank14 242
202 ESForwSacLong+2+5 242
999 WORDS_prises~23 228
999 WORDFREQ_12.16 228
999 WORDSALL_sont~22_prises~23 228
999 COSIND_0.02 228
999 COSGEN_0.02 228
115 ESRank15 228
202 ESForwSacLong+2+6 228
999 WORDS_également~25 261
999 WORDFREQ_71.01 261
999 WORDSALL_mais~24_également~25 261
999 COSIND_0.03 261
999 COSGEN_0.03 261
116 ESRank16 261
202 ESForwSacLong+2+6 261
999 WORDS_coopération~27 198
999 WORDFREQ_6.96 198
999 WORDSALL_une~26_coopération~27 198
999 COSIND_0.22 198
999 COSGEN_0.22 198
117 ESRank17 198
202 ESForwSacLong+2+5 198
999 WORDS_coopération~27 104
999 WORDFREQ_6.96 104
999 WORDSALL_une~26_coopération~27 104
999 COSIND_0.22 104
999 COSGEN_0.22 104
118 ESRank18 104
203 ESBackSacRefixation 104
999 WORDS_organisations~30 177
999 WORDFREQ_4.8 177
999 WORDSALL_avec~28_organisations~30 177
999 COSIND_0.35 177
999 COSGEN_0.35 177
119 ESRank19 177
202 ESForwSacLong+3+10 177
999 WORDS_organisations~30 174
999 WORDFREQ_4.8 174
999 WORDSALL_les~29_organisations~30 174
999 COSIND_0.35 174
999 COSGEN_0.35 174
120 ESRank20 174
203 ESBackSacRefixation 174
999 WORDS_internationales~31 246
999 WORDFREQ_3.99 246
999 WORDSALL_internationales~31 246
999 COSIND_0.08 246
999 COSGEN_0.08 246
201 ESForwSacShort 246
999 WORDS_organisations~30 197
999 WORDFREQ_4.8 197
999 WORDSALL_organisations~30 197
999 COSIND_0.35 197
999 COSGEN_0.35 197
205 ESBackSacRegrShort 197
999 WORDS_avec~28 347
999 WORDFREQ_4000.41 347
999 WORDSALL_avec~28 347
999 COSIND_N/A 347
206 ESBackSacRegrLong-2-5 347
200 ESRankN 347
199 ESRankNMinus1 197
198 ESRankNMinus2 246
197 ESRankNMinus3 174
196 ESRankNMinus4 177
195 ESRankNMinus5 104
194 ESRankNMinus6 198
193 ESRankNMinus7 261
192 ESRankNMinus8 228
191 ESRankNMinus9 242
190 ESRankNMinus10 221
