# 168 Fixation 1 (264,285.9): Un~0 miraculé~1
# 142 Fixation 2 (330.2,289.4): miraculé~1
# 161 Fixation 3 (436.6,298.2): de~2 l'aviation~3
# 225 Fixation 4 (468.4,298.7): de~2 l'aviation~3
# 148 Fixation 5 (414.3,295.9): miraculé~1 l'aviation~3
# 160 Fixation 6 (598.8,297.9): un~4 jeune~5
# 210 Fixation 7 (312.7,344.6): passager~6
# 204 Fixation 8 (407.3,352.6): clandestin~7
# 131 Fixation 9 (571.1,355.3): a~8 fait~9
# 188 Fixation 10 (631.7,360.6): le~10 trajet~11
# 111 Fixation 11 (497.1,396): mardi~13 dernier~14
# 158 Fixation 12 (427.2,409.8): mardi~13
# 122 Fixation 13 (363.9,409): Dakar-Lyon~12 mardi~13
# 148 Fixation 14 (300.7,408): Dakar-Lyon~12
# 156 Fixation 15 (483.6,421.2): mardi~13 dernier~14
# 126 Fixation 16 (496.5,418.3): mardi~13 dernier~14
# 195 Fixation 17 (431.5,419.7): mardi~13
# 145 Fixation 18 (648.2,426.7): dans~15 train~17
# 134 Fixation 19 (696.5,429.7): dans~15 train~17
# 145 Fixation 20 (356.4,472): d'atterrissage~18
# 200 Fixation 21 (292.5,468.4): d'atterrissage~18
# 198 Fixation 22 (506.4,477): d'un~19 Airbus~20
# 129 Fixation 23 (547.2,479.4): Airbus~20
# 172 Fixation 24 (604.6,481.5): Airbus~20 A300~21
# 173 Fixation 25 (492.2,472.5): d'un~19 Airbus~20
%%
# Un~0 Fixations= "1/"
# miraculé~1 Fixations= "5/"
# de~2 Fixations= "4/"
# l'aviation~3 Fixations= "5/"
# un~4 Fixations= "6/"
# jeune~5 Fixations= "6/"
# passager~6 Fixations= "7/"
# clandestin~7 Fixations= "8/"
# a~8 Fixations= "9/"
# fait~9 Fixations= "9/"
# le~10 Fixations= "10/"
# trajet~11 Fixations= "10/"
# Dakar-Lyon~12 Fixations= "14/"
# mardi~13 Fixations= "17/"
# dernier~14 Fixations= "16/"
# dans~15 Fixations= "19/"
# le~16 Fixations= ""
# train~17 Fixations= "19/"
# d'atterrissage~18 Fixations= "21/"
# d'un~19 Fixations= "25/"
# Airbus~20 Fixations= "25/"
# A300~21 Fixations= "24/"
%%
#  UN[1] MIRACULé[5] DE[4] L'AVIATION[5] UN[6] JEUNE[6] PASSAGER[7] CLANDESTIN[8] A[9] FAIT[9] LE[10] TRAJET[10] DAKAR-LYON[14] MARDI[17] DERNIER[16] DANS[19] le TRAIN[19] D'ATTERRISSAGE[21] D'UN[25] AIRBUS[25] A300[24]
# s05 salon_aeronautique-m2 PercentageOfWordsProcessed= 0.954545454545455 PercentageOfWordsReallyProcessed= 0.954545454545455
