999 WORDS_mettent~9 171
999 WORDFREQ_23.24 171
999 WORDSALL_Dans~0_jugement~2_mettent~9 171
999 COSIND_0.04 171
999 COSGEN_0.04 171
101 ESRank1 171
999 WORDS_jugement~2 132
999 WORDFREQ_24.12 132
999 WORDSALL_le~1_jugement~2 132
999 COSIND_0.01 132
999 COSGEN_0.01 132
102 ESRank2 132
206 ESBackSacRegrLong-7-31 132
999 WORDS_plusieurs~12 181
999 WORDFREQ_203.58 181
999 WORDSALL_cité~3_plusieurs~12 181
999 COSIND_0.02 181
999 COSGEN_0.02 181
103 ESRank3 181
202 ESForwSacLong+10+48 181
999 WORDS_Nacion~6 283
999 WORDFREQ_N/A 283
999 WORDSALL_par~4_Nacion~6 283
999 COSIND_N/A 283
104 ESRank4 283
206 ESBackSacRegrLong-6-28 283
999 WORDS_type~19 251
999 WORDFREQ_145.95 251
999 WORDSALL_plusieurs~12_type~19 251
999 COSIND_0.19 251
999 COSGEN_0.19 251
105 ESRank5 251
202 ESForwSacLong+13+72 251
999 WORDS_type~19 170
999 WORDFREQ_145.95 170
999 WORDSALL_que~17_type~19 170
999 COSIND_0.19 170
999 COSGEN_0.19 170
106 ESRank6 170
203 ESBackSacRefixation 170
999 WORDS_procédure~21 188
999 WORDFREQ_3.38 188
999 WORDSALL_de~20_procédure~21 188
999 COSIND_0.04 188
999 COSGEN_0.04 188
107 ESRank7 188
202 ESForwSacLong+2+4 188
999 WORDS_Cerda~26 238
999 WORDFREQ_N/A 238
999 WORDSALL_juge~25_Cerda~26 238
999 COSIND_N/A 238
108 ESRank8 238
202 ESForwSacLong+5+20 238
999 WORDS_juge~25 249
999 WORDFREQ_29.8 249
999 WORDSALL_le~24_juge~25 249
999 COSIND_-0.03 249
999 COSGEN_-0.03 249
109 ESRank9 249
205 ESBackSacRegrShort 249
200 ESRankN 249
199 ESRankNMinus1 238
198 ESRankNMinus2 188
197 ESRankNMinus3 170
196 ESRankNMinus4 251
195 ESRankNMinus5 283
194 ESRankNMinus6 181
193 ESRankNMinus7 132
192 ESRankNMinus8 171
