999 WORDS_jeu~1 188
999 WORDFREQ_130.68 188
999 WORDSALL_Le~0_jeu~1 188
999 COSIND_0.03 188
999 COSGEN_0.03 188
101 ESRank1 188
999 WORDS_favori~2 382
999 WORDFREQ_5.81 382
999 WORDSALL_favori~2 382
999 COSIND_0.09 382
999 COSGEN_0.09 382
102 ESRank2 382
201 ESForwSacShort 382
999 WORDS_jeu~1 223
999 WORDFREQ_130.68 223
999 WORDSALL_Le~0_jeu~1 223
999 COSIND_0.03 223
999 COSGEN_0.03 223
103 ESRank3 223
205 ESBackSacRegrShort 223
999 WORDS_biographes~4 280
999 WORDFREQ_0.27 280
999 WORDSALL_des~3_biographes~4 280
999 COSIND_0.11 280
999 COSGEN_0.11 280
104 ESRank4 280
202 ESForwSacLong+3+12 280
999 WORDS_biographes~4 200
999 WORDFREQ_0.27 200
999 WORDSALL_favori~2_biographes~4 200
999 COSIND_0.11 200
999 COSGEN_0.11 200
105 ESRank5 200
203 ESBackSacRefixation 200
999 WORDS_favori~2 150
999 WORDFREQ_5.81 150
999 WORDSALL_favori~2 150
999 COSIND_0.09 150
999 COSGEN_0.09 150
106 ESRank6 150
206 ESBackSacRegrLong-2-5 150
999 WORDS_biographes~4 270
999 WORDFREQ_0.27 270
999 WORDSALL_biographes~4 270
999 COSIND_0.11 270
999 COSGEN_0.11 270
107 ESRank7 270
202 ESForwSacLong+2+5 270
999 WORDS_Conrad~6 337
999 WORDFREQ_N/A 337
999 WORDSALL_de~5_Conrad~6 337
999 COSIND_N/A 337
108 ESRank8 337
202 ESForwSacLong+2+4 337
999 WORDS_Conrad~6 187
999 WORDFREQ_N/A 187
999 WORDSALL_de~5_Conrad~6 187
999 COSIND_N/A 187
109 ESRank9 187
203 ESBackSacRefixation 187
999 WORDS_écrivain~9 155
999 WORDFREQ_32.43 155
999 WORDSALL_célèbre~8_écrivain~9 155
999 COSIND_0.26 155
999 COSGEN_0.26 155
110 ESRank10 155
202 ESForwSacLong+3+14 155
999 WORDS_célèbre~8 228
999 WORDFREQ_24.73 228
999 WORDSALL_célèbre~8 228
999 COSIND_N/A 228
111 ESRank11 228
205 ESBackSacRegrShort 228
999 WORDS_l'écart~14 133
999 WORDFREQ_32.3 133
999 WORDSALL_l'écart~14 133
999 COSIND_0.13 133
999 COSGEN_0.13 133
112 ESRank12 133
202 ESForwSacLong+6+39 133
999 WORDS_entre~15 118
999 WORDFREQ_833.99 118
999 WORDSALL_entre~15 118
999 COSIND_N/A 118
113 ESRank13 118
201 ESForwSacShort 118
999 WORDS_événements~17 508
999 WORDFREQ_58.24 508
999 WORDSALL_les~16_événements~17 508
999 COSIND_-0.02 508
999 COSGEN_-0.02 508
114 ESRank14 508
202 ESForwSacLong+2+5 508
200 ESRankN 508
199 ESRankNMinus1 118
198 ESRankNMinus2 133
197 ESRankNMinus3 228
196 ESRankNMinus4 155
195 ESRankNMinus5 187
194 ESRankNMinus6 337
193 ESRankNMinus7 270
192 ESRankNMinus8 150
191 ESRankNMinus9 200
190 ESRankNMinus10 280
