999 WORDS_producteurs~1 193
999 WORDFREQ_2.03 193
999 WORDSALL_Les~0_producteurs~1 193
999 COSIND_0.32 193
999 COSGEN_0.32 193
101 ESRank1 193
999 WORDS_producteurs~1 236
999 WORDFREQ_2.03 236
999 WORDSALL_producteurs~1 236
999 COSIND_0.32 236
999 COSGEN_0.32 236
102 ESRank2 236
203 ESBackSacRefixation 236
999 WORDS_fruits~3 243
999 WORDFREQ_42.09 243
999 WORDSALL_de~2_fruits~3 243
999 COSIND_0.34 243
999 COSGEN_0.34 243
103 ESRank3 243
202 ESForwSacLong+2+4 243
999 WORDS_fruits~3 109
999 WORDFREQ_42.09 109
999 WORDSALL_fruits~3 109
999 COSIND_0.34 109
999 COSGEN_0.34 109
104 ESRank4 109
203 ESBackSacRefixation 109
999 WORDS_affiliés~7 106
999 WORDFREQ_0.07 106
999 WORDSALL_surtout~6_affiliés~7 106
999 COSIND_-0.05 106
999 COSGEN_-0.05 106
105 ESRank5 106
202 ESForwSacLong+4+21 106
999 WORDS_puissante~10 240
999 WORDFREQ_14.26 240
999 WORDSALL_à~8_puissante~10 240
999 COSIND_0.28 240
999 COSGEN_0.28 240
106 ESRank6 240
202 ESForwSacLong+3+7 240
999 WORDS_Fédération~11 186
999 WORDFREQ_2.23 186
999 WORDSALL_puissante~10_Fédération~11 186
999 COSIND_0.39 186
999 COSGEN_0.39 186
107 ESRank7 186
201 ESForwSacShort 186
999 WORDS_Nationale~12 204
999 WORDFREQ_48.18 204
999 WORDSALL_Nationale~12 204
999 COSIND_0.07 204
999 COSGEN_0.07 204
108 ESRank8 204
201 ESForwSacShort 204
999 WORDS_Syndicats~14 205
999 WORDFREQ_3.24 205
999 WORDSALL_des~13_Syndicats~14 205
999 COSIND_0.86 205
999 COSGEN_0.86 205
109 ESRank9 205
202 ESForwSacLong+2+5 205
999 WORDS_d'Exploitants~15 225
999 WORDFREQ_0.34 225
999 WORDSALL_Syndicats~14_d'Exploitants~15 225
999 COSIND_0.76 225
999 COSGEN_0.76 225
110 ESRank10 225
201 ESForwSacShort 225
999 WORDS_Agricoles~16 249
999 WORDFREQ_3.04 249
999 WORDSALL_Agricoles~16 249
999 COSIND_0.70 249
999 COSGEN_0.70 249
111 ESRank11 249
201 ESForwSacShort 249
999 WORDS_ont~17 231
999 WORDFREQ_240.61 231
999 WORDSALL_ont~17 231
999 COSIND_0.04 231
999 COSGEN_0.04 231
112 ESRank12 231
201 ESForwSacShort 231
200 ESRankN 231
199 ESRankNMinus1 249
198 ESRankNMinus2 225
197 ESRankNMinus3 205
196 ESRankNMinus4 204
195 ESRankNMinus5 186
194 ESRankNMinus6 240
193 ESRankNMinus7 106
192 ESRankNMinus8 109
191 ESRankNMinus9 243
190 ESRankNMinus10 236
