999 WORDS_laboratoires~1 94
999 WORDFREQ_1.08 94
999 WORDSALL_Les~0_laboratoires~1 94
999 COSIND_-0.00 94
999 COSGEN_-0.00 94
101 ESRank1 94
999 WORDS_laboratoires~1 176
999 WORDFREQ_1.08 176
999 WORDSALL_laboratoires~1 176
999 COSIND_-0.00 176
999 COSGEN_-0.00 176
102 ESRank2 176
203 ESBackSacRefixation 176
999 WORDS_ont~2 225
999 WORDFREQ_553.31 225
999 WORDSALL_ont~2 225
999 COSIND_-0.02 225
999 COSGEN_-0.02 225
103 ESRank3 225
201 ESForwSacShort 225
999 WORDS_réalisé~4 233
999 WORDFREQ_6.22 233
999 WORDSALL_ainsi~3_réalisé~4 233
999 COSIND_0.02 233
999 COSGEN_0.02 233
104 ESRank4 233
202 ESForwSacLong+2+7 233
999 WORDS_dur~8 182
999 WORDFREQ_80.68 182
999 WORDSALL_ont~2_dur~8 182
999 COSIND_-0.03 182
999 COSGEN_-0.03 182
105 ESRank5 182
202 ESForwSacLong+4+20 182
999 WORDS_coup~7 164
999 WORDFREQ_641.55 164
999 WORDSALL_laboratoires~1_coup~7 164
999 COSIND_-0.00 164
999 COSGEN_-0.00 164
106 ESRank6 164
205 ESBackSacRegrShort 164
999 WORDS_compenser~22 246
999 WORDFREQ_3.99 246
999 WORDSALL_pour~21_compenser~22 246
999 COSIND_0.03 246
999 COSGEN_0.03 246
107 ESRank7 246
202 ESForwSacLong+15+104 246
200 ESRankN 246
199 ESRankNMinus1 164
198 ESRankNMinus2 182
197 ESRankNMinus3 233
196 ESRankNMinus4 225
195 ESRankNMinus5 176
194 ESRankNMinus6 94
