# 121 Fixation 1 (263.6,287.8): Dans~0 jugement~2 juges~8
# 162 Fixation 2 (368.6,293.7): le~1 jugement~2
# 154 Fixation 3 (503.5,293.7): cité~3
# 172 Fixation 4 (570,288.1): cité~3 plusieurs~12
# 199 Fixation 5 (374,282.2): le~1 jugement~2
# 148 Fixation 6 (583.2,289.2): par~4 Nacion~6 plusieurs~12
# 164 Fixation 7 (634,292): La~5 Nacion~6
# 89 Fixation 8 (728.4,281.7): Nacion~6
# 229 Fixation 9 (321.5,350.6): juges~8 mettent~9
# 138 Fixation 10 (274.6,342.1): Dans~0 jugement~2 juges~8
# 184 Fixation 11 (478.2,349.3): en~10 avant~11
# 139 Fixation 12 (563,352.4): avant~11 plusieurs~12
# 109 Fixation 13 (673.2,356.7): plusieurs~12 arguments~13
# 192 Fixation 14 (309.2,384.6): juges~8 forme~15
# 181 Fixation 15 (428.1,393.9): mettent~9 avant~11 arguant~16
# 134 Fixation 16 (536.9,401.5): avant~11 plusieurs~12 type~19
# 103 Fixation 17 (602.4,406.1): plusieurs~12 type~19
# 169 Fixation 18 (680,405.7): plusieurs~12 arguments~13 procédure~21
# 200 Fixation 19 (333.1,431.5): forme~15
# 131 Fixation 20 (292.5,438.4): de~14 forme~15
# 176 Fixation 21 (436.7,449.7): arguant~16
# 162 Fixation 22 (531.6,462.2): que~17 type~19 Cerda~26
# 202 Fixation 23 (596.3,468.2): le~18 type~19 serait~27
# 147 Fixation 24 (699.6,483.3): inapproprié~28
# 212 Fixation 25 (426.3,317): jugement~2 avant~11
%%
# Dans~0 Fixations= "10/"
# le~1 Fixations= "5/"
# jugement~2 Fixations= "25/"
# cité~3 Fixations= "4/"
# par~4 Fixations= "6/"
# La~5 Fixations= "7/"
# Nacion~6 Fixations= "8/"
# les~7 Fixations= ""
# juges~8 Fixations= "14/"
# mettent~9 Fixations= "15/"
# en~10 Fixations= "11/"
# avant~11 Fixations= "25/"
# plusieurs~12 Fixations= "18/"
# arguments~13 Fixations= "18/"
# de~14 Fixations= "20/"
# forme~15 Fixations= "20/"
# arguant~16 Fixations= "21/"
# que~17 Fixations= "22/"
# le~18 Fixations= "23/"
# type~19 Fixations= "23/"
# de~20 Fixations= ""
# procédure~21 Fixations= "18/"
# lancé~22 Fixations= ""
# par~23 Fixations= ""
# le~24 Fixations= ""
# juge~25 Fixations= ""
# Cerda~26 Fixations= "22/"
# serait~27 Fixations= "23/"
# inapproprié~28 Fixations= "24/"
%%
#  DANS[10] LE[5] JUGEMENT[25] CITé[4] PAR[6] LA[7] NACION[8] les JUGES[14] METTENT[15] EN[11] AVANT[25] PLUSIEURS[18] ARGUMENTS[18] DE[20] FORME[20] ARGUANT[21] QUE[22] LE[23] TYPE[23] de PROCéDURE[18] lancé par le juge CERDA[22] SERAIT[23] INAPPROPRIé[24]
# s08 rechauffement_climatique-a1 PercentageOfWordsProcessed= 0.793103448275862 PercentageOfWordsReallyProcessed= 0.793103448275862
