999 WORDS_Odense~1 146
999 WORDFREQ_N/A 146
999 WORDSALL_Odense~1 146
999 COSIND_N/A 146
101 ESRank1 146
999 WORDS_Odense~1 239
999 WORDFREQ_N/A 239
999 WORDSALL_A~0_Odense~1 239
999 COSIND_N/A 239
102 ESRank2 239
203 ESBackSacRefixation 239
999 WORDS_Danemark~3 255
999 WORDFREQ_N/A 255
999 WORDSALL_au~2_Danemark~3 255
999 COSIND_N/A 255
103 ESRank3 255
202 ESForwSacLong+2+4 255
999 WORDS_policier~5 327
999 WORDFREQ_10 327
999 WORDSALL_chaque~4_policier~5 327
999 COSIND_0.48 327
999 COSGEN_0.48 327
104 ESRank4 327
202 ESForwSacLong+2+8 327
999 WORDS_policier~5 209
999 WORDFREQ_10 209
999 WORDSALL_policier~5 209
999 COSIND_0.48 209
999 COSGEN_0.48 209
105 ESRank5 209
203 ESBackSacRefixation 209
999 WORDS_rester~7 262
999 WORDFREQ_123.78 262
999 WORDSALL_rester~7 262
999 COSIND_-0.03 262
999 COSGEN_-0.03 262
106 ESRank6 262
202 ESForwSacLong+2+6 262
999 WORDS_an~11 256
999 WORDFREQ_76.76 256
999 WORDSALL_au~8_an~11 256
999 COSIND_0.07 256
999 COSGEN_0.07 256
107 ESRank7 256
202 ESForwSacLong+4+13 256
999 WORDS_an~11 258
999 WORDFREQ_76.76 258
999 WORDSALL_un~10_an~11 258
999 COSIND_0.07 258
999 COSGEN_0.07 258
108 ESRank8 258
203 ESBackSacRefixation 258
999 WORDS_an~11 184
999 WORDFREQ_76.76 184
999 WORDSALL_moins~9_an~11 184
999 COSIND_0.07 184
999 COSGEN_0.07 184
109 ESRank9 184
203 ESBackSacRefixation 184
999 WORDS_quartier~14 228
999 WORDFREQ_89.86 228
999 WORDSALL_dans~12_quartier~14 228
999 COSIND_0.47 228
999 COSGEN_0.47 228
110 ESRank10 228
202 ESForwSacLong+3+9 228
999 WORDS_populaire~15 271
999 WORDFREQ_23.45 271
999 WORDSALL_populaire~15 271
999 COSIND_0.10 271
999 COSGEN_0.10 271
111 ESRank11 271
201 ESForwSacShort 271
999 WORDS_ville~18 193
999 WORDFREQ_311.69 193
999 WORDSALL_la~17_ville~18 193
999 COSIND_0.08 193
999 COSGEN_0.08 193
112 ESRank12 193
202 ESForwSacLong+3+7 193
999 WORDS_passe~20 367
999 WORDFREQ_185.61 367
999 WORDSALL_Il~19_passe~20 367
999 COSIND_-0.00 367
999 COSGEN_-0.00 367
113 ESRank13 367
202 ESForwSacLong+2+4 367
999 WORDS_tiers~22 129
999 WORDFREQ_2.43 129
999 WORDSALL_un~21_tiers~22 129
999 COSIND_0.01 129
999 COSGEN_0.01 129
114 ESRank14 129
202 ESForwSacLong+2+4 129
999 WORDS_temps~25 294
999 WORDFREQ_1289.39 294
999 WORDSALL_son~24_temps~25 294
999 COSIND_0.03 294
999 COSGEN_0.03 294
115 ESRank15 294
202 ESForwSacLong+3+8 294
999 WORDS_patrouiller~27 233
999 WORDFREQ_0.41 233
999 WORDSALL_à~26_patrouiller~27 233
999 COSIND_0.24 233
999 COSGEN_0.24 233
116 ESRank16 233
202 ESForwSacLong+2+4 233
200 ESRankN 233
199 ESRankNMinus1 294
198 ESRankNMinus2 129
197 ESRankNMinus3 367
196 ESRankNMinus4 193
195 ESRankNMinus5 271
194 ESRankNMinus6 228
193 ESRankNMinus7 184
192 ESRankNMinus8 258
191 ESRankNMinus9 256
190 ESRankNMinus10 262
