999 WORDS_sonde~1 110
999 WORDFREQ_0.81 110
999 WORDSALL_La~0_sonde~1 110
999 COSIND_0.46 110
999 COSGEN_0.46 110
101 ESRank1 110
999 WORDS_sonde~1 125
999 WORDFREQ_0.81 125
999 WORDSALL_sonde~1 125
999 COSIND_0.46 125
999 COSGEN_0.46 125
102 ESRank2 125
203 ESBackSacRefixation 125
999 WORDS_américaine~2 149
999 WORDFREQ_19.53 149
999 WORDSALL_américaine~2 149
999 COSIND_0.15 149
999 COSGEN_0.15 149
103 ESRank3 149
201 ESForwSacShort 149
999 WORDS_Stardust~3 187
999 WORDFREQ_N/A 187
999 WORDSALL_Stardust~3 187
999 COSIND_N/A 187
104 ESRank4 187
201 ESForwSacShort 187
999 WORDS_sonde~1 241
999 WORDFREQ_0.81 241
999 WORDSALL_La~0_sonde~1 241
999 COSIND_0.46 241
999 COSGEN_0.46 241
105 ESRank5 241
206 ESBackSacRegrLong-2-13 241
999 WORDS_américaine~2 146
999 WORDFREQ_19.53 146
999 WORDSALL_américaine~2 146
999 COSIND_0.15 146
999 COSGEN_0.15 146
106 ESRank6 146
201 ESForwSacShort 146
999 WORDS_Stardust~3 148
999 WORDFREQ_N/A 148
999 WORDSALL_Stardust~3 148
999 COSIND_N/A 148
107 ESRank7 148
201 ESForwSacShort 148
999 WORDS_doit~5 132
999 WORDFREQ_224.59 132
999 WORDSALL_qui~4_doit~5 132
999 COSIND_0.04 132
999 COSGEN_0.04 132
108 ESRank8 132
202 ESForwSacLong+2+5 132
999 WORDS_ramener~6 177
999 WORDFREQ_24.93 177
999 WORDSALL_ramener~6 177
999 COSIND_0.17 177
999 COSGEN_0.17 177
109 ESRank9 177
201 ESForwSacShort 177
999 WORDS_terre~8 175
999 WORDFREQ_420.88 175
999 WORDSALL_sur~7_terre~8 175
999 COSIND_0.30 175
999 COSGEN_0.30 175
110 ESRank10 175
202 ESForwSacLong+2+5 175
999 WORDS_échantillons~10 172
999 WORDFREQ_4.53 172
999 WORDSALL_des~9_échantillons~10 172
999 COSIND_0.04 172
999 COSGEN_0.04 172
111 ESRank11 172
202 ESForwSacLong+2+5 172
999 WORDS_échantillons~10 117
999 WORDFREQ_4.53 117
999 WORDSALL_échantillons~10 117
999 COSIND_0.04 117
999 COSGEN_0.04 117
112 ESRank12 117
203 ESBackSacRefixation 117
999 WORDS_de~11 128
999 WORDFREQ_38928.92 128
999 WORDSALL_de~11 128
999 COSIND_N/A 128
113 ESRank13 128
201 ESForwSacShort 128
999 WORDS_ramener~6 315
999 WORDFREQ_24.93 315
999 WORDSALL_ramener~6 315
999 COSIND_0.17 315
999 COSGEN_0.17 315
114 ESRank14 315
206 ESBackSacRegrLong-5-29 315
999 WORDS_a~15 126
999 WORDFREQ_2926.69 126
999 WORDSALL_Wild-2~14_a~15 126
999 COSIND_N/A 126
115 ESRank15 126
202 ESForwSacLong+9+50 126
999 WORDS_lancée~17 193
999 WORDFREQ_6.76 193
999 WORDSALL_été~16_lancée~17 193
999 COSIND_0.10 193
999 COSGEN_0.10 193
116 ESRank16 193
202 ESForwSacLong+2+7 193
999 WORDS_Cap~19 146
999 WORDFREQ_15.68 146
999 WORDSALL_de~18_Cap~19 146
999 COSIND_0.16 146
999 COSGEN_0.16 146
117 ESRank17 146
202 ESForwSacLong+2+4 146
999 WORDS_Canaveral~20 108
999 WORDFREQ_N/A 108
999 WORDSALL_Cap~19_Canaveral~20 108
999 COSIND_N/A 108
118 ESRank18 108
201 ESForwSacShort 108
999 WORDS_Wild-2~14 173
999 WORDFREQ_N/A 173
999 WORDSALL_Wild-2~14 173
999 COSIND_N/A 173
119 ESRank19 173
206 ESBackSacRegrLong-6-24 173
999 WORDS_Wild-2~14 170
999 WORDFREQ_N/A 170
999 WORDSALL_comète~13_Wild-2~14 170
999 COSIND_N/A 170
120 ESRank20 170
203 ESBackSacRefixation 170
999 WORDS_fusée~25 144
999 WORDFREQ_4.59 144
999 WORDSALL_fusée~25 144
999 COSIND_0.91 144
999 COSGEN_0.91 144
202 ESForwSacLong+11+53 144
999 WORDS_Delta-2~26 146
999 WORDFREQ_N/A 146
999 WORDSALL_Delta-2~26 146
999 COSIND_N/A 146
201 ESForwSacShort 146
200 ESRankN 146
199 ESRankNMinus1 144
198 ESRankNMinus2 170
197 ESRankNMinus3 173
196 ESRankNMinus4 108
195 ESRankNMinus5 146
194 ESRankNMinus6 193
193 ESRankNMinus7 126
192 ESRankNMinus8 315
191 ESRankNMinus9 128
190 ESRankNMinus10 117
