999 WORDS_Quatre~0 145
999 WORDFREQ_282.64 145
999 WORDSALL_Quatre~0 145
999 COSIND_0.01 145
999 COSGEN_0.01 145
101 ESRank1 145
999 WORDS_jours~1 174
999 WORDFREQ_515.41 174
999 WORDSALL_Quatre~0_jours~1 174
999 COSIND_-0.00 174
999 COSGEN_-0.00 174
102 ESRank2 174
201 ESForwSacShort 174
999 WORDS_grains~3 268
999 WORDFREQ_11.69 268
999 WORDSALL_jours~1_grains~3 268
999 COSIND_-0.00 268
999 COSGEN_-0.00 268
103 ESRank3 268
202 ESForwSacLong+2+4 268
999 WORDS_grains~3 85
999 WORDFREQ_11.69 85
999 WORDSALL_jours~1_grains~3 85
999 COSIND_-0.00 85
999 COSGEN_-0.00 85
104 ESRank4 85
203 ESBackSacRefixation 85
999 WORDS_sont~4 175
999 WORDFREQ_386.35 175
999 WORDSALL_grains~3_sont~4 175
999 COSIND_-0.01 175
999 COSGEN_-0.01 175
105 ESRank5 175
201 ESForwSacShort 175
999 WORDS_venus~5 171
999 WORDFREQ_40.41 171
999 WORDSALL_sont~4_venus~5 171
999 COSIND_-0.00 171
999 COSGEN_-0.00 171
106 ESRank6 171
201 ESForwSacShort 171
999 WORDS_clore~6 236
999 WORDFREQ_2.57 236
999 WORDSALL_venus~5_clore~6 236
999 COSIND_-0.02 236
999 COSGEN_-0.02 236
107 ESRank7 236
201 ESForwSacShort 236
999 WORDS_clore~6 169
999 WORDFREQ_2.57 169
999 WORDSALL_venus~5_clore~6 169
999 COSIND_-0.02 169
999 COSGEN_-0.02 169
108 ESRank8 169
203 ESBackSacRefixation 169
999 WORDS_traversée~8 206
999 WORDFREQ_13.58 206
999 WORDSALL_Quatre~0_jours~1_traversée~8 206
999 COSIND_-0.01 206
999 COSGEN_-0.01 206
109 ESRank9 206
202 ESForwSacLong+2+4 206
999 WORDS_Pacifique~10 137
999 WORDFREQ_0.34 137
999 WORDSALL_Pacifique~10 137
999 COSIND_-0.02 137
999 COSGEN_-0.02 137
110 ESRank10 137
202 ESForwSacLong+2+4 137
999 WORDS_Pacifique~10 170
999 WORDFREQ_0.34 170
999 WORDSALL_du~9_Pacifique~10 170
999 COSIND_-0.02 170
999 COSGEN_-0.02 170
111 ESRank11 170
203 ESBackSacRefixation 170
999 WORDS_L'eau~11 133
999 WORDFREQ_417.84 133
999 WORDSALL_L'eau~11 133
999 COSIND_0.02 133
999 COSGEN_0.02 133
112 ESRank12 133
201 ESForwSacShort 133
999 WORDS_a~12 295
999 WORDFREQ_2926.69 295
999 WORDSALL_L'eau~11_a~12 295
999 COSIND_N/A 295
113 ESRank13 295
201 ESForwSacShort 295
999 WORDS_gagné~13 167
999 WORDFREQ_33.51 167
999 WORDSALL_a~12_gagné~13 167
999 COSIND_-0.03 167
999 COSGEN_-0.03 167
114 ESRank14 167
201 ESForwSacShort 167
999 WORDS_gagné~13 81
999 WORDFREQ_33.51 81
999 WORDSALL_a~12_gagné~13 81
999 COSIND_-0.03 81
999 COSGEN_-0.03 81
115 ESRank15 81
203 ESBackSacRefixation 81
999 WORDS_bagarre~15 149
999 WORDFREQ_9.86 149
999 WORDSALL_traversée~8_bagarre~15 149
999 COSIND_-0.01 149
999 COSGEN_-0.01 149
116 ESRank16 149
202 ESForwSacLong+2+4 149
999 WORDS_bagarre~15 133
999 WORDFREQ_9.86 133
999 WORDSALL_traversée~8_bagarre~15 133
999 COSIND_-0.01 133
999 COSGEN_-0.01 133
117 ESRank17 133
203 ESBackSacRefixation 133
999 WORDS_était~18 173
999 WORDFREQ_3688.99 173
999 WORDSALL_du~9_Pacifique~10_était~18 173
999 COSIND_-0.01 173
999 COSGEN_-0.01 173
118 ESRank18 173
202 ESForwSacLong+3+9 173
999 WORDS_était~18 187
999 WORDFREQ_3688.99 187
999 WORDSALL_Pacifique~10_était~18 187
999 COSIND_-0.01 187
999 COSGEN_-0.01 187
119 ESRank19 187
203 ESBackSacRefixation 187
999 WORDS_trempé~19 199
999 WORDFREQ_3.85 199
999 WORDSALL_Pacifique~10_L'eau~11_trempé~19 199
999 COSIND_-0.04 199
999 COSGEN_-0.04 199
120 ESRank20 199
201 ESForwSacShort 199
999 WORDS_bord~21 261
999 WORDFREQ_197.36 261
999 WORDSALL_trempé~19_à~20_bord~21 261
999 COSIND_0.08 261
999 COSGEN_0.08 261
202 ESForwSacLong+2+4 261
999 WORDS_bord~21 256
999 WORDFREQ_197.36 256
999 WORDSALL_à~20_bord~21 256
999 COSIND_0.08 256
999 COSGEN_0.08 256
203 ESBackSacRefixation 256
999 WORDS_moment~26 157
999 WORDFREQ_611.62 157
999 WORDSALL_était~18_trempé~19_moment~26 157
999 COSIND_-0.01 157
999 COSGEN_-0.01 157
202 ESForwSacLong+5+25 157
999 WORDS_attend~24 186
999 WORDFREQ_74.46 186
999 WORDSALL_tout~17_était~18_attend~24 186
999 COSIND_-0.05 186
999 COSGEN_-0.05 186
206 ESBackSacRegrLong-2-4 186
999 WORDS_reposer~31 114
999 WORDFREQ_20.95 114
999 WORDSALL_se~30_reposer~31 114
999 COSIND_0.24 114
999 COSGEN_0.24 114
202 ESForwSacLong+7+32 114
999 WORDS_reposer~31 129
999 WORDFREQ_20.95 129
999 WORDSALL_navigateur~23_attend~24_reposer~31 129
999 COSIND_0.24 129
999 COSGEN_0.24 129
203 ESBackSacRefixation 129
200 ESRankN 129
199 ESRankNMinus1 114
198 ESRankNMinus2 186
197 ESRankNMinus3 157
196 ESRankNMinus4 256
195 ESRankNMinus5 261
194 ESRankNMinus6 199
193 ESRankNMinus7 187
192 ESRankNMinus8 173
191 ESRankNMinus9 133
190 ESRankNMinus10 149
