# 167 Fixation 1 (281.1,289.4): Le~0 revenu~1
# 160 Fixation 2 (405.2,266.8): moyen~2
# 176 Fixation 3 (498.8,268.3): imposable~3
# 199 Fixation 4 (641,276.7): par~4 foyer~5
# 182 Fixation 5 (465.9,386.3): Riches-pauvres~15
# 185 Fixation 6 (561.1,387.3): Riches-pauvres~15
# 99 Fixation 7 (396.1,409.3): l'agglomération~14
# 205 Fixation 8 (310.3,407.8): l'agglomération~14
# 216 Fixation 9 (495.7,400.3): Riches-pauvres~15
# 127 Fixation 10 (603.5,413.4): Riches-pauvres~15
# 246 Fixation 11 (340.3,466.1): n'échappe~17
# 189 Fixation 12 (519.2,457.1): face-à-face~20
# 190 Fixation 13 (698,457.1): C'est~21
# 130 Fixation 14 (370.8,534.2): embrase~24
# 144 Fixation 15 (291.5,543.2): qui~23 embrase~24
# 208 Fixation 16 (576.8,514): des~27 convulsions~28
%%
# Le~0 Fixations= "1/"
# revenu~1 Fixations= "1/"
# moyen~2 Fixations= "2/"
# imposable~3 Fixations= "3/"
# par~4 Fixations= "4/"
# foyer~5 Fixations= "4/"
# fiscal~6 Fixations= ""
# est~7 Fixations= ""
# le~8 Fixations= ""
# plus~9 Fixations= ""
# faible~10 Fixations= ""
# des~11 Fixations= ""
# communes~12 Fixations= ""
# de~13 Fixations= ""
# l'agglomération~14 Fixations= "8/"
# Riches-pauvres~15 Fixations= "10/"
# on~16 Fixations= ""
# n'échappe~17 Fixations= "11/"
# pas~18 Fixations= ""
# au~19 Fixations= ""
# face-à-face~20 Fixations= "12/"
# C'est~21 Fixations= "13/"
# celui~22 Fixations= ""
# qui~23 Fixations= "15/"
# embrase~24 Fixations= "15/"
# la~25 Fixations= ""
# plupart~26 Fixations= ""
# des~27 Fixations= "16/"
# convulsions~28 Fixations= "16/"
# de~29 Fixations= ""
# l'histoire~30 Fixations= ""
%%
#  LE[1] REVENU[1] MOYEN[2] IMPOSABLE[3] PAR[4] FOYER[4] fiscal est le plus faible des communes de L'AGGLOMéRATION[8] RICHES-PAUVRES[10] on N'éCHAPPE[11] pas au FACE-à-FACE[12] C'EST[13] celui QUI[15] EMBRASE[15] la plupart DES[16] CONVULSIONS[16] de l'histoire
# s21 rehabilitation_logement-m1 PercentageOfWordsProcessed= 0.483870967741935 PercentageOfWordsReallyProcessed= 0.517241379310345
