999 WORDS_obtenir~1 151
999 WORDFREQ_37.77 151
999 WORDSALL_Pour~0_obtenir~1 151
999 COSIND_0.07 151
999 COSGEN_0.07 151
101 ESRank1 151
999 WORDS_obtenir~1 197
999 WORDFREQ_37.77 197
999 WORDSALL_Pour~0_obtenir~1 197
999 COSIND_0.07 197
999 COSGEN_0.07 197
102 ESRank2 197
203 ESBackSacRefixation 197
999 WORDS_belles~3 241
999 WORDFREQ_62.57 241
999 WORDSALL_obtenir~1_belles~3 241
999 COSIND_0.28 241
999 COSGEN_0.28 241
103 ESRank3 241
202 ESForwSacLong+2+4 241
999 WORDS_roses~4 227
999 WORDFREQ_26.96 227
999 WORDSALL_belles~3_roses~4 227
999 COSIND_0.69 227
999 COSGEN_0.69 227
104 ESRank4 227
201 ESForwSacShort 227
999 WORDS_jardinier~6 302
999 WORDFREQ_6.22 302
999 WORDSALL_le~5_jardinier~6 302
999 COSIND_0.77 302
999 COSGEN_0.77 302
105 ESRank5 302
202 ESForwSacLong+2+4 302
999 WORDS_plante~7 203
999 WORDFREQ_5 203
999 WORDSALL_plante~7 203
999 COSIND_0.78 203
999 COSGEN_0.78 203
106 ESRank6 203
201 ESForwSacShort 203
999 WORDS_plante~7 247
999 WORDFREQ_5 247
999 WORDSALL_plante~7 247
999 COSIND_0.78 247
999 COSGEN_0.78 247
107 ESRank7 247
203 ESBackSacRefixation 247
999 WORDS_rosiers~9 263
999 WORDFREQ_4.19 263
999 WORDSALL_les~8_rosiers~9 263
999 COSIND_0.80 263
999 COSGEN_0.80 263
108 ESRank8 263
202 ESForwSacLong+2+5 263
999 WORDS_rosiers~9 311
999 WORDFREQ_4.19 311
999 WORDSALL_les~8_rosiers~9 311
999 COSIND_0.80 311
999 COSGEN_0.80 311
109 ESRank9 311
203 ESBackSacRefixation 311
999 WORDS_dès~10 169
999 WORDFREQ_275.07 169
999 WORDSALL_dès~10 169
999 COSIND_0.07 169
999 COSGEN_0.07 169
110 ESRank10 169
201 ESForwSacShort 169
999 WORDS_l'automne~11 276
999 WORDFREQ_42.97 276
999 WORDSALL_dès~10_l'automne~11 276
999 COSIND_0.33 276
999 COSGEN_0.33 276
111 ESRank11 276
201 ESForwSacShort 276
999 WORDS_façon~13 456
999 WORDFREQ_259.26 456
999 WORDSALL_de~12_façon~13 456
999 COSIND_0.18 456
999 COSGEN_0.18 456
112 ESRank12 456
202 ESForwSacLong+2+4 456
200 ESRankN 456
199 ESRankNMinus1 276
198 ESRankNMinus2 169
197 ESRankNMinus3 311
196 ESRankNMinus4 263
195 ESRankNMinus5 247
194 ESRankNMinus6 203
193 ESRankNMinus7 302
192 ESRankNMinus8 227
191 ESRankNMinus9 241
190 ESRankNMinus10 197
