# 156 Fixation 1 (274,278.8): L'indice~0
# 156 Fixation 2 (251,215.8): L'indice~0
# 366 Fixation 3 (374.1,232.8): L'indice~0 vedette~1
# 248 Fixation 4 (543.1,200.8):
# 409 Fixation 5 (350.9,272): L'indice~0 vedette~1
# 187 Fixation 6 (556.5,199.8):
# 208 Fixation 7 (705.9,171.1):
# 194 Fixation 8 (303.6,334.9): clôturé~8
# 394 Fixation 9 (272.2,345.6): clôturé~8
# 257 Fixation 10 (362.9,346.9): clôturé~8 mardi~9
# 203 Fixation 11 (282,262.6): L'indice~0
# 137 Fixation 12 (248.4,257.5): L'indice~0
# 293 Fixation 13 (353,294.9): L'indice~0 vedette~1
# 297 Fixation 14 (471.5,348.1): en~10 hausse~11
# 156 Fixation 15 (602.3,268.6): Bourse~4
# 156 Fixation 16 (652.1,257): Bourse~4 Londres~6
# 204 Fixation 17 (305,391.4): encouragé~14
%%
# L'indice~0 Fixations= "13/"
# vedette~1 Fixations= "13/"
# de~2 Fixations= ""
# la~3 Fixations= ""
# Bourse~4 Fixations= "16/"
# de~5 Fixations= ""
# Londres~6 Fixations= "16/"
# a~7 Fixations= ""
# clôturé~8 Fixations= "10/"
# mardi~9 Fixations= "10/"
# en~10 Fixations= "14/"
# hausse~11 Fixations= "14/"
# Il~12 Fixations= ""
# était~13 Fixations= ""
# encouragé~14 Fixations= "17/"
# par~15 Fixations= ""
# les~16 Fixations= ""
# diverses~17 Fixations= ""
# annonces~18 Fixations= ""
# de~19 Fixations= ""
# sociétés~20 Fixations= ""
# et~21 Fixations= ""
# nourri~22 Fixations= ""
# par~23 Fixations= ""
# les~24 Fixations= ""
# spéculations~25 Fixations= ""
# de~26 Fixations= ""
# rapprochements~27 Fixations= ""
# industriels~28 Fixations= ""
%%
#  L'INDICE[13] VEDETTE[13] de la BOURSE[16] de LONDRES[16] a CLôTURé[10] MARDI[10] EN[14] HAUSSE[14] Il était ENCOURAGé[17] par les diverses annonces de sociétés et nourri par les spéculations de rapprochements industriels
# s20 hausse_bourse-f2 PercentageOfWordsProcessed= 0.310344827586207 PercentageOfWordsReallyProcessed= 0.6
