# 168 Fixation 1 (274,277.6): La~0 bourse~1
# 195 Fixation 2 (301,272.3): La~0 bourse~1
# 264 Fixation 3 (406.3,271.7): de~2 Tokyo~3
# 96 Fixation 4 (431,271.7): de~2 Tokyo~3
# 308 Fixation 5 (531.5,275.6): a~4 clôturé~5
# 401 Fixation 6 (657.1,277.5): la~6 séance~7
# 91 Fixation 7 (723.7,280.1): séance~7
# 250 Fixation 8 (290.7,334.2): mardi~9
# 313 Fixation 9 (380.3,340.4): en~10 légère~11
# 258 Fixation 10 (481.4,345.3): hausse~12
# 264 Fixation 11 (595,347.4): soutenue~13
%%
# La~0 Fixations= "2/"
# bourse~1 Fixations= "2/"
# de~2 Fixations= "4/"
# Tokyo~3 Fixations= "4/"
# a~4 Fixations= "5/"
# clôturé~5 Fixations= "5/"
# la~6 Fixations= "6/"
# séance~7 Fixations= "7/"
# de~8 Fixations= ""
# mardi~9 Fixations= "8/"
# en~10 Fixations= "9/"
# légère~11 Fixations= "9/"
# hausse~12 Fixations= "10/"
# soutenue~13 Fixations= "11/"
# par~14 Fixations= ""
# les~15 Fixations= ""
# achats~16 Fixations= ""
# des~17 Fixations= ""
# investisseurs~18 Fixations= ""
# étrangers~19 Fixations= ""
# L'indice~20 Fixations= ""
# Nikkei~21 Fixations= ""
# affichait~22 Fixations= ""
# un~23 Fixations= ""
# gain~24 Fixations= ""
# important~25 Fixations= ""
# à~26 Fixations= ""
# la~27 Fixations= ""
# clôture~28 Fixations= ""
%%
#  LA[2] BOURSE[2] DE[4] TOKYO[4] A[5] CLôTURé[5] LA[6] SéANCE[7] de MARDI[8] EN[9] LéGèRE[9] HAUSSE[10] SOUTENUE[11] par les achats des investisseurs étrangers L'indice Nikkei affichait un gain important à la clôture
# s13 hausse_bourse-f1 PercentageOfWordsProcessed= 0.448275862068966 PercentageOfWordsReallyProcessed= 0.928571428571429
