999 WORDS_L'allocation~0 145
999 WORDFREQ_0.41 145
999 WORDSALL_L'allocation~0 145
999 COSIND_1.00 145
999 COSGEN_1.00 145
101 ESRank1 145
999 WORDS_L'allocation~0 92
999 WORDFREQ_0.41 92
999 WORDSALL_L'allocation~0 92
999 COSIND_1.00 92
999 COSGEN_1.00 92
102 ESRank2 92
203 ESBackSacRefixation 92
999 WORDS_rentrée~2 168
999 WORDFREQ_14.19 168
999 WORDSALL_de~1_rentrée~2 168
999 COSIND_0.08 168
999 COSGEN_0.08 168
103 ESRank3 168
202 ESForwSacLong+2+4 168
999 WORDS_rentrée~2 113
999 WORDFREQ_14.19 113
999 WORDSALL_rentrée~2 113
999 COSIND_0.08 113
999 COSGEN_0.08 113
104 ESRank4 113
203 ESBackSacRefixation 113
999 WORDS_scolaire~3 154
999 WORDFREQ_9.66 154
999 WORDSALL_scolaire~3 154
999 COSIND_0.01 154
999 COSGEN_0.01 154
105 ESRank5 154
201 ESForwSacShort 154
999 WORDS_concerne~4 218
999 WORDFREQ_26.42 218
999 WORDSALL_scolaire~3_concerne~4 218
999 COSIND_0.08 218
999 COSGEN_0.08 218
106 ESRank6 218
201 ESForwSacShort 218
999 WORDS_350~5 161
999 WORDFREQ_N/A 161
999 WORDSALL_350~5 161
999 COSIND_N/A 161
107 ESRank7 161
201 ESForwSacShort 161
999 WORDS_350~5 271
999 WORDFREQ_N/A 271
999 WORDSALL_350~5 271
999 COSIND_N/A 271
108 ESRank8 271
203 ESBackSacRefixation 271
999 WORDS_familles~7 174
999 WORDFREQ_32.7 174
999 WORDSALL_000~6_familles~7 174
999 COSIND_0.38 174
999 COSGEN_0.38 174
109 ESRank9 174
202 ESForwSacLong+2+5 174
999 WORDS_prestation~14 146
999 WORDFREQ_1.28 146
999 WORDSALL_Cette~13_prestation~14 146
999 COSIND_0.62 146
999 COSGEN_0.62 146
110 ESRank10 146
202 ESForwSacLong+7+43 146
200 ESRankN 146
199 ESRankNMinus1 174
198 ESRankNMinus2 271
197 ESRankNMinus3 161
196 ESRankNMinus4 218
195 ESRankNMinus5 154
194 ESRankNMinus6 113
193 ESRankNMinus7 168
192 ESRankNMinus8 92
191 ESRankNMinus9 145
