# 227 Fixation 1 (364.2,257.6): faut~1 distinguer~2
# 209 Fixation 2 (454.1,291.3): distinguer~2
# 310 Fixation 3 (632.1,296.9): et~4 civilisation~5 croyances~11
# 140 Fixation 4 (505.7,336.8): culture~3 l'ensemble~9
# 124 Fixation 5 (356.9,362.3): culture~7
# 243 Fixation 6 (275.4,361.5): La~6 culture~7
# 119 Fixation 7 (369.5,388.3): culture~7 valeurs~13
# 283 Fixation 8 (323,457.6): des~12 valeurs~13 particulière~18
# 150 Fixation 9 (479.5,461.5): propres~14 à~15 civilisation~20
# 116 Fixation 10 (570.1,461.1): à~15 communauté~17 civilisation~20
# 196 Fixation 11 (702.1,451.7): communauté~17
# 137 Fixation 12 (352.4,532.6): particulière~18 transmis~25
# 153 Fixation 13 (287.4,539.2): particulière~18 transmis~25
# 167 Fixation 14 (526.7,523): civilisation~20 communauté~27
# 196 Fixation 15 (663.4,535.7): c'est~21 à~28
# 137 Fixation 16 (637.4,281.2): et~4 civilisation~5
%%
# Il~0 Fixations= ""
# faut~1 Fixations= "1/"
# distinguer~2 Fixations= "2/"
# culture~3 Fixations= "4/"
# et~4 Fixations= "16/"
# civilisation~5 Fixations= "16/"
# La~6 Fixations= "6/"
# culture~7 Fixations= "7/"
# est~8 Fixations= ""
# l'ensemble~9 Fixations= "4/"
# des~10 Fixations= ""
# croyances~11 Fixations= "3/"
# des~12 Fixations= "8/"
# valeurs~13 Fixations= "8/"
# propres~14 Fixations= "9/"
# à~15 Fixations= "10/"
# une~16 Fixations= ""
# communauté~17 Fixations= "11/"
# particulière~18 Fixations= "13/"
# La~19 Fixations= ""
# civilisation~20 Fixations= "14/"
# c'est~21 Fixations= "15/"
# ce~22 Fixations= ""
# qui~23 Fixations= ""
# est~24 Fixations= ""
# transmis~25 Fixations= "13/"
# d'une~26 Fixations= ""
# communauté~27 Fixations= "14/"
# à~28 Fixations= "15/"
# une~29 Fixations= ""
# autre~30 Fixations= ""
%%
#  Il FAUT[1] DISTINGUER[2] CULTURE[4] ET[16] CIVILISATION[16] LA[6] CULTURE[7] est L'ENSEMBLE[4] des CROYANCES[3] DES[8] VALEURS[8] PROPRES[9] à[10] une COMMUNAUTé[11] PARTICULIèRE[13] La CIVILISATION[14] C'EST[15] ce qui est TRANSMIS[13] d'une COMMUNAUTé[14] à[15] une autre
# s21 hausse_bourse-a1 PercentageOfWordsProcessed= 0.645161290322581 PercentageOfWordsReallyProcessed= 0.689655172413793
