# 200 Fixation 1 (278.4,293.1): Le~0 football~1
# 156 Fixation 2 (413.3,289.9): football~1 deux~8 équipes~9
# 167 Fixation 3 (533.4,294.1): un~3 sport~4
# 98 Fixation 4 (599.4,307.8): collectif~5
# 260 Fixation 5 (467.2,330.9): est~2 sport~4 équipes~9
# 163 Fixation 6 (632.8,348.3): collectif~5 onze~11 joueurs~12
# 144 Fixation 7 (515.5,386.8): équipes~9 onze~11
# 166 Fixation 8 (670.8,399.7): joueurs~12
# 165 Fixation 9 (692.5,495.4): Le~29 football~30
# 119 Fixation 10 (693,516.1): Le~29 football~30 médiatisé~38
%%
# Le~0 Fixations= "1/"
# football~1 Fixations= "2/"
# est~2 Fixations= "5/"
# un~3 Fixations= "3/"
# sport~4 Fixations= "5/"
# collectif~5 Fixations= "6/"
# qui~6 Fixations= ""
# oppose~7 Fixations= ""
# deux~8 Fixations= "2/"
# équipes~9 Fixations= "7/"
# de~10 Fixations= ""
# onze~11 Fixations= "7/"
# joueurs~12 Fixations= "8/"
# dans~13 Fixations= ""
# un~14 Fixations= ""
# stade~15 Fixations= ""
# dont~16 Fixations= ""
# le~17 Fixations= ""
# but~18 Fixations= ""
# est~19 Fixations= ""
# de~20 Fixations= ""
# mettre~21 Fixations= ""
# un~22 Fixations= ""
# ballon~23 Fixations= ""
# sphérique~24 Fixations= ""
# dans~25 Fixations= ""
# le~26 Fixations= ""
# but~27 Fixations= ""
# adverse~28 Fixations= ""
# Le~29 Fixations= "10/"
# football~30 Fixations= "10/"
# est~31 Fixations= ""
# sans~32 Fixations= ""
# doute~33 Fixations= ""
# le~34 Fixations= ""
# sport~35 Fixations= ""
# le~36 Fixations= ""
# plus~37 Fixations= ""
# médiatisé~38 Fixations= "10/"
# dans~39 Fixations= ""
# le~40 Fixations= ""
# monde~41 Fixations= ""
%%
#  LE[1] FOOTBALL[2] EST[5] UN[3] SPORT[5] COLLECTIF[6] qui oppose DEUX[2] éQUIPES[7] de ONZE[7] JOUEURS[8] dans un stade dont le but est de mettre un ballon sphérique dans le but adverse LE[10] FOOTBALL[10] est sans doute le sport le plus MéDIATISé[10] dans le monde
# s21 faiblesse_dollar-a1 PercentageOfWordsProcessed= 0.30952380952381 PercentageOfWordsReallyProcessed= 0.333333333333333
