# 180 Fixation 1 (263.9,261): Les~0 laboratoires~1
# 122 Fixation 2 (336,271.6): Les~0 laboratoires~1
# 206 Fixation 3 (452.5,274.3): laboratoires~1 ont~2
# 183 Fixation 4 (530.1,281.3): ont~2
# 248 Fixation 5 (644,286.1): réalisé~4
# 225 Fixation 6 (311.4,359.4): premier~6
# 206 Fixation 7 (384.1,354.6): coup~7
# 181 Fixation 8 (551.8,344.1): ont~2 réalisé~4 existence~10
# 137 Fixation 9 (620.6,348.4): ainsi~3 réalisé~4 existence~10
# 186 Fixation 10 (350.2,431.6): menacée~13
# 231 Fixation 11 (456.3,419.5): médicaments~15
# 250 Fixation 12 (634.3,408.5): existence~10 nouveaux~16
# 106 Fixation 13 (720.6,409.8): même~11 était~12 n'étaient~17
# 222 Fixation 14 (352.6,472.4): menacée~13 nombreux~20
# 90 Fixation 15 (320.5,472.6): menacée~13 plus~18
# 123 Fixation 16 (453.5,474.5): Les~14 médicaments~15 nombreux~20
# 197 Fixation 17 (627.9,486.7): compenser~22
%%
# Les~0 Fixations= "2/"
# laboratoires~1 Fixations= "3/"
# ont~2 Fixations= "8/"
# ainsi~3 Fixations= "9/"
# réalisé~4 Fixations= "9/"
# qu'au~5 Fixations= ""
# premier~6 Fixations= "6/"
# coup~7 Fixations= "7/"
# dur~8 Fixations= ""
# leur~9 Fixations= ""
# existence~10 Fixations= "12/"
# même~11 Fixations= "13/"
# était~12 Fixations= "13/"
# menacée~13 Fixations= "15/"
# Les~14 Fixations= "16/"
# médicaments~15 Fixations= "16/"
# nouveaux~16 Fixations= "12/"
# n'étaient~17 Fixations= "13/"
# plus~18 Fixations= "15/"
# assez~19 Fixations= ""
# nombreux~20 Fixations= "16/"
# pour~21 Fixations= ""
# compenser~22 Fixations= "17/"
# la~23 Fixations= ""
# chute~24 Fixations= ""
# de~25 Fixations= ""
# leurs~26 Fixations= ""
# brevets~27 Fixations= ""
# dans~28 Fixations= ""
# le~29 Fixations= ""
# domaine~30 Fixations= ""
# public~31 Fixations= ""
%%
#  LES[2] LABORATOIRES[3] ONT[8] AINSI[9] RéALISé[9] qu'au PREMIER[6] COUP[7] dur leur EXISTENCE[12] MêME[13] éTAIT[13] MENACéE[15] LES[16] MéDICAMENTS[16] NOUVEAUX[12] N'éTAIENT[13] PLUS[15] assez NOMBREUX[16] pour COMPENSER[17] la chute de leurs brevets dans le domaine public
# s01 conflit_israelo_palestinien-a2 PercentageOfWordsProcessed= 0.5625 PercentageOfWordsReallyProcessed= 0.782608695652174
