# 102 Fixation 1 (283.8,288.9): L'idée~0
# 123 Fixation 2 (373.7,294.2): est~1 pousser~3
# 186 Fixation 3 (448,295.7): de~2 pousser~3
# 139 Fixation 4 (578.2,300.2): les~4 compagnies~5
# 99 Fixation 5 (636.6,295): compagnies~5
# 191 Fixation 6 (279.6,343.4): pétrolières~6
# 154 Fixation 7 (335,349.3): pétrolières~6
# 152 Fixation 8 (436.2,351.9): à~7 réorienter~8
# 124 Fixation 9 (513.2,354.8): réorienter~8
# 158 Fixation 10 (574.1,356.3): réorienter~8
# 284 Fixation 11 (301.7,396.3): investissements~10
# 86 Fixation 12 (467.7,406.3): vers~11 zone~13
# 129 Fixation 13 (547.7,410.3): vers~11 zone~13
# 89 Fixation 14 (583.2,415): la~12 zone~13
%%
# L'idée~0 Fixations= "1/"
# est~1 Fixations= "2/"
# de~2 Fixations= "3/"
# pousser~3 Fixations= "3/"
# les~4 Fixations= "4/"
# compagnies~5 Fixations= "5/"
# pétrolières~6 Fixations= "7/"
# à~7 Fixations= "8/"
# réorienter~8 Fixations= "10/"
# leurs~9 Fixations= ""
# investissements~10 Fixations= "11/"
# vers~11 Fixations= "13/"
# la~12 Fixations= "14/"
# zone~13 Fixations= "14/"
# la~14 Fixations= ""
# moins~15 Fixations= ""
# chère~16 Fixations= ""
# de~17 Fixations= ""
# production~18 Fixations= ""
# Dans~19 Fixations= ""
# cette~20 Fixations= ""
# région~21 Fixations= ""
# le~22 Fixations= ""
# coût~23 Fixations= ""
# d'exploitation~24 Fixations= ""
# des~25 Fixations= ""
# gisements~26 Fixations= ""
# est~27 Fixations= ""
# très~28 Fixations= ""
# oscillant~29 Fixations= ""
%%
#  L'IDéE[1] EST[2] DE[3] POUSSER[3] LES[4] COMPAGNIES[5] PéTROLIèRES[7] à[8] RéORIENTER[10] leurs INVESTISSEMENTS[11] VERS[13] LA[14] ZONE[14] la moins chère de production Dans cette région le coût d'exploitation des gisements est très oscillant
# s02 prix_petrole-m1 PercentageOfWordsProcessed= 0.433333333333333 PercentageOfWordsReallyProcessed= 0.928571428571429
