999 WORDS_Odense~1 130
999 WORDFREQ_N/A 130
999 WORDSALL_A~0_Odense~1 130
999 COSIND_N/A 130
101 ESRank1 130
999 WORDS_Danemark~3 234
999 WORDFREQ_N/A 234
999 WORDSALL_au~2_Danemark~3 234
999 COSIND_N/A 234
102 ESRank2 234
202 ESForwSacLong+2+4 234
999 WORDS_policier~5 156
999 WORDFREQ_10 156
999 WORDSALL_chaque~4_policier~5 156
999 COSIND_0.48 156
999 COSGEN_0.48 156
103 ESRank3 156
202 ESForwSacLong+2+8 156
999 WORDS_doit~6 109
999 WORDFREQ_224.59 109
999 WORDSALL_policier~5_doit~6 109
999 COSIND_0.01 109
999 COSGEN_0.01 109
104 ESRank4 109
201 ESForwSacShort 109
999 WORDS_rester~7 211
999 WORDFREQ_123.78 211
999 WORDSALL_rester~7 211
999 COSIND_-0.03 211
999 COSGEN_-0.03 211
105 ESRank5 211
201 ESForwSacShort 211
999 WORDS_rester~7 150
999 WORDFREQ_123.78 150
999 WORDSALL_rester~7 150
999 COSIND_-0.03 150
999 COSGEN_-0.03 150
106 ESRank6 150
203 ESBackSacRefixation 150
999 WORDS_an~11 128
999 WORDFREQ_76.76 128
999 WORDSALL_un~10_an~11 128
999 COSIND_0.07 128
999 COSGEN_0.07 128
107 ESRank7 128
202 ESForwSacLong+4+13 128
999 WORDS_quartier~14 168
999 WORDFREQ_89.86 168
999 WORDSALL_dans~12_quartier~14 168
999 COSIND_0.47 168
999 COSGEN_0.47 168
108 ESRank8 168
202 ESForwSacLong+3+9 168
999 WORDS_populaire~15 479
999 WORDFREQ_23.45 479
999 WORDSALL_populaire~15 479
999 COSIND_0.10 479
999 COSGEN_0.10 479
109 ESRank9 479
201 ESForwSacShort 479
999 WORDS_ville~18 112
999 WORDFREQ_311.69 112
999 WORDSALL_de~16_ville~18 112
999 COSIND_0.08 112
999 COSGEN_0.08 112
110 ESRank10 112
202 ESForwSacLong+3+7 112
999 WORDS_passe~20 216
999 WORDFREQ_185.61 216
999 WORDSALL_Il~19_passe~20 216
999 COSIND_-0.00 216
999 COSGEN_-0.00 216
111 ESRank11 216
202 ESForwSacLong+2+4 216
999 WORDS_tiers~22 119
999 WORDFREQ_2.43 119
999 WORDSALL_un~21_tiers~22 119
999 COSIND_0.01 119
999 COSGEN_0.01 119
112 ESRank12 119
202 ESForwSacLong+2+4 119
999 WORDS_à~26 262
999 WORDFREQ_19209.05 262
999 WORDSALL_temps~25_à~26 262
999 COSIND_N/A 262
113 ESRank13 262
202 ESForwSacLong+4+14 262
999 WORDS_patrouiller~27 195
999 WORDFREQ_0.41 195
999 WORDSALL_à~26_patrouiller~27 195
999 COSIND_0.24 195
999 COSGEN_0.24 195
114 ESRank14 195
201 ESForwSacShort 195
999 WORDS_à~28 155
999 WORDFREQ_19209.05 155
999 WORDSALL_patrouiller~27_à~28 155
999 COSIND_N/A 155
115 ESRank15 155
201 ESForwSacShort 155
200 ESRankN 155
199 ESRankNMinus1 195
198 ESRankNMinus2 262
197 ESRankNMinus3 119
196 ESRankNMinus4 216
195 ESRankNMinus5 112
194 ESRankNMinus6 479
193 ESRankNMinus7 168
192 ESRankNMinus8 128
191 ESRankNMinus9 150
190 ESRankNMinus10 211
