999 WORDS_limogeage~2 127
999 WORDFREQ_0.07 127
999 WORDSALL_Depuis~0_limogeage~2 127
999 COSIND_0.22 127
999 COSGEN_0.22 127
101 ESRank1 127
999 WORDS_limogeage~2 158
999 WORDFREQ_0.07 158
999 WORDSALL_le~1_limogeage~2 158
999 COSIND_0.22 158
999 COSGEN_0.22 158
102 ESRank2 158
203 ESBackSacRefixation 158
999 WORDS_surprise~3 186
999 WORDFREQ_6.89 186
999 WORDSALL_surprise~3 186
999 COSIND_0.10 186
999 COSGEN_0.10 186
103 ESRank3 186
201 ESForwSacShort 186
999 WORDS_précédent~5 165
999 WORDFREQ_6.15 165
999 WORDSALL_du~4_précédent~5 165
999 COSIND_-0.00 165
999 COSGEN_-0.00 165
104 ESRank4 165
202 ESForwSacLong+2+4 165
999 WORDS_chef~6 208
999 WORDFREQ_172.57 208
999 WORDSALL_chef~6 208
999 COSIND_1.00 208
999 COSGEN_1.00 208
105 ESRank5 208
201 ESForwSacShort 208
999 WORDS_gouvernement~8 134
999 WORDFREQ_119.73 134
999 WORDSALL_du~7_gouvernement~8 134
999 COSIND_0.05 134
999 COSGEN_0.05 134
106 ESRank6 134
202 ESForwSacLong+2+4 134
999 WORDS_russe~9 184
999 WORDFREQ_35.34 184
999 WORDSALL_russe~9 184
999 COSIND_0.01 184
999 COSGEN_0.01 184
107 ESRank7 184
201 ESForwSacShort 184
999 WORDS_après~10 165
999 WORDFREQ_821.55 165
999 WORDSALL_après~10 165
999 COSIND_0.02 165
999 COSGEN_0.02 165
108 ESRank8 165
201 ESForwSacShort 165
999 WORDS_cinq~11 173
999 WORDFREQ_220.61 173
999 WORDSALL_après~10_cinq~11 173
999 COSIND_0.01 173
999 COSGEN_0.01 173
109 ESRank9 173
201 ESForwSacShort 173
999 WORDS_ans~12 106
999 WORDFREQ_609.05 106
999 WORDSALL_cinq~11_ans~12 106
999 COSIND_-0.01 106
999 COSGEN_-0.01 106
110 ESRank10 106
201 ESForwSacShort 106
999 WORDS_stabilité~14 181
999 WORDFREQ_3.18 181
999 WORDSALL_stabilité~14 181
999 COSIND_0.00 181
999 COSGEN_0.00 181
111 ESRank11 181
202 ESForwSacLong+2+4 181
999 WORDS_président~16 202
999 WORDFREQ_76.22 202
999 WORDSALL_le~15_président~16 202
999 COSIND_-0.00 202
999 COSGEN_-0.00 202
112 ESRank12 202
202 ESForwSacLong+2+4 202
999 WORDS_tente~17 212
999 WORDFREQ_13.04 212
999 WORDSALL_tente~17 212
999 COSIND_0.01 212
999 COSGEN_0.01 212
113 ESRank13 212
201 ESForwSacShort 212
999 WORDS_stabilité~14 130
999 WORDFREQ_3.18 130
999 WORDSALL_stabilité~14 130
999 COSIND_0.00 130
999 COSGEN_0.00 130
114 ESRank14 130
206 ESBackSacRegrLong-3-15 130
999 WORDS_stabilité~14 147
999 WORDFREQ_3.18 147
999 WORDSALL_stabilité~14 147
999 COSIND_0.00 147
999 COSGEN_0.00 147
115 ESRank15 147
203 ESBackSacRefixation 147
999 WORDS_stabilité~14 157
999 WORDFREQ_3.18 157
999 WORDSALL_stabilité~14 157
999 COSIND_0.00 157
999 COSGEN_0.00 157
116 ESRank16 157
203 ESBackSacRefixation 157
999 WORDS_succession~23 217
999 WORDFREQ_11.01 217
999 WORDSALL_sa~22_succession~23 217
999 COSIND_-0.03 217
999 COSGEN_-0.03 217
117 ESRank17 217
202 ESForwSacLong+9+51 217
999 WORDS_succession~23 138
999 WORDFREQ_11.01 138
999 WORDSALL_succession~23 138
999 COSIND_-0.03 138
999 COSGEN_-0.03 138
118 ESRank18 138
203 ESBackSacRefixation 138
999 WORDS_maîtriser~21 116
999 WORDFREQ_8.24 116
999 WORDSALL_de~20_maîtriser~21 116
999 COSIND_0.10 116
999 COSGEN_0.10 116
119 ESRank19 116
206 ESBackSacRegrLong-2-4 116
999 WORDS_succès~19 189
999 WORDFREQ_53.72 189
999 WORDSALL_succès~19 189
999 COSIND_-0.04 189
999 COSGEN_-0.04 189
120 ESRank20 189
206 ESBackSacRegrLong-2-4 189
200 ESRankN 189
199 ESRankNMinus1 116
198 ESRankNMinus2 138
197 ESRankNMinus3 217
196 ESRankNMinus4 157
195 ESRankNMinus5 147
194 ESRankNMinus6 130
193 ESRankNMinus7 212
192 ESRankNMinus8 202
191 ESRankNMinus9 181
190 ESRankNMinus10 106
