999 WORDS_L'équipe~0 153
999 WORDFREQ_26.28 153
999 WORDSALL_L'équipe~0 153
999 COSIND_0.18 153
999 COSGEN_0.18 153
101 ESRank1 153
999 WORDS_France~2 175
999 WORDFREQ_N/A 175
999 WORDSALL_de~1_France~2 175
999 COSIND_N/A 175
102 ESRank2 175
202 ESForwSacLong+2+4 175
999 WORDS_football~4 175
999 WORDFREQ_6.28 175
999 WORDSALL_de~3_football~4 175
999 COSIND_0.09 175
999 COSGEN_0.09 175
103 ESRank3 175
202 ESForwSacLong+2+4 175
999 WORDS_a~5 168
999 WORDFREQ_2926.69 168
999 WORDSALL_football~4_a~5 168
999 COSIND_N/A 168
104 ESRank4 168
201 ESForwSacShort 168
999 WORDS_l'Australie~7 162
999 WORDFREQ_N/A 162
999 WORDSALL_l'Australie~7 162
999 COSIND_N/A 162
105 ESRank5 162
202 ESForwSacLong+2+8 162
999 WORDS_l'Australie~7 153
999 WORDFREQ_N/A 153
999 WORDSALL_l'Australie~7 153
999 COSIND_N/A 153
106 ESRank6 153
203 ESBackSacRefixation 153
200 ESRankN 153
199 ESRankNMinus1 162
198 ESRankNMinus2 168
197 ESRankNMinus3 175
196 ESRankNMinus4 175
195 ESRankNMinus5 153
