999 WORDS_profiter~2 231
999 WORDFREQ_25.14 231
999 WORDSALL_faut~1_profiter~2 231
999 COSIND_-0.02 231
999 COSGEN_-0.02 231
101 ESRank1 231
999 WORDS_crise~5 272
999 WORDFREQ_37.97 272
999 WORDSALL_de~3_crise~5 272
999 COSIND_-0.07 272
999 COSGEN_-0.07 272
102 ESRank2 272
202 ESForwSacLong+3+7 272
999 WORDS_générale~6 244
999 WORDFREQ_34.73 244
999 WORDSALL_crise~5_générale~6 244
999 COSIND_0.02 244
999 COSGEN_0.02 244
103 ESRank3 244
201 ESForwSacShort 244
999 WORDS_gouvernement~10 212
999 WORDFREQ_119.73 212
999 WORDSALL_profiter~2_crise~5_gouvernement~10 212
999 COSIND_-0.01 212
999 COSGEN_-0.01 212
104 ESRank4 212
202 ESForwSacLong+4+17 212
999 WORDS_traverse~8 192
999 WORDFREQ_25.27 192
999 WORDSALL_Il~0_faut~1_traverse~8 192
999 COSIND_0.16 192
999 COSGEN_0.16 192
105 ESRank5 192
206 ESBackSacRegrLong-2-4 192
999 WORDS_gouvernement~10 287
999 WORDFREQ_119.73 287
999 WORDSALL_profiter~2_gouvernement~10 287
999 COSIND_-0.01 287
999 COSGEN_-0.01 287
106 ESRank6 287
202 ESForwSacLong+2+4 287
999 WORDS_générale~6 159
999 WORDFREQ_34.73 159
999 WORDSALL_crise~5_générale~6 159
999 COSIND_0.02 159
999 COSGEN_0.02 159
107 ESRank7 159
206 ESBackSacRegrLong-4-17 159
999 WORDS_fatigue~14 138
999 WORDFREQ_65.81 138
999 WORDSALL_générale~6_fatigue~14 138
999 COSIND_-0.07 138
999 COSGEN_-0.07 138
108 ESRank8 138
202 ESForwSacLong+8+39 138
999 WORDS_certaines~16 188
999 WORDFREQ_51.55 188
999 WORDSALL_traverse~8_certaines~16 188
999 COSIND_0.02 188
999 COSGEN_0.02 188
109 ESRank9 188
202 ESForwSacLong+2+4 188
999 WORDS_certaines~16 87
999 WORDFREQ_51.55 87
999 WORDSALL_traverse~8_certaines~16 87
999 COSIND_0.02 87
999 COSGEN_0.02 87
110 ESRank10 87
203 ESBackSacRefixation 87
999 WORDS_unités~17 179
999 WORDFREQ_15.34 179
999 WORDSALL_gouvernement~10_unités~17 179
999 COSIND_0.04 179
999 COSGEN_0.04 179
111 ESRank11 179
201 ESForwSacShort 179
999 WORDS_militaires~18 150
999 WORDFREQ_27.03 150
999 WORDSALL_gouvernement~10_militaires~18 150
999 COSIND_-0.05 150
999 COSGEN_-0.05 150
112 ESRank12 150
201 ESForwSacShort 150
999 WORDS_certaines~16 296
999 WORDFREQ_51.55 296
999 WORDSALL_de~15_certaines~16 296
999 COSIND_0.02 296
999 COSGEN_0.02 296
113 ESRank13 296
206 ESBackSacRegrLong-2-9 296
999 WORDS_unités~17 198
999 WORDFREQ_15.34 198
999 WORDSALL_le~9_gouvernement~10_unités~17 198
999 COSIND_0.04 198
999 COSGEN_0.04 198
114 ESRank14 198
201 ESForwSacShort 198
999 WORDS_militaires~18 153
999 WORDFREQ_27.03 153
999 WORDSALL_gouvernement~10_militaires~18 153
999 COSIND_-0.05 153
999 COSGEN_-0.05 153
115 ESRank15 153
201 ESForwSacShort 153
999 WORDS_guérillero~20 269
999 WORDFREQ_0.14 269
999 WORDSALL_de~15_certaines~16_guérillero~20 269
999 COSIND_0.19 269
999 COSGEN_0.19 269
116 ESRank16 269
202 ESForwSacLong+2+4 269
999 WORDS_nécessaire~22 172
999 WORDFREQ_48.45 172
999 WORDSALL_unités~17_nécessaire~22 172
999 COSIND_-0.04 172
999 COSGEN_-0.04 172
117 ESRank17 172
202 ESForwSacLong+2+6 172
999 WORDS_militaires~18 235
999 WORDFREQ_27.03 235
999 WORDSALL_militaires~18 235
999 COSIND_-0.05 235
999 COSGEN_-0.05 235
118 ESRank18 235
206 ESBackSacRegrLong-4-21 235
999 WORDS_armées~27 161
999 WORDFREQ_2.97 161
999 WORDSALL_juge~21_armées~27 161
999 COSIND_0.06 161
999 COSGEN_0.06 161
119 ESRank19 161
202 ESForwSacLong+9+54 161
200 ESRankN 161
199 ESRankNMinus1 235
198 ESRankNMinus2 172
197 ESRankNMinus3 269
196 ESRankNMinus4 153
195 ESRankNMinus5 198
194 ESRankNMinus6 296
193 ESRankNMinus7 150
192 ESRankNMinus8 179
191 ESRankNMinus9 87
190 ESRankNMinus10 188
