# 158 Fixation 1 (339.8,280.5): Cette~0 réaction~1
# 195 Fixation 2 (448.9,272.1): réaction~1 conduit~2
# 96 Fixation 3 (505.1,275.9): conduit~2
# 170 Fixation 4 (587.5,273.2): industriels~3
# 149 Fixation 5 (642.8,274.1): industriels~3
# 380 Fixation 6 (265.7,348.1): milieux~5
# 154 Fixation 7 (377,342.2): financiers~6
# 135 Fixation 8 (431.4,341.9): financiers~6
# 220 Fixation 9 (560.7,350.5): à~7 prudence~9
# 140 Fixation 10 (629.1,353.9): prudence~9
# 278 Fixation 11 (721.7,361.3): D'autant~10
# 112 Fixation 12 (285.7,400.9): que~11 champion~13
# 199 Fixation 13 (358.6,403.5): le~12 champion~13
# 285 Fixation 14 (482.2,405.2): des~14 OGM~15
# 144 Fixation 15 (516.9,411.6): des~14 OGM~15
# 166 Fixation 16 (623.2,415.4): a~16 vu~17
# 104 Fixation 17 (604.9,422.4): a~16 vu~17
# 130 Fixation 18 (711.2,422.5): son~18 chiffre~19
# 91 Fixation 19 (335,473.7): d'affaire~20
# 114 Fixation 20 (270.7,469): d'affaire~20
# 286 Fixation 21 (411,463.7): baisser~21
# 190 Fixation 22 (536.2,471.2): Les~22 valeurs~23
# 161 Fixation 23 (588.2,473.8): valeurs~23
# 219 Fixation 24 (283.6,523.2): biotechnologie~25
# 135 Fixation 25 (434.3,531.6): ont~26
# 217 Fixation 26 (529.3,535.9): ont~26 perdu~27
# 237 Fixation 27 (619.7,533.2): de~28 attrait~30
# 252 Fixation 28 (708.8,535.9): attrait~30
# 771 Fixation 29 (736.9,538.3): attrait~30
# 818 Fixation 30 (638.9,527.9): de~28 attrait~30
%%
# Cette~0 Fixations= "1/"
# réaction~1 Fixations= "2/"
# conduit~2 Fixations= "3/"
# industriels~3 Fixations= "5/"
# et~4 Fixations= ""
# milieux~5 Fixations= "6/"
# financiers~6 Fixations= "8/"
# à~7 Fixations= "9/"
# la~8 Fixations= ""
# prudence~9 Fixations= "10/"
# D'autant~10 Fixations= "11/"
# que~11 Fixations= "12/"
# le~12 Fixations= "13/"
# champion~13 Fixations= "13/"
# des~14 Fixations= "15/"
# OGM~15 Fixations= "15/"
# a~16 Fixations= "17/"
# vu~17 Fixations= "17/"
# son~18 Fixations= "18/"
# chiffre~19 Fixations= "18/"
# d'affaire~20 Fixations= "20/"
# baisser~21 Fixations= "21/"
# Les~22 Fixations= "22/"
# valeurs~23 Fixations= "23/"
# de~24 Fixations= ""
# biotechnologie~25 Fixations= "24/"
# ont~26 Fixations= "26/"
# perdu~27 Fixations= "26/"
# de~28 Fixations= "30/"
# leur~29 Fixations= ""
# attrait~30 Fixations= "30/"
%%
#  CETTE[1] RéACTION[2] CONDUIT[3] INDUSTRIELS[5] et MILIEUX[6] FINANCIERS[8] à[9] la PRUDENCE[10] D'AUTANT[11] QUE[12] LE[13] CHAMPION[13] DES[15] OGM[15] A[17] VU[17] SON[18] CHIFFRE[18] D'AFFAIRE[20] BAISSER[21] LES[22] VALEURS[23] de BIOTECHNOLOGIE[24] ONT[26] PERDU[26] DE[30] leur ATTRAIT[30]
# s06 hausse_bourse-m2 PercentageOfWordsProcessed= 0.870967741935484 PercentageOfWordsReallyProcessed= 0.870967741935484
