999 WORDS_chef~1 131
999 WORDFREQ_172.57 131
999 WORDSALL_Le~0_chef~1 131
999 COSIND_0.02 131
999 COSGEN_0.02 131
101 ESRank1 131
999 WORDS_gouvernement~3 146
999 WORDFREQ_119.73 146
999 WORDSALL_gouvernement~3 146
999 COSIND_-0.00 146
999 COSGEN_-0.00 146
102 ESRank2 146
202 ESForwSacLong+2+4 146
999 WORDS_accusé~5 193
999 WORDFREQ_1.01 193
999 WORDSALL_est~4_accusé~5 193
999 COSIND_-0.06 193
999 COSGEN_-0.06 193
103 ESRank3 193
202 ESForwSacLong+2+5 193
999 WORDS_relations~7 205
999 WORDFREQ_42.16 205
999 WORDSALL_relations~7 205
999 COSIND_0.15 205
999 COSGEN_0.15 205
104 ESRank4 205
202 ESForwSacLong+2+5 205
999 WORDS_tendues~8 148
999 WORDFREQ_3.45 148
999 WORDSALL_tendues~8 148
999 COSIND_0.01 148
999 COSGEN_0.01 148
105 ESRank5 148
201 ESForwSacShort 148
999 WORDS_États-Unis~11 214
999 WORDFREQ_N/A 214
999 WORDSALL_les~10_États-Unis~11 214
999 COSIND_N/A 214
106 ESRank6 214
202 ESForwSacLong+3+10 214
999 WORDS_l'isolement~13 132
999 WORDFREQ_7.91 132
999 WORDSALL_l'isolement~13 132
999 COSIND_-0.01 132
999 COSGEN_-0.01 132
107 ESRank7 132
202 ESForwSacLong+2+4 132
999 WORDS_l'isolement~13 163
999 WORDFREQ_7.91 163
999 WORDSALL_l'isolement~13 163
999 COSIND_-0.01 163
999 COSGEN_-0.01 163
108 ESRank8 163
203 ESBackSacRefixation 163
999 WORDS_d'Israël~14 106
999 WORDFREQ_N/A 106
999 WORDSALL_d'Israël~14 106
999 COSIND_N/A 106
109 ESRank9 106
201 ESForwSacShort 106
999 WORDS_monde~17 295
999 WORDFREQ_732.43 295
999 WORDSALL_dans~15_monde~17 295
999 COSIND_-0.01 295
999 COSGEN_-0.01 295
110 ESRank10 295
202 ESForwSacLong+3+9 295
999 WORDS_montée~21 209
999 WORDFREQ_14.39 209
999 WORDSALL_en~20_montée~21 209
999 COSIND_0.04 209
999 COSGEN_0.04 209
111 ESRank11 209
202 ESForwSacLong+4+16 209
999 WORDS_vertigineuse~22 184
999 WORDFREQ_4.86 184
999 WORDSALL_vertigineuse~22 184
999 COSIND_-0.11 184
999 COSGEN_-0.11 184
112 ESRank12 184
201 ESForwSacShort 184
999 WORDS_et~23 175
999 WORDFREQ_20879.73 175
999 WORDSALL_et~23 175
999 COSIND_N/A 175
113 ESRank13 175
201 ESForwSacShort 175
999 WORDS_toutes~28 160
999 WORDFREQ_50.47 160
999 WORDSALL_de~27_toutes~28 160
999 COSIND_0.02 160
999 COSGEN_0.02 160
114 ESRank14 160
202 ESForwSacLong+5+26 160
999 WORDS_normes~30 137
999 WORDFREQ_2.64 137
999 WORDSALL_les~29_normes~30 137
999 COSIND_0.01 137
999 COSGEN_0.01 137
115 ESRank15 137
202 ESForwSacLong+2+5 137
999 WORDS_gouvernement~32 131
999 WORDFREQ_119.73 131
999 WORDSALL_gouvernement~32 131
999 COSIND_-0.00 131
999 COSGEN_-0.00 131
116 ESRank16 131
202 ESForwSacLong+2+4 131
999 WORDS_gouvernement~32 177
999 WORDFREQ_119.73 177
999 WORDSALL_gouvernement~32 177
999 COSIND_-0.00 177
999 COSGEN_-0.00 177
117 ESRank17 177
203 ESBackSacRefixation 177
999 WORDS_démocratique~33 211
999 WORDFREQ_4.12 211
999 WORDSALL_démocratique~33 211
999 COSIND_0.04 211
999 COSGEN_0.04 211
118 ESRank18 211
201 ESForwSacShort 211
999 WORDS_tendues~8 214
999 WORDFREQ_3.45 214
999 WORDSALL_tendues~8 214
999 COSIND_0.01 214
999 COSGEN_0.01 214
119 ESRank19 214
206 ESBackSacRegrLong-25-159 214
200 ESRankN 214
199 ESRankNMinus1 211
198 ESRankNMinus2 177
197 ESRankNMinus3 131
196 ESRankNMinus4 137
195 ESRankNMinus5 160
194 ESRankNMinus6 175
193 ESRankNMinus7 184
192 ESRankNMinus8 209
191 ESRankNMinus9 295
190 ESRankNMinus10 106
