999 WORDS_a~1 133
999 WORDFREQ_2926.69 133
999 WORDSALL_L'Irak~0_a~1 133
999 COSIND_N/A 133
101 ESRank1 133
999 WORDS_demandé~2 148
999 WORDFREQ_128.92 148
999 WORDSALL_a~1_demandé~2 148
999 COSIND_-0.04 148
999 COSGEN_-0.04 148
102 ESRank2 148
201 ESForwSacShort 148
999 WORDS_l'ONU~4 159
999 WORDFREQ_N/A 159
999 WORDSALL_à~3_l'ONU~4 159
999 COSIND_N/A 159
103 ESRank3 159
202 ESForwSacLong+2+4 159
999 WORDS_d'empêcher~5 164
999 WORDFREQ_70.2 164
999 WORDSALL_d'empêcher~5 164
999 COSIND_0.11 164
999 COSGEN_0.11 164
104 ESRank4 164
201 ESForwSacShort 164
999 WORDS_d'empêcher~5 86
999 WORDFREQ_70.2 86
999 WORDSALL_d'empêcher~5 86
999 COSIND_0.11 86
999 COSGEN_0.11 86
105 ESRank5 86
203 ESBackSacRefixation 86
999 WORDS_survols~7 149
999 WORDFREQ_0 149
999 WORDSALL_survols~7 149
999 COSIND_-0.04 149
999 COSGEN_-0.04 149
106 ESRank6 149
202 ESForwSacLong+2+5 149
999 WORDS_américains~8 201
999 WORDFREQ_18.78 201
999 WORDSALL_américains~8 201
999 COSIND_0.00 201
999 COSGEN_0.00 201
107 ESRank7 201
201 ESForwSacShort 201
999 WORDS_britanniques~10 157
999 WORDFREQ_20.74 157
999 WORDSALL_et~9_britanniques~10 157
999 COSIND_-0.08 157
999 COSGEN_-0.08 157
108 ESRank8 157
202 ESForwSacLong+2+4 157
999 WORDS_britanniques~10 161
999 WORDFREQ_20.74 161
999 WORDSALL_britanniques~10 161
999 COSIND_-0.08 161
999 COSGEN_-0.08 161
109 ESRank9 161
203 ESBackSacRefixation 161
999 WORDS_et~11 122
999 WORDFREQ_20879.73 122
999 WORDSALL_et~11 122
999 COSIND_N/A 122
110 ESRank10 122
201 ESForwSacShort 122
999 WORDS_permettre~13 189
999 WORDFREQ_25.81 189
999 WORDSALL_permettre~13 189
999 COSIND_0.03 189
999 COSGEN_0.03 189
111 ESRank11 189
202 ESForwSacLong+2+4 189
999 WORDS_avions~16 131
999 WORDFREQ_31.22 131
999 WORDSALL_à~14_avions~16 131
999 COSIND_0.01 131
999 COSGEN_0.01 131
112 ESRank12 131
202 ESForwSacLong+3+8 131
999 WORDS_civils~17 234
999 WORDFREQ_5.41 234
999 WORDSALL_avions~16_civils~17 234
999 COSIND_0.24 234
999 COSGEN_0.24 234
113 ESRank13 234
201 ESForwSacShort 234
999 WORDS_transporter~19 183
999 WORDFREQ_10.34 183
999 WORDSALL_transporter~19 183
999 COSIND_0.02 183
999 COSGEN_0.02 183
114 ESRank14 183
202 ESForwSacLong+2+4 183
999 WORDS_scientifiques~21 133
999 WORDFREQ_0.74 133
999 WORDSALL_des~20_scientifiques~21 133
999 COSIND_-0.05 133
999 COSGEN_-0.05 133
115 ESRank15 133
202 ESForwSacLong+2+5 133
999 WORDS_scientifiques~21 120
999 WORDFREQ_0.74 120
999 WORDSALL_scientifiques~21 120
999 COSIND_-0.05 120
999 COSGEN_-0.05 120
116 ESRank16 120
203 ESBackSacRefixation 120
999 WORDS_étrangers~22 152
999 WORDFREQ_14.86 152
999 WORDSALL_étrangers~22 152
999 COSIND_-0.01 152
999 COSGEN_-0.01 152
117 ESRank17 152
201 ESForwSacShort 152
999 WORDS_soumis~25 139
999 WORDFREQ_3.38 139
999 WORDSALL_est~24_soumis~25 139
999 COSIND_-0.02 139
999 COSGEN_-0.02 139
118 ESRank18 139
202 ESForwSacLong+3+12 139
999 WORDS_à~26 126
999 WORDFREQ_19209.05 126
999 WORDSALL_soumis~25_à~26 126
999 COSIND_N/A 126
119 ESRank19 126
201 ESForwSacShort 126
999 WORDS_embargo~28 198
999 WORDFREQ_0.07 198
999 WORDSALL_embargo~28 198
999 COSIND_0.01 198
999 COSGEN_0.01 198
120 ESRank20 198
202 ESForwSacLong+2+4 198
999 WORDS_aérien~29 93
999 WORDFREQ_6.08 93
999 WORDSALL_embargo~28_aérien~29 93
999 COSIND_0.10 93
999 COSGEN_0.10 93
201 ESForwSacShort 93
999 WORDS_L'Irak~23 186
999 WORDFREQ_N/A 186
999 WORDSALL_L'Irak~23 186
999 COSIND_N/A 186
206 ESBackSacRegrLong-6-26 186
999 WORDS_L'Irak~23 129
999 WORDFREQ_N/A 129
999 WORDSALL_L'Irak~23 129
999 COSIND_N/A 129
203 ESBackSacRefixation 129
200 ESRankN 129
199 ESRankNMinus1 186
198 ESRankNMinus2 93
197 ESRankNMinus3 198
196 ESRankNMinus4 126
195 ESRankNMinus5 139
194 ESRankNMinus6 152
193 ESRankNMinus7 120
192 ESRankNMinus8 133
191 ESRankNMinus9 183
190 ESRankNMinus10 234
