999 WORDS_juge~1 119
999 WORDFREQ_11.15 119
999 WORDSALL_Le~0_juge~1 119
999 COSIND_0.03 119
999 COSGEN_0.03 119
101 ESRank1 119
999 WORDS_administratif~2 205
999 WORDFREQ_2.97 205
999 WORDSALL_administratif~2 205
999 COSIND_0.10 205
999 COSGEN_0.10 205
102 ESRank2 205
201 ESForwSacShort 205
999 WORDS_estime~3 122
999 WORDFREQ_8.92 122
999 WORDSALL_estime~3 122
999 COSIND_0.00 122
999 COSGEN_0.00 122
103 ESRank3 122
201 ESForwSacShort 122
999 WORDS_locations~10 111
999 WORDFREQ_0.34 111
999 WORDSALL_estime~3_locations~10 111
999 COSIND_-0.05 111
999 COSGEN_-0.05 111
104 ESRank4 111
202 ESForwSacLong+7+36 111
999 WORDS_locations~10 98
999 WORDFREQ_0.34 98
999 WORDSALL_que~4_locations~10 98
999 COSIND_-0.05 98
999 COSGEN_-0.05 98
105 ESRank5 98
203 ESBackSacRefixation 98
999 WORDS_extension~6 212
999 WORDFREQ_2.57 212
999 WORDSALL_Le~0_juge~1_extension~6 212
999 COSIND_0.11 212
999 COSGEN_0.11 212
106 ESRank6 212
206 ESBackSacRegrLong-4-16 212
999 WORDS_système~8 231
999 WORDFREQ_42.23 231
999 WORDSALL_administratif~2_système~8 231
999 COSIND_-0.09 231
999 COSGEN_-0.09 231
107 ESRank7 231
202 ESForwSacLong+2+4 231
999 WORDS_locations~10 102
999 WORDFREQ_0.34 102
999 WORDSALL_de~9_locations~10 102
999 COSIND_-0.05 102
999 COSGEN_-0.05 102
108 ESRank8 102
202 ESForwSacLong+2+4 102
999 WORDS_locations~10 137
999 WORDFREQ_0.34 137
999 WORDSALL_locations~10 137
999 COSIND_-0.05 137
999 COSGEN_-0.05 137
109 ESRank9 137
203 ESBackSacRefixation 137
999 WORDS_vélos~12 152
999 WORDFREQ_4.12 152
999 WORDSALL_de~11_vélos~12 152
999 COSIND_-0.07 152
999 COSGEN_-0.07 152
110 ESRank10 152
202 ESForwSacLong+2+4 152
999 WORDS_libre-service~14 129
999 WORDFREQ_0.34 129
999 WORDSALL_extension~6_libre-service~14 129
999 COSIND_N/A 129
111 ESRank11 129
202 ESForwSacLong+2+4 129
999 WORDS_libre-service~14 143
999 WORDFREQ_0.34 143
999 WORDSALL_extension~6_libre-service~14 143
999 COSIND_N/A 143
112 ESRank12 143
203 ESBackSacRefixation 143
200 ESRankN 143
199 ESRankNMinus1 129
198 ESRankNMinus2 152
197 ESRankNMinus3 137
196 ESRankNMinus4 102
195 ESRankNMinus5 231
194 ESRankNMinus6 212
193 ESRankNMinus7 98
192 ESRankNMinus8 111
191 ESRankNMinus9 122
190 ESRankNMinus10 205
