# 162 Fixation 1 (327.1,304.8): Le~0 badminton~1 d'entraînement~6
# 137 Fixation 2 (455.3,294.2): nécessite~2
# 124 Fixation 3 (337.5,288.9): badminton~1
# 243 Fixation 4 (306.8,293.7): Le~0 badminton~1
# 167 Fixation 5 (456.9,286): nécessite~2
# 176 Fixation 6 (589,292.6): de~3 nombreuses~4
# 100 Fixation 7 (723.2,284): nombreuses~4 heures~5
# 202 Fixation 8 (357.9,349.3): d'entraînement~6
# 156 Fixation 9 (412,480.6): sur~20 compétition~22 n'échappe~25
# 128 Fixation 10 (493.9,453.9): est~15 difficile~16 compétition~22
# 124 Fixation 11 (559.6,464.4): difficile~16 compétition~22
# 117 Fixation 12 (636.7,472.8): de~17 faire~18 puisque~23
# 211 Fixation 13 (346.8,486.4): l'impasse~19
%%
# Le~0 Fixations= "4/"
# badminton~1 Fixations= "4/"
# nécessite~2 Fixations= "5/"
# de~3 Fixations= "6/"
# nombreuses~4 Fixations= "7/"
# heures~5 Fixations= "7/"
# d'entraînement~6 Fixations= "8/"
# par~7 Fixations= ""
# semaine~8 Fixations= ""
# y~9 Fixations= ""
# compris~10 Fixations= ""
# chez~11 Fixations= ""
# les~12 Fixations= ""
# jeunes~13 Fixations= ""
# Il~14 Fixations= ""
# est~15 Fixations= "10/"
# difficile~16 Fixations= "11/"
# de~17 Fixations= "12/"
# faire~18 Fixations= "12/"
# l'impasse~19 Fixations= "13/"
# sur~20 Fixations= "9/"
# une~21 Fixations= ""
# compétition~22 Fixations= "11/"
# puisque~23 Fixations= "12/"
# l'athlète~24 Fixations= ""
# n'échappe~25 Fixations= "9/"
# jamais~26 Fixations= ""
# à~27 Fixations= ""
# une~28 Fixations= ""
# logique~29 Fixations= ""
# de~30 Fixations= ""
# classement~31 Fixations= ""
%%
#  LE[4] BADMINTON[4] NéCESSITE[5] DE[6] NOMBREUSES[7] HEURES[7] D'ENTRAîNEMENT[8] par semaine y compris chez les jeunes Il EST[10] DIFFICILE[11] DE[12] FAIRE[12] L'IMPASSE[13] SUR[9] une COMPéTITION[11] PUISQUE[12] l'athlète N'éCHAPPE[9] jamais à une logique de classement
# s08 rehabilitation_logement-a2 PercentageOfWordsProcessed= 0.5 PercentageOfWordsReallyProcessed= 0.615384615384615
