# 136 Fixation 1 (260.8,289.6): Il~0 a~1
# 141 Fixation 2 (342.8,295.8): a~1 inventé~2
# 160 Fixation 3 (500.1,290.7): une~3 forme~4
# 170 Fixation 4 (593.5,287.1): de~5 tennis~6
# 195 Fixation 5 (322.8,337.6): convient~9
# 227 Fixation 6 (436.8,344.4): parfaitement~10
# 162 Fixation 7 (504.9,398.6): cette~17 façon~18
# 115 Fixation 8 (592.3,407.9): façon~18
# 123 Fixation 9 (659.4,420): d'engager~19
# 162 Fixation 10 (428.2,443): Avec~16 façon~18
# 153 Fixation 11 (561.3,459.8): réalise~24
# 96 Fixation 12 (655,473.6): des~25 coups~26
%%
# Il~0 Fixations= "1/"
# a~1 Fixations= "2/"
# inventé~2 Fixations= "2/"
# une~3 Fixations= "3/"
# forme~4 Fixations= "3/"
# de~5 Fixations= "4/"
# tennis~6 Fixations= "4/"
# qui~7 Fixations= ""
# lui~8 Fixations= ""
# convient~9 Fixations= "5/"
# parfaitement~10 Fixations= "6/"
# et~11 Fixations= ""
# le~12 Fixations= ""
# rend~13 Fixations= ""
# toujours~14 Fixations= ""
# dangereux~15 Fixations= ""
# Avec~16 Fixations= "10/"
# cette~17 Fixations= "7/"
# façon~18 Fixations= "10/"
# d'engager~19 Fixations= "9/"
# des~20 Fixations= ""
# revers~21 Fixations= ""
# sa~22 Fixations= ""
# raquette~23 Fixations= ""
# réalise~24 Fixations= "11/"
# des~25 Fixations= "12/"
# coups~26 Fixations= "12/"
# souvent~27 Fixations= ""
# surprenants~28 Fixations= ""
%%
#  IL[1] A[2] INVENTé[2] UNE[3] FORME[3] DE[4] TENNIS[4] qui lui CONVIENT[5] PARFAITEMENT[6] et le rend toujours dangereux AVEC[10] CETTE[7] FAçON[10] D'ENGAGER[9] des revers sa raquette RéALISE[11] DES[12] COUPS[12] souvent surprenants
# s08 victoire_footballeurs-m1 PercentageOfWordsProcessed= 0.551724137931034 PercentageOfWordsReallyProcessed= 0.592592592592593
