# 122 Fixation 1 (407.6,299.9): chanteur~1 Yannick~2
# 219 Fixation 2 (325.4,294.4): Le~0 chanteur~1
# 169 Fixation 3 (486.7,283.7): Yannick~2 Noah~3
# 205 Fixation 4 (440,287.5): Yannick~2
# 251 Fixation 5 (317.9,294): Le~0 chanteur~1
# 149 Fixation 6 (614.3,295.6): ici~4 concert~6 classement~15
# 214 Fixation 7 (692.8,296.4): en~5 concert~6
# 149 Fixation 8 (354.9,356.9): repris~8 place~10
# 195 Fixation 9 (299.4,352): repris~8
# 160 Fixation 10 (439.9,348.6): Yannick~2 place~10 à~11
# 329 Fixation 11 (521.3,342.3): Yannick~2 Noah~3 à~11 tete~13
# 129 Fixation 12 (642,342): ici~4 concert~6 classement~15
# 93 Fixation 13 (743.8,354.2): classement~15
# 248 Fixation 14 (336.7,412.7): repris~8 place~10 personnalités~17
# 264 Fixation 15 (479.5,401.8): place~10 à~11 préférées~18
# 270 Fixation 16 (620.3,406.1): du~14 classement~15 Français~20
# 213 Fixation 17 (340.1,462.8): personnalités~17
# 160 Fixation 18 (286.9,463.5): personnalités~17 devance~22
# 153 Fixation 19 (462,465.6): préférées~18 Zidane~24
# 188 Fixation 20 (720.2,396.3): classement~15
# 402 Fixation 21 (324.1,463.2): personnalités~17
# 181 Fixation 22 (274.4,465.2): personnalités~17 devance~22
# 103 Fixation 23 (599.4,428.9): des~19 Français~20
# 100 Fixation 24 (439.7,430.5): préférées~18
# 176 Fixation 25 (461.8,291.1): Yannick~2
# 177 Fixation 26 (505.2,285.8): Yannick~2 Noah~3
# 147 Fixation 27 (429,288.9): Yannick~2
# 176 Fixation 28 (451.4,471.3): préférées~18 Zidane~24
%%
# Le~0 Fixations= "5/"
# chanteur~1 Fixations= "5/"
# Yannick~2 Fixations= "27/"
# Noah~3 Fixations= "26/"
# ici~4 Fixations= "12/"
# en~5 Fixations= "7/"
# concert~6 Fixations= "12/"
# a~7 Fixations= ""
# repris~8 Fixations= "14/"
# sa~9 Fixations= ""
# place~10 Fixations= "15/"
# à~11 Fixations= "15/"
# la~12 Fixations= ""
# tete~13 Fixations= "11/"
# du~14 Fixations= "16/"
# classement~15 Fixations= "20/"
# des~16 Fixations= ""
# personnalités~17 Fixations= "22/"
# préférées~18 Fixations= "28/"
# des~19 Fixations= "23/"
# Français~20 Fixations= "23/"
# et~21 Fixations= ""
# devance~22 Fixations= "22/"
# Zinédine~23 Fixations= ""
# Zidane~24 Fixations= "28/"
%%
#  LE[5] CHANTEUR[5] YANNICK[27] NOAH[26] ICI[12] EN[7] CONCERT[12] a REPRIS[14] sa PLACE[15] à[15] la TETE[11] DU[16] CLASSEMENT[20] des PERSONNALITéS[22] PRéFéRéES[28] DES[23] FRANçAIS[23] et DEVANCE[22] Zinédine ZIDANE[28]
# s04 reforme_justice-a2 PercentageOfWordsProcessed= 0.76 PercentageOfWordsReallyProcessed= 0.76
