999 WORDS_inquiétude~1 181
999 WORDFREQ_41.35 181
999 WORDSALL_Une~0_inquiétude~1 181
999 COSIND_-0.01 181
999 COSGEN_-0.01 181
101 ESRank1 181
999 WORDS_responsabilité~7 205
999 WORDFREQ_18.11 205
999 WORDSALL_Une~0_inquiétude~1_responsabilité~7 205
999 COSIND_-0.03 205
999 COSGEN_-0.03 205
102 ESRank2 205
202 ESForwSacLong+6+34 205
999 WORDS_inquiétude~1 227
999 WORDFREQ_41.35 227
999 WORDSALL_inquiétude~1 227
999 COSIND_-0.01 227
999 COSGEN_-0.01 227
103 ESRank3 227
206 ESBackSacRegrLong-6-34 227
999 WORDS_inquiétude~1 165
999 WORDFREQ_41.35 165
999 WORDSALL_Une~0_inquiétude~1 165
999 COSIND_-0.01 165
999 COSGEN_-0.01 165
104 ESRank4 165
203 ESBackSacRefixation 165
999 WORDS_particulière~2 223
999 WORDFREQ_20 223
999 WORDSALL_inquiétude~1_particulière~2 223
999 COSIND_-0.00 223
999 COSGEN_-0.00 223
105 ESRank5 223
201 ESForwSacShort 223
999 WORDS_particulière~2 192
999 WORDFREQ_20 192
999 WORDSALL_particulière~2 192
999 COSIND_-0.00 192
999 COSGEN_-0.00 192
106 ESRank6 192
203 ESBackSacRefixation 192
999 WORDS_pointe~3 361
999 WORDFREQ_7.84 361
999 WORDSALL_pointe~3 361
999 COSIND_0.22 361
999 COSGEN_0.22 361
107 ESRank7 361
201 ESForwSacShort 361
999 WORDS_à~5 221
999 WORDFREQ_19209.05 221
999 WORDSALL_pointe~3_à~5 221
999 COSIND_N/A 221
108 ESRank8 221
202 ESForwSacLong+2+7 221
999 WORDS_responsabilité~7 378
999 WORDFREQ_18.11 378
999 WORDSALL_Une~0_inquiétude~1_responsabilité~7 378
999 COSIND_-0.03 378
999 COSGEN_-0.03 378
109 ESRank9 378
202 ESForwSacLong+2+4 378
999 WORDS_pénale~8 414
999 WORDFREQ_0.2 414
999 WORDSALL_particulière~2_pénale~8 414
999 COSIND_0.02 414
999 COSGEN_0.02 414
110 ESRank10 414
201 ESForwSacShort 414
999 WORDS_chefs~10 214
999 WORDFREQ_33.38 214
999 WORDSALL_particulière~2_pointe~3_chefs~10 214
999 COSIND_-0.02 214
999 COSGEN_-0.02 214
111 ESRank11 214
202 ESForwSacLong+2+5 214
999 WORDS_chefs~10 131
999 WORDFREQ_33.38 131
999 WORDSALL_pointe~3_chefs~10 131
999 COSIND_-0.02 131
999 COSGEN_-0.02 131
112 ESRank12 131
203 ESBackSacRefixation 131
999 WORDS_d'établissement~11 283
999 WORDFREQ_17.36 283
999 WORDSALL_responsabilité~7_d'établissement~11 283
999 COSIND_-0.00 283
999 COSGEN_-0.00 283
113 ESRank13 283
201 ESForwSacShort 283
999 WORDS_cause~19 368
999 WORDFREQ_188.04 368
999 WORDSALL_à~18_cause~19 368
999 COSIND_-0.03 368
999 COSGEN_-0.03 368
114 ESRank14 368
202 ESForwSacLong+8+42 368
200 ESRankN 368
199 ESRankNMinus1 283
198 ESRankNMinus2 131
197 ESRankNMinus3 214
196 ESRankNMinus4 414
195 ESRankNMinus5 378
194 ESRankNMinus6 221
193 ESRankNMinus7 361
192 ESRankNMinus8 192
191 ESRankNMinus9 223
190 ESRankNMinus10 165
