999 WORDS_L'édition~0 150
999 WORDFREQ_10.61 150
999 WORDSALL_L'édition~0 150
999 COSIND_-0.04 150
999 COSGEN_-0.04 150
101 ESRank1 150
999 WORDS_d'art~1 167
999 WORDFREQ_81.49 167
999 WORDSALL_d'art~1 167
999 COSIND_0.07 167
999 COSGEN_0.07 167
102 ESRank2 167
201 ESForwSacShort 167
999 WORDS_offre~2 86
999 WORDFREQ_29.8 86
999 WORDSALL_d'art~1_offre~2 86
999 COSIND_-0.00 86
999 COSGEN_-0.00 86
103 ESRank3 86
201 ESForwSacShort 86
999 WORDS_d'art~1 178
999 WORDFREQ_81.49 178
999 WORDSALL_d'art~1 178
999 COSIND_0.07 178
999 COSGEN_0.07 178
104 ESRank4 178
205 ESBackSacRegrShort 178
999 WORDS_offre~2 158
999 WORDFREQ_29.8 158
999 WORDSALL_d'art~1_offre~2 158
999 COSIND_-0.00 158
999 COSGEN_-0.00 158
105 ESRank5 158
201 ESForwSacShort 158
999 WORDS_offre~2 164
999 WORDFREQ_29.8 164
999 WORDSALL_d'art~1_offre~2 164
999 COSIND_-0.00 164
999 COSGEN_-0.00 164
106 ESRank6 164
203 ESBackSacRefixation 164
999 WORDS_jeunes~4 229
999 WORDFREQ_30.14 229
999 WORDSALL_aux~3_jeunes~4 229
999 COSIND_0.03 229
999 COSGEN_0.03 229
107 ESRank7 229
202 ESForwSacLong+2+5 229
999 WORDS_éditeurs~5 214
999 WORDFREQ_3.45 214
999 WORDSALL_jeunes~4_éditeurs~5 214
999 COSIND_0.01 214
999 COSGEN_0.01 214
108 ESRank8 214
201 ESForwSacShort 214
999 WORDS_ambitieux~6 105
999 WORDFREQ_3.72 105
999 WORDSALL_L'édition~0_ambitieux~6 105
999 COSIND_-0.06 105
999 COSGEN_-0.06 105
109 ESRank9 105
201 ESForwSacShort 105
999 WORDS_ambitieux~6 150
999 WORDFREQ_3.72 150
999 WORDSALL_L'édition~0_ambitieux~6 150
999 COSIND_-0.06 150
999 COSGEN_-0.06 150
110 ESRank10 150
203 ESBackSacRefixation 150
999 WORDS_grandes~8 217
999 WORDFREQ_126.49 217
999 WORDSALL_d'art~1_grandes~8 217
999 COSIND_0.03 217
999 COSGEN_0.03 217
111 ESRank11 217
202 ESForwSacLong+2+4 217
999 WORDS_satisfactions~9 283
999 WORDFREQ_4.12 283
999 WORDSALL_satisfactions~9 283
999 COSIND_-0.03 283
999 COSGEN_-0.03 283
112 ESRank12 283
201 ESForwSacShort 283
999 WORDS_faire~17 130
999 WORDFREQ_1555.14 130
999 WORDSALL_satisfactions~9_faire~17 130
999 COSIND_0.04 130
999 COSGEN_0.04 130
113 ESRank13 130
202 ESForwSacLong+8+33 130
999 WORDS_ambitieux~6 172
999 WORDFREQ_3.72 172
999 WORDSALL_ambitieux~6 172
999 COSIND_-0.06 172
999 COSGEN_-0.06 172
114 ESRank14 172
206 ESBackSacRegrLong-11-58 172
999 WORDS_avoir~13 125
999 WORDFREQ_177.3 125
999 WORDSALL_de~7_grandes~8_avoir~13 125
999 COSIND_-0.01 125
999 COSGEN_-0.01 125
115 ESRank15 125
202 ESForwSacLong+7+36 125
999 WORDS_sentiment~15 183
999 WORDFREQ_106.42 183
999 WORDSALL_grandes~8_sentiment~15 183
999 COSIND_0.01 183
999 COSGEN_0.01 183
116 ESRank16 183
202 ESForwSacLong+2+4 183
999 WORDS_faire~17 244
999 WORDFREQ_1555.14 244
999 WORDSALL_satisfactions~9_faire~17 244
999 COSIND_0.04 244
999 COSGEN_0.04 244
117 ESRank17 244
202 ESForwSacLong+2+4 244
999 WORDS_livres~19 167
999 WORDFREQ_134.73 167
999 WORDSALL_peut~11_livres~19 167
999 COSIND_-0.00 167
999 COSGEN_-0.00 167
118 ESRank18 167
202 ESForwSacLong+2+5 167
200 ESRankN 167
199 ESRankNMinus1 244
198 ESRankNMinus2 183
197 ESRankNMinus3 125
196 ESRankNMinus4 172
195 ESRankNMinus5 130
194 ESRankNMinus6 283
193 ESRankNMinus7 217
192 ESRankNMinus8 150
191 ESRankNMinus9 105
190 ESRankNMinus10 214
