# 185 Fixation 1 (353,291.9): galeries~1
# 204 Fixation 2 (456.9,282.8): d'anatomie~2
# 298 Fixation 3 (587.5,280.9): comparée~3
# 199 Fixation 4 (534.3,274.9): d'anatomie~2 comparée~3
# 156 Fixation 5 (585.1,279.7): comparée~3
# 92 Fixation 6 (668.4,282.7): comparée~3
# 329 Fixation 7 (314.8,342): paléontologie~6
# 347 Fixation 8 (278.2,338.7): paléontologie~6
# 233 Fixation 9 (582,278.1): comparée~3
# 183 Fixation 10 (375.4,342.7): paléontologie~6
# 190 Fixation 11 (295.8,349): paléontologie~6
# 190 Fixation 12 (457.4,350.9): du~7 musée~8
# 206 Fixation 13 (554.7,350.9): musée~8 national~9
# 209 Fixation 14 (677.5,347.2): national~9 d'histoire~10
# 176 Fixation 15 (325,408.9): naturelle~11
# 133 Fixation 16 (281.1,400): naturelle~11
# 166 Fixation 17 (447.5,395.1): sont~12 nouveau~14
# 154 Fixation 18 (504.1,397.5): de~13 nouveau~14
# 176 Fixation 19 (613.2,398.5): ouvertes~15
# 314 Fixation 20 (310.4,446.3): public~17
# 150 Fixation 21 (454.4,449.7): le~19 18~20
# 124 Fixation 22 (283.7,448.8): public~17
# 270 Fixation 23 (474.6,456.1): le~19 18~20
# 229 Fixation 24 (673.8,458): après~22
# 178 Fixation 25 (295.8,506.1): public~17
# 213 Fixation 26 (355.9,518.4): de~25 travaux~26
%%
# Les~0 Fixations= ""
# galeries~1 Fixations= "1/"
# d'anatomie~2 Fixations= "4/"
# comparée~3 Fixations= "9/"
# et~4 Fixations= ""
# de~5 Fixations= ""
# paléontologie~6 Fixations= "11/"
# du~7 Fixations= "12/"
# musée~8 Fixations= "13/"
# national~9 Fixations= "14/"
# d'histoire~10 Fixations= "14/"
# naturelle~11 Fixations= "16/"
# sont~12 Fixations= "17/"
# de~13 Fixations= "18/"
# nouveau~14 Fixations= "18/"
# ouvertes~15 Fixations= "19/"
# au~16 Fixations= ""
# public~17 Fixations= "25/"
# depuis~18 Fixations= ""
# le~19 Fixations= "23/"
# 18~20 Fixations= "23/"
# décembre~21 Fixations= ""
# après~22 Fixations= "24/"
# trois~23 Fixations= ""
# mois~24 Fixations= ""
# de~25 Fixations= "26/"
# travaux~26 Fixations= "26/"
%%
#  Les GALERIES[1] D'ANATOMIE[4] COMPARéE[9] et de PALéONTOLOGIE[11] DU[12] MUSéE[13] NATIONAL[14] D'HISTOIRE[14] NATURELLE[16] SONT[17] DE[18] NOUVEAU[18] OUVERTES[19] au PUBLIC[25] depuis LE[23] 18[23] décembre APRèS[24] trois mois DE[26] TRAVAUX[26]
# s04 art_contemporain-m2 PercentageOfWordsProcessed= 0.703703703703704 PercentageOfWordsReallyProcessed= 0.703703703703704
