999 WORDS_collectivités~1 138
999 WORDFREQ_0.34 138
999 WORDSALL_Les~0_collectivités~1 138
999 COSIND_0.01 138
999 COSGEN_0.01 138
101 ESRank1 138
999 WORDS_collectivités~1 136
999 WORDFREQ_0.34 136
999 WORDSALL_collectivités~1 136
999 COSIND_0.01 136
999 COSGEN_0.01 136
102 ESRank2 136
203 ESBackSacRefixation 136
999 WORDS_collectivités~1 158
999 WORDFREQ_0.34 158
999 WORDSALL_collectivités~1 158
999 COSIND_0.01 158
999 COSGEN_0.01 158
103 ESRank3 158
203 ESBackSacRefixation 158
999 WORDS_collectivités~1 96
999 WORDFREQ_0.34 96
999 WORDSALL_collectivités~1 96
999 COSIND_0.01 96
999 COSGEN_0.01 96
104 ESRank4 96
203 ESBackSacRefixation 96
999 WORDS_locales~2 216
999 WORDFREQ_4.8 216
999 WORDSALL_locales~2 216
999 COSIND_0.02 216
999 COSGEN_0.02 216
105 ESRank5 216
201 ESForwSacShort 216
999 WORDS_sont~3 146
999 WORDFREQ_386.35 146
999 WORDSALL_sont~3 146
999 COSIND_0.01 146
999 COSGEN_0.01 146
106 ESRank6 146
201 ESForwSacShort 146
999 WORDS_encouragées~4 283
999 WORDFREQ_0.2 283
999 WORDSALL_encouragées~4 283
999 COSIND_0.07 283
999 COSGEN_0.07 283
107 ESRank7 283
201 ESForwSacShort 283
999 WORDS_encouragées~4 154
999 WORDFREQ_0.2 154
999 WORDSALL_encouragées~4 154
999 COSIND_0.07 154
999 COSGEN_0.07 154
108 ESRank8 154
203 ESBackSacRefixation 154
999 WORDS_encouragées~4 125
999 WORDFREQ_0.2 125
999 WORDSALL_encouragées~4 125
999 COSIND_0.07 125
999 COSGEN_0.07 125
109 ESRank9 125
203 ESBackSacRefixation 125
999 WORDS_coordonner~6 88
999 WORDFREQ_1.22 88
999 WORDSALL_à~5_coordonner~6 88
999 COSIND_0.41 88
999 COSGEN_0.41 88
110 ESRank10 88
202 ESForwSacLong+2+4 88
999 WORDS_à~5 215
999 WORDFREQ_19209.05 215
999 WORDSALL_à~5 215
999 COSIND_N/A 215
111 ESRank11 215
205 ESBackSacRegrShort 215
999 WORDS_coordonner~6 171
999 WORDFREQ_1.22 171
999 WORDSALL_coordonner~6 171
999 COSIND_0.41 171
999 COSGEN_0.41 171
112 ESRank12 171
201 ESForwSacShort 171
999 WORDS_action~8 163
999 WORDFREQ_72.91 163
999 WORDSALL_action~8 163
999 COSIND_0.14 163
999 COSGEN_0.14 163
113 ESRank13 163
202 ESForwSacLong+2+6 163
999 WORDS_faveur~10 225
999 WORDFREQ_27.64 225
999 WORDSALL_en~9_faveur~10 225
999 COSIND_0.07 225
999 COSGEN_0.07 225
114 ESRank14 225
202 ESForwSacLong+2+4 225
999 WORDS_action~8 215
999 WORDFREQ_72.91 215
999 WORDSALL_leur~7_action~8 215
999 COSIND_0.14 215
999 COSGEN_0.14 215
115 ESRank15 215
206 ESBackSacRegrLong-2-4 215
999 WORDS_faveur~10 248
999 WORDFREQ_27.64 248
999 WORDSALL_en~9_faveur~10 248
999 COSIND_0.07 248
999 COSGEN_0.07 248
116 ESRank16 248
202 ESForwSacLong+2+4 248
999 WORDS_réfugiés~12 204
999 WORDFREQ_8.18 204
999 WORDSALL_réfugiés~12 204
999 COSIND_0.12 204
999 COSGEN_0.12 204
117 ESRank17 204
202 ESForwSacLong+2+5 204
999 WORDS_réfugiés~12 334
999 WORDFREQ_8.18 334
999 WORDSALL_réfugiés~12 334
999 COSIND_0.12 334
999 COSGEN_0.12 334
118 ESRank18 334
203 ESBackSacRefixation 334
999 WORDS_envisagent~14 186
999 WORDFREQ_0.41 186
999 WORDSALL_Elles~13_envisagent~14 186
999 COSIND_0.06 186
999 COSGEN_0.06 186
119 ESRank19 186
202 ESForwSacLong+2+7 186
999 WORDS_envisagent~14 265
999 WORDFREQ_0.41 265
999 WORDSALL_envisagent~14 265
999 COSIND_0.06 265
999 COSGEN_0.06 265
120 ESRank20 265
203 ESBackSacRefixation 265
999 WORDS_monter~16 165
999 WORDFREQ_96.89 165
999 WORDSALL_de~15_monter~16 165
999 COSIND_0.06 165
999 COSGEN_0.06 165
202 ESForwSacLong+2+4 165
999 WORDS_monter~16 146
999 WORDFREQ_96.89 146
999 WORDSALL_de~15_monter~16 146
999 COSIND_0.06 146
999 COSGEN_0.06 146
203 ESBackSacRefixation 146
999 WORDS_réfugiés~12 108
999 WORDFREQ_8.18 108
999 WORDSALL_réfugiés~12 108
999 COSIND_0.12 108
999 COSGEN_0.12 108
206 ESBackSacRegrLong-4-21 108
999 WORDS_plate-forme~18 144
999 WORDFREQ_8.45 144
999 WORDSALL_plate-forme~18 144
999 COSIND_N/A 144
202 ESForwSacLong+6+32 144
999 WORDS_plate-forme~18 121
999 WORDFREQ_8.45 121
999 WORDSALL_plate-forme~18 121
999 COSIND_N/A 121
203 ESBackSacRefixation 121
999 WORDS_assurer~20 278
999 WORDFREQ_38.85 278
999 WORDSALL_assurer~20 278
999 COSIND_0.08 278
999 COSGEN_0.08 278
202 ESForwSacLong+2+6 278
999 WORDS_traçabilité~22 170
999 WORDFREQ_0 170
999 WORDSALL_traçabilité~22 170
999 COSIND_N/A 170
202 ESForwSacLong+2+4 170
999 WORDS_traçabilité~22 292
999 WORDFREQ_0 292
999 WORDSALL_la~21_traçabilité~22 292
999 COSIND_N/A 292
203 ESBackSacRefixation 292
999 WORDS_traçabilité~22 160
999 WORDFREQ_0 160
999 WORDSALL_traçabilité~22 160
999 COSIND_N/A 160
203 ESBackSacRefixation 160
999 WORDS_plate-forme~18 169
999 WORDFREQ_8.45 169
999 WORDSALL_plate-forme~18 169
999 COSIND_N/A 169
206 ESBackSacRegrLong-4-17 169
999 WORDS_l'acheminement~24 207
999 WORDFREQ_0.47 207
999 WORDSALL_l'acheminement~24 207
999 COSIND_0.49 207
999 COSGEN_0.49 207
202 ESForwSacLong+6+34 207
999 WORDS_colis~26 239
999 WORDFREQ_10.54 239
999 WORDSALL_des~25_colis~26 239
999 COSIND_0.39 239
999 COSGEN_0.39 239
202 ESForwSacLong+2+5 239
999 WORDS_humanitaires~27 150
999 WORDFREQ_0.34 150
999 WORDSALL_colis~26_humanitaires~27 150
999 COSIND_1.00 150
999 COSGEN_1.00 150
201 ESForwSacShort 150
999 WORDS_humanitaires~27 481
999 WORDFREQ_0.34 481
999 WORDSALL_humanitaires~27 481
999 COSIND_1.00 481
999 COSGEN_1.00 481
203 ESBackSacRefixation 481
200 ESRankN 481
199 ESRankNMinus1 150
198 ESRankNMinus2 239
197 ESRankNMinus3 207
196 ESRankNMinus4 169
195 ESRankNMinus5 160
194 ESRankNMinus6 292
193 ESRankNMinus7 170
192 ESRankNMinus8 278
191 ESRankNMinus9 121
190 ESRankNMinus10 144
