999 WORDS_navigateur~1 220
999 WORDFREQ_1.89 220
999 WORDSALL_Le~0_navigateur~1 220
999 COSIND_0.56 220
999 COSGEN_0.56 220
101 ESRank1 220
999 WORDS_solitaire~2 290
999 WORDFREQ_20.88 290
999 WORDSALL_solitaire~2 290
999 COSIND_0.57 290
999 COSGEN_0.57 290
102 ESRank2 290
201 ESForwSacShort 290
999 WORDS_ 361
999 WORDFREQ_ 361
999 WORDSALL_ 361
103 ESRank3 361
999 WORDS_ 202
999 WORDFREQ_ 202
999 WORDSALL_ 202
104 ESRank4 202
999 WORDS_l'honneur~6 364
999 WORDFREQ_87.64 364
999 WORDSALL_l'honneur~6 364
999 COSIND_0.00 364
999 COSGEN_0.00 364
105 ESRank5 364
999 WORDS_choix~8 284
999 WORDFREQ_51.42 284
999 WORDSALL_Un~7_choix~8 284
999 COSIND_-0.01 284
999 COSGEN_-0.01 284
106 ESRank6 284
202 ESForwSacLong+2+4 284
999 WORDS_météo~9 135
999 WORDFREQ_1.69 135
999 WORDSALL_choix~8_météo~9 135
999 COSIND_N/A 135
107 ESRank7 135
201 ESForwSacShort 135
999 WORDS_Pacifique~17 187
999 WORDFREQ_0.34 187
999 WORDSALL_le~16_Pacifique~17 187
999 COSIND_0.19 187
999 COSGEN_0.19 187
108 ESRank8 187
202 ESForwSacLong+8+40 187
999 WORDS_Pacifique~17 294
999 WORDFREQ_0.34 294
999 WORDSALL_le~16_Pacifique~17 294
999 COSIND_0.19 294
999 COSGEN_0.19 294
109 ESRank9 294
203 ESBackSacRefixation 294
999 WORDS_a~25 132
999 WORDFREQ_2926.69 132
999 WORDSALL_Il~24_a~25 132
999 COSIND_N/A 132
110 ESRank10 132
202 ESForwSacLong+8+33 132
999 WORDS_vécu~26 164
999 WORDFREQ_56.62 164
999 WORDSALL_vécu~26 164
999 COSIND_0.05 164
999 COSGEN_0.05 164
111 ESRank11 164
201 ESForwSacShort 164
200 ESRankN 164
199 ESRankNMinus1 132
198 ESRankNMinus2 294
197 ESRankNMinus3 187
196 ESRankNMinus4 135
195 ESRankNMinus5 284
194 ESRankNMinus6 364
193 ESRankNMinus7 202
192 ESRankNMinus8 361
191 ESRankNMinus9 290
190 ESRankNMinus10 220
