999 WORDS_l'interdiction~1 134
999 WORDFREQ_5.95 134
999 WORDSALL_Depuis~0_l'interdiction~1 134
999 COSIND_0.02 134
999 COSGEN_0.02 134
101 ESRank1 134
999 WORDS_fumer~3 254
999 WORDFREQ_20.88 254
999 WORDSALL_de~2_fumer~3 254
999 COSIND_-0.09 254
999 COSGEN_-0.09 254
102 ESRank2 254
202 ESForwSacLong+2+4 254
999 WORDS_dimanche~7 188
999 WORDFREQ_87.84 188
999 WORDSALL_l'interdiction~1_dimanche~7 188
999 COSIND_0.01 188
999 COSGEN_0.01 188
103 ESRank3 188
202 ESForwSacLong+4+24 188
999 WORDS_côté~9 149
999 WORDFREQ_497.43 149
999 WORDSALL_de~2_fumer~3_côté~9 149
999 COSIND_0.02 149
999 COSGEN_0.02 149
104 ESRank4 149
202 ESForwSacLong+2+6 149
999 WORDS_acheter~15 202
999 WORDFREQ_57.09 202
999 WORDSALL_d'un~6_dimanche~7_acheter~15 202
999 COSIND_-0.06 202
999 COSGEN_-0.06 202
105 ESRank5 202
202 ESForwSacLong+6+23 202
999 WORDS_cigarettes~17 163
999 WORDFREQ_37.36 163
999 WORDSALL_des~16_cigarettes~17 163
999 COSIND_-0.06 163
999 COSGEN_-0.06 163
106 ESRank6 163
202 ESForwSacLong+2+5 163
200 ESRankN 163
199 ESRankNMinus1 202
198 ESRankNMinus2 149
197 ESRankNMinus3 188
196 ESRankNMinus4 254
195 ESRankNMinus5 134
