999 WORDS_vacanciers~2 185
999 WORDFREQ_1.89 185
999 WORDSALL_Pour~0_vacanciers~2 185
999 COSIND_0.41 185
999 COSGEN_0.41 185
101 ESRank1 185
999 WORDS_vacanciers~2 181
999 WORDFREQ_1.89 181
999 WORDSALL_les~1_vacanciers~2 181
999 COSIND_0.41 181
999 COSGEN_0.41 181
102 ESRank2 181
203 ESBackSacRefixation 181
999 WORDS_souhaitent~4 173
999 WORDFREQ_0.95 173
999 WORDSALL_vacanciers~2_souhaitent~4 173
999 COSIND_0.02 173
999 COSGEN_0.02 173
103 ESRank3 173
202 ESForwSacLong+2+5 173
999 WORDS_souhaitent~4 242
999 WORDFREQ_0.95 242
999 WORDSALL_souhaitent~4 242
999 COSIND_0.02 242
999 COSGEN_0.02 242
104 ESRank4 242
203 ESBackSacRefixation 242
999 WORDS_ 191
999 WORDFREQ_ 191
999 WORDSALL_ 191
105 ESRank5 191
999 WORDS_reposer~8 195
999 WORDFREQ_20.95 195
999 WORDSALL_tout~6_reposer~8 195
999 COSIND_0.13 195
999 COSGEN_0.13 195
106 ESRank6 195
999 WORDS_reposer~8 254
999 WORDFREQ_20.95 254
999 WORDSALL_se~7_reposer~8 254
999 COSIND_0.13 254
999 COSGEN_0.13 254
107 ESRank7 254
203 ESBackSacRefixation 254
999 WORDS_cadre~11 278
999 WORDFREQ_29.8 278
999 WORDSALL_un~10_cadre~11 278
999 COSIND_0.01 278
999 COSGEN_0.01 278
108 ESRank8 278
202 ESForwSacLong+3+9 278
999 WORDS_cadre~11 115
999 WORDFREQ_29.8 115
999 WORDSALL_un~10_cadre~11 115
999 COSIND_0.01 115
999 COSGEN_0.01 115
109 ESRank9 115
203 ESBackSacRefixation 115
999 WORDS_bucolique~12 168
999 WORDFREQ_0.95 168
999 WORDSALL_bucolique~12 168
999 COSIND_0.26 168
999 COSGEN_0.26 168
110 ESRank10 168
201 ESForwSacShort 168
999 WORDS_bucolique~12 325
999 WORDFREQ_0.95 325
999 WORDSALL_cadre~11_bucolique~12 325
999 COSIND_0.26 325
999 COSGEN_0.26 325
111 ESRank11 325
203 ESBackSacRefixation 325
999 WORDS_résidences~14 226
999 WORDFREQ_2.09 226
999 WORDSALL_les~13_résidences~14 226
999 COSIND_0.15 226
999 COSGEN_0.15 226
112 ESRank12 226
202 ESForwSacLong+2+5 226
999 WORDS_résidences~14 180
999 WORDFREQ_2.09 180
999 WORDSALL_résidences~14 180
999 COSIND_0.15 180
999 COSGEN_0.15 180
113 ESRank13 180
203 ESBackSacRefixation 180
999 WORDS_proposent~15 174
999 WORDFREQ_2.16 174
999 WORDSALL_proposent~15 174
999 COSIND_0.12 174
999 COSGEN_0.12 174
114 ESRank14 174
201 ESForwSacShort 174
999 WORDS_hébergement~17 262
999 WORDFREQ_0.68 262
999 WORDSALL_un~16_hébergement~17 262
999 COSIND_0.42 262
999 COSGEN_0.42 262
115 ESRank15 262
202 ESForwSacLong+2+4 262
999 WORDS_adapté~18 237
999 WORDFREQ_2.36 237
999 WORDSALL_adapté~18 237
999 COSIND_0.01 237
999 COSGEN_0.01 237
116 ESRank16 237
201 ESForwSacShort 237
999 WORDS_permettant~20 249
999 WORDFREQ_6.15 249
999 WORDSALL_permettant~20 249
999 COSIND_0.02 249
999 COSGEN_0.02 249
117 ESRank17 249
202 ESForwSacLong+2+6 249
999 WORDS_partir~22 255
999 WORDFREQ_167.77 255
999 WORDSALL_de~21_partir~22 255
999 COSIND_0.23 255
999 COSGEN_0.23 255
118 ESRank18 255
202 ESForwSacLong+2+4 255
999 WORDS_partir~22 113
999 WORDFREQ_167.77 113
999 WORDSALL_partir~22 113
999 COSIND_0.23 113
999 COSGEN_0.23 113
119 ESRank19 113
203 ESBackSacRefixation 113
999 WORDS_sportifs~26 157
999 WORDFREQ_2.16 157
999 WORDSALL_amis~25_sportifs~26 157
999 COSIND_0.22 157
999 COSGEN_0.22 157
120 ESRank20 157
202 ESForwSacLong+4+15 157
999 WORDS_sportifs~26 149
999 WORDFREQ_2.16 149
999 WORDSALL_amis~25_sportifs~26 149
999 COSIND_0.22 149
999 COSGEN_0.22 149
203 ESBackSacRefixation 149
999 WORDS_amis~25 222
999 WORDFREQ_143.45 222
999 WORDSALL_amis~25 222
999 COSIND_0.01 222
999 COSGEN_0.01 222
205 ESBackSacRegrShort 222
999 WORDS_inactifs~31 193
999 WORDFREQ_0.14 193
999 WORDSALL_inactifs~31 193
999 COSIND_-0.02 193
999 COSGEN_-0.02 193
202 ESForwSacLong+6+34 193
200 ESRankN 193
199 ESRankNMinus1 222
198 ESRankNMinus2 149
197 ESRankNMinus3 157
196 ESRankNMinus4 113
195 ESRankNMinus5 255
194 ESRankNMinus6 249
193 ESRankNMinus7 237
192 ESRankNMinus8 262
191 ESRankNMinus9 174
190 ESRankNMinus10 180
