999 WORDS_L'économie~0 129
999 WORDFREQ_15.74 129
999 WORDSALL_L'économie~0 129
999 COSIND_-0.00 129
999 COSGEN_-0.00 129
101 ESRank1 129
999 WORDS_algérienne~1 112
999 WORDFREQ_2.03 112
999 WORDSALL_L'économie~0_algérienne~1 112
999 COSIND_0.02 112
999 COSGEN_0.02 112
102 ESRank2 112
201 ESForwSacShort 112
999 WORDS_algérienne~1 165
999 WORDFREQ_2.03 165
999 WORDSALL_algérienne~1 165
999 COSIND_0.02 165
999 COSGEN_0.02 165
103 ESRank3 165
203 ESBackSacRefixation 165
999 WORDS_dépend~2 167
999 WORDFREQ_15.2 167
999 WORDSALL_dépend~2 167
999 COSIND_0.05 167
999 COSGEN_0.05 167
104 ESRank4 167
201 ESForwSacShort 167
999 WORDS_algérienne~1 167
999 WORDFREQ_2.03 167
999 WORDSALL_algérienne~1 167
999 COSIND_0.02 167
999 COSGEN_0.02 167
105 ESRank5 167
205 ESBackSacRegrShort 167
999 WORDS_algérienne~1 122
999 WORDFREQ_2.03 122
999 WORDSALL_algérienne~1 122
999 COSIND_0.02 122
999 COSGEN_0.02 122
106 ESRank6 122
203 ESBackSacRefixation 122
999 WORDS_producteurs~22 150
999 WORDFREQ_0.07 150
999 WORDSALL_pays~21_producteurs~22 150
999 COSIND_0.28 150
999 COSGEN_0.28 150
107 ESRank7 150
202 ESForwSacLong+21+128 150
999 WORDS_producteurs~22 130
999 WORDFREQ_0.07 130
999 WORDSALL_producteurs~22 130
999 COSIND_0.28 130
999 COSGEN_0.28 130
108 ESRank8 130
203 ESBackSacRefixation 130
999 WORDS_producteurs~22 123
999 WORDFREQ_0.07 123
999 WORDSALL_producteurs~22 123
999 COSIND_0.28 123
999 COSGEN_0.28 123
109 ESRank9 123
203 ESBackSacRefixation 123
999 WORDS_réduction~24 180
999 WORDFREQ_2.91 180
999 WORDSALL_réduction~24 180
999 COSIND_0.10 180
999 COSGEN_0.10 180
110 ESRank10 180
202 ESForwSacLong+2+7 180
999 WORDS_production~27 178
999 WORDFREQ_12.3 178
999 WORDSALL_la~26_production~27 178
999 COSIND_0.19 178
999 COSGEN_0.19 178
111 ESRank11 178
202 ESForwSacLong+3+7 178
999 WORDS_redressé~29 173
999 WORDFREQ_5.61 173
999 WORDSALL_a~28_redressé~29 173
999 COSIND_0.20 173
999 COSGEN_0.20 173
112 ESRank12 173
202 ESForwSacLong+2+3 173
999 WORDS_prix~31 158
999 WORDFREQ_107.5 158
999 WORDSALL_prix~31 158
999 COSIND_0.99 158
999 COSGEN_0.99 158
113 ESRank13 158
202 ESForwSacLong+2+5 158
999 WORDS_niveaux~15 120
999 WORDFREQ_2.16 120
999 WORDSALL_à~13_niveaux~15 120
999 COSIND_0.03 120
999 COSGEN_0.03 120
114 ESRank14 120
206 ESBackSacRegrLong-16-103 120
999 WORDS_niveaux~15 103
999 WORDFREQ_2.16 103
999 WORDSALL_niveaux~15 103
999 COSIND_0.03 103
999 COSGEN_0.03 103
115 ESRank15 103
203 ESBackSacRefixation 103
200 ESRankN 103
199 ESRankNMinus1 120
198 ESRankNMinus2 158
197 ESRankNMinus3 173
196 ESRankNMinus4 178
195 ESRankNMinus5 180
194 ESRankNMinus6 123
193 ESRankNMinus7 130
192 ESRankNMinus8 150
191 ESRankNMinus9 122
190 ESRankNMinus10 167
