# 129 Fixation 1 (324.8,264.6): Le~0 juge~1
# 169 Fixation 2 (623.1,274.6): estime~3
# 182 Fixation 3 (279.4,334.4): Le~0 juge~1 extension~6
# 176 Fixation 4 (439.4,317.6): administratif~2 système~8
# 157 Fixation 5 (590.3,331.5): estime~3 locations~10
# 82 Fixation 6 (708.1,328.9): que~4 vélos~12
# 258 Fixation 7 (286.7,405.6): extension~6
%%
# Le~0 Fixations= "3/"
# juge~1 Fixations= "3/"
# administratif~2 Fixations= "4/"
# estime~3 Fixations= "5/"
# que~4 Fixations= "6/"
# cette~5 Fixations= ""
# extension~6 Fixations= "7/"
# du~7 Fixations= ""
# système~8 Fixations= "4/"
# de~9 Fixations= ""
# locations~10 Fixations= "5/"
# de~11 Fixations= ""
# vélos~12 Fixations= "6/"
# en~13 Fixations= ""
# libre-service~14 Fixations= ""
# constitue~15 Fixations= ""
# un~16 Fixations= ""
# nouveau~17 Fixations= ""
# marché~18 Fixations= ""
# Il~19 Fixations= ""
# fournit~20 Fixations= ""
# pour~21 Fixations= ""
# les~22 Fixations= ""
# communes~23 Fixations= ""
# un~24 Fixations= ""
# réel~25 Fixations= ""
# service~26 Fixations= ""
# de~27 Fixations= ""
# bicyclettes~28 Fixations= ""
# en~29 Fixations= ""
# libre-service~30 Fixations= ""
%%
#  LE[3] JUGE[3] ADMINISTRATIF[4] ESTIME[5] QUE[6] cette EXTENSION[7] du SYSTèME[4] de LOCATIONS[5] de VéLOS[6] en libre-service constitue un nouveau marché Il fournit pour les communes un réel service de bicyclettes en libre-service
# s07 conflit_israelo_palestinien-a1 PercentageOfWordsProcessed= 0.290322580645161 PercentageOfWordsReallyProcessed= 0.692307692307692
