# 168 Fixation 1 (433.7,267.1): des~2
# 209 Fixation 2 (610.4,289.8): animateurs-modérateurs~3
# 186 Fixation 3 (282.5,359.3): une~5 formation~6
# 195 Fixation 4 (491.9,357.7): de~7 journaliste~8
# 167 Fixation 5 (662.2,365.9): Il~9 n'existe~10
# 110 Fixation 6 (345.3,406.8): de~12 formation~13
# 163 Fixation 7 (270.7,413.3): pas~11 formation~13
# 178 Fixation 8 (429.5,415.8): formation~13
# 177 Fixation 9 (636.4,422.6): mais~15
# 203 Fixation 10 (330.4,432): pas~11 formation~13
# 170 Fixation 11 (248.4,437.9): pas~11 formation~13
# 241 Fixation 12 (616.4,479.2): de~21 communication~22
# 156 Fixation 13 (337.3,511.7): donnent~24
# 155 Fixation 14 (273.7,500.6): écoles~17
# 182 Fixation 15 (471.3,532.1): des~25 cours~26
%%
# La~0 Fixations= ""
# plupart~1 Fixations= ""
# des~2 Fixations= "1/"
# animateurs-modérateurs~3 Fixations= "2/"
# ont~4 Fixations= ""
# une~5 Fixations= "3/"
# formation~6 Fixations= "3/"
# de~7 Fixations= "4/"
# journaliste~8 Fixations= "4/"
# Il~9 Fixations= "5/"
# n'existe~10 Fixations= "5/"
# pas~11 Fixations= "11/"
# de~12 Fixations= "6/"
# formation~13 Fixations= "11/"
# spécifique~14 Fixations= ""
# mais~15 Fixations= "9/"
# des~16 Fixations= ""
# écoles~17 Fixations= "14/"
# de~18 Fixations= ""
# journalisme~19 Fixations= ""
# ou~20 Fixations= ""
# de~21 Fixations= "12/"
# communication~22 Fixations= "12/"
# qui~23 Fixations= ""
# donnent~24 Fixations= "13/"
# des~25 Fixations= "15/"
# cours~26 Fixations= "15/"
# en~27 Fixations= ""
# multimédia~28 Fixations= ""
%%
#  La plupart DES[1] ANIMATEURS-MODéRATEURS[2] ont UNE[3] FORMATION[3] DE[4] JOURNALISTE[4] IL[5] N'EXISTE[5] PAS[11] DE[6] FORMATION[11] spécifique MAIS[9] des éCOLES[14] de journalisme ou DE[12] COMMUNICATION[12] qui DONNENT[13] DES[15] COURS[15] en multimédia
# s07 formation_informatique-f1 PercentageOfWordsProcessed= 0.620689655172414 PercentageOfWordsReallyProcessed= 0.666666666666667
