999 WORDS_miraculé~1 175
999 WORDFREQ_0.41 175
999 WORDSALL_miraculé~1 175
999 COSIND_0.11 175
999 COSGEN_0.11 175
101 ESRank1 175
999 WORDS_l'aviation~3 178
999 WORDFREQ_13.38 178
999 WORDSALL_de~2_l'aviation~3 178
999 COSIND_0.29 178
999 COSGEN_0.29 178
102 ESRank2 178
202 ESForwSacLong+2+4 178
999 WORDS_l'aviation~3 115
999 WORDFREQ_13.38 115
999 WORDSALL_l'aviation~3 115
999 COSIND_0.29 115
999 COSGEN_0.29 115
103 ESRank3 115
203 ESBackSacRefixation 115
999 WORDS_jeune~5 128
999 WORDFREQ_432.64 128
999 WORDSALL_un~4_jeune~5 128
999 COSIND_0.02 128
999 COSGEN_0.02 128
104 ESRank4 128
202 ESForwSacLong+2+4 128
999 WORDS_passager~6 190
999 WORDFREQ_3.24 190
999 WORDSALL_passager~6 190
999 COSIND_0.22 190
999 COSGEN_0.22 190
105 ESRank5 190
201 ESForwSacShort 190
999 WORDS_clandestin~7 221
999 WORDFREQ_5.07 221
999 WORDSALL_clandestin~7 221
999 COSIND_-0.05 221
999 COSGEN_-0.05 221
106 ESRank6 221
201 ESForwSacShort 221
999 WORDS_fait~9 209
999 WORDFREQ_1459.26 209
999 WORDSALL_a~8_fait~9 209
999 COSIND_0.03 209
999 COSGEN_0.03 209
107 ESRank7 209
202 ESForwSacLong+2+3 209
999 WORDS_trajet~11 145
999 WORDFREQ_14.66 145
999 WORDSALL_fait~9_trajet~11 145
999 COSIND_0.06 145
999 COSGEN_0.06 145
108 ESRank8 145
202 ESForwSacLong+2+4 145
999 WORDS_jeune~5 290
999 WORDFREQ_432.64 290
999 WORDSALL_un~4_jeune~5 290
999 COSIND_0.02 290
999 COSGEN_0.02 290
109 ESRank9 290
206 ESBackSacRegrLong-6-31 290
999 WORDS_jeune~5 151
999 WORDFREQ_432.64 151
999 WORDSALL_un~4_jeune~5 151
999 COSIND_0.02 151
999 COSGEN_0.02 151
110 ESRank10 151
203 ESBackSacRefixation 151
999 WORDS_passager~6 106
999 WORDFREQ_3.24 106
999 WORDSALL_passager~6 106
999 COSIND_0.22 106
999 COSGEN_0.22 106
111 ESRank11 106
201 ESForwSacShort 106
999 WORDS_passager~6 234
999 WORDFREQ_3.24 234
999 WORDSALL_passager~6 234
999 COSIND_0.22 234
999 COSGEN_0.22 234
112 ESRank12 234
203 ESBackSacRefixation 234
999 WORDS_Dakar-Lyon~12 125
999 WORDFREQ_N/A 125
999 WORDSALL_Dakar-Lyon~12 125
999 COSIND_N/A 125
113 ESRank13 125
202 ESForwSacLong+6+29 125
999 WORDS_mardi~13 162
999 WORDFREQ_15.47 162
999 WORDSALL_mardi~13 162
999 COSIND_-0.06 162
999 COSGEN_-0.06 162
114 ESRank14 162
201 ESForwSacShort 162
999 WORDS_dernier~14 160
999 WORDFREQ_146.42 160
999 WORDSALL_dernier~14 160
999 COSIND_0.03 160
999 COSGEN_0.03 160
115 ESRank15 160
201 ESForwSacShort 160
999 WORDS_train~17 195
999 WORDFREQ_271.28 195
999 WORDSALL_dans~15_train~17 195
999 COSIND_0.07 195
999 COSGEN_0.07 195
116 ESRank16 195
202 ESForwSacLong+3+9 195
999 WORDS_mardi~13 155
999 WORDFREQ_15.47 155
999 WORDSALL_Dakar-Lyon~12_mardi~13 155
999 COSIND_-0.06 155
999 COSGEN_-0.06 155
117 ESRank17 155
206 ESBackSacRegrLong-4-17 155
999 WORDS_Dakar-Lyon~12 110
999 WORDFREQ_N/A 110
999 WORDSALL_Dakar-Lyon~12 110
999 COSIND_N/A 110
118 ESRank18 110
205 ESBackSacRegrShort 110
200 ESRankN 110
199 ESRankNMinus1 155
198 ESRankNMinus2 195
197 ESRankNMinus3 160
196 ESRankNMinus4 162
195 ESRankNMinus5 125
194 ESRankNMinus6 234
193 ESRankNMinus7 106
192 ESRankNMinus8 151
191 ESRankNMinus9 290
190 ESRankNMinus10 145
