# 229 Fixation 1 (278.6,288.6): L'économie~0
# 402 Fixation 2 (380.8,285.6): L'économie~0 algérienne~1
# 177 Fixation 3 (424.7,277.5): algérienne~1
# 344 Fixation 4 (538.2,271.4): algérienne~1 dépend~2
# 232 Fixation 5 (647,281): dépend~2 l'évolution~4
# 202 Fixation 6 (626.1,271.1): dépend~2
# 266 Fixation 7 (390.2,333.1): cours~6 pétrole~8
# 170 Fixation 8 (485.2,442.5): niveaux~15
# 243 Fixation 9 (477.1,359.7): pétrole~8
# 188 Fixation 10 (419.5,348.5): du~7 pétrole~8
# 280 Fixation 11 (323.2,350.8): des~5 cours~6
# 240 Fixation 12 (552.7,495.9): pays~21 producteurs~22
%%
# L'économie~0 Fixations= "2/"
# algérienne~1 Fixations= "4/"
# dépend~2 Fixations= "6/"
# de~3 Fixations= ""
# l'évolution~4 Fixations= "5/"
# des~5 Fixations= "11/"
# cours~6 Fixations= "11/"
# du~7 Fixations= "10/"
# pétrole~8 Fixations= "10/"
# brut~9 Fixations= ""
# Après~10 Fixations= ""
# être~11 Fixations= ""
# tombés~12 Fixations= ""
# à~13 Fixations= ""
# des~14 Fixations= ""
# niveaux~15 Fixations= "8/"
# jamais~16 Fixations= ""
# observés~17 Fixations= ""
# l'annonce~18 Fixations= ""
# par~19 Fixations= ""
# les~20 Fixations= ""
# pays~21 Fixations= "12/"
# producteurs~22 Fixations= "12/"
# d'une~23 Fixations= ""
# réduction~24 Fixations= ""
# de~25 Fixations= ""
# la~26 Fixations= ""
# production~27 Fixations= ""
# a~28 Fixations= ""
# redressé~29 Fixations= ""
# les~30 Fixations= ""
# prix~31 Fixations= ""
%%
#  L'éCONOMIE[2] ALGéRIENNE[4] DéPEND[6] de L'éVOLUTION[5] DES[11] COURS[11] DU[10] PéTROLE[10] brut Après être tombés à des NIVEAUX[8] jamais observés l'annonce par les PAYS[12] PRODUCTEURS[12] d'une réduction de la production a redressé les prix
# s14 prix_petrole-f1 PercentageOfWordsProcessed= 0.34375 PercentageOfWordsReallyProcessed= 0.478260869565217
