# 142 Fixation 1 (317.7,280.1): L'indice~0
# 153 Fixation 2 (447.8,272.8): vedette~1
# 162 Fixation 3 (573.3,274.1): la~3 Bourse~4
# 274 Fixation 4 (694,275): de~5 Londres~6
# 89 Fixation 5 (538,269): de~2 Bourse~4
# 149 Fixation 6 (454.5,277.2): vedette~1
# 188 Fixation 7 (371.6,281.8): L'indice~0 vedette~1
%%
# L'indice~0 Fixations= "7/"
# vedette~1 Fixations= "7/"
# de~2 Fixations= "5/"
# la~3 Fixations= "3/"
# Bourse~4 Fixations= "5/"
# de~5 Fixations= "4/"
# Londres~6 Fixations= "4/"
# a~7 Fixations= ""
# clôturé~8 Fixations= ""
# mardi~9 Fixations= ""
# en~10 Fixations= ""
# hausse~11 Fixations= ""
# Il~12 Fixations= ""
# était~13 Fixations= ""
# encouragé~14 Fixations= ""
# par~15 Fixations= ""
# les~16 Fixations= ""
# diverses~17 Fixations= ""
# annonces~18 Fixations= ""
# de~19 Fixations= ""
# sociétés~20 Fixations= ""
# et~21 Fixations= ""
# nourri~22 Fixations= ""
# par~23 Fixations= ""
# les~24 Fixations= ""
# spéculations~25 Fixations= ""
# de~26 Fixations= ""
# rapprochements~27 Fixations= ""
# industriels~28 Fixations= ""
%%
#  L'INDICE[7] VEDETTE[7] DE[5] LA[3] BOURSE[5] DE[4] LONDRES[4] a clôturé mardi en hausse Il était encouragé par les diverses annonces de sociétés et nourri par les spéculations de rapprochements industriels
# s19 hausse_bourse-f2 PercentageOfWordsProcessed= 0.241379310344828 PercentageOfWordsReallyProcessed= 1
