# 129 Fixation 1 (264.3,247.2): Qui~0 sont~1
# 180 Fixation 2 (334.3,254.3): Qui~0 sont~1
# 223 Fixation 3 (410.8,264.2): ces~2 étudiants~3
# 96 Fixation 4 (395.2,259.9): sont~1 étudiants~3
# 222 Fixation 5 (582.5,267.5): qui~4 n'ont~5
# 117 Fixation 6 (628.5,268.5): qui~4 n'ont~5
# 165 Fixation 7 (683.7,274.8): n'ont~5
# 141 Fixation 8 (728.5,271.9): pas~6
# 184 Fixation 9 (300.5,329.3): Qui~0 sont~1 moyens~8
# 136 Fixation 10 (285.7,348.5): Qui~0 sont~1 moyens~8
# 270 Fixation 11 (397.7,325.7): ces~2 étudiants~3 s'offrir~10
# 117 Fixation 12 (479.3,309.6): étudiants~3
# 208 Fixation 13 (536.4,306.3): étudiants~3 n'ont~5 repas~12
# 170 Fixation 14 (657.6,321.1): n'ont~5 à~13 3~14 euros~15
# 167 Fixation 15 (622.7,320): qui~4 n'ont~5 à~13 3~14
# 104 Fixation 16 (607.9,316.8): qui~4 n'ont~5 à~13
# 303 Fixation 17 (686,336.5): n'ont~5 3~14 euros~15
# 228 Fixation 18 (727.9,325.9): pas~6 euros~15
# 253 Fixation 19 (323.9,416.3): Principalement~16
# 178 Fixation 20 (493.4,410.9): s'offrir~10 repas~12 étudiants~18
# 85 Fixation 21 (556.8,404.1): un~11 repas~12 étudiants~18
# 217 Fixation 22 (673.4,415.8): étrangers~19
# 111 Fixation 23 (758.1,427.7): étrangers~19
# 189 Fixation 24 (326.8,462.6): Principalement~16
# 204 Fixation 25 (434.5,473.5): des~17 étudiants~18 bourses~24
# 218 Fixation 26 (564,475.5): étudiants~18 d'études~25
# 133 Fixation 27 (680.8,467.3): étrangers~19 résume~26
# 186 Fixation 28 (323.5,525): n'ont~21 l'assistante~27
# 143 Fixation 29 (429.9,529.4): de~23 bourses~24 sociale~28
# 154 Fixation 30 (532.8,532.8): bourses~24 d'études~25 Crous~30
%%
# Qui~0 Fixations= "10/"
# sont~1 Fixations= "10/"
# ces~2 Fixations= "11/"
# étudiants~3 Fixations= "13/"
# qui~4 Fixations= "16/"
# n'ont~5 Fixations= "17/"
# pas~6 Fixations= "18/"
# les~7 Fixations= ""
# moyens~8 Fixations= "10/"
# de~9 Fixations= ""
# s'offrir~10 Fixations= "20/"
# un~11 Fixations= "21/"
# repas~12 Fixations= "21/"
# à~13 Fixations= "16/"
# 3~14 Fixations= "17/"
# euros~15 Fixations= "18/"
# Principalement~16 Fixations= "24/"
# des~17 Fixations= "25/"
# étudiants~18 Fixations= "26/"
# étrangers~19 Fixations= "27/"
# qui~20 Fixations= ""
# n'ont~21 Fixations= "28/"
# pas~22 Fixations= ""
# de~23 Fixations= "29/"
# bourses~24 Fixations= "30/"
# d'études~25 Fixations= "30/"
# résume~26 Fixations= "27/"
# l'assistante~27 Fixations= "28/"
# sociale~28 Fixations= "29/"
# du~29 Fixations= ""
# Crous~30 Fixations= "30/"
%%
#  QUI[10] SONT[10] CES[11] éTUDIANTS[13] QUI[16] N'ONT[17] PAS[18] les MOYENS[10] de S'OFFRIR[20] UN[21] REPAS[21] à[16] 3[17] EUROS[18] PRINCIPALEMENT[24] DES[25] éTUDIANTS[26] éTRANGERS[27] qui N'ONT[28] pas DE[29] BOURSES[30] D'éTUDES[30] RéSUME[27] L'ASSISTANTE[28] SOCIALE[29] du CROUS[30]
# s17 salon_aeronautique-a1 PercentageOfWordsProcessed= 0.838709677419355 PercentageOfWordsReallyProcessed= 0.838709677419355
