# 185 Fixation 1 (453.6,271.2): américain~2
# 202 Fixation 2 (582.3,284.7): est~3 sport~5
# 225 Fixation 3 (303.3,331.3): Le~0 football~1 collectif~6
# 134 Fixation 4 (413.4,326.4): football~1 américain~2 connu~7
# 199 Fixation 5 (516.3,339.1): américain~2 mélanger~9
%%
# Le~0 Fixations= "3/"
# football~1 Fixations= "4/"
# américain~2 Fixations= "5/"
# est~3 Fixations= "2/"
# un~4 Fixations= ""
# sport~5 Fixations= "2/"
# collectif~6 Fixations= "3/"
# connu~7 Fixations= "4/"
# pour~8 Fixations= ""
# mélanger~9 Fixations= "5/"
# des~10 Fixations= ""
# stratégies~11 Fixations= ""
# complexes~12 Fixations= ""
# et~13 Fixations= ""
# un~14 Fixations= ""
# jeu~15 Fixations= ""
# physique~16 Fixations= ""
# intense~17 Fixations= ""
# Le~18 Fixations= ""
# but~19 Fixations= ""
# du~20 Fixations= ""
# jeu~21 Fixations= ""
# est~22 Fixations= ""
# de~23 Fixations= ""
# marquer~24 Fixations= ""
# des~25 Fixations= ""
# points~26 Fixations= ""
# en~27 Fixations= ""
# portant~28 Fixations= ""
# un~29 Fixations= ""
# ballon~30 Fixations= ""
# ovale~31 Fixations= ""
# jusqu'à~32 Fixations= ""
# une~33 Fixations= ""
# zone~34 Fixations= ""
# de~35 Fixations= ""
# but~36 Fixations= ""
# nommée~37 Fixations= ""
# end~38 Fixations= ""
%%
#  LE[3] FOOTBALL[4] AMéRICAIN[5] EST[2] un SPORT[2] COLLECTIF[3] CONNU[4] pour MéLANGER[5] des stratégies complexes et un jeu physique intense Le but du jeu est de marquer des points en portant un ballon ovale jusqu'à une zone de but nommée end
# s17 hausse_bourse-a2 PercentageOfWordsProcessed= 0.205128205128205 PercentageOfWordsReallyProcessed= 0.8
