# 180 Fixation 1 (278.7,265.5): La~0 Russie~1
# 198 Fixation 2 (404.3,269.4): a~2 menacé~3
# 206 Fixation 3 (552.6,273.7): de~4 sortir~5
# 152 Fixation 4 (617.3,291.7): sortir~5
# 183 Fixation 5 (391.8,345.8): Russie~1 a~2 forces~10 nucléaires~11
# 190 Fixation 6 (299.6,350.9): les~9 forces~10
# 128 Fixation 7 (292.5,395.5): les~9 forces~10 courroucée~15
# 269 Fixation 8 (444.3,406.2): nucléaires~11 l'attitude~17
# 242 Fixation 9 (398.1,457): par~16 l'attitude~17 politique~24
# 163 Fixation 10 (284,463.2): courroucée~15 vis-à-vis~21
# 128 Fixation 11 (271.4,532.6): vis-à-vis~21 nationale~27
%%
# La~0 Fixations= "1/"
# Russie~1 Fixations= "5/"
# a~2 Fixations= "5/"
# menacé~3 Fixations= "2/"
# de~4 Fixations= "3/"
# sortir~5 Fixations= "4/"
# du~6 Fixations= ""
# traité~7 Fixations= ""
# sur~8 Fixations= ""
# les~9 Fixations= "7/"
# forces~10 Fixations= "7/"
# nucléaires~11 Fixations= "8/"
# car~12 Fixations= ""
# elle~13 Fixations= ""
# est~14 Fixations= ""
# courroucée~15 Fixations= "10/"
# par~16 Fixations= "9/"
# l'attitude~17 Fixations= "9/"
# des~18 Fixations= ""
# autres~19 Fixations= ""
# pays~20 Fixations= ""
# vis-à-vis~21 Fixations= "11/"
# de~22 Fixations= ""
# sa~23 Fixations= ""
# politique~24 Fixations= "9/"
# de~25 Fixations= ""
# défense~26 Fixations= ""
# nationale~27 Fixations= "11/"
%%
#  LA[1] RUSSIE[5] A[5] MENACé[2] DE[3] SORTIR[4] du traité sur LES[7] FORCES[7] NUCLéAIRES[8] car elle est COURROUCéE[10] PAR[9] L'ATTITUDE[9] des autres pays VIS-à-VIS[11] de sa POLITIQUE[9] de défense NATIONALE[11]
# s18 rechauffement_climatique-a2 PercentageOfWordsProcessed= 0.535714285714286 PercentageOfWordsReallyProcessed= 0.535714285714286
