# 189 Fixation 1 (302.2,274): La~0 critique~1
# 215 Fixation 2 (463,269.2): s'est~2 exprimée~3
# 212 Fixation 3 (302.8,343.9): radicalement~5
# 199 Fixation 4 (479.9,348.5): sur~6 nature~8
# 177 Fixation 5 (630.2,338.8): et~9 l'idéologie~10
# 164 Fixation 6 (346,392.5): projet~12
# 179 Fixation 7 (312.5,399.1): du~11 projet~12
# 159 Fixation 8 (380.6,402.6): projet~12 éducatif~13
# 284 Fixation 9 (547.7,410.4): Dans~14 débat~16
# 268 Fixation 10 (504.9,462): dehors~19
# 108 Fixation 11 (434.5,483.8): en~18 dehors~19
# 221 Fixation 12 (436.5,527.2): les~23 enseignants~24
# 162 Fixation 13 (652.6,539.1): s'en~25 prennent~26
%%
# La~0 Fixations= "1/"
# critique~1 Fixations= "1/"
# s'est~2 Fixations= "2/"
# exprimée~3 Fixations= "2/"
# plus~4 Fixations= ""
# radicalement~5 Fixations= "3/"
# sur~6 Fixations= "4/"
# la~7 Fixations= ""
# nature~8 Fixations= "4/"
# et~9 Fixations= "5/"
# l'idéologie~10 Fixations= "5/"
# du~11 Fixations= "7/"
# projet~12 Fixations= "8/"
# éducatif~13 Fixations= "8/"
# Dans~14 Fixations= "9/"
# ce~15 Fixations= ""
# débat~16 Fixations= "9/"
# déclenché~17 Fixations= ""
# en~18 Fixations= "11/"
# dehors~19 Fixations= "11/"
# des~20 Fixations= ""
# organisations~21 Fixations= ""
# syndicales~22 Fixations= ""
# les~23 Fixations= "12/"
# enseignants~24 Fixations= "12/"
# s'en~25 Fixations= "13/"
# prennent~26 Fixations= "13/"
# aux~27 Fixations= ""
# orientations~28 Fixations= ""
# fondamentales~29 Fixations= ""
%%
#  LA[1] CRITIQUE[1] S'EST[2] EXPRIMéE[2] plus RADICALEMENT[3] SUR[4] la NATURE[4] ET[5] L'IDéOLOGIE[5] DU[7] PROJET[8] éDUCATIF[8] DANS[9] ce DéBAT[9] déclenché EN[11] DEHORS[11] des organisations syndicales LES[12] ENSEIGNANTS[12] S'EN[13] PRENNENT[13] aux orientations fondamentales
# s18 reforme_enseignement-f1 PercentageOfWordsProcessed= 0.666666666666667 PercentageOfWordsReallyProcessed= 0.740740740740741
