# 173 Fixation 1 (295,269.4): Le~0 navigateur~1
# 168 Fixation 2 (448.4,267.5): solitaire~2
# 216 Fixation 3 (586.8,269.6): voulait~3
# 161 Fixation 4 (696.7,283.3): gagner~4
# 168 Fixation 5 (327.9,343.8): l'honneur~6
# 167 Fixation 6 (487.5,329.7): choix~8 météo~9
# 188 Fixation 7 (610.4,357.1): météo~9 décevant~10
# 162 Fixation 8 (363.7,407.3): avarie~14
# 136 Fixation 9 (589,460): Il~24 a~25
# 149 Fixation 10 (677,473.1): vécu~26 drôle~28
%%
# Le~0 Fixations= "1/"
# navigateur~1 Fixations= "1/"
# solitaire~2 Fixations= "2/"
# voulait~3 Fixations= "3/"
# gagner~4 Fixations= "4/"
# pour~5 Fixations= ""
# l'honneur~6 Fixations= "5/"
# Un~7 Fixations= ""
# choix~8 Fixations= "6/"
# météo~9 Fixations= "7/"
# décevant~10 Fixations= "7/"
# et~11 Fixations= ""
# une~12 Fixations= ""
# grosse~13 Fixations= ""
# avarie~14 Fixations= "8/"
# dans~15 Fixations= ""
# le~16 Fixations= ""
# Pacifique~17 Fixations= ""
# ont~18 Fixations= ""
# eu~19 Fixations= ""
# raison~20 Fixations= ""
# de~21 Fixations= ""
# ses~22 Fixations= ""
# chances~23 Fixations= ""
# Il~24 Fixations= "9/"
# a~25 Fixations= "9/"
# vécu~26 Fixations= "10/"
# un~27 Fixations= ""
# drôle~28 Fixations= "10/"
# de~29 Fixations= ""
# tour~30 Fixations= ""
# du~31 Fixations= ""
# monde~32 Fixations= ""
%%
#  LE[1] NAVIGATEUR[1] SOLITAIRE[2] VOULAIT[3] GAGNER[4] pour L'HONNEUR[5] Un CHOIX[6] MéTéO[7] DéCEVANT[7] et une grosse AVARIE[8] dans le Pacifique ont eu raison de ses chances IL[9] A[9] VéCU[10] un DRôLE[10] de tour du monde
# s17 course_voiliers-f2 PercentageOfWordsProcessed= 0.424242424242424 PercentageOfWordsReallyProcessed= 0.482758620689655
