# 132 Fixation 1 (284.6,268.4): L'indice~0
# 230 Fixation 2 (374.3,267.7): L'indice~0 vedette~1
# 198 Fixation 3 (434.2,268.2): vedette~1
# 237 Fixation 4 (542.3,271.1): de~2 Bourse~4
# 159 Fixation 5 (670.3,282.3): de~5 Londres~6
# 141 Fixation 6 (322.6,344.3): clôturé~8 mardi~9
%%
# L'indice~0 Fixations= "2/"
# vedette~1 Fixations= "3/"
# de~2 Fixations= "4/"
# la~3 Fixations= ""
# Bourse~4 Fixations= "4/"
# de~5 Fixations= "5/"
# Londres~6 Fixations= "5/"
# a~7 Fixations= ""
# clôturé~8 Fixations= "6/"
# mardi~9 Fixations= "6/"
# en~10 Fixations= ""
# hausse~11 Fixations= ""
# Il~12 Fixations= ""
# était~13 Fixations= ""
# encouragé~14 Fixations= ""
# par~15 Fixations= ""
# les~16 Fixations= ""
# diverses~17 Fixations= ""
# annonces~18 Fixations= ""
# de~19 Fixations= ""
# sociétés~20 Fixations= ""
# et~21 Fixations= ""
# nourri~22 Fixations= ""
# par~23 Fixations= ""
# les~24 Fixations= ""
# spéculations~25 Fixations= ""
# de~26 Fixations= ""
# rapprochements~27 Fixations= ""
# industriels~28 Fixations= ""
%%
#  L'INDICE[2] VEDETTE[3] DE[4] la BOURSE[4] DE[5] LONDRES[5] a CLôTURé[6] MARDI[6] en hausse Il était encouragé par les diverses annonces de sociétés et nourri par les spéculations de rapprochements industriels
# s01 hausse_bourse-f2 PercentageOfWordsProcessed= 0.275862068965517 PercentageOfWordsReallyProcessed= 0.8
