# 196 Fixation 1 (351,280): économie~1
# 242 Fixation 2 (438.1,281.7): New~2
# 234 Fixation 3 (595,293.3): est~4 économie~6
# 107 Fixation 4 (470.9,291): New~2 Age~3
# 222 Fixation 5 (593.4,289.5): est~4 économie~6
# 187 Fixation 6 (445.5,334.9): croissance~10
# 204 Fixation 7 (298.9,341.8): laquelle~8
# 189 Fixation 8 (575.9,351.5): de~11 l'efficacité~12
# 170 Fixation 9 (617.9,353.6): de~11 l'efficacité~12
# 283 Fixation 10 (473.9,408.4): utilisons~16
# 138 Fixation 11 (605.1,413.2): les~17 ressources~18
# 248 Fixation 12 (371.7,467.9): productives~19
# 181 Fixation 13 (396.4,529.1): l'inflation~24
# 197 Fixation 14 (523.8,532.8): l'inflation~24 maîtrisée~25
# 81 Fixation 15 (555.6,540.3): maîtrisée~25
%%
# Une~0 Fixations= ""
# économie~1 Fixations= "1/"
# New~2 Fixations= "4/"
# Age~3 Fixations= "4/"
# est~4 Fixations= "5/"
# une~5 Fixations= ""
# économie~6 Fixations= "5/"
# dans~7 Fixations= ""
# laquelle~8 Fixations= "7/"
# la~9 Fixations= ""
# croissance~10 Fixations= "6/"
# de~11 Fixations= "9/"
# l'efficacité~12 Fixations= "9/"
# avec~13 Fixations= ""
# laquelle~14 Fixations= ""
# nous~15 Fixations= ""
# utilisons~16 Fixations= "10/"
# les~17 Fixations= "11/"
# ressources~18 Fixations= "11/"
# productives~19 Fixations= "12/"
# se~20 Fixations= ""
# trouve~21 Fixations= ""
# durablement~22 Fixations= ""
# accélérée~23 Fixations= ""
# l'inflation~24 Fixations= "14/"
# maîtrisée~25 Fixations= "15/"
# et~26 Fixations= ""
# le~27 Fixations= ""
# cycle~28 Fixations= ""
# aboli~29 Fixations= ""
%%
#  Une éCONOMIE[1] NEW[4] AGE[4] EST[5] une éCONOMIE[5] dans LAQUELLE[7] la CROISSANCE[6] DE[9] L'EFFICACITé[9] avec laquelle nous UTILISONS[10] LES[11] RESSOURCES[11] PRODUCTIVES[12] se trouve durablement accélérée L'INFLATION[14] MAîTRISéE[15] et le cycle aboli
# s18 croissance_economie-f2 PercentageOfWordsProcessed= 0.5 PercentageOfWordsReallyProcessed= 0.576923076923077
