# 138 Fixation 1 (268.7,280.3): Après~0
# 168 Fixation 2 (378.1,269.1): l'Amérique~1
# 119 Fixation 3 (535.3,258.7): du~2 Sud~3 où~4
# 184 Fixation 4 (662.4,264.6): il~5 continue~6
# 92 Fixation 5 (302,346.9): Après~0 nourrir~8
# 103 Fixation 6 (253,352.9): nourrir~8
# 173 Fixation 7 (422,345.6): l'Amérique~1 populations~10
# 146 Fixation 8 (605.7,335): où~4 maïs~12
# 138 Fixation 9 (690.7,332): continue~6 a~13
# 99 Fixation 10 (342.9,398.7): nourrir~8 reste~16
# 128 Fixation 11 (286.2,413.9): le~15 reste~16
# 139 Fixation 12 (701.1,401.2): maïs~12 a~13 conquis~14 utilisé~23
# 130 Fixation 13 (342.1,472.4): reste~16 engraisser~25
%%
# Après~0 Fixations= "5/"
# l'Amérique~1 Fixations= "7/"
# du~2 Fixations= "3/"
# Sud~3 Fixations= "3/"
# où~4 Fixations= "8/"
# il~5 Fixations= "4/"
# continue~6 Fixations= "9/"
# de~7 Fixations= ""
# nourrir~8 Fixations= "10/"
# les~9 Fixations= ""
# populations~10 Fixations= "7/"
# le~11 Fixations= ""
# maïs~12 Fixations= "12/"
# a~13 Fixations= "12/"
# conquis~14 Fixations= "12/"
# le~15 Fixations= "11/"
# reste~16 Fixations= "13/"
# du~17 Fixations= ""
# monde~18 Fixations= ""
# où~19 Fixations= ""
# il~20 Fixations= ""
# est~21 Fixations= ""
# surtout~22 Fixations= ""
# utilisé~23 Fixations= "12/"
# pour~24 Fixations= ""
# engraisser~25 Fixations= "13/"
# les~26 Fixations= ""
# troupeaux~27 Fixations= ""
%%
#  APRèS[5] L'AMéRIQUE[7] DU[3] SUD[3] Où[8] IL[4] CONTINUE[9] de NOURRIR[10] les POPULATIONS[7] le MAïS[12] A[12] CONQUIS[12] LE[11] RESTE[13] du monde où il est surtout UTILISé[12] pour ENGRAISSER[13] les troupeaux
# s19 delinquance_juvenile-a1 PercentageOfWordsProcessed= 0.571428571428571 PercentageOfWordsReallyProcessed= 0.615384615384615
