# 129 Fixation 1 (301.1,295): Pour~0 l'instant~1
# 118 Fixation 2 (328,280.8): Pour~0 l'instant~1
# 270 Fixation 3 (507.9,251.4): les~2 télécommunications~3
# 325 Fixation 4 (280.9,337.9): palestiniennes~4
# 245 Fixation 5 (512.7,330.9): sous-traitent~5
# 140 Fixation 6 (449,345.4): sous-traitent~5
# 184 Fixation 7 (654.7,285.8): télécommunications~3
# 280 Fixation 8 (280.5,398.7): l'international~8
# 296 Fixation 9 (312.2,415.3): l'international~8
# 228 Fixation 10 (438.1,464.7): Les~14 réseaux~15
# 215 Fixation 11 (594.1,403.5): compagnie~11
# 364 Fixation 12 (533.3,418.8): une~10 compagnie~11
# 347 Fixation 13 (478.3,468.5): Les~14 réseaux~15
# 214 Fixation 14 (456.3,474.1): Les~14 réseaux~15
# 184 Fixation 15 (429.1,470.4): Les~14 réseaux~15
# 102 Fixation 16 (480.6,477.6): Les~14 réseaux~15
# 262 Fixation 17 (613.2,488.3): sont~16
# 195 Fixation 18 (263,513.4): on~20 trouve~21
# 196 Fixation 19 (395.3,530.4): trouve~21 maintenant~22
# 215 Fixation 20 (256.2,593.7): téléphoniques~25
# 227 Fixation 21 (442.3,608.7): publiques~26
# 236 Fixation 22 (577.1,617.6): à~27 carte~28
%%
# Pour~0 Fixations= "2/"
# l'instant~1 Fixations= "2/"
# les~2 Fixations= "3/"
# télécommunications~3 Fixations= "7/"
# palestiniennes~4 Fixations= "4/"
# sous-traitent~5 Fixations= "6/"
# l'accès~6 Fixations= ""
# à~7 Fixations= ""
# l'international~8 Fixations= "9/"
# à~9 Fixations= ""
# une~10 Fixations= "12/"
# compagnie~11 Fixations= "12/"
# privée~12 Fixations= ""
# israélienne~13 Fixations= ""
# Les~14 Fixations= "16/"
# réseaux~15 Fixations= "16/"
# sont~16 Fixations= "17/"
# au~17 Fixations= ""
# point~18 Fixations= ""
# et~19 Fixations= ""
# on~20 Fixations= "18/"
# trouve~21 Fixations= "19/"
# maintenant~22 Fixations= "19/"
# des~23 Fixations= ""
# cabines~24 Fixations= ""
# téléphoniques~25 Fixations= "20/"
# publiques~26 Fixations= "21/"
# à~27 Fixations= "22/"
# carte~28 Fixations= "22/"
%%
#  POUR[2] L'INSTANT[2] LES[3] TéLéCOMMUNICATIONS[7] PALESTINIENNES[4] SOUS-TRAITENT[6] l'accès à L'INTERNATIONAL[9] à UNE[12] COMPAGNIE[12] privée israélienne LES[16] RéSEAUX[16] SONT[17] au point et ON[18] TROUVE[19] MAINTENANT[19] des cabines TéLéPHONIQUES[20] PUBLIQUES[21] à[22] CARTE[22]
# s20 conflit_israelo_palestinien-m2 PercentageOfWordsProcessed= 0.655172413793103 PercentageOfWordsReallyProcessed= 0.655172413793103
