999 WORDS_habitants~1 140
999 WORDFREQ_25 140
999 WORDSALL_habitants~1 140
999 COSIND_-0.06 140
999 COSGEN_-0.06 140
101 ESRank1 140
999 WORDS_habitants~1 128
999 WORDFREQ_25 128
999 WORDSALL_habitants~1 128
999 COSIND_-0.06 128
999 COSGEN_-0.06 128
102 ESRank2 128
203 ESBackSacRefixation 128
999 WORDS_Tirana~3 85
999 WORDFREQ_N/A 85
999 WORDSALL_de~2_Tirana~3 85
999 COSIND_N/A 85
103 ESRank3 85
202 ESForwSacLong+2+4 85
999 WORDS_compatissent~4 127
999 WORDFREQ_0.14 127
999 WORDSALL_compatissent~4 127
999 COSIND_0.04 127
999 COSGEN_0.04 127
104 ESRank4 127
201 ESForwSacShort 127
999 WORDS_Tirana~3 124
999 WORDFREQ_N/A 124
999 WORDSALL_de~2_Tirana~3 124
999 COSIND_N/A 124
105 ESRank5 124
205 ESBackSacRegrShort 124
999 WORDS_Tirana~3 156
999 WORDFREQ_N/A 156
999 WORDSALL_de~2_Tirana~3 156
999 COSIND_N/A 156
106 ESRank6 156
203 ESBackSacRefixation 156
999 WORDS_compatissent~4 229
999 WORDFREQ_0.14 229
999 WORDSALL_compatissent~4 229
999 COSIND_0.04 229
999 COSGEN_0.04 229
107 ESRank7 229
201 ESForwSacShort 229
999 WORDS_compatissent~4 161
999 WORDFREQ_0.14 161
999 WORDSALL_compatissent~4 161
999 COSIND_0.04 161
999 COSGEN_0.04 161
108 ESRank8 161
203 ESBackSacRefixation 161
999 WORDS_malheurs~6 168
999 WORDFREQ_19.8 168
999 WORDSALL_malheurs~6 168
999 COSIND_0.06 168
999 COSGEN_0.06 168
109 ESRank9 168
202 ESForwSacLong+2+5 168
999 WORDS_malheurs~6 155
999 WORDFREQ_19.8 155
999 WORDSALL_malheurs~6 155
999 COSIND_0.06 155
999 COSGEN_0.06 155
110 ESRank10 155
203 ESBackSacRefixation 155
999 WORDS_frères~9 178
999 WORDFREQ_73.99 178
999 WORDSALL_leurs~8_frères~9 178
999 COSIND_0.05 178
999 COSGEN_0.05 178
111 ESRank11 178
202 ESForwSacLong+3+10 178
999 WORDS_kosovars~10 170
999 WORDFREQ_N/A 170
999 WORDSALL_frères~9_kosovars~10 170
999 COSIND_N/A 170
112 ESRank12 170
201 ESForwSacShort 170
999 WORDS_frères~9 148
999 WORDFREQ_73.99 148
999 WORDSALL_de~7_frères~9 148
999 COSIND_0.05 148
999 COSGEN_0.05 148
113 ESRank13 148
205 ESBackSacRegrShort 148
999 WORDS_frères~9 147
999 WORDFREQ_73.99 147
999 WORDSALL_frères~9 147
999 COSIND_0.05 147
999 COSGEN_0.05 147
114 ESRank14 147
203 ESBackSacRefixation 147
999 WORDS_kosovars~10 246
999 WORDFREQ_N/A 246
999 WORDSALL_kosovars~10 246
999 COSIND_N/A 246
115 ESRank15 246
201 ESForwSacShort 246
999 WORDS_kosovars~10 198
999 WORDFREQ_N/A 198
999 WORDSALL_frères~9_kosovars~10 198
999 COSIND_N/A 198
116 ESRank16 198
203 ESBackSacRefixation 198
999 WORDS_kosovars~10 160
999 WORDFREQ_N/A 160
999 WORDSALL_kosovars~10 160
999 COSIND_N/A 160
117 ESRank17 160
203 ESBackSacRefixation 160
999 WORDS_déclarent~13 217
999 WORDFREQ_1.08 217
999 WORDSALL_déclarent~13 217
999 COSIND_-0.03 217
999 COSGEN_-0.03 217
118 ESRank18 217
202 ESForwSacLong+3+8 217
999 WORDS_déclarent~13 151
999 WORDFREQ_1.08 151
999 WORDSALL_déclarent~13 151
999 COSIND_-0.03 151
999 COSGEN_-0.03 151
119 ESRank19 151
203 ESBackSacRefixation 151
999 WORDS_ulcérés~14 200
999 WORDFREQ_0.07 200
999 WORDSALL_ulcérés~14 200
999 COSIND_0.14 200
999 COSGEN_0.14 200
120 ESRank20 200
201 ESForwSacShort 200
999 WORDS_l'enchaînement~16 100
999 WORDFREQ_3.72 100
999 WORDSALL_par~15_l'enchaînement~16 100
999 COSIND_-0.02 100
999 COSGEN_-0.02 100
202 ESForwSacLong+2+5 100
999 WORDS_ulcérés~14 194
999 WORDFREQ_0.07 194
999 WORDSALL_déclarent~13_ulcérés~14 194
999 COSIND_0.14 194
999 COSGEN_0.14 194
206 ESBackSacRegrLong-2-5 194
999 WORDS_l'enchaînement~16 145
999 WORDFREQ_3.72 145
999 WORDSALL_l'enchaînement~16 145
999 COSIND_-0.02 145
999 COSGEN_-0.02 145
202 ESForwSacLong+2+5 145
999 WORDS_ulcérés~14 131
999 WORDFREQ_0.07 131
999 WORDSALL_ulcérés~14 131
999 COSIND_0.14 131
999 COSGEN_0.14 131
206 ESBackSacRegrLong-2-5 131
999 WORDS_d'événements~17 228
999 WORDFREQ_58.24 228
999 WORDSALL_d'événements~17 228
999 COSIND_0.01 228
999 COSGEN_0.01 228
202 ESForwSacLong+3+21 228
999 WORDS_ressentent~19 225
999 WORDFREQ_1.28 225
999 WORDSALL_qu'ils~18_ressentent~19 225
999 COSIND_0.02 225
999 COSGEN_0.02 225
202 ESForwSacLong+2+8 225
999 WORDS_ressentent~19 121
999 WORDFREQ_1.28 121
999 WORDSALL_ressentent~19 121
999 COSIND_0.02 121
999 COSGEN_0.02 121
203 ESBackSacRefixation 121
999 WORDS_ressentent~19 106
999 WORDFREQ_1.28 106
999 WORDSALL_ressentent~19 106
999 COSIND_0.02 106
999 COSGEN_0.02 106
203 ESBackSacRefixation 106
999 WORDS_comme~20 144
999 WORDFREQ_3429.32 144
999 WORDSALL_comme~20 144
999 COSIND_N/A 144
201 ESForwSacShort 144
999 WORDS_qu'ils~18 110
999 WORDFREQ_N/A 110
999 WORDSALL_d'événements~17_qu'ils~18 110
999 COSIND_N/A 110
206 ESBackSacRegrLong-2-12 110
999 WORDS_profonde~22 157
999 WORDFREQ_37.97 157
999 WORDSALL_profonde~22 157
999 COSIND_-0.06 157
999 COSGEN_-0.06 157
202 ESForwSacLong+4+22 157
999 WORDS_injustice~23 176
999 WORDFREQ_11.49 176
999 WORDSALL_injustice~23 176
999 COSIND_0.05 176
999 COSGEN_0.05 176
201 ESForwSacShort 176
999 WORDS_reprochent~25 137
999 WORDFREQ_0.54 137
999 WORDSALL_reprochent~25 137
999 COSIND_-0.04 137
999 COSGEN_-0.04 137
202 ESForwSacLong+2+4 137
999 WORDS_à~26 160
999 WORDFREQ_19209.05 160
999 WORDSALL_à~26 160
999 COSIND_N/A 160
201 ESForwSacShort 160
999 WORDS_reprochent~25 183
999 WORDFREQ_0.54 183
999 WORDSALL_injustice~23_reprochent~25 183
999 COSIND_-0.04 183
999 COSGEN_-0.04 183
205 ESBackSacRegrShort 183
999 WORDS_reprochent~25 101
999 WORDFREQ_0.54 101
999 WORDSALL_et~24_reprochent~25 101
999 COSIND_-0.04 101
999 COSGEN_-0.04 101
203 ESBackSacRefixation 101
999 WORDS_lancé~29 191
999 WORDFREQ_24.66 191
999 WORDSALL_d'avoir~28_lancé~29 191
999 COSIND_0.05 191
999 COSGEN_0.05 191
202 ESForwSacLong+4+18 191
999 WORDS_d'avoir~28 81
999 WORDFREQ_177.3 81
999 WORDSALL_d'avoir~28 81
999 COSIND_0.03 81
999 COSGEN_0.03 81
205 ESBackSacRegrShort 81
999 WORDS_opérations~31 150
999 WORDFREQ_28.78 150
999 WORDSALL_des~30_opérations~31 150
999 COSIND_0.06 150
999 COSGEN_0.06 150
202 ESForwSacLong+3+12 150
999 WORDS_opérations~31 139
999 WORDFREQ_28.78 139
999 WORDSALL_opérations~31 139
999 COSIND_0.06 139
999 COSGEN_0.06 139
203 ESBackSacRefixation 139
999 WORDS_armées~32 157
999 WORDFREQ_2.97 157
999 WORDSALL_opérations~31_armées~32 157
999 COSIND_0.02 157
999 COSGEN_0.02 157
201 ESForwSacShort 157
999 WORDS_frères~9 164
999 WORDFREQ_73.99 164
999 WORDSALL_leurs~8_frères~9 164
999 COSIND_0.05 164
999 COSGEN_0.05 164
206 ESBackSacRegrLong-23-174 164
999 WORDS_Tirana~3 181
999 WORDFREQ_N/A 181
999 WORDSALL_de~2_Tirana~3 181
999 COSIND_N/A 181
206 ESBackSacRegrLong-6-36 181
999 WORDS_habitants~1 257
999 WORDFREQ_25 257
999 WORDSALL_habitants~1 257
999 COSIND_-0.06 257
999 COSGEN_-0.06 257
206 ESBackSacRegrLong-2-4 257
999 WORDS_Tirana~3 247
999 WORDFREQ_N/A 247
999 WORDSALL_de~2_Tirana~3 247
999 COSIND_N/A 247
202 ESForwSacLong+2+4 247
999 WORDS_compatissent~4 230
999 WORDFREQ_0.14 230
999 WORDSALL_compatissent~4 230
999 COSIND_0.04 230
999 COSGEN_0.04 230
201 ESForwSacShort 230
999 WORDS_ulcérés~14 241
999 WORDFREQ_0.07 241
999 WORDSALL_ulcérés~14 241
999 COSIND_0.14 241
999 COSGEN_0.14 241
202 ESForwSacLong+10+58 241
999 WORDS_à~26 248
999 WORDFREQ_19209.05 248
999 WORDSALL_reprochent~25_à~26 248
999 COSIND_N/A 248
202 ESForwSacLong+12+97 248
200 ESRankN 248
199 ESRankNMinus1 241
198 ESRankNMinus2 230
197 ESRankNMinus3 247
196 ESRankNMinus4 257
195 ESRankNMinus5 181
194 ESRankNMinus6 164
193 ESRankNMinus7 157
192 ESRankNMinus8 139
191 ESRankNMinus9 150
190 ESRankNMinus10 81
