999 WORDS_semaine~1 169
999 WORDFREQ_111.89 169
999 WORDSALL_Une~0_semaine~1 169
999 COSIND_0.06 169
999 COSGEN_0.06 169
101 ESRank1 169
999 WORDS_à~2 189
999 WORDFREQ_19209.05 189
999 WORDSALL_semaine~1_à~2 189
999 COSIND_N/A 189
102 ESRank2 189
201 ESForwSacShort 189
999 WORDS_Santorin~3 266
999 WORDFREQ_N/A 266
999 WORDSALL_à~2_Santorin~3 266
999 COSIND_N/A 266
103 ESRank3 266
201 ESForwSacShort 266
999 WORDS_Santorin~3 156
999 WORDFREQ_N/A 156
999 WORDSALL_Santorin~3 156
999 COSIND_N/A 156
104 ESRank4 156
203 ESBackSacRefixation 156
999 WORDS_plus~6 228
999 WORDFREQ_5014.53 228
999 WORDSALL_l'une~4_plus~6 228
999 COSIND_0.00 228
999 COSGEN_0.00 228
105 ESRank5 228
202 ESForwSacLong+3+11 228
999 WORDS_plus~6 148
999 WORDFREQ_5014.53 148
999 WORDSALL_l'une~4_plus~6 148
999 COSIND_0.00 148
999 COSGEN_0.00 148
106 ESRank6 148
203 ESBackSacRefixation 148
999 WORDS_belles~7 146
999 WORDFREQ_62.57 146
999 WORDSALL_belles~7 146
999 COSIND_0.04 146
999 COSGEN_0.04 146
107 ESRank7 146
201 ESForwSacShort 146
999 WORDS_belles~7 82
999 WORDFREQ_62.57 82
999 WORDSALL_belles~7 82
999 COSIND_0.04 82
999 COSGEN_0.04 82
108 ESRank8 82
203 ESBackSacRefixation 82
999 WORDS_assurément~9 289
999 WORDFREQ_10.41 289
999 WORDSALL_et~8_assurément~9 289
999 COSIND_-0.00 289
999 COSGEN_-0.00 289
109 ESRank9 289
202 ESForwSacLong+2+4 289
999 WORDS_raison~11 210
999 WORDFREQ_247.5 210
999 WORDSALL_en~10_raison~11 210
999 COSIND_0.03 210
999 COSGEN_0.03 210
110 ESRank10 210
202 ESForwSacLong+2+4 210
999 WORDS_raison~11 100
999 WORDFREQ_247.5 100
999 WORDSALL_en~10_raison~11 100
999 COSIND_0.03 100
999 COSGEN_0.03 100
111 ESRank11 100
203 ESBackSacRefixation 100
999 WORDS_caractère~14 103
999 WORDFREQ_47.5 103
999 WORDSALL_caractère~14 103
999 COSIND_-0.02 103
999 COSGEN_-0.02 103
112 ESRank12 103
202 ESForwSacLong+3+8 103
999 WORDS_caractère~14 116
999 WORDFREQ_47.5 116
999 WORDSALL_caractère~14 116
999 COSIND_-0.02 116
999 COSGEN_-0.02 116
113 ESRank13 116
203 ESBackSacRefixation 116
999 WORDS_volcanique~15 373
999 WORDFREQ_1.15 373
999 WORDSALL_volcanique~15 373
999 COSIND_0.35 373
999 COSGEN_0.35 373
114 ESRank14 373
201 ESForwSacShort 373
999 WORDS_plus~17 250
999 WORDFREQ_5014.53 250
999 WORDSALL_la~16_plus~17 250
999 COSIND_0.00 250
999 COSGEN_0.00 250
115 ESRank15 250
202 ESForwSacLong+2+4 250
999 WORDS_spectaculaire~18 307
999 WORDFREQ_4.59 307
999 WORDSALL_plus~17_spectaculaire~18 307
999 COSIND_0.08 307
999 COSGEN_0.08 307
116 ESRank16 307
201 ESForwSacShort 307
999 WORDS_spectaculaire~18 261
999 WORDFREQ_4.59 261
999 WORDSALL_spectaculaire~18 261
999 COSIND_0.08 261
999 COSGEN_0.08 261
117 ESRank17 261
203 ESBackSacRefixation 261
999 WORDS_îles~20 141
999 WORDFREQ_24.66 141
999 WORDSALL_des~19_îles~20 141
999 COSIND_0.29 141
999 COSGEN_0.29 141
118 ESRank18 141
202 ESForwSacLong+2+5 141
999 WORDS_îles~20 166
999 WORDFREQ_24.66 166
999 WORDSALL_des~19_îles~20 166
999 COSIND_0.29 166
999 COSGEN_0.29 166
119 ESRank19 166
203 ESBackSacRefixation 166
999 WORDS_grecques~21 353
999 WORDFREQ_3.18 353
999 WORDSALL_îles~20_grecques~21 353
999 COSIND_-0.06 353
999 COSGEN_-0.06 353
120 ESRank20 353
201 ESForwSacShort 353
999 WORDS_proposée~23 143
999 WORDFREQ_1.96 143
999 WORDSALL_est~22_proposée~23 143
999 COSIND_0.12 143
999 COSGEN_0.12 143
202 ESForwSacLong+2+5 143
999 WORDS_proposée~23 189
999 WORDFREQ_1.96 189
999 WORDSALL_proposée~23 189
999 COSIND_0.12 189
999 COSGEN_0.12 189
203 ESBackSacRefixation 189
999 WORDS_l'agence~25 165
999 WORDFREQ_14.12 165
999 WORDSALL_par~24_l'agence~25 165
999 COSIND_0.05 165
999 COSGEN_0.05 165
202 ESForwSacLong+2+5 165
200 ESRankN 165
199 ESRankNMinus1 189
198 ESRankNMinus2 143
197 ESRankNMinus3 353
196 ESRankNMinus4 166
195 ESRankNMinus5 141
194 ESRankNMinus6 261
193 ESRankNMinus7 307
192 ESRankNMinus8 250
191 ESRankNMinus9 373
190 ESRankNMinus10 116
