999 WORDS_problème~1 151
999 WORDFREQ_55.2 151
999 WORDSALL_Le~0_problème~1 151
999 COSIND_0.00 151
999 COSGEN_0.00 151
101 ESRank1 151
999 WORDS_devra~3 145
999 WORDFREQ_8.04 145
999 WORDSALL_que~2_devra~3 145
999 COSIND_-0.00 145
999 COSGEN_-0.00 145
102 ESRank2 145
202 ESForwSacLong+2+5 145
999 WORDS_gérer~4 157
999 WORDFREQ_1.22 157
999 WORDSALL_devra~3_gérer~4 157
999 COSIND_0.14 157
999 COSGEN_0.14 157
103 ESRank3 157
201 ESForwSacShort 157
999 WORDS_gouvernement~6 138
999 WORDFREQ_119.73 138
999 WORDSALL_le~5_gouvernement~6 138
999 COSIND_0.03 138
999 COSGEN_0.03 138
104 ESRank4 138
202 ESForwSacLong+2+4 138
999 WORDS_canaliser~9 150
999 WORDFREQ_0.74 150
999 WORDSALL_est~7_canaliser~9 150
999 COSIND_0.27 150
999 COSGEN_0.27 150
105 ESRank5 150
202 ESForwSacLong+3+8 150
999 WORDS_canaliser~9 176
999 WORDFREQ_0.74 176
999 WORDSALL_canaliser~9 176
999 COSIND_0.27 176
999 COSGEN_0.27 176
106 ESRank6 176
203 ESBackSacRefixation 176
999 WORDS_retour~11 178
999 WORDFREQ_153.31 178
999 WORDSALL_le~10_retour~11 178
999 COSIND_0.20 178
999 COSGEN_0.20 178
107 ESRank7 178
202 ESForwSacLong+2+4 178
999 WORDS_sinistrés~13 198
999 WORDFREQ_0.54 198
999 WORDSALL_des~12_sinistrés~13 198
999 COSIND_0.32 198
999 COSGEN_0.32 198
108 ESRank8 198
202 ESForwSacLong+2+5 198
999 WORDS_familles~16 149
999 WORDFREQ_32.7 149
999 WORDSALL_dans~14_familles~16 149
999 COSIND_0.09 149
999 COSGEN_0.09 149
109 ESRank9 149
202 ESForwSacLong+3+10 149
999 WORDS_familles~16 162
999 WORDFREQ_32.7 162
999 WORDSALL_familles~16 162
999 COSIND_0.09 162
999 COSGEN_0.09 162
110 ESRank10 162
203 ESBackSacRefixation 162
999 WORDS_d'accueil~17 786
999 WORDFREQ_16.22 786
999 WORDSALL_d'accueil~17 786
999 COSIND_0.51 786
999 COSGEN_0.51 786
111 ESRank11 786
201 ESForwSacShort 786
999 WORDS_d'accueil~17 108
999 WORDFREQ_16.22 108
999 WORDSALL_d'accueil~17 108
999 COSIND_0.51 108
999 COSGEN_0.51 108
112 ESRank12 108
203 ESBackSacRefixation 108
999 WORDS_préalable~19 238
999 WORDFREQ_1.96 238
999 WORDSALL_Le~18_préalable~19 238
999 COSIND_-0.03 238
999 COSGEN_-0.03 238
113 ESRank13 238
202 ESForwSacLong+2+4 238
999 WORDS_d'accueil~17 119
999 WORDFREQ_16.22 119
999 WORDSALL_familles~16_d'accueil~17 119
999 COSIND_0.51 119
999 COSGEN_0.51 119
114 ESRank14 119
206 ESBackSacRegrLong-2-4 119
999 WORDS_préalable~19 233
999 WORDFREQ_1.96 233
999 WORDSALL_Le~18_préalable~19 233
999 COSIND_-0.03 233
999 COSGEN_-0.03 233
115 ESRank15 233
202 ESForwSacLong+2+4 233
200 ESRankN 233
199 ESRankNMinus1 119
198 ESRankNMinus2 238
197 ESRankNMinus3 108
196 ESRankNMinus4 786
195 ESRankNMinus5 162
194 ESRankNMinus6 149
193 ESRankNMinus7 198
192 ESRankNMinus8 178
191 ESRankNMinus9 176
190 ESRankNMinus10 150
