# 137 Fixation 1 (269.9,283.9): L'indice~0
# 260 Fixation 2 (396.8,283.3): vedette~1
# 131 Fixation 3 (518.2,282.9): de~2 Bourse~4
# 146 Fixation 4 (557.4,285.1): la~3 Bourse~4
# 170 Fixation 5 (678.6,287.6): de~5 Londres~6
# 146 Fixation 6 (719.4,287.4): Londres~6
# 178 Fixation 7 (254.9,334.7): clôturé~8
# 231 Fixation 8 (352.6,335.9): clôturé~8 mardi~9
# 118 Fixation 9 (456,341.9): mardi~9 hausse~11
# 103 Fixation 10 (527.5,346.1): hausse~11
# 194 Fixation 11 (610.1,351.9): Il~12 était~13
# 263 Fixation 12 (585.2,352.7): hausse~11 était~13
%%
# L'indice~0 Fixations= "1/"
# vedette~1 Fixations= "2/"
# de~2 Fixations= "3/"
# la~3 Fixations= "4/"
# Bourse~4 Fixations= "4/"
# de~5 Fixations= "5/"
# Londres~6 Fixations= "6/"
# a~7 Fixations= ""
# clôturé~8 Fixations= "8/"
# mardi~9 Fixations= "9/"
# en~10 Fixations= ""
# hausse~11 Fixations= "12/"
# Il~12 Fixations= "11/"
# était~13 Fixations= "12/"
# encouragé~14 Fixations= ""
# par~15 Fixations= ""
# les~16 Fixations= ""
# diverses~17 Fixations= ""
# annonces~18 Fixations= ""
# de~19 Fixations= ""
# sociétés~20 Fixations= ""
# et~21 Fixations= ""
# nourri~22 Fixations= ""
# par~23 Fixations= ""
# les~24 Fixations= ""
# spéculations~25 Fixations= ""
# de~26 Fixations= ""
# rapprochements~27 Fixations= ""
# industriels~28 Fixations= ""
%%
#  L'INDICE[1] VEDETTE[2] DE[3] LA[4] BOURSE[4] DE[5] LONDRES[6] a CLôTURé[8] MARDI[9] en HAUSSE[12] IL[11] éTAIT[12] encouragé par les diverses annonces de sociétés et nourri par les spéculations de rapprochements industriels
# s02 hausse_bourse-f2 PercentageOfWordsProcessed= 0.413793103448276 PercentageOfWordsReallyProcessed= 0.857142857142857
