999 WORDS_économie~1 158
999 WORDFREQ_15.74 158
999 WORDSALL_économie~1 158
999 COSIND_0.88 158
999 COSGEN_0.88 158
101 ESRank1 158
999 WORDS_économie~1 105
999 WORDFREQ_15.74 105
999 WORDSALL_Une~0_économie~1 105
999 COSIND_0.88 105
999 COSGEN_0.88 105
102 ESRank2 105
203 ESBackSacRefixation 105
999 WORDS_Age~3 90
999 WORDFREQ_0.47 90
999 WORDSALL_New~2_Age~3 90
999 COSIND_0.02 90
999 COSGEN_0.02 90
103 ESRank3 90
202 ESForwSacLong+2+5 90
999 WORDS_économie~6 235
999 WORDFREQ_15.74 235
999 WORDSALL_est~4_économie~6 235
999 COSIND_0.88 235
999 COSGEN_0.88 235
104 ESRank4 235
202 ESForwSacLong+3+9 235
999 WORDS_économie~6 131
999 WORDFREQ_15.74 131
999 WORDSALL_est~4_économie~6 131
999 COSIND_0.88 131
999 COSGEN_0.88 131
105 ESRank5 131
203 ESBackSacRefixation 131
999 WORDS_économie~6 163
999 WORDFREQ_15.74 163
999 WORDSALL_une~5_économie~6 163
999 COSIND_0.88 163
999 COSGEN_0.88 163
106 ESRank6 163
203 ESBackSacRefixation 163
999 WORDS_croissance~10 152
999 WORDFREQ_3.92 152
999 WORDSALL_laquelle~8_croissance~10 152
999 COSIND_0.79 152
999 COSGEN_0.79 152
107 ESRank7 152
202 ESForwSacLong+4+18 152
999 WORDS_laquelle~8 152
999 WORDFREQ_182.36 152
999 WORDSALL_laquelle~8 152
999 COSIND_N/A 152
108 ESRank8 152
206 ESBackSacRegrLong-2-4 152
999 WORDS_économie~6 143
999 WORDFREQ_15.74 143
999 WORDSALL_est~4_économie~6 143
999 COSIND_0.88 143
999 COSGEN_0.88 143
109 ESRank9 143
206 ESBackSacRegrLong-2-6 143
999 WORDS_Age~3 153
999 WORDFREQ_0.47 153
999 WORDSALL_Age~3 153
999 COSIND_0.02 153
999 COSGEN_0.02 153
110 ESRank10 153
206 ESBackSacRegrLong-3-9 153
999 WORDS_croissance~10 193
999 WORDFREQ_3.92 193
999 WORDSALL_laquelle~8_croissance~10 193
999 COSIND_0.79 193
999 COSGEN_0.79 193
111 ESRank11 193
202 ESForwSacLong+7+36 193
999 WORDS_croissance~10 122
999 WORDFREQ_3.92 122
999 WORDSALL_la~9_croissance~10 122
999 COSIND_0.79 122
999 COSGEN_0.79 122
112 ESRank12 122
203 ESBackSacRefixation 122
999 WORDS_laquelle~8 137
999 WORDFREQ_182.36 137
999 WORDSALL_laquelle~8 137
999 COSIND_N/A 137
113 ESRank13 137
206 ESBackSacRegrLong-2-4 137
999 WORDS_croissance~10 159
999 WORDFREQ_3.92 159
999 WORDSALL_croissance~10 159
999 COSIND_0.79 159
999 COSGEN_0.79 159
114 ESRank14 159
202 ESForwSacLong+2+4 159
999 WORDS_l'efficacité~12 185
999 WORDFREQ_8.51 185
999 WORDSALL_l'efficacité~12 185
999 COSIND_0.04 185
999 COSGEN_0.04 185
115 ESRank15 185
202 ESForwSacLong+2+4 185
999 WORDS_l'efficacité~12 117
999 WORDFREQ_8.51 117
999 WORDSALL_l'efficacité~12 117
999 COSIND_0.04 117
999 COSGEN_0.04 117
116 ESRank16 117
203 ESBackSacRefixation 117
999 WORDS_laquelle~14 241
999 WORDFREQ_182.36 241
999 WORDSALL_laquelle~14 241
999 COSIND_N/A 241
117 ESRank17 241
202 ESForwSacLong+2+6 241
999 WORDS_utilisons~16 200
999 WORDFREQ_0.07 200
999 WORDSALL_nous~15_utilisons~16 200
999 COSIND_-0.01 200
999 COSGEN_-0.01 200
118 ESRank18 200
202 ESForwSacLong+2+6 200
999 WORDS_ressources~18 247
999 WORDFREQ_16.55 247
999 WORDSALL_les~17_ressources~18 247
999 COSIND_0.04 247
999 COSGEN_0.04 247
119 ESRank19 247
202 ESForwSacLong+2+5 247
999 WORDS_productives~19 233
999 WORDFREQ_0.14 233
999 WORDSALL_productives~19 233
999 COSIND_0.31 233
999 COSGEN_0.31 233
120 ESRank20 233
201 ESForwSacShort 233
999 WORDS_productives~19 174
999 WORDFREQ_0.14 174
999 WORDSALL_productives~19 174
999 COSIND_0.31 174
999 COSGEN_0.31 174
203 ESBackSacRefixation 174
999 WORDS_trouve~21 201
999 WORDFREQ_163.78 201
999 WORDSALL_trouve~21 201
999 COSIND_0.00 201
999 COSGEN_0.00 201
202 ESForwSacLong+2+4 201
999 WORDS_trouve~21 107
999 WORDFREQ_163.78 107
999 WORDSALL_trouve~21 107
999 COSIND_0.00 107
999 COSGEN_0.00 107
203 ESBackSacRefixation 107
999 WORDS_durablement~22 160
999 WORDFREQ_0.74 160
999 WORDSALL_durablement~22 160
999 COSIND_0.33 160
999 COSGEN_0.33 160
201 ESForwSacShort 160
999 WORDS_accélérée~23 250
999 WORDFREQ_2.23 250
999 WORDSALL_accélérée~23 250
999 COSIND_0.32 250
999 COSGEN_0.32 250
201 ESForwSacShort 250
999 WORDS_trouve~21 194
999 WORDFREQ_163.78 194
999 WORDSALL_se~20_trouve~21 194
999 COSIND_0.00 194
999 COSGEN_0.00 194
206 ESBackSacRegrLong-2-13 194
999 WORDS_l'inflation~24 198
999 WORDFREQ_2.3 198
999 WORDSALL_l'inflation~24 198
999 COSIND_0.40 198
999 COSGEN_0.40 198
202 ESForwSacLong+3+26 198
999 WORDS_l'inflation~24 137
999 WORDFREQ_2.3 137
999 WORDSALL_l'inflation~24 137
999 COSIND_0.40 137
999 COSGEN_0.40 137
203 ESBackSacRefixation 137
999 WORDS_maîtrisée~25 261
999 WORDFREQ_0.68 261
999 WORDSALL_maîtrisée~25 261
999 COSIND_0.22 261
999 COSGEN_0.22 261
201 ESForwSacShort 261
999 WORDS_maîtrisée~25 132
999 WORDFREQ_0.68 132
999 WORDSALL_maîtrisée~25 132
999 COSIND_0.22 132
999 COSGEN_0.22 132
203 ESBackSacRefixation 132
999 WORDS_aboli~29 259
999 WORDFREQ_1.28 259
999 WORDSALL_cycle~28_aboli~29 259
999 COSIND_N/A 259
202 ESForwSacLong+4+13 259
999 WORDS_l'inflation~24 109
999 WORDFREQ_2.3 109
999 WORDSALL_l'inflation~24 109
999 COSIND_0.40 109
999 COSGEN_0.40 109
206 ESBackSacRegrLong-5-25 109
999 WORDS_cycle~28 96
999 WORDFREQ_4.05 96
999 WORDSALL_cycle~28 96
999 COSIND_0.20 96
999 COSGEN_0.20 96
202 ESForwSacLong+4+19 96
999 WORDS_maîtrisée~25 208
999 WORDFREQ_0.68 208
999 WORDSALL_maîtrisée~25 208
999 COSIND_0.22 208
999 COSGEN_0.22 208
206 ESBackSacRegrLong-3-7 208
200 ESRankN 208
199 ESRankNMinus1 96
198 ESRankNMinus2 109
197 ESRankNMinus3 259
196 ESRankNMinus4 132
195 ESRankNMinus5 261
194 ESRankNMinus6 137
193 ESRankNMinus7 198
192 ESRankNMinus8 194
191 ESRankNMinus9 250
190 ESRankNMinus10 160
