999 WORDS_L'équipe~0 123
999 WORDFREQ_26.28 123
999 WORDSALL_L'équipe~0 123
999 COSIND_0.07 123
999 COSGEN_0.07 123
101 ESRank1 123
999 WORDS_cycliste~1 143
999 WORDFREQ_2.43 143
999 WORDSALL_L'équipe~0_cycliste~1 143
999 COSIND_0.57 143
999 COSGEN_0.57 143
102 ESRank2 143
201 ESForwSacShort 143
999 WORDS_cycliste~1 112
999 WORDFREQ_2.43 112
999 WORDSALL_cycliste~1 112
999 COSIND_0.57 112
999 COSGEN_0.57 112
103 ESRank3 112
203 ESBackSacRefixation 112
999 WORDS_retrouvé~3 162
999 WORDFREQ_55 162
999 WORDSALL_a~2_retrouvé~3 162
999 COSIND_0.05 162
999 COSGEN_0.05 162
104 ESRank4 162
202 ESForwSacLong+2+3 162
999 WORDS_quelques~4 141
999 WORDFREQ_732.57 141
999 WORDSALL_quelques~4 141
999 COSIND_N/A 141
105 ESRank5 141
201 ESForwSacShort 141
999 WORDS_couleurs~5 105
999 WORDFREQ_80.07 105
999 WORDSALL_couleurs~5 105
999 COSIND_-0.09 105
999 COSGEN_-0.09 105
106 ESRank6 105
201 ESForwSacShort 105
999 WORDS_couleurs~5 183
999 WORDFREQ_80.07 183
999 WORDSALL_couleurs~5 183
999 COSIND_-0.09 183
999 COSGEN_-0.09 183
107 ESRank7 183
203 ESBackSacRefixation 183
999 WORDS_figuraient~14 149
999 WORDFREQ_3.99 149
999 WORDSALL_figuraient~14 149
999 COSIND_0.11 149
999 COSGEN_0.11 149
108 ESRank8 149
202 ESForwSacLong+9+52 149
999 WORDS_plus~15 121
999 WORDFREQ_5014.53 121
999 WORDSALL_figuraient~14_plus~15 121
999 COSIND_0.01 121
999 COSGEN_0.01 121
109 ESRank9 121
201 ESForwSacShort 121
999 WORDS_plus~15 138
999 WORDFREQ_5014.53 138
999 WORDSALL_plus~15 138
999 COSIND_0.01 138
999 COSGEN_0.01 138
110 ESRank10 138
203 ESBackSacRefixation 138
999 WORDS_dopage~30 181
999 WORDFREQ_0 181
999 WORDSALL_liées~28_dopage~30 181
999 COSIND_0.54 181
999 COSGEN_0.54 181
111 ESRank11 181
202 ESForwSacLong+15+83 181
999 WORDS_liées~28 172
999 WORDFREQ_1.42 172
999 WORDSALL_enquêtes~27_liées~28 172
999 COSIND_-0.11 172
999 COSGEN_-0.11 172
112 ESRank12 172
206 ESBackSacRegrLong-2-4 172
200 ESRankN 172
199 ESRankNMinus1 181
198 ESRankNMinus2 138
197 ESRankNMinus3 121
196 ESRankNMinus4 149
195 ESRankNMinus5 183
194 ESRankNMinus6 105
193 ESRankNMinus7 141
192 ESRankNMinus8 162
191 ESRankNMinus9 112
190 ESRankNMinus10 143
