999 WORDS_sont~1 96
999 WORDFREQ_713.18 96
999 WORDSALL_Ils~0_sont~1 96
999 COSIND_0.07 96
999 COSGEN_0.07 96
101 ESRank1 96
999 WORDS_sont~1 89
999 WORDFREQ_713.18 89
999 WORDSALL_Ils~0_sont~1 89
999 COSIND_0.07 89
999 COSGEN_0.07 89
102 ESRank2 89
203 ESBackSacRefixation 89
999 WORDS_six~3 147
999 WORDFREQ_156.22 147
999 WORDSALL_encore~2_six~3 147
999 COSIND_-0.03 147
999 COSGEN_-0.03 147
103 ESRank3 147
202 ESForwSacLong+2+8 147
999 WORDS_six~3 93
999 WORDFREQ_156.22 93
999 WORDSALL_encore~2_six~3 93
999 COSIND_-0.03 93
999 COSGEN_-0.03 93
104 ESRank4 93
203 ESBackSacRefixation 93
999 WORDS_candidats~4 215
999 WORDFREQ_3.99 215
999 WORDSALL_candidats~4 215
999 COSIND_0.03 215
999 COSGEN_0.03 215
105 ESRank5 215
201 ESForwSacShort 215
999 WORDS_vouloir~6 152
999 WORDFREQ_62.97 152
999 WORDSALL_à~5_vouloir~6 152
999 COSIND_-0.00 152
999 COSGEN_-0.00 152
106 ESRank6 152
202 ESForwSacLong+2+4 152
999 WORDS_tenter~7 148
999 WORDFREQ_32.43 148
999 WORDSALL_tenter~7 148
999 COSIND_0.03 148
999 COSGEN_0.03 148
107 ESRank7 148
201 ESForwSacShort 148
999 WORDS_tour~9 196
999 WORDFREQ_280.27 196
999 WORDSALL_sont~1_tour~9 196
999 COSIND_0.05 196
999 COSGEN_0.05 196
108 ESRank8 196
202 ESForwSacLong+2+4 196
999 WORDS_monde~11 193
999 WORDFREQ_732.43 193
999 WORDSALL_du~10_monde~11 193
999 COSIND_0.03 193
999 COSGEN_0.03 193
109 ESRank9 193
202 ESForwSacLong+2+4 193
999 WORDS_ballon~13 270
999 WORDFREQ_17.16 270
999 WORDSALL_en~12_ballon~13 270
999 COSIND_0.06 270
999 COSGEN_0.06 270
110 ESRank10 270
202 ESForwSacLong+2+4 270
999 WORDS_escale~15 100
999 WORDFREQ_7.16 100
999 WORDSALL_tenter~7_escale~15 100
999 COSIND_-0.01 100
999 COSGEN_-0.01 100
111 ESRank11 100
202 ESForwSacLong+2+6 100
200 ESRankN 100
199 ESRankNMinus1 270
198 ESRankNMinus2 193
197 ESRankNMinus3 196
196 ESRankNMinus4 148
195 ESRankNMinus5 152
194 ESRankNMinus6 215
193 ESRankNMinus7 93
192 ESRankNMinus8 147
191 ESRankNMinus9 89
190 ESRankNMinus10 96
