999 WORDS_petit~1 97
999 WORDFREQ_653.78 97
999 WORDSALL_Un~0_petit~1 97
999 COSIND_0.01 97
999 COSGEN_0.01 97
101 ESRank1 97
999 WORDS_bimoteur~2 218
999 WORDFREQ_0.27 218
999 WORDSALL_petit~1_bimoteur~2 218
999 COSIND_0.37 218
999 COSGEN_0.37 218
102 ESRank2 218
201 ESForwSacShort 218
999 WORDS_atteri~9 271
999 WORDFREQ_N/A 271
999 WORDSALL_a~8_atteri~9 271
999 COSIND_N/A 271
103 ESRank3 271
202 ESForwSacLong+7+44 271
999 WORDS_urgence~11 252
999 WORDFREQ_21.35 252
999 WORDSALL_en~10_urgence~11 252
999 COSIND_0.02 252
999 COSGEN_0.02 252
104 ESRank4 252
202 ESForwSacLong+2+4 252
999 WORDS_hier~14 149
999 WORDFREQ_92.64 149
999 WORDSALL_Pittsburgh~13_hier~14 149
999 COSIND_0.05 149
999 COSGEN_0.05 149
105 ESRank5 149
202 ESForwSacLong+3+15 149
999 WORDS_Pittsburgh~13 199
999 WORDFREQ_N/A 199
999 WORDSALL_Pittsburgh~13 199
999 COSIND_N/A 199
106 ESRank6 199
205 ESBackSacRegrShort 199
999 WORDS_raison~16 161
999 WORDFREQ_247.5 161
999 WORDSALL_en~15_raison~16 161
999 COSIND_0.09 161
999 COSGEN_0.09 161
107 ESRank7 161
202 ESForwSacLong+3+9 161
999 WORDS_défaut~18 179
999 WORDFREQ_27.7 179
999 WORDSALL_d'un~17_défaut~18 179
999 COSIND_0.10 179
999 COSGEN_0.10 179
108 ESRank8 179
202 ESForwSacLong+2+6 179
999 WORDS_moteurs~22 196
999 WORDFREQ_9.8 196
999 WORDSALL_des~21_moteurs~22 196
999 COSIND_0.20 196
999 COSGEN_0.20 196
109 ESRank9 196
202 ESForwSacLong+4+12 196
999 WORDS_moteurs~22 118
999 WORDFREQ_9.8 118
999 WORDSALL_un~20_moteurs~22 118
999 COSIND_0.20 118
999 COSGEN_0.20 118
110 ESRank10 118
203 ESBackSacRefixation 118
999 WORDS_Boston-Chicago~7 260
999 WORDFREQ_N/A 260
999 WORDSALL_Boston-Chicago~7 260
999 COSIND_N/A 260
111 ESRank11 260
206 ESBackSacRegrLong-15-74 260
999 WORDS_a~8 183
999 WORDFREQ_2926.69 183
999 WORDSALL_Boston-Chicago~7_a~8 183
999 COSIND_N/A 183
112 ESRank12 183
201 ESForwSacShort 183
999 WORDS_effectuait~4 193
999 WORDFREQ_1.35 193
999 WORDSALL_effectuait~4 193
999 COSIND_0.19 193
999 COSGEN_0.19 193
113 ESRank13 193
206 ESBackSacRegrLong-4-27 193
200 ESRankN 193
199 ESRankNMinus1 183
198 ESRankNMinus2 260
197 ESRankNMinus3 118
196 ESRankNMinus4 196
195 ESRankNMinus5 179
194 ESRankNMinus6 161
193 ESRankNMinus7 199
192 ESRankNMinus8 149
191 ESRankNMinus9 252
190 ESRankNMinus10 271
