999 WORDS_Toute~0 323
999 WORDFREQ_5.2 323
999 WORDSALL_Toute~0 323
999 COSIND_0.01 323
999 COSGEN_0.01 323
101 ESRank1 323
999 WORDS_magie~2 172
999 WORDFREQ_15.14 172
999 WORDSALL_la~1_magie~2 172
999 COSIND_0.19 172
999 COSGEN_0.19 172
102 ESRank2 172
202 ESForwSacLong+2+4 172
999 WORDS_Toute~0 140
999 WORDFREQ_5.2 140
999 WORDSALL_Toute~0 140
999 COSIND_0.01 140
999 COSGEN_0.01 140
103 ESRank3 140
206 ESBackSacRegrLong-2-4 140
999 WORDS_hauts~4 292
999 WORDFREQ_29.26 292
999 WORDSALL_des~3_hauts~4 292
999 COSIND_0.10 292
999 COSGEN_0.10 292
104 ESRank4 292
202 ESForwSacLong+4+14 292
999 WORDS_plateaux~5 200
999 WORDFREQ_8.78 200
999 WORDSALL_hauts~4_plateaux~5 200
999 COSIND_0.23 200
999 COSGEN_0.23 200
105 ESRank5 200
201 ESForwSacShort 200
999 WORDS_basaltiques~6 465
999 WORDFREQ_N/A 465
999 WORDSALL_basaltiques~6 465
999 COSIND_N/A 465
106 ESRank6 465
201 ESForwSacShort 465
999 WORDS_basaltiques~6 145
999 WORDFREQ_N/A 145
999 WORDSALL_basaltiques~6 145
999 COSIND_N/A 145
107 ESRank7 145
203 ESBackSacRefixation 145
999 WORDS_randonnée~14 278
999 WORDFREQ_2.64 278
999 WORDSALL_randonnée~14 278
999 COSIND_0.70 278
999 COSGEN_0.70 278
108 ESRank8 278
202 ESForwSacLong+8+36 278
999 WORDS_relaxation~23 235
999 WORDFREQ_0.68 235
999 WORDSALL_relaxation~23 235
999 COSIND_0.19 235
999 COSGEN_0.19 235
109 ESRank9 235
202 ESForwSacLong+9+40 235
999 WORDS_fond~21 413
999 WORDFREQ_376.15 413
999 WORDSALL_ski~19_fond~21 413
999 COSIND_0.17 413
999 COSGEN_0.17 413
110 ESRank10 413
206 ESBackSacRegrLong-2-4 413
999 WORDS_chaudes~27 228
999 WORDFREQ_13.18 228
999 WORDSALL_chaudes~27 228
999 COSIND_0.15 228
999 COSGEN_0.15 228
111 ESRank11 228
202 ESForwSacLong+6+29 228
999 WORDS_thermales~28 226
999 WORDFREQ_0.41 226
999 WORDSALL_thermales~28 226
999 COSIND_0.09 226
999 COSGEN_0.09 226
112 ESRank12 226
201 ESForwSacShort 226
200 ESRankN 226
199 ESRankNMinus1 228
198 ESRankNMinus2 413
197 ESRankNMinus3 235
196 ESRankNMinus4 278
195 ESRankNMinus5 145
194 ESRankNMinus6 465
193 ESRankNMinus7 200
192 ESRankNMinus8 292
191 ESRankNMinus9 140
190 ESRankNMinus10 172
