999 WORDS_bonne~1 159
999 WORDFREQ_294.53 159
999 WORDSALL_bonne~1 159
999 COSIND_-0.00 159
999 COSGEN_-0.00 159
101 ESRank1 159
999 WORDS_connaissance~2 170
999 WORDFREQ_55.81 170
999 WORDSALL_connaissance~2 170
999 COSIND_0.12 170
999 COSGEN_0.12 170
102 ESRank2 170
201 ESForwSacShort 170
999 WORDS_fonctionnement~4 168
999 WORDFREQ_6.01 168
999 WORDSALL_du~3_fonctionnement~4 168
999 COSIND_0.02 168
999 COSGEN_0.02 168
103 ESRank3 168
202 ESForwSacLong+2+4 168
999 WORDS_fonctionnement~4 132
999 WORDFREQ_6.01 132
999 WORDSALL_fonctionnement~4 132
999 COSIND_0.02 132
999 COSGEN_0.02 132
104 ESRank4 132
203 ESBackSacRefixation 132
999 WORDS_l'ordinateur~6 230
999 WORDFREQ_2.3 230
999 WORDSALL_l'ordinateur~6 230
999 COSIND_0.28 230
999 COSGEN_0.28 230
105 ESRank5 230
202 ESForwSacLong+2+4 230
999 WORDS_d'Internet~8 331
999 WORDFREQ_0 331
999 WORDSALL_et~7_d'Internet~8 331
999 COSIND_N/A 331
106 ESRank6 331
202 ESForwSacLong+2+4 331
999 WORDS_importante~10 490
999 WORDFREQ_18.31 490
999 WORDSALL_est~9_importante~10 490
999 COSIND_0.01 490
999 COSGEN_0.01 490
107 ESRank7 490
202 ESForwSacLong+2+5 490
999 WORDS_d'Internet~8 209
999 WORDFREQ_0 209
999 WORDSALL_d'Internet~8 209
999 COSIND_N/A 209
108 ESRank8 209
206 ESBackSacRegrLong-2-5 209
999 WORDS_l'ordinateur~6 166
999 WORDFREQ_2.3 166
999 WORDSALL_l'ordinateur~6 166
999 COSIND_0.28 166
999 COSGEN_0.28 166
109 ESRank9 166
206 ESBackSacRegrLong-2-4 166
999 WORDS_l'ordinateur~6 132
999 WORDFREQ_2.3 132
999 WORDSALL_l'ordinateur~6 132
999 COSIND_0.28 132
999 COSGEN_0.28 132
110 ESRank10 132
203 ESBackSacRefixation 132
999 WORDS_d'Internet~8 254
999 WORDFREQ_0 254
999 WORDSALL_et~7_d'Internet~8 254
999 COSIND_N/A 254
111 ESRank11 254
202 ESForwSacLong+2+4 254
999 WORDS_systèmes~12 242
999 WORDFREQ_4.73 242
999 WORDSALL_systèmes~12 242
999 COSIND_0.13 242
999 COSGEN_0.13 242
112 ESRank12 242
202 ESForwSacLong+4+20 242
999 WORDS_formation~14 211
999 WORDFREQ_9.32 211
999 WORDSALL_de~13_formation~14 211
999 COSIND_0.93 211
999 COSGEN_0.93 211
113 ESRank13 211
202 ESForwSacLong+2+4 211
999 WORDS_distance~16 414
999 WORDFREQ_52.64 414
999 WORDSALL_à~15_distance~16 414
999 COSIND_0.23 414
999 COSGEN_0.23 414
114 ESRank14 414
202 ESForwSacLong+2+4 414
999 WORDS_pédagogie~20 262
999 WORDFREQ_1.22 262
999 WORDSALL_pédagogie~20 262
999 COSIND_0.19 262
999 COSGEN_0.19 262
115 ESRank15 262
202 ESForwSacLong+4+10 262
999 WORDS_adultes~22 259
999 WORDFREQ_17.23 259
999 WORDSALL_pour~21_adultes~22 259
999 COSIND_0.09 259
999 COSGEN_0.09 259
116 ESRank16 259
202 ESForwSacLong+2+6 259
999 WORDS_formation~24 261
999 WORDFREQ_9.32 261
999 WORDSALL_en~23_formation~24 261
999 COSIND_0.93 261
999 COSGEN_0.93 261
117 ESRank17 261
202 ESForwSacLong+2+4 261
999 WORDS_vont~26 265
999 WORDFREQ_116.62 265
999 WORDSALL_continue~25_vont~26 265
999 COSIND_-0.01 265
999 COSGEN_-0.01 265
118 ESRank18 265
202 ESForwSacLong+2+10 265
999 WORDS_être~27 184
999 WORDFREQ_505.61 184
999 WORDSALL_vont~26_être~27 184
999 COSIND_0.02 184
999 COSGEN_0.02 184
119 ESRank19 184
201 ESForwSacShort 184
999 WORDS_place~30 125
999 WORDFREQ_437.97 125
999 WORDSALL_mis~28_place~30 125
999 COSIND_-0.01 125
999 COSGEN_-0.01 125
120 ESRank20 125
202 ESForwSacLong+3+8 125
200 ESRankN 125
199 ESRankNMinus1 184
198 ESRankNMinus2 265
197 ESRankNMinus3 261
196 ESRankNMinus4 259
195 ESRankNMinus5 262
194 ESRankNMinus6 414
193 ESRankNMinus7 211
192 ESRankNMinus8 242
191 ESRankNMinus9 254
190 ESRankNMinus10 132
