999 WORDS_minuit~5 128
999 WORDFREQ_29.80 128
999 WORDSALL_à~4_minuit~5 128
999 COSIND_-0.04 128
999 COSGEN_-0.04 128
101 ESRank1 128
999 WORDS_minuit~5 128
999 WORDFREQ_29.80 128
999 WORDSALL_minuit~5 128
999 COSIND_-0.04 128
999 COSGEN_-0.04 128
102 ESRank2 128
203 ESBackSacRefixation 128
999 WORDS_jusqu'à~7 304
999 WORDFREQ_0.27 304
999 WORDSALL_et~6_jusqu'à~7 304
999 COSIND_N/A 304
103 ESRank3 304
202 ESForwSacLong+2+4 304
999 WORDS_janvier~13 157
999 WORDFREQ_30.61 157
999 WORDSALL_décembre~3_janvier~13 157
999 COSIND_0.00 157
999 COSGEN_0.00 157
104 ESRank4 157
202 ESForwSacLong+6+19 157
999 WORDS_janvier~13 107
999 WORDFREQ_30.61 107
999 WORDSALL_31~2_décembre~3_janvier~13 107
999 COSIND_0.00 107
999 COSGEN_0.00 107
105 ESRank5 107
203 ESBackSacRefixation 107
999 WORDS_sont~18 135
999 WORDFREQ_386.35 135
999 WORDSALL_du~10_mois~11_sont~18 135
999 COSIND_0.03 135
999 COSGEN_0.03 135
106 ESRank6 135
202 ESForwSacLong+5+23 135
999 WORDS_football~17 166
999 WORDFREQ_6.28 166
999 WORDSALL_fin~9_mois~11_football~17 166
999 COSIND_-0.02 166
999 COSGEN_-0.02 166
107 ESRank7 166
205 ESBackSacRegrShort 166
999 WORDS_football~17 214
999 WORDFREQ_6.28 214
999 WORDSALL_fin~9_football~17 214
999 COSIND_-0.02 214
999 COSGEN_-0.02 214
108 ESRank8 214
203 ESBackSacRefixation 214
999 WORDS_sont~18 200
999 WORDFREQ_386.35 200
999 WORDSALL_football~17_sont~18 200
999 COSIND_0.03 200
999 COSGEN_0.03 200
109 ESRank9 200
201 ESForwSacShort 200
999 WORDS_autorisés~19 452
999 WORDFREQ_1.49 452
999 WORDSALL_autorisés~19 452
999 COSIND_0.01 452
999 COSGEN_0.01 452
110 ESRank10 452
201 ESForwSacShort 452
200 ESRankN 452
199 ESRankNMinus1 200
198 ESRankNMinus2 214
197 ESRankNMinus3 166
196 ESRankNMinus4 135
195 ESRankNMinus5 107
194 ESRankNMinus6 157
193 ESRankNMinus7 304
192 ESRankNMinus8 128
191 ESRankNMinus9 128
