999 WORDS_Zinedine~0 153
999 WORDFREQ_N/A 153
999 WORDSALL_Zinedine~0 153
999 COSIND_N/A 153
101 ESRank1 153
999 WORDS_Zidane~1 197
999 WORDFREQ_N/A 197
999 WORDSALL_Zidane~1 197
999 COSIND_N/A 197
102 ESRank2 197
201 ESForwSacShort 197
999 WORDS_artisan~3 137
999 WORDFREQ_5 137
999 WORDSALL_grand~2_artisan~3 137
999 COSIND_-0.08 137
999 COSGEN_-0.08 137
103 ESRank3 137
202 ESForwSacLong+2+7 137
999 WORDS_artisan~3 166
999 WORDFREQ_5 166
999 WORDSALL_artisan~3 166
999 COSIND_-0.08 166
999 COSGEN_-0.08 166
104 ESRank4 166
203 ESBackSacRefixation 166
999 WORDS_victoire~6 199
999 WORDFREQ_57.23 199
999 WORDSALL_Zinedine~0_Zidane~1_victoire~6 199
999 COSIND_-0.09 199
999 COSGEN_-0.09 199
105 ESRank5 199
202 ESForwSacLong+3+7 199
999 WORDS_victoire~6 126
999 WORDFREQ_57.23 126
999 WORDSALL_Zinedine~0_victoire~6 126
999 COSIND_-0.09 126
999 COSGEN_-0.09 126
106 ESRank6 126
203 ESBackSacRefixation 126
999 WORDS_France~9 195
999 WORDFREQ_N/A 195
999 WORDSALL_Zidane~1_grand~2_France~9 195
999 COSIND_N/A 195
107 ESRank7 195
202 ESForwSacLong+3+7 195
999 WORDS_monde~16 250
999 WORDFREQ_732.43 250
999 WORDSALL_Zidane~1_France~9_monde~16 250
999 COSIND_-0.04 250
999 COSGEN_-0.04 250
108 ESRank8 250
202 ESForwSacLong+7+26 250
999 WORDS_France~9 97
999 WORDFREQ_N/A 97
999 WORDSALL_Zidane~1_grand~2_France~9 97
999 COSIND_N/A 97
109 ESRank9 97
206 ESBackSacRegrLong-7-26 97
999 WORDS_finale~11 271
999 WORDFREQ_2.5 271
999 WORDSALL_en~10_finale~11 271
999 COSIND_-0.01 271
999 COSGEN_-0.01 271
110 ESRank10 271
202 ESForwSacLong+2+4 271
999 WORDS_monde~16 232
999 WORDFREQ_732.43 232
999 WORDSALL_victoire~6_monde~16 232
999 COSIND_-0.04 232
999 COSGEN_-0.04 232
111 ESRank11 232
202 ESForwSacLong+5+16 232
999 WORDS_coupe~14 162
999 WORDFREQ_33.58 162
999 WORDSALL_victoire~6_coupe~14 162
999 COSIND_-0.07 162
999 COSGEN_-0.07 162
112 ESRank12 162
206 ESBackSacRegrLong-2-4 162
999 WORDS_France~9 127
999 WORDFREQ_N/A 127
999 WORDSALL_la~8_France~9 127
999 COSIND_N/A 127
113 ESRank13 127
206 ESBackSacRegrLong-5-17 127
999 WORDS_a~20 159
999 WORDFREQ_2926.69 159
999 WORDSALL_finale~11_Brésil~19_a~20 159
999 COSIND_N/A 159
114 ESRank14 159
202 ESForwSacLong+11+50 159
999 WORDS_élu~22 89
999 WORDFREQ_4.46 89
999 WORDSALL_de~12_a~20_été~21_élu~22 89
999 COSIND_-0.03 89
999 COSGEN_-0.03 89
115 ESRank15 89
202 ESForwSacLong+2+7 89
999 WORDS_monde~16 198
999 WORDFREQ_732.43 198
999 WORDSALL_coupe~14_monde~16 198
999 COSIND_-0.04 198
999 COSGEN_-0.04 198
116 ESRank16 198
206 ESBackSacRegrLong-6-27 198
999 WORDS_champions~25 122
999 WORDFREQ_2.97 122
999 WORDSALL_monde~16_champions~25 122
999 COSIND_0.01 122
999 COSGEN_0.01 122
117 ESRank17 122
202 ESForwSacLong+9+45 122
999 WORDS_monde~27 184
999 WORDFREQ_732.43 184
999 WORDSALL_le~18_Brésil~19_monde~27 184
999 COSIND_-0.04 184
999 COSGEN_-0.04 184
118 ESRank18 184
202 ESForwSacLong+2+4 184
999 WORDS_champions~25 150
999 WORDFREQ_2.97 150
999 WORDSALL_monde~16_champions~25 150
999 COSIND_0.01 150
999 COSGEN_0.01 150
119 ESRank19 150
206 ESBackSacRegrLong-2-4 150
200 ESRankN 150
199 ESRankNMinus1 184
198 ESRankNMinus2 122
197 ESRankNMinus3 198
196 ESRankNMinus4 89
195 ESRankNMinus5 159
194 ESRankNMinus6 127
193 ESRankNMinus7 162
192 ESRankNMinus8 232
191 ESRankNMinus9 271
190 ESRankNMinus10 97
