# 137 Fixation 1 (295.4,293): L'idée~0
# 150 Fixation 2 (377.5,262.2): est~1 pousser~3
# 220 Fixation 3 (550.4,301.5): pousser~3 compagnies~5
# 179 Fixation 4 (300.6,333): pétrolières~6
# 215 Fixation 5 (466.6,322.7): à~7 réorienter~8
# 190 Fixation 6 (553.4,345.6): réorienter~8
# 91 Fixation 7 (576.8,345.8): réorienter~8
# 202 Fixation 8 (308.4,370.9): pétrolières~6
# 152 Fixation 9 (517.8,387.1): vers~11 zone~13
# 163 Fixation 10 (680.6,399.9): la~14 chère~16
# 97 Fixation 11 (755,387.3): moins~15 chère~16
# 215 Fixation 12 (303.8,443.3): investissements~10
# 173 Fixation 13 (508.5,455.9): Dans~19 région~21
# 175 Fixation 14 (653,463.3): région~21
# 116 Fixation 15 (721.6,463.9): le~22 coût~23
# 275 Fixation 16 (325.7,523): d'exploitation~24
# 231 Fixation 17 (511,525.8): des~25 gisements~26
# 82 Fixation 18 (664.5,523.2): est~27 très~28
%%
# L'idée~0 Fixations= "1/"
# est~1 Fixations= "2/"
# de~2 Fixations= ""
# pousser~3 Fixations= "3/"
# les~4 Fixations= ""
# compagnies~5 Fixations= "3/"
# pétrolières~6 Fixations= "8/"
# à~7 Fixations= "5/"
# réorienter~8 Fixations= "7/"
# leurs~9 Fixations= ""
# investissements~10 Fixations= "12/"
# vers~11 Fixations= "9/"
# la~12 Fixations= ""
# zone~13 Fixations= "9/"
# la~14 Fixations= "10/"
# moins~15 Fixations= "11/"
# chère~16 Fixations= "11/"
# de~17 Fixations= ""
# production~18 Fixations= ""
# Dans~19 Fixations= "13/"
# cette~20 Fixations= ""
# région~21 Fixations= "14/"
# le~22 Fixations= "15/"
# coût~23 Fixations= "15/"
# d'exploitation~24 Fixations= "16/"
# des~25 Fixations= "17/"
# gisements~26 Fixations= "17/"
# est~27 Fixations= "18/"
# très~28 Fixations= "18/"
# oscillant~29 Fixations= ""
%%
#  L'IDéE[1] EST[2] de POUSSER[3] les COMPAGNIES[3] PéTROLIèRES[8] à[5] RéORIENTER[7] leurs INVESTISSEMENTS[12] VERS[9] la ZONE[9] LA[10] MOINS[11] CHèRE[11] de production DANS[13] cette RéGION[14] LE[15] COûT[15] D'EXPLOITATION[16] DES[17] GISEMENTS[17] EST[18] TRèS[18] oscillant
# s07 prix_petrole-m1 PercentageOfWordsProcessed= 0.733333333333333 PercentageOfWordsReallyProcessed= 0.758620689655172
