# 182 Fixation 1 (246.1,267.8): La~0 formule~1
# 159 Fixation 2 (415.7,258.1): 1~2 a~3
# 177 Fixation 3 (483.8,335.3): les~10 plus~11
# 227 Fixation 4 (572.8,343.9): plus~11 rapides~12
# 84 Fixation 5 (639.3,361.6): rapides~12 à~13
# 327 Fixation 6 (538.7,413.7): discipline~17 reine~18
# 202 Fixation 7 (528.1,465.6): parfois~23
# 213 Fixation 8 (674.1,476.3): ses~25 conducteurs~26
# 124 Fixation 9 (411.2,544.7): rongent~28
# 239 Fixation 10 (307.4,553.4): qu'ils~27
# 184 Fixation 11 (463.5,543.7): leur~29 frein~30
# 164 Fixation 12 (374.6,431): la~16 discipline~17
%%
# La~0 Fixations= "1/"
# formule~1 Fixations= "1/"
# 1~2 Fixations= "2/"
# a~3 Fixations= "2/"
# réclamé~4 Fixations= ""
# de~5 Fixations= ""
# ses~6 Fixations= ""
# pilotes~7 Fixations= ""
# qu'ils~8 Fixations= ""
# soient~9 Fixations= ""
# les~10 Fixations= "3/"
# plus~11 Fixations= "4/"
# rapides~12 Fixations= "5/"
# à~13 Fixations= "5/"
# tout~14 Fixations= ""
# moment~15 Fixations= ""
# la~16 Fixations= "12/"
# discipline~17 Fixations= "12/"
# reine~18 Fixations= "6/"
# du~19 Fixations= ""
# sport~20 Fixations= ""
# automobile~21 Fixations= ""
# exige~22 Fixations= ""
# parfois~23 Fixations= "7/"
# de~24 Fixations= ""
# ses~25 Fixations= "8/"
# conducteurs~26 Fixations= "8/"
# qu'ils~27 Fixations= "10/"
# rongent~28 Fixations= "9/"
# leur~29 Fixations= "11/"
# frein~30 Fixations= "11/"
%%
#  LA[1] FORMULE[1] 1[2] A[2] réclamé de ses pilotes qu'ils soient LES[3] PLUS[4] RAPIDES[5] à[5] tout moment LA[12] DISCIPLINE[12] REINE[6] du sport automobile exige PARFOIS[7] de SES[8] CONDUCTEURS[8] QU'ILS[10] RONGENT[9] LEUR[11] FREIN[11]
# s21 course_voiliers-m1 PercentageOfWordsProcessed= 0.580645161290323 PercentageOfWordsReallyProcessed= 0.580645161290323
