999 WORDS_fondateur~1 174
999 WORDFREQ_1.69 174
999 WORDSALL_Le~0_fondateur~1 174
999 COSIND_0.01 174
999 COSGEN_0.01 174
101 ESRank1 174
999 WORDS_guérilla~4 171
999 WORDFREQ_1.35 171
999 WORDSALL_de~2_guérilla~4 171
999 COSIND_0.00 171
999 COSGEN_0.00 171
102 ESRank2 171
202 ESForwSacLong+3+7 171
999 WORDS_guérilla~4 213
999 WORDFREQ_1.35 213
999 WORDSALL_la~3_guérilla~4 213
999 COSIND_0.00 213
999 COSGEN_0.00 213
103 ESRank3 213
203 ESBackSacRefixation 213
999 WORDS_rébellion~6 174
999 WORDFREQ_3.65 174
999 WORDSALL_en~5_rébellion~6 174
999 COSIND_0.03 174
999 COSGEN_0.03 174
104 ESRank4 174
202 ESForwSacLong+2+4 174
200 ESRankN 174
199 ESRankNMinus1 213
198 ESRankNMinus2 171
197 ESRankNMinus3 174
