999 WORDS_a~2 136
999 WORDFREQ_2926.69 136
999 WORDSALL_décret~1_a~2 136
999 COSIND_N/A 136
101 ESRank1 136
999 WORDS_émis~4 170
999 WORDFREQ_2.3 170
999 WORDSALL_été~3_émis~4 170
999 COSIND_0.11 170
999 COSGEN_0.11 170
102 ESRank2 170
202 ESForwSacLong+2+7 170
999 WORDS_modifie~6 176
999 WORDFREQ_1.76 176
999 WORDSALL_modifie~6 176
999 COSIND_-0.06 176
999 COSGEN_-0.06 176
103 ESRank3 176
202 ESForwSacLong+2+5 176
999 WORDS_code~8 181
999 WORDFREQ_13.58 181
999 WORDSALL_code~8 181
999 COSIND_0.02 181
999 COSGEN_0.02 181
104 ESRank4 181
202 ESForwSacLong+2+4 181
999 WORDS_construction~11 222
999 WORDFREQ_18.24 222
999 WORDSALL_construction~11 222
999 COSIND_0.46 222
999 COSGEN_0.46 222
105 ESRank5 222
202 ESForwSacLong+3+7 222
999 WORDS_l'habitation~14 228
999 WORDFREQ_3.58 228
999 WORDSALL_de~13_l'habitation~14 228
999 COSIND_0.46 228
999 COSGEN_0.46 228
106 ESRank6 228
202 ESForwSacLong+3+7 228
999 WORDS_Il~15 171
999 WORDFREQ_15832.09 171
999 WORDSALL_Il~15 171
999 COSIND_N/A 171
107 ESRank7 171
201 ESForwSacShort 171
999 WORDS_subventions~19 211
999 WORDFREQ_0.34 211
999 WORDSALL_aux~18_subventions~19 211
999 COSIND_0.24 211
999 COSGEN_0.24 211
108 ESRank8 211
202 ESForwSacLong+4+17 211
999 WORDS_relatif~17 100
999 WORDFREQ_3.78 100
999 WORDSALL_relatif~17 100
999 COSIND_-0.01 100
999 COSGEN_-0.01 100
109 ESRank9 100
206 ESBackSacRegrLong-2-5 100
999 WORDS_relatif~17 161
999 WORDFREQ_3.78 161
999 WORDSALL_relatif~17 161
999 COSIND_-0.01 161
999 COSGEN_-0.01 161
110 ESRank10 161
203 ESBackSacRefixation 161
999 WORDS_l'acquisition~25 155
999 WORDFREQ_2.84 155
999 WORDSALL_l'acquisition~25 155
999 COSIND_0.08 155
999 COSGEN_0.08 155
111 ESRank11 155
202 ESForwSacLong+8+48 155
999 WORDS_l'acquisition~25 161
999 WORDFREQ_2.84 161
999 WORDSALL_l'acquisition~25 161
999 COSIND_0.08 161
999 COSGEN_0.08 161
112 ESRank12 161
203 ESBackSacRefixation 161
999 WORDS_l'amélioration~27 165
999 WORDFREQ_2.23 165
999 WORDSALL_l'amélioration~27 165
999 COSIND_0.14 165
999 COSGEN_0.14 165
113 ESRank13 165
202 ESForwSacLong+2+4 165
999 WORDS_logements~29 177
999 WORDFREQ_2.57 177
999 WORDSALL_logements~29 177
999 COSIND_1.00 177
999 COSGEN_1.00 177
114 ESRank14 177
202 ESForwSacLong+2+5 177
200 ESRankN 177
199 ESRankNMinus1 165
198 ESRankNMinus2 161
197 ESRankNMinus3 155
196 ESRankNMinus4 161
195 ESRankNMinus5 100
194 ESRankNMinus6 211
193 ESRankNMinus7 171
192 ESRankNMinus8 228
191 ESRankNMinus9 222
190 ESRankNMinus10 181
