# 165 Fixation 1 (280,280.2): Dans~0
# 160 Fixation 2 (349.6,282.9): le~1 Pas-de-Calais~2
# 109 Fixation 3 (393.7,281.2): Pas-de-Calais~2
# 242 Fixation 4 (454.2,285.7): Pas-de-Calais~2
# 314 Fixation 5 (594.2,283.1): les~3 chasseurs~4
# 332 Fixation 6 (293.6,341.2): réclament~5
# 135 Fixation 7 (284.2,352): réclament~5
# 292 Fixation 8 (448.3,351.9): le~6 droit~7
# 295 Fixation 9 (570.4,351.6): de~8 continuer~9
# 155 Fixation 10 (687.5,351.5): à~10 chasser~11
# 161 Fixation 11 (308.3,419.6): dans~12 huttes~14
# 100 Fixation 12 (280.4,415.4): dans~12 huttes~14
# 264 Fixation 13 (378.5,410.8): les~13 huttes~14
# 366 Fixation 14 (554.1,426.9): France~16
# 166 Fixation 15 (671.7,399.5): risque~17
%%
# Dans~0 Fixations= "1/"
# le~1 Fixations= "2/"
# Pas-de-Calais~2 Fixations= "4/"
# les~3 Fixations= "5/"
# chasseurs~4 Fixations= "5/"
# réclament~5 Fixations= "7/"
# le~6 Fixations= "8/"
# droit~7 Fixations= "8/"
# de~8 Fixations= "9/"
# continuer~9 Fixations= "9/"
# à~10 Fixations= "10/"
# chasser~11 Fixations= "10/"
# dans~12 Fixations= "12/"
# les~13 Fixations= "13/"
# huttes~14 Fixations= "13/"
# La~15 Fixations= ""
# France~16 Fixations= "14/"
# risque~17 Fixations= "15/"
# pourtant~18 Fixations= ""
# une~19 Fixations= ""
# lourde~20 Fixations= ""
# amende~21 Fixations= ""
# si~22 Fixations= ""
# elle~23 Fixations= ""
# contrevient~24 Fixations= ""
# aux~25 Fixations= ""
# directives~26 Fixations= ""
# européennes~27 Fixations= ""
# qui~28 Fixations= ""
# protègent~29 Fixations= ""
# les~30 Fixations= ""
# oiseaux~31 Fixations= ""
# migrateurs~32 Fixations= ""
%%
#  DANS[1] LE[2] PAS-DE-CALAIS[4] LES[5] CHASSEURS[5] RéCLAMENT[7] LE[8] DROIT[8] DE[9] CONTINUER[9] à[10] CHASSER[10] DANS[12] LES[13] HUTTES[13] La FRANCE[14] RISQUE[15] pourtant une lourde amende si elle contrevient aux directives européennes qui protègent les oiseaux migrateurs
# s13 chasse_oiseaux-f1 PercentageOfWordsProcessed= 0.515151515151515 PercentageOfWordsReallyProcessed= 0.944444444444444
