999 WORDS_habitants~1 140
999 WORDFREQ_25 140
999 WORDSALL_Les~0_habitants~1 140
999 COSIND_-0.06 140
999 COSGEN_-0.06 140
101 ESRank1 140
999 WORDS_Tirana~3 316
999 WORDFREQ_N/A 316
999 WORDSALL_de~2_Tirana~3 316
999 COSIND_N/A 316
102 ESRank2 316
202 ESForwSacLong+2+4 316
999 WORDS_Tirana~3 212
999 WORDFREQ_N/A 212
999 WORDSALL_de~2_Tirana~3 212
999 COSIND_N/A 212
103 ESRank3 212
203 ESBackSacRefixation 212
999 WORDS_compatissent~4 398
999 WORDFREQ_0.14 398
999 WORDSALL_compatissent~4 398
999 COSIND_0.04 398
999 COSGEN_0.04 398
104 ESRank4 398
201 ESForwSacShort 398
999 WORDS_compatissent~4 220
999 WORDFREQ_0.14 220
999 WORDSALL_compatissent~4 220
999 COSIND_0.04 220
999 COSGEN_0.04 220
105 ESRank5 220
203 ESBackSacRefixation 220
999 WORDS_malheurs~6 225
999 WORDFREQ_19.8 225
999 WORDSALL_malheurs~6 225
999 COSIND_0.06 225
999 COSGEN_0.06 225
106 ESRank6 225
202 ESForwSacLong+2+5 225
999 WORDS_frères~9 236
999 WORDFREQ_73.99 236
999 WORDSALL_de~7_frères~9 236
999 COSIND_0.05 236
999 COSGEN_0.05 236
107 ESRank7 236
202 ESForwSacLong+3+10 236
999 WORDS_frères~9 199
999 WORDFREQ_73.99 199
999 WORDSALL_frères~9 199
999 COSIND_0.05 199
999 COSGEN_0.05 199
108 ESRank8 199
203 ESBackSacRefixation 199
999 WORDS_kosovars~10 212
999 WORDFREQ_N/A 212
999 WORDSALL_kosovars~10 212
999 COSIND_N/A 212
109 ESRank9 212
201 ESForwSacShort 212
999 WORDS_Ils~11 197
999 WORDFREQ_2809.53 197
999 WORDSALL_Ils~11 197
999 COSIND_N/A 197
110 ESRank10 197
201 ESForwSacShort 197
999 WORDS_déclarent~13 236
999 WORDFREQ_1.08 236
999 WORDSALL_déclarent~13 236
999 COSIND_-0.03 236
999 COSGEN_-0.03 236
111 ESRank11 236
202 ESForwSacLong+2+4 236
999 WORDS_déclarent~13 194
999 WORDFREQ_1.08 194
999 WORDSALL_déclarent~13 194
999 COSIND_-0.03 194
999 COSGEN_-0.03 194
112 ESRank12 194
203 ESBackSacRefixation 194
999 WORDS_ulcérés~14 220
999 WORDFREQ_0.07 220
999 WORDSALL_ulcérés~14 220
999 COSIND_0.14 220
999 COSGEN_0.14 220
113 ESRank13 220
201 ESForwSacShort 220
999 WORDS_l'enchaînement~16 245
999 WORDFREQ_3.72 245
999 WORDSALL_l'enchaînement~16 245
999 COSIND_-0.02 245
999 COSGEN_-0.02 245
114 ESRank14 245
202 ESForwSacLong+2+5 245
999 WORDS_l'enchaînement~16 159
999 WORDFREQ_3.72 159
999 WORDSALL_par~15_l'enchaînement~16 159
999 COSIND_-0.02 159
999 COSGEN_-0.02 159
115 ESRank15 159
203 ESBackSacRefixation 159
999 WORDS_d'événements~17 158
999 WORDFREQ_58.24 158
999 WORDSALL_d'événements~17 158
999 COSIND_0.01 158
999 COSGEN_0.01 158
116 ESRank16 158
201 ESForwSacShort 158
999 WORDS_d'événements~17 222
999 WORDFREQ_58.24 222
999 WORDSALL_d'événements~17 222
999 COSIND_0.01 222
999 COSGEN_0.01 222
117 ESRank17 222
203 ESBackSacRefixation 222
999 WORDS_qu'ils~18 140
999 WORDFREQ_N/A 140
999 WORDSALL_qu'ils~18 140
999 COSIND_N/A 140
118 ESRank18 140
201 ESForwSacShort 140
999 WORDS_ressentent~19 177
999 WORDFREQ_1.28 177
999 WORDSALL_ressentent~19 177
999 COSIND_0.02 177
999 COSGEN_0.02 177
119 ESRank19 177
201 ESForwSacShort 177
999 WORDS_comme~20 233
999 WORDFREQ_3429.32 233
999 WORDSALL_comme~20 233
999 COSIND_N/A 233
120 ESRank20 233
201 ESForwSacShort 233
999 WORDS_comme~20 129
999 WORDFREQ_3429.32 129
999 WORDSALL_comme~20 129
999 COSIND_N/A 129
203 ESBackSacRefixation 129
200 ESRankN 129
199 ESRankNMinus1 233
198 ESRankNMinus2 177
197 ESRankNMinus3 140
196 ESRankNMinus4 222
195 ESRankNMinus5 158
194 ESRankNMinus6 159
193 ESRankNMinus7 245
192 ESRankNMinus8 220
191 ESRankNMinus9 194
190 ESRankNMinus10 236
