# 213 Fixation 1 (282.9,286.5): Il~0 aura~1
# 100 Fixation 2 (308.8,289.5): Il~0 aura~1
# 222 Fixation 3 (358,290.4): aura~1 suffi~2
# 174 Fixation 4 (477.5,286.1): que~3 soleil~5
# 201 Fixation 5 (524.6,287): le~4 soleil~5
# 311 Fixation 6 (634.3,286.1): montre~6
# 144 Fixation 7 (710.2,292.7): montre~6 bout~8
# 332 Fixation 8 (284.2,351.3): de~9 nez~11
# 220 Fixation 9 (350.9,351): son~10 nez~11
# 96 Fixation 10 (436.4,354.4): pour~12
# 84 Fixation 11 (554.8,353.9): les~14 jardineries~15
# 212 Fixation 12 (652.2,351.2): jardineries~15
# 173 Fixation 13 (712.9,356.6): jardineries~15 soient~16
# 212 Fixation 14 (283.4,425.8): prises~17
# 158 Fixation 15 (268.4,416.4): prises~17
# 370 Fixation 16 (366.2,410.4): d'assaut~18
%%
# Il~0 Fixations= "2/"
# aura~1 Fixations= "3/"
# suffi~2 Fixations= "3/"
# que~3 Fixations= "4/"
# le~4 Fixations= "5/"
# soleil~5 Fixations= "5/"
# montre~6 Fixations= "7/"
# le~7 Fixations= ""
# bout~8 Fixations= "7/"
# de~9 Fixations= "8/"
# son~10 Fixations= "9/"
# nez~11 Fixations= "9/"
# pour~12 Fixations= "10/"
# que~13 Fixations= ""
# les~14 Fixations= "11/"
# jardineries~15 Fixations= "13/"
# soient~16 Fixations= "13/"
# prises~17 Fixations= "15/"
# d'assaut~18 Fixations= "16/"
# On~19 Fixations= ""
# dépense~20 Fixations= ""
# de~21 Fixations= ""
# plus~22 Fixations= ""
# en~23 Fixations= ""
# plus~24 Fixations= ""
# pour~25 Fixations= ""
# la~26 Fixations= ""
# plantation~27 Fixations= ""
# de~28 Fixations= ""
# fleurs~29 Fixations= ""
# dans~30 Fixations= ""
# son~31 Fixations= ""
# jardin~32 Fixations= ""
%%
#  IL[2] AURA[3] SUFFI[3] QUE[4] LE[5] SOLEIL[5] MONTRE[7] le BOUT[7] DE[8] SON[9] NEZ[9] POUR[10] que LES[11] JARDINERIES[13] SOIENT[13] PRISES[15] D'ASSAUT[16] On dépense de plus en plus pour la plantation de fleurs dans son jardin
# s13 plantation_fleurs-f1 PercentageOfWordsProcessed= 0.515151515151515 PercentageOfWordsReallyProcessed= 0.894736842105263
