999 WORDS_Quatre~0 171
999 WORDFREQ_282.64 171
999 WORDSALL_Quatre~0 171
999 COSIND_0.01 171
999 COSGEN_0.01 171
101 ESRank1 171
999 WORDS_jours~1 164
999 WORDFREQ_515.41 164
999 WORDSALL_jours~1 164
999 COSIND_-0.00 164
999 COSGEN_-0.00 164
102 ESRank2 164
201 ESForwSacShort 164
999 WORDS_grains~3 247
999 WORDFREQ_11.69 247
999 WORDSALL_de~2_grains~3 247
999 COSIND_-0.00 247
999 COSGEN_-0.00 247
103 ESRank3 247
202 ESForwSacLong+2+4 247
999 WORDS_sont~4 232
999 WORDFREQ_386.35 232
999 WORDSALL_sont~4 232
999 COSIND_-0.01 232
999 COSGEN_-0.01 232
104 ESRank4 232
201 ESForwSacShort 232
999 WORDS_jours~1 317
999 WORDFREQ_515.41 317
999 WORDSALL_Quatre~0_jours~1 317
999 COSIND_-0.00 317
999 COSGEN_-0.00 317
105 ESRank5 317
206 ESBackSacRegrLong-3-11 317
999 WORDS_grains~3 185
999 WORDFREQ_11.69 185
999 WORDSALL_de~2_grains~3 185
999 COSIND_-0.00 185
999 COSGEN_-0.00 185
106 ESRank6 185
202 ESForwSacLong+2+4 185
999 WORDS_venus~5 186
999 WORDFREQ_40.41 186
999 WORDSALL_sont~4_venus~5 186
999 COSIND_-0.00 186
999 COSGEN_-0.00 186
107 ESRank7 186
202 ESForwSacLong+2+6 186
999 WORDS_clore~6 143
999 WORDFREQ_2.57 143
999 WORDSALL_venus~5_clore~6 143
999 COSIND_-0.02 143
999 COSGEN_-0.02 143
108 ESRank8 143
201 ESForwSacShort 143
999 WORDS_traversée~8 172
999 WORDFREQ_13.58 172
999 WORDSALL_Quatre~0_traversée~8 172
999 COSIND_-0.01 172
999 COSGEN_-0.01 172
109 ESRank9 172
202 ESForwSacLong+2+4 172
999 WORDS_Pacifique~10 247
999 WORDFREQ_0.34 247
999 WORDSALL_jours~1_grains~3_Pacifique~10 247
999 COSIND_-0.02 247
999 COSGEN_-0.02 247
110 ESRank10 247
202 ESForwSacLong+2+4 247
999 WORDS_a~12 346
999 WORDFREQ_2926.69 346
999 WORDSALL_sont~4_venus~5_L'eau~11_a~12 346
999 COSIND_N/A 346
111 ESRank11 346
202 ESForwSacLong+2+7 346
999 WORDS_à~20 210
999 WORDFREQ_19209.05 210
999 WORDSALL_L'eau~11_a~12_à~20 210
999 COSIND_N/A 210
112 ESRank12 210
202 ESForwSacLong+8+42 210
999 WORDS_moment~26 169
999 WORDFREQ_611.62 169
999 WORDSALL_le~25_moment~26 169
999 COSIND_-0.01 169
999 COSGEN_-0.01 169
113 ESRank13 169
202 ESForwSacLong+6+30 169
200 ESRankN 169
199 ESRankNMinus1 210
198 ESRankNMinus2 346
197 ESRankNMinus3 247
196 ESRankNMinus4 172
195 ESRankNMinus5 143
194 ESRankNMinus6 186
193 ESRankNMinus7 185
192 ESRankNMinus8 317
191 ESRankNMinus9 232
190 ESRankNMinus10 247
