# 196 Fixation 1 (298.5,272.2): Le~0 représentant~1
# 137 Fixation 2 (492.1,275.4): du~2 consortium~3
# 195 Fixation 3 (569.8,271.2): consortium~3
# 104 Fixation 4 (546.3,274.5): consortium~3
# 244 Fixation 5 (647.3,271.9): aéronautique~4
# 208 Fixation 6 (673.4,275.6): aéronautique~4
# 246 Fixation 7 (274.1,338.1): européen~5
# 148 Fixation 8 (401.9,351.6): pouvait~6
# 234 Fixation 9 (502.7,341.8): parader~7
# 187 Fixation 10 (652.4,336.2): dans~8 stands~10
# 134 Fixation 11 (679.6,338): les~9 stands~10
# 301 Fixation 12 (346.2,395): Airbus~11 a~12
%%
# Le~0 Fixations= "1/"
# représentant~1 Fixations= "1/"
# du~2 Fixations= "2/"
# consortium~3 Fixations= "4/"
# aéronautique~4 Fixations= "6/"
# européen~5 Fixations= "7/"
# pouvait~6 Fixations= "8/"
# parader~7 Fixations= "9/"
# dans~8 Fixations= "10/"
# les~9 Fixations= "11/"
# stands~10 Fixations= "11/"
# Airbus~11 Fixations= "12/"
# a~12 Fixations= "12/"
# reçu~13 Fixations= ""
# une~14 Fixations= ""
# commande~15 Fixations= ""
# de~16 Fixations= ""
# 52~17 Fixations= ""
# avions~18 Fixations= ""
# dès~19 Fixations= ""
# le~20 Fixations= ""
# premier~21 Fixations= ""
# jour~22 Fixations= ""
# du~23 Fixations= ""
# salon~24 Fixations= ""
# du~25 Fixations= ""
# Bourget~26 Fixations= ""
%%
#  LE[1] REPRéSENTANT[1] DU[2] CONSORTIUM[4] AéRONAUTIQUE[6] EUROPéEN[7] POUVAIT[8] PARADER[9] DANS[10] LES[11] STANDS[11] AIRBUS[12] A[12] reçu une commande de 52 avions dès le premier jour du salon du Bourget
# s18 salon_aeronautique-f2 PercentageOfWordsProcessed= 0.481481481481481 PercentageOfWordsReallyProcessed= 1
