999 WORDS_groupe~1 200
999 WORDFREQ_85.88 200
999 WORDSALL_Un~0_groupe~1 200
999 COSIND_-0.00 200
999 COSGEN_-0.00 200
101 ESRank1 200
999 WORDS_d'ingénieurs~2 322
999 WORDFREQ_3.24 322
999 WORDSALL_d'ingénieurs~2 322
999 COSIND_0.01 322
999 COSGEN_0.01 322
102 ESRank2 322
201 ESForwSacShort 322
999 WORDS_ 170
999 WORDFREQ_ 170
999 WORDSALL_ 170
103 ESRank3 170
999 WORDS_météorologistes~3 147
999 WORDFREQ_N/A 147
999 WORDSALL_météorologistes~3 147
999 COSIND_N/A 147
104 ESRank4 147
999 WORDS_obtenu~5 225
999 WORDFREQ_14.73 225
999 WORDSALL_obtenu~5 225
999 COSIND_-0.05 225
999 COSGEN_-0.05 225
105 ESRank5 225
202 ESForwSacLong+2+3 225
999 WORDS_prix~7 167
999 WORDFREQ_107.5 167
999 WORDSALL_le~6_prix~7 167
999 COSIND_-0.00 167
999 COSGEN_-0.00 167
106 ESRank6 167
202 ESForwSacLong+2+4 167
999 WORDS_Nobel~8 173
999 WORDFREQ_N/A 173
999 WORDSALL_prix~7_Nobel~8 173
999 COSIND_N/A 173
107 ESRank7 173
201 ESForwSacShort 173
999 WORDS_météorologistes~3 201
999 WORDFREQ_N/A 201
999 WORDSALL_météorologistes~3 201
999 COSIND_N/A 201
108 ESRank8 201
206 ESBackSacRegrLong-5-18 201
999 WORDS_météorologistes~3 112
999 WORDFREQ_N/A 112
999 WORDSALL_météorologistes~3 112
999 COSIND_N/A 112
109 ESRank9 112
203 ESBackSacRefixation 112
999 WORDS_relatifs~12 250
999 WORDFREQ_1.22 250
999 WORDSALL_relatifs~12 250
999 COSIND_0.08 250
999 COSGEN_0.08 250
110 ESRank10 250
202 ESForwSacLong+9+41 250
999 WORDS_prévision~15 275
999 WORDFREQ_3.58 275
999 WORDSALL_la~14_prévision~15 275
999 COSIND_0.15 275
999 COSGEN_0.15 275
111 ESRank11 275
202 ESForwSacLong+3+7 275
999 WORDS_évènements~17 307
999 WORDFREQ_0 307
999 WORDSALL_des~16_évènements~17 307
999 COSIND_N/A 307
112 ESRank12 307
202 ESForwSacLong+2+5 307
999 WORDS_prévision~15 241
999 WORDFREQ_3.58 241
999 WORDSALL_la~14_prévision~15 241
999 COSIND_0.15 241
999 COSGEN_0.15 241
113 ESRank13 241
206 ESBackSacRegrLong-2-5 241
999 WORDS_relatifs~12 240
999 WORDFREQ_1.22 240
999 WORDSALL_relatifs~12 240
999 COSIND_0.08 240
999 COSGEN_0.08 240
114 ESRank14 240
206 ESBackSacRegrLong-3-7 240
999 WORDS_relatifs~12 125
999 WORDFREQ_1.22 125
999 WORDSALL_relatifs~12 125
999 COSIND_0.08 125
999 COSGEN_0.08 125
115 ESRank15 125
203 ESBackSacRefixation 125
999 WORDS_travaux~11 338
999 WORDFREQ_39.46 338
999 WORDSALL_ses~10_travaux~11 338
999 COSIND_0.01 338
999 COSGEN_0.01 338
116 ESRank16 338
205 ESBackSacRegrShort 338
999 WORDS_prévision~15 149
999 WORDFREQ_3.58 149
999 WORDSALL_prévision~15 149
999 COSIND_0.15 149
999 COSGEN_0.15 149
117 ESRank17 149
202 ESForwSacLong+4+16 149
999 WORDS_long~20 247
999 WORDFREQ_153.51 247
999 WORDSALL_à~19_long~20 247
999 COSIND_0.01 247
999 COSGEN_0.01 247
118 ESRank18 247
202 ESForwSacLong+5+33 247
999 WORDS_terme~21 145
999 WORDFREQ_34.86 145
999 WORDSALL_long~20_terme~21 145
999 COSIND_0.01 145
999 COSGEN_0.01 145
119 ESRank19 145
201 ESForwSacShort 145
999 WORDS_effets~24 182
999 WORDFREQ_19.19 182
999 WORDSALL_et~22_effets~24 182
999 COSIND_0.29 182
999 COSGEN_0.29 182
120 ESRank20 182
202 ESForwSacLong+3+8 182
999 WORDS_effets~24 95
999 WORDFREQ_19.19 95
999 WORDSALL_et~22_effets~24 95
999 COSIND_0.29 95
999 COSGEN_0.29 95
203 ESBackSacRefixation 95
999 WORDS_pollution~27 210
999 WORDFREQ_1.15 210
999 WORDSALL_la~26_pollution~27 210
999 COSIND_0.50 210
999 COSGEN_0.50 210
202 ESForwSacLong+3+7 210
999 WORDS_pollution~27 171
999 WORDFREQ_1.15 171
999 WORDSALL_la~26_pollution~27 171
999 COSIND_0.50 171
999 COSGEN_0.50 171
203 ESBackSacRefixation 171
999 WORDS_l'atmosphère~29 477
999 WORDFREQ_36.15 477
999 WORDSALL_de~28_l'atmosphère~29 477
999 COSIND_0.61 477
999 COSGEN_0.61 477
202 ESForwSacLong+2+4 477
999 WORDS_l'atmosphère~29 155
999 WORDFREQ_36.15 155
999 WORDSALL_pollution~27_l'atmosphère~29 155
999 COSIND_0.61 155
999 COSGEN_0.61 155
203 ESBackSacRefixation 155
999 WORDS_effets~24 282
999 WORDFREQ_19.19 282
999 WORDSALL_et~22_effets~24 282
999 COSIND_0.29 282
999 COSGEN_0.29 282
206 ESBackSacRegrLong-5-20 282
200 ESRankN 282
199 ESRankNMinus1 155
198 ESRankNMinus2 477
197 ESRankNMinus3 171
196 ESRankNMinus4 210
195 ESRankNMinus5 95
194 ESRankNMinus6 182
193 ESRankNMinus7 145
192 ESRankNMinus8 247
191 ESRankNMinus9 149
190 ESRankNMinus10 338
