999 WORDS_ministre~1 147
999 WORDFREQ_61.01 147
999 WORDSALL_Le~0_ministre~1 147
999 COSIND_0.02 147
999 COSGEN_0.02 147
101 ESRank1 147
999 WORDS_irakien~2 362
999 WORDFREQ_0.07 362
999 WORDSALL_ministre~1_irakien~2 362
999 COSIND_N/A 362
102 ESRank2 362
201 ESForwSacShort 362
999 WORDS_pétrole~4 227
999 WORDFREQ_14.73 227
999 WORDSALL_du~3_pétrole~4 227
999 COSIND_0.55 227
999 COSGEN_0.55 227
103 ESRank3 227
202 ESForwSacLong+2+4 227
999 WORDS_a~5 194
999 WORDFREQ_2926.69 194
999 WORDSALL_pétrole~4_a~5 194
999 COSIND_N/A 194
104 ESRank4 194
201 ESForwSacShort 194
999 WORDS_l'Arabie~8 178
999 WORDFREQ_N/A 178
999 WORDSALL_dimanche~7_l'Arabie~8 178
999 COSIND_N/A 178
105 ESRank5 178
202 ESForwSacLong+3+18 178
999 WORDS_dimanche~7 171
999 WORDFREQ_87.84 171
999 WORDSALL_dimanche~7 171
999 COSIND_0.01 171
999 COSGEN_0.01 171
106 ESRank6 171
205 ESBackSacRegrShort 171
999 WORDS_ministre~1 117
999 WORDFREQ_61.01 117
999 WORDSALL_Le~0_ministre~1 117
999 COSIND_0.02 117
999 COSGEN_0.02 117
107 ESRank7 117
206 ESBackSacRegrLong-6-31 117
999 WORDS_dimanche~7 168
999 WORDFREQ_87.84 168
999 WORDSALL_dimanche~7 168
999 COSIND_0.01 168
999 COSGEN_0.01 168
108 ESRank8 168
202 ESForwSacLong+6+31 168
999 WORDS_l'Arabie~8 192
999 WORDFREQ_N/A 192
999 WORDSALL_l'Arabie~8 192
999 COSIND_N/A 192
109 ESRank9 192
201 ESForwSacShort 192
999 WORDS_accusé~6 144
999 WORDFREQ_5.2 144
999 WORDSALL_a~5_accusé~6 144
999 COSIND_0.04 144
999 COSGEN_0.04 144
110 ESRank10 144
206 ESBackSacRegrLong-2-10 144
999 WORDS_l'Arabie~8 167
999 WORDFREQ_N/A 167
999 WORDSALL_l'Arabie~8 167
999 COSIND_N/A 167
111 ESRank11 167
202 ESForwSacLong+2+10 167
999 WORDS_saoudite~9 160
999 WORDFREQ_0.07 160
999 WORDSALL_saoudite~9 160
999 COSIND_N/A 160
112 ESRank12 160
201 ESForwSacShort 160
999 WORDS_d'avoir~10 156
999 WORDFREQ_649.26 156
999 WORDSALL_d'avoir~10 156
999 COSIND_0.02 156
999 COSGEN_0.02 156
113 ESRank13 156
201 ESForwSacShort 156
999 WORDS_inondé~11 107
999 WORDFREQ_2.7 107
999 WORDSALL_d'avoir~10_inondé~11 107
999 COSIND_0.10 107
999 COSGEN_0.10 107
114 ESRank14 107
201 ESForwSacShort 107
999 WORDS_marché~13 186
999 WORDFREQ_57.36 186
999 WORDSALL_marché~13 186
999 COSIND_-0.05 186
999 COSGEN_-0.05 186
115 ESRank15 186
202 ESForwSacLong+2+4 186
999 WORDS_pétrole~15 151
999 WORDFREQ_14.73 151
999 WORDSALL_du~14_pétrole~15 151
999 COSIND_0.55 151
999 COSGEN_0.55 151
116 ESRank16 151
202 ESForwSacLong+2+4 151
999 WORDS_marché~13 206
999 WORDFREQ_57.36 206
999 WORDSALL_le~12_marché~13 206
999 COSIND_-0.05 206
999 COSGEN_-0.05 206
117 ESRank17 206
206 ESBackSacRegrLong-2-4 206
999 WORDS_pétrole~15 125
999 WORDFREQ_14.73 125
999 WORDSALL_du~14_pétrole~15 125
999 COSIND_0.55 125
999 COSGEN_0.55 125
118 ESRank18 125
202 ESForwSacLong+2+4 125
999 WORDS_réclamé~18 310
999 WORDFREQ_2.64 310
999 WORDSALL_Il~16_a~17_réclamé~18 310
999 COSIND_-0.02 310
999 COSGEN_-0.02 310
119 ESRank19 310
202 ESForwSacLong+3+6 310
999 WORDS_réduction~20 203
999 WORDFREQ_2.91 203
999 WORDSALL_réduction~20 203
999 COSIND_0.10 203
999 COSGEN_0.10 203
120 ESRank20 203
202 ESForwSacLong+2+5 203
999 WORDS_production~23 229
999 WORDFREQ_12.3 229
999 WORDSALL_de~21_production~23 229
999 COSIND_0.19 229
999 COSGEN_0.19 229
202 ESForwSacLong+3+7 229
999 WORDS_réduction~20 187
999 WORDFREQ_2.91 187
999 WORDSALL_réduction~20 187
999 COSIND_0.10 187
999 COSGEN_0.10 187
206 ESBackSacRegrLong-3-7 187
999 WORDS_production~23 397
999 WORDFREQ_12.3 397
999 WORDSALL_la~22_production~23 397
999 COSIND_0.19 397
999 COSGEN_0.19 397
202 ESForwSacLong+3+7 397
999 WORDS_réclamé~18 196
999 WORDFREQ_2.64 196
999 WORDSALL_réclamé~18 196
999 COSIND_-0.02 196
999 COSGEN_-0.02 196
206 ESBackSacRegrLong-5-22 196
999 WORDS_production~23 181
999 WORDFREQ_12.3 181
999 WORDSALL_production~23 181
999 COSIND_0.19 181
999 COSGEN_0.19 181
202 ESForwSacLong+5+22 181
999 WORDS_production~23 114
999 WORDFREQ_12.3 114
999 WORDSALL_la~22_production~23 114
999 COSIND_0.19 114
999 COSGEN_0.19 114
203 ESBackSacRefixation 114
999 WORDS_production~23 117
999 WORDFREQ_12.3 117
999 WORDSALL_de~21_production~23 117
999 COSIND_0.19 117
999 COSGEN_0.19 117
203 ESBackSacRefixation 117
999 WORDS_saoudienne~24 142
999 WORDFREQ_0 142
999 WORDSALL_saoudienne~24 142
999 COSIND_N/A 142
201 ESForwSacShort 142
999 WORDS_saoudienne~24 145
999 WORDFREQ_0 145
999 WORDSALL_saoudienne~24 145
999 COSIND_N/A 145
203 ESBackSacRefixation 145
999 WORDS_prix~28 191
999 WORDFREQ_107.5 191
999 WORDSALL_que~26_prix~28 191
999 COSIND_0.99 191
999 COSGEN_0.99 191
202 ESForwSacLong+4+14 191
999 WORDS_remontent~29 194
999 WORDFREQ_5.61 194
999 WORDSALL_prix~28_remontent~29 194
999 COSIND_0.09 194
999 COSGEN_0.09 194
201 ESForwSacShort 194
999 WORDS_prix~28 233
999 WORDFREQ_107.5 233
999 WORDSALL_que~26_prix~28 233
999 COSIND_0.99 233
999 COSGEN_0.99 233
205 ESBackSacRegrShort 233
200 ESRankN 233
199 ESRankNMinus1 194
198 ESRankNMinus2 191
197 ESRankNMinus3 145
196 ESRankNMinus4 142
195 ESRankNMinus5 117
194 ESRankNMinus6 114
193 ESRankNMinus7 181
192 ESRankNMinus8 196
191 ESRankNMinus9 397
190 ESRankNMinus10 187
