999 WORDS_sont~1 308
999 WORDFREQ_713.18 308
999 WORDSALL_Qui~0_sont~1 308
999 COSIND_0.05 308
999 COSGEN_0.05 308
101 ESRank1 308
999 WORDS_sont~1 95
999 WORDFREQ_713.18 95
999 WORDSALL_Qui~0_sont~1 95
999 COSIND_0.05 95
999 COSGEN_0.05 95
102 ESRank2 95
203 ESBackSacRefixation 95
999 WORDS_étudiants~3 275
999 WORDFREQ_18.78 275
999 WORDSALL_ces~2_étudiants~3 275
999 COSIND_0.01 275
999 COSGEN_0.01 275
103 ESRank3 275
202 ESForwSacLong+2+5 275
999 WORDS_sont~1 155
999 WORDFREQ_713.18 155
999 WORDSALL_sont~1 155
999 COSIND_0.05 155
999 COSGEN_0.05 155
104 ESRank4 155
206 ESBackSacRegrLong-2-5 155
999 WORDS_n'ont~5 455
999 WORDFREQ_240.61 455
999 WORDSALL_étudiants~3_n'ont~5 455
999 COSIND_-0.09 455
999 COSGEN_-0.09 455
105 ESRank5 455
202 ESForwSacLong+4+20 455
999 WORDS_n'ont~5 220
999 WORDFREQ_240.61 220
999 WORDSALL_n'ont~5 220
999 COSIND_-0.09 220
999 COSGEN_-0.09 220
106 ESRank6 220
203 ESBackSacRefixation 220
999 WORDS_n'ont~5 259
999 WORDFREQ_240.61 259
999 WORDSALL_n'ont~5 259
999 COSIND_-0.09 259
999 COSGEN_-0.09 259
107 ESRank7 259
203 ESBackSacRefixation 259
999 WORDS_s'offrir~10 122
999 WORDFREQ_50.34 122
999 WORDSALL_sont~1_s'offrir~10 122
999 COSIND_0.10 122
999 COSGEN_0.10 122
108 ESRank8 122
202 ESForwSacLong+5+19 122
999 WORDS_moyens~8 242
999 WORDFREQ_58.31 242
999 WORDSALL_moyens~8 242
999 COSIND_-0.04 242
999 COSGEN_-0.04 242
109 ESRank9 242
206 ESBackSacRegrLong-2-4 242
999 WORDS_s'offrir~10 253
999 WORDFREQ_50.34 253
999 WORDSALL_de~9_s'offrir~10 253
999 COSIND_0.10 253
999 COSGEN_0.10 253
110 ESRank10 253
202 ESForwSacLong+2+4 253
999 WORDS_repas~12 312
999 WORDFREQ_76.62 312
999 WORDSALL_s'offrir~10_repas~12 312
999 COSIND_0.23 312
999 COSGEN_0.23 312
111 ESRank11 312
202 ESForwSacLong+2+4 312
999 WORDS_à~13 200
999 WORDFREQ_19209.05 200
999 WORDSALL_repas~12_à~13 200
999 COSIND_N/A 200
112 ESRank12 200
201 ESForwSacShort 200
999 WORDS_étudiants~18 303
999 WORDFREQ_18.78 303
999 WORDSALL_étudiants~18 303
999 COSIND_0.01 303
999 COSGEN_0.01 303
113 ESRank13 303
202 ESForwSacLong+5+28 303
999 WORDS_étrangers~19 156
999 WORDFREQ_14.86 156
999 WORDSALL_étudiants~18_étrangers~19 156
999 COSIND_0.02 156
999 COSGEN_0.02 156
114 ESRank14 156
201 ESForwSacShort 156
999 WORDS_d'études~25 260
999 WORDFREQ_43.38 260
999 WORDSALL_étudiants~18_d'études~25 260
999 COSIND_-0.00 260
999 COSGEN_-0.00 260
115 ESRank15 260
202 ESForwSacLong+6+26 260
200 ESRankN 260
199 ESRankNMinus1 156
198 ESRankNMinus2 303
197 ESRankNMinus3 200
196 ESRankNMinus4 312
195 ESRankNMinus5 253
194 ESRankNMinus6 242
193 ESRankNMinus7 122
192 ESRankNMinus8 259
191 ESRankNMinus9 220
190 ESRankNMinus10 455
