# 142 Fixation 1 (264.2,276): Une~0 bonne~1
# 84 Fixation 2 (314.3,272.6): Une~0 bonne~1
# 218 Fixation 3 (423.3,280.7): connaissance~2
# 196 Fixation 4 (580.5,284.8): du~3 fonctionnement~4
# 168 Fixation 5 (643.9,288.7): fonctionnement~4
# 143 Fixation 6 (391.5,323.5): l'ordinateur~6
# 179 Fixation 7 (339.8,332.1): l'ordinateur~6
# 337 Fixation 8 (487.7,338.1): et~7 d'Internet~8
%%
# Une~0 Fixations= "2/"
# bonne~1 Fixations= "2/"
# connaissance~2 Fixations= "3/"
# du~3 Fixations= "4/"
# fonctionnement~4 Fixations= "5/"
# de~5 Fixations= ""
# l'ordinateur~6 Fixations= "7/"
# et~7 Fixations= "8/"
# d'Internet~8 Fixations= "8/"
# est~9 Fixations= ""
# importante~10 Fixations= ""
# Des~11 Fixations= ""
# systèmes~12 Fixations= ""
# de~13 Fixations= ""
# formation~14 Fixations= ""
# à~15 Fixations= ""
# distance~16 Fixations= ""
# et~17 Fixations= ""
# de~18 Fixations= ""
# la~19 Fixations= ""
# pédagogie~20 Fixations= ""
# pour~21 Fixations= ""
# adultes~22 Fixations= ""
# en~23 Fixations= ""
# formation~24 Fixations= ""
# continue~25 Fixations= ""
# vont~26 Fixations= ""
# être~27 Fixations= ""
# mis~28 Fixations= ""
# en~29 Fixations= ""
# place~30 Fixations= ""
%%
#  UNE[2] BONNE[2] CONNAISSANCE[3] DU[4] FONCTIONNEMENT[5] de L'ORDINATEUR[7] ET[8] D'INTERNET[8] est importante Des systèmes de formation à distance et de la pédagogie pour adultes en formation continue vont être mis en place
# s05 formation_informatique-f2 PercentageOfWordsProcessed= 0.258064516129032 PercentageOfWordsReallyProcessed= 0.888888888888889
