999 WORDS_Toute~0 90
999 WORDFREQ_5.2 90
999 WORDSALL_Toute~0 90
999 COSIND_0.01 90
999 COSGEN_0.01 90
101 ESRank1 90
999 WORDS_magie~2 188
999 WORDFREQ_15.14 188
999 WORDSALL_la~1_magie~2 188
999 COSIND_0.19 188
999 COSGEN_0.19 188
102 ESRank2 188
202 ESForwSacLong+2+4 188
999 WORDS_hauts~4 167
999 WORDFREQ_29.26 167
999 WORDSALL_des~3_hauts~4 167
999 COSIND_0.10 167
999 COSGEN_0.10 167
103 ESRank3 167
202 ESForwSacLong+2+5 167
999 WORDS_plateaux~5 106
999 WORDFREQ_8.78 106
999 WORDSALL_hauts~4_plateaux~5 106
999 COSIND_0.23 106
999 COSGEN_0.23 106
104 ESRank4 106
201 ESForwSacShort 106
999 WORDS_basaltiques~6 297
999 WORDFREQ_N/A 297
999 WORDSALL_basaltiques~6 297
999 COSIND_N/A 297
105 ESRank5 297
201 ESForwSacShort 297
999 WORDS_neige~9 342
999 WORDFREQ_74.93 342
999 WORDSALL_la~8_neige~9 342
999 COSIND_0.56 342
999 COSGEN_0.56 342
106 ESRank6 342
202 ESForwSacLong+3+9 342
999 WORDS_basaltiques~6 137
999 WORDFREQ_N/A 137
999 WORDSALL_basaltiques~6 137
999 COSIND_N/A 137
107 ESRank7 137
206 ESBackSacRegrLong-3-9 137
200 ESRankN 137
199 ESRankNMinus1 342
198 ESRankNMinus2 297
197 ESRankNMinus3 106
196 ESRankNMinus4 167
195 ESRankNMinus5 188
194 ESRankNMinus6 90
