999 WORDS_jugement~2 134
999 WORDFREQ_24.12 134
999 WORDSALL_Dans~0_jugement~2 134
999 COSIND_0.01 134
999 COSGEN_0.01 134
101 ESRank1 134
999 WORDS_cité~3 178
999 WORDFREQ_1.28 178
999 WORDSALL_jugement~2_cité~3 178
999 COSIND_-0.03 178
999 COSGEN_-0.03 178
102 ESRank2 178
201 ESForwSacShort 178
999 WORDS_Nacion~6 177
999 WORDFREQ_N/A 177
999 WORDSALL_La~5_Nacion~6 177
999 COSIND_N/A 177
103 ESRank3 177
202 ESForwSacLong+3+8 177
999 WORDS_juges~8 240
999 WORDFREQ_14.66 240
999 WORDSALL_Dans~0_jugement~2_juges~8 240
999 COSIND_-0.03 240
999 COSGEN_-0.03 240
104 ESRank4 240
202 ESForwSacLong+2+5 240
999 WORDS_juges~8 147
999 WORDFREQ_14.66 147
999 WORDSALL_Dans~0_jugement~2_juges~8 147
999 COSIND_-0.03 147
999 COSGEN_-0.03 147
105 ESRank5 147
203 ESBackSacRefixation 147
999 WORDS_avant~11 133
999 WORDFREQ_21.22 133
999 WORDSALL_jugement~2_cité~3_avant~11 133
999 COSIND_0.03 133
999 COSGEN_0.03 133
106 ESRank6 133
202 ESForwSacLong+3+12 133
999 WORDS_plusieurs~12 159
999 WORDFREQ_203.58 159
999 WORDSALL_par~4_Nacion~6_plusieurs~12 159
999 COSIND_0.02 159
999 COSGEN_0.02 159
107 ESRank7 159
201 ESForwSacShort 159
999 WORDS_type~19 132
999 WORDFREQ_145.95 132
999 WORDSALL_le~18_type~19 132
999 COSIND_0.19 132
999 COSGEN_0.19 132
108 ESRank8 132
202 ESForwSacLong+7+35 132
999 WORDS_type~19 143
999 WORDFREQ_145.95 143
999 WORDSALL_le~18_type~19 143
999 COSIND_0.19 143
999 COSGEN_0.19 143
109 ESRank9 143
203 ESBackSacRefixation 143
999 WORDS_Cerda~26 280
999 WORDFREQ_N/A 280
999 WORDSALL_arguant~16_Cerda~26 280
999 COSIND_N/A 280
110 ESRank10 280
202 ESForwSacLong+7+34 280
200 ESRankN 280
199 ESRankNMinus1 143
198 ESRankNMinus2 132
197 ESRankNMinus3 159
196 ESRankNMinus4 133
195 ESRankNMinus5 147
194 ESRankNMinus6 240
193 ESRankNMinus7 177
192 ESRankNMinus8 178
191 ESRankNMinus9 134
