999 WORDS_plupart~1 200
999 WORDFREQ_0.07 200
999 WORDSALL_La~0_plupart~1 200
999 COSIND_0.11 200
999 COSGEN_0.11 200
101 ESRank1 200
999 WORDS_plupart~1 96
999 WORDFREQ_0.07 96
999 WORDSALL_La~0_plupart~1 96
999 COSIND_0.11 96
999 COSGEN_0.11 96
102 ESRank2 96
203 ESBackSacRefixation 96
999 WORDS_plupart~1 244
999 WORDFREQ_0.07 244
999 WORDSALL_plupart~1 244
999 COSIND_0.11 244
999 COSGEN_0.11 244
103 ESRank3 244
203 ESBackSacRefixation 244
999 WORDS_des~2 191
999 WORDFREQ_10624.93 191
999 WORDSALL_des~2 191
999 COSIND_N/A 191
104 ESRank4 191
201 ESForwSacShort 191
999 WORDS_plupart~1 182
999 WORDFREQ_0.07 182
999 WORDSALL_plupart~1 182
999 COSIND_0.11 182
999 COSGEN_0.11 182
105 ESRank5 182
205 ESBackSacRegrShort 182
999 WORDS_plupart~1 166
999 WORDFREQ_0.07 166
999 WORDSALL_La~0_plupart~1 166
999 COSIND_0.11 166
999 COSGEN_0.11 166
106 ESRank6 166
203 ESBackSacRefixation 166
999 WORDS_plupart~1 375
999 WORDFREQ_0.07 375
999 WORDSALL_La~0_plupart~1 375
999 COSIND_0.11 375
999 COSGEN_0.11 375
107 ESRank7 375
203 ESBackSacRefixation 375
999 WORDS_des~2 199
999 WORDFREQ_10624.93 199
999 WORDSALL_des~2 199
999 COSIND_N/A 199
108 ESRank8 199
201 ESForwSacShort 199
999 WORDS_animateurs-modérateurs~3 431
999 WORDFREQ_N/A 431
999 WORDSALL_animateurs-modérateurs~3 431
999 COSIND_N/A 431
109 ESRank9 431
201 ESForwSacShort 431
999 WORDS_ont~4 243
999 WORDFREQ_240.61 243
999 WORDSALL_animateurs-modérateurs~3_ont~4 243
999 COSIND_0.02 243
999 COSGEN_0.02 243
110 ESRank10 243
201 ESForwSacShort 243
999 WORDS_formation~6 376
999 WORDFREQ_9.32 376
999 WORDSALL_une~5_formation~6 376
999 COSIND_0.93 376
999 COSGEN_0.93 376
111 ESRank11 376
202 ESForwSacLong+2+5 376
999 WORDS_formation~6 175
999 WORDFREQ_9.32 175
999 WORDSALL_formation~6 175
999 COSIND_0.93 175
999 COSGEN_0.93 175
112 ESRank12 175
203 ESBackSacRefixation 175
999 WORDS_journaliste~8 277
999 WORDFREQ_15.95 277
999 WORDSALL_de~7_journaliste~8 277
999 COSIND_0.03 277
999 COSGEN_0.03 277
113 ESRank13 277
202 ESForwSacLong+2+4 277
999 WORDS_journaliste~8 223
999 WORDFREQ_15.95 223
999 WORDSALL_journaliste~8 223
999 COSIND_0.03 223
999 COSGEN_0.03 223
114 ESRank14 223
203 ESBackSacRefixation 223
999 WORDS_n'existe~10 311
999 WORDFREQ_57.97 311
999 WORDSALL_Il~9_n'existe~10 311
999 COSIND_-0.02 311
999 COSGEN_-0.02 311
115 ESRank15 311
202 ESForwSacLong+2+4 311
999 WORDS_formation~13 174
999 WORDFREQ_9.32 174
999 WORDSALL_de~12_formation~13 174
999 COSIND_0.93 174
999 COSGEN_0.93 174
116 ESRank16 174
202 ESForwSacLong+3+8 174
999 WORDS_formation~13 203
999 WORDFREQ_9.32 203
999 WORDSALL_pas~11_formation~13 203
999 COSIND_0.93 203
999 COSGEN_0.93 203
117 ESRank17 203
203 ESBackSacRefixation 203
999 WORDS_spécifique~14 255
999 WORDFREQ_1.42 255
999 WORDSALL_formation~13_spécifique~14 255
999 COSIND_0.30 255
999 COSGEN_0.30 255
118 ESRank18 255
201 ESForwSacShort 255
999 WORDS_spécifique~14 165
999 WORDFREQ_1.42 165
999 WORDSALL_spécifique~14 165
999 COSIND_0.30 165
999 COSGEN_0.30 165
119 ESRank19 165
203 ESBackSacRefixation 165
999 WORDS_spécifique~14 211
999 WORDFREQ_1.42 211
999 WORDSALL_spécifique~14 211
999 COSIND_0.30 211
999 COSGEN_0.30 211
120 ESRank20 211
203 ESBackSacRefixation 211
999 WORDS_mais~15 138
999 WORDFREQ_4463.72 138
999 WORDSALL_mais~15 138
999 COSIND_N/A 138
201 ESForwSacShort 138
999 WORDS_écoles~17 143
999 WORDFREQ_15.47 143
999 WORDSALL_écoles~17 143
999 COSIND_0.21 143
999 COSGEN_0.21 143
202 ESForwSacLong+2+5 143
999 WORDS_écoles~17 130
999 WORDFREQ_15.47 130
999 WORDSALL_écoles~17 130
999 COSIND_0.21 130
999 COSGEN_0.21 130
203 ESBackSacRefixation 130
999 WORDS_journalisme~19 239
999 WORDFREQ_3.51 239
999 WORDSALL_de~18_journalisme~19 239
999 COSIND_0.13 239
999 COSGEN_0.13 239
202 ESForwSacLong+2+4 239
999 WORDS_journalisme~19 190
999 WORDFREQ_3.51 190
999 WORDSALL_journalisme~19 190
999 COSIND_0.13 190
999 COSGEN_0.13 190
203 ESBackSacRefixation 190
999 WORDS_cours~26 171
999 WORDFREQ_176.76 171
999 WORDSALL_cours~26 171
999 COSIND_-0.01 171
999 COSGEN_-0.01 171
202 ESForwSacLong+7+37 171
999 WORDS_donnent~24 239
999 WORDFREQ_26.28 239
999 WORDSALL_qui~23_donnent~24 239
999 COSIND_0.04 239
999 COSGEN_0.04 239
206 ESBackSacRegrLong-2-5 239
999 WORDS_cours~26 225
999 WORDFREQ_176.76 225
999 WORDSALL_des~25_cours~26 225
999 COSIND_-0.01 225
999 COSGEN_-0.01 225
202 ESForwSacLong+2+5 225
999 WORDS_donnent~24 273
999 WORDFREQ_26.28 273
999 WORDSALL_donnent~24 273
999 COSIND_0.04 273
999 COSGEN_0.04 273
206 ESBackSacRegrLong-2-5 273
999 WORDS_cours~26 211
999 WORDFREQ_176.76 211
999 WORDSALL_donnent~24_cours~26 211
999 COSIND_-0.01 211
999 COSGEN_-0.01 211
202 ESForwSacLong+2+5 211
200 ESRankN 211
199 ESRankNMinus1 273
198 ESRankNMinus2 225
197 ESRankNMinus3 239
196 ESRankNMinus4 171
195 ESRankNMinus5 190
194 ESRankNMinus6 239
193 ESRankNMinus7 130
192 ESRankNMinus8 143
191 ESRankNMinus9 138
190 ESRankNMinus10 211
