999 WORDS_producteurs~1 187
999 WORDFREQ_2.03 187
999 WORDSALL_Les~0_producteurs~1 187
999 COSIND_0.32 187
999 COSGEN_0.32 187
101 ESRank1 187
999 WORDS_producteurs~1 135
999 WORDFREQ_2.03 135
999 WORDSALL_producteurs~1 135
999 COSIND_0.32 135
999 COSGEN_0.32 135
102 ESRank2 135
203 ESBackSacRefixation 135
999 WORDS_fruits~3 177
999 WORDFREQ_42.09 177
999 WORDSALL_de~2_fruits~3 177
999 COSIND_0.34 177
999 COSGEN_0.34 177
103 ESRank3 177
202 ESForwSacLong+2+4 177
999 WORDS_légumes~5 233
999 WORDFREQ_21.35 233
999 WORDSALL_et~4_légumes~5 233
999 COSIND_0.43 233
999 COSGEN_0.43 233
104 ESRank4 233
202 ESForwSacLong+2+4 233
999 WORDS_affiliés~7 239
999 WORDFREQ_0.07 239
999 WORDSALL_affiliés~7 239
999 COSIND_-0.05 239
999 COSGEN_-0.05 239
105 ESRank5 239
202 ESForwSacLong+2+9 239
999 WORDS_affiliés~7 164
999 WORDFREQ_0.07 164
999 WORDSALL_surtout~6_affiliés~7 164
999 COSIND_-0.05 164
999 COSGEN_-0.05 164
106 ESRank6 164
203 ESBackSacRefixation 164
200 ESRankN 164
199 ESRankNMinus1 239
198 ESRankNMinus2 233
197 ESRankNMinus3 177
196 ESRankNMinus4 135
195 ESRankNMinus5 187
