999 WORDS_combats~1 157
999 WORDFREQ_20.2 157
999 WORDSALL_Ces~0_combats~1 157
999 COSIND_-0.07 157
999 COSGEN_-0.07 157
101 ESRank1 157
999 WORDS_remettent~4 84
999 WORDFREQ_2.91 84
999 WORDSALL_qui~2_remettent~4 84
999 COSIND_-0.03 84
999 COSGEN_-0.03 84
102 ESRank2 84
202 ESForwSacLong+3+8 84
999 WORDS_remettent~4 129
999 WORDFREQ_2.91 129
999 WORDSALL_qui~2_remettent~4 129
999 COSIND_-0.03 129
999 COSGEN_-0.03 129
103 ESRank3 129
203 ESBackSacRefixation 129
999 WORDS_remettent~4 97
999 WORDFREQ_2.91 97
999 WORDSALL_remettent~4 97
999 COSIND_-0.03 97
999 COSGEN_-0.03 97
104 ESRank4 97
203 ESBackSacRefixation 97
999 WORDS_cause~7 136
999 WORDFREQ_188.04 136
999 WORDSALL_pas~5_cause~7 136
999 COSIND_-0.04 136
999 COSGEN_-0.04 136
105 ESRank5 136
202 ESForwSacLong+3+8 136
999 WORDS_suprématie~9 179
999 WORDFREQ_1.08 179
999 WORDSALL_la~8_suprématie~9 179
999 COSIND_0.02 179
999 COSGEN_0.02 179
106 ESRank6 179
202 ESForwSacLong+2+4 179
999 WORDS_talibans~11 181
999 WORDFREQ_0 181
999 WORDSALL_des~10_talibans~11 181
999 COSIND_N/A 181
107 ESRank7 181
202 ESForwSacLong+2+5 181
999 WORDS_talibans~11 158
999 WORDFREQ_0 158
999 WORDSALL_talibans~11 158
999 COSIND_N/A 158
108 ESRank8 158
203 ESBackSacRefixation 158
999 WORDS_talibans~11 133
999 WORDFREQ_0 133
999 WORDSALL_talibans~11 133
999 COSIND_N/A 133
109 ESRank9 133
203 ESBackSacRefixation 133
999 WORDS_l'Afghanistan~13 213
999 WORDFREQ_N/A 213
999 WORDSALL_l'Afghanistan~13 213
999 COSIND_N/A 213
110 ESRank10 213
202 ESForwSacLong+2+5 213
999 WORDS_prouvent~14 96
999 WORDFREQ_1.35 96
999 WORDSALL_prouvent~14 96
999 COSIND_0.02 96
999 COSGEN_0.02 96
111 ESRank11 96
201 ESForwSacShort 96
999 WORDS_prouvent~14 146
999 WORDFREQ_1.35 146
999 WORDSALL_prouvent~14 146
999 COSIND_0.02 146
999 COSGEN_0.02 146
112 ESRank12 146
203 ESBackSacRefixation 146
999 WORDS_l'état-major~16 195
999 WORDFREQ_18.31 195
999 WORDSALL_que~15_l'état-major~16 195
999 COSIND_N/A 195
113 ESRank13 195
202 ESForwSacLong+2+5 195
999 WORDS_l'état-major~16 205
999 WORDFREQ_18.31 205
999 WORDSALL_l'état-major~16 205
999 COSIND_N/A 205
114 ESRank14 205
203 ESBackSacRefixation 205
999 WORDS_l'Afghanistan~13 152
999 WORDFREQ_N/A 152
999 WORDSALL_l'Afghanistan~13 152
999 COSIND_N/A 152
115 ESRank15 152
206 ESBackSacRegrLong-3-14 152
999 WORDS_prouvent~14 201
999 WORDFREQ_1.35 201
999 WORDSALL_prouvent~14 201
999 COSIND_0.02 201
999 COSGEN_0.02 201
116 ESRank16 201
201 ESForwSacShort 201
999 WORDS_l'état-major~16 180
999 WORDFREQ_18.31 180
999 WORDSALL_que~15_l'état-major~16 180
999 COSIND_N/A 180
117 ESRank17 180
202 ESForwSacLong+2+5 180
999 WORDS_l'état-major~16 165
999 WORDFREQ_18.31 165
999 WORDSALL_que~15_l'état-major~16 165
999 COSIND_N/A 165
118 ESRank18 165
203 ESBackSacRefixation 165
999 WORDS_l'état-major~16 120
999 WORDFREQ_18.31 120
999 WORDSALL_l'état-major~16 120
999 COSIND_N/A 120
119 ESRank19 120
203 ESBackSacRefixation 120
999 WORDS_l'Afghanistan~13 178
999 WORDFREQ_N/A 178
999 WORDSALL_l'Afghanistan~13 178
999 COSIND_N/A 178
120 ESRank20 178
206 ESBackSacRegrLong-3-14 178
999 WORDS_l'Afghanistan~13 190
999 WORDFREQ_N/A 190
999 WORDSALL_l'Afghanistan~13 190
999 COSIND_N/A 190
203 ESBackSacRefixation 190
999 WORDS_maintenir~20 155
999 WORDFREQ_21.76 155
999 WORDSALL_peut~19_maintenir~20 155
999 COSIND_-0.03 155
999 COSGEN_-0.03 155
202 ESForwSacLong+7+41 155
999 WORDS_maintenir~20 94
999 WORDFREQ_21.76 94
999 WORDSALL_maintenir~20 94
999 COSIND_-0.03 94
999 COSGEN_-0.03 94
203 ESBackSacRefixation 94
999 WORDS_pression~22 153
999 WORDFREQ_19.05 153
999 WORDSALL_la~21_pression~22 153
999 COSIND_0.00 153
999 COSGEN_0.00 153
202 ESForwSacLong+2+4 153
999 WORDS_maintenir~20 167
999 WORDFREQ_21.76 167
999 WORDSALL_maintenir~20 167
999 COSIND_-0.03 167
999 COSGEN_-0.03 167
206 ESBackSacRegrLong-2-4 167
999 WORDS_sur~23 155
999 WORDFREQ_5320.47 155
999 WORDSALL_sur~23 155
999 COSIND_N/A 155
202 ESForwSacLong+3+13 155
999 WORDS_veut~17 203
999 WORDFREQ_210.61 203
999 WORDSALL_veut~17 203
999 COSIND_0.01 203
999 COSGEN_0.01 203
206 ESBackSacRegrLong-6-31 203
999 WORDS_peut~19 113
999 WORDFREQ_508.99 113
999 WORDSALL_veut~17_peut~19 113
999 COSIND_0.03 113
999 COSGEN_0.03 113
202 ESForwSacLong+2+4 113
999 WORDS_combats~1 133
999 WORDFREQ_20.2 133
999 WORDSALL_combats~1 133
999 COSIND_-0.07 133
999 COSGEN_-0.07 133
206 ESBackSacRegrLong-18-112 133
999 WORDS_remettent~4 141
999 WORDFREQ_2.91 141
999 WORDSALL_qui~2_remettent~4 141
999 COSIND_-0.03 141
999 COSGEN_-0.03 141
202 ESForwSacLong+3+8 141
200 ESRankN 141
199 ESRankNMinus1 133
198 ESRankNMinus2 113
197 ESRankNMinus3 203
196 ESRankNMinus4 155
195 ESRankNMinus5 167
194 ESRankNMinus6 153
193 ESRankNMinus7 94
192 ESRankNMinus8 155
191 ESRankNMinus9 190
190 ESRankNMinus10 178
