# 116 Fixation 1 (280.2,282.8): Le~0 bombardier~1
# 210 Fixation 2 (336.5,281.4): bombardier~1
# 228 Fixation 3 (447.6,285.6): Spirit~2
# 138 Fixation 4 (594,294.5): que~3 visiteurs~5 entraperçu~11
# 152 Fixation 5 (636.3,288.8): les~4 visiteurs~5
# 119 Fixation 6 (707.3,288.9): visiteurs~5
# 149 Fixation 7 (282.8,353.8): salon~7
# 152 Fixation 8 (359,344.2): bombardier~1 Bourget~9
# 175 Fixation 9 (404.9,344.2): bombardier~1 Spirit~2 Bourget~9
# 150 Fixation 10 (519.2,344.1): Spirit~2 ont~10 entraperçu~11
# 161 Fixation 11 (595.2,347.6): que~3 visiteurs~5 entraperçu~11
# 141 Fixation 12 (698.5,351.8): en~12 juin~13
# 145 Fixation 13 (335.2,427.1): temps~15 très~17 têtes~23
# 249 Fixation 14 (353.6,458.1): temps~15 très~17 têtes~23
# 128 Fixation 15 (469.9,469.8): très~17 bref~18
# 109 Fixation 16 (554.2,466.8): passage~19 drôle~26
# 125 Fixation 17 (642.7,474.9): passage~19 au-dessus~20 machine~28
# 154 Fixation 18 (322,517.5): leurs~22 têtes~23
%%
# Le~0 Fixations= "1/"
# bombardier~1 Fixations= "9/"
# Spirit~2 Fixations= "10/"
# que~3 Fixations= "11/"
# les~4 Fixations= "5/"
# visiteurs~5 Fixations= "11/"
# du~6 Fixations= ""
# salon~7 Fixations= "7/"
# du~8 Fixations= ""
# Bourget~9 Fixations= "9/"
# ont~10 Fixations= "10/"
# entraperçu~11 Fixations= "11/"
# en~12 Fixations= "12/"
# juin~13 Fixations= "12/"
# le~14 Fixations= ""
# temps~15 Fixations= "14/"
# d'un~16 Fixations= ""
# très~17 Fixations= "15/"
# bref~18 Fixations= "15/"
# passage~19 Fixations= "17/"
# au-dessus~20 Fixations= "17/"
# de~21 Fixations= ""
# leurs~22 Fixations= "18/"
# têtes~23 Fixations= "18/"
# est~24 Fixations= ""
# une~25 Fixations= ""
# drôle~26 Fixations= "16/"
# de~27 Fixations= ""
# machine~28 Fixations= "17/"
# volante~29 Fixations= ""
# pour~30 Fixations= ""
# les~31 Fixations= ""
# non~32 Fixations= ""
# initiés~33 Fixations= ""
%%
#  LE[1] BOMBARDIER[9] SPIRIT[10] QUE[11] LES[5] VISITEURS[11] du SALON[7] du BOURGET[9] ONT[10] ENTRAPERçU[11] EN[12] JUIN[12] le TEMPS[14] d'un TRèS[15] BREF[15] PASSAGE[17] AU-DESSUS[17] de LEURS[18] TêTES[18] est une DRôLE[16] de MACHINE[17] volante pour les non initiés
# s02 allocation_familiale-a1 PercentageOfWordsProcessed= 0.617647058823529 PercentageOfWordsReallyProcessed= 0.724137931034483
