# 146 Fixation 1 (344.8,274.5): Outre~0 pollution~2
# 121 Fixation 2 (406.7,278.2): pollution~2
# 204 Fixation 3 (525.4,279.9): de~3 surface~4
# 109 Fixation 4 (575.2,280.3): surface~4
# 148 Fixation 5 (662,283.8): se~5 pose~6
# 273 Fixation 6 (284,341.6): aussi~7 problème~9
# 163 Fixation 7 (388.6,345.5): le~8 problème~9
# 94 Fixation 8 (499.1,347): des~10 tonnes~11
# 113 Fixation 9 (585,350.2): tonnes~11
# 163 Fixation 10 (643.7,350.4): tonnes~11 pétrole~13
# 154 Fixation 11 (300.1,402.3): encore~14 contenues~15
# 89 Fixation 12 (272.1,399.1): encore~14 contenues~15
# 161 Fixation 13 (259.6,396.7): encore~14 contenues~15
# 268 Fixation 14 (373.9,402.2): contenues~15
# 128 Fixation 15 (498.3,408.8): dans~16 soutes~18
# 97 Fixation 16 (559.9,411.9): dans~16 soutes~18
# 120 Fixation 17 (617.9,416.9): les~17 soutes~18
# 198 Fixation 18 (712.6,421.1): du~19 navire~20
# 208 Fixation 19 (279.9,462.1): Les~21 sondages~22
# 162 Fixation 20 (354.1,463.7): sondages~22
# 213 Fixation 21 (450.4,466.5): effectués~23
# 198 Fixation 22 (577.5,467.5): indiquent~24
# 131 Fixation 23 (700.3,477.9): que~25
# 136 Fixation 24 (290.5,524.4): morceaux~27
# 135 Fixation 25 (465.9,532.4): bateau~29 sont~30
# 93 Fixation 26 (528.6,531.5): sont~30
%%
# Outre~0 Fixations= "1/"
# la~1 Fixations= ""
# pollution~2 Fixations= "2/"
# de~3 Fixations= "3/"
# surface~4 Fixations= "4/"
# se~5 Fixations= "5/"
# pose~6 Fixations= "5/"
# aussi~7 Fixations= "6/"
# le~8 Fixations= "7/"
# problème~9 Fixations= "7/"
# des~10 Fixations= "8/"
# tonnes~11 Fixations= "10/"
# de~12 Fixations= ""
# pétrole~13 Fixations= "10/"
# encore~14 Fixations= "13/"
# contenues~15 Fixations= "14/"
# dans~16 Fixations= "16/"
# les~17 Fixations= "17/"
# soutes~18 Fixations= "17/"
# du~19 Fixations= "18/"
# navire~20 Fixations= "18/"
# Les~21 Fixations= "19/"
# sondages~22 Fixations= "20/"
# effectués~23 Fixations= "21/"
# indiquent~24 Fixations= "22/"
# que~25 Fixations= "23/"
# les~26 Fixations= ""
# morceaux~27 Fixations= "24/"
# du~28 Fixations= ""
# bateau~29 Fixations= "25/"
# sont~30 Fixations= "26/"
# stabilisés~31 Fixations= ""
%%
#  OUTRE[1] la POLLUTION[2] DE[3] SURFACE[4] SE[5] POSE[5] AUSSI[6] LE[7] PROBLèME[7] DES[8] TONNES[10] de PéTROLE[10] ENCORE[13] CONTENUES[14] DANS[16] LES[17] SOUTES[17] DU[18] NAVIRE[18] LES[19] SONDAGES[20] EFFECTUéS[21] INDIQUENT[22] QUE[23] les MORCEAUX[24] du BATEAU[25] SONT[26] stabilisés
# s02 prix_petrole-m2 PercentageOfWordsProcessed= 0.84375 PercentageOfWordsReallyProcessed= 0.870967741935484
