# 260 Fixation 1 (302.5,274.7): La~0 filiale~1
# 410 Fixation 2 (426.8,251.7): déchets~2
# 228 Fixation 3 (555.8,211.2): de~3 Suez~4
# 277 Fixation 4 (646.7,184.5):
# 236 Fixation 5 (303.3,327.9): eaux~7 a~8
# 286 Fixation 6 (303.5,272.6): La~0 filiale~1
# 458 Fixation 7 (421.4,278.4): déchets~2
# 249 Fixation 8 (283.6,336.5): eaux~7 a~8
# 178 Fixation 9 (376.1,348.5): a~8 mis~9
# 196 Fixation 10 (461.2,343.7): en~10 garde~11
# 242 Fixation 11 (548.5,329.6): mercredi~12
# 265 Fixation 12 (717.6,256.4): Lyonnaise~5
# 382 Fixation 13 (304.9,402.1): marchés~16
# 236 Fixation 14 (451.2,412.7): d'une~17 possible~18
# 125 Fixation 15 (540.4,423.6): possible~18 baisse~19
# 196 Fixation 16 (568.4,418.2): baisse~19
# 281 Fixation 17 (314.2,460.8): résultats~22
# 211 Fixation 18 (449.5,472.2): la~24 suite~25
# 137 Fixation 19 (476.2,480.7): la~24 suite~25
# 240 Fixation 20 (599.7,484.7): d'une~26 modification~27
# 234 Fixation 21 (313.5,526.4): la~29 réglementation~30
# 120 Fixation 22 (347.1,527): réglementation~30
# 260 Fixation 23 (603.5,548.6): les~32 décharges~33
# 219 Fixation 24 (340.3,403.8): marchés~16
# 350 Fixation 25 (301.1,409.7): marchés~16
# 243 Fixation 26 (340.3,347.5): eaux~7 a~8 mis~9
# 155 Fixation 27 (291,356.4): eaux~7 a~8
# 183 Fixation 28 (391.9,347.4): mis~9
# 321 Fixation 29 (446.5,348.9): en~10 garde~11
# 207 Fixation 30 (713.6,162):
# 374 Fixation 31 (644.6,195):
# 199 Fixation 32 (293.4,366.9): eaux~7 a~8
# 190 Fixation 33 (286.7,362): eaux~7 a~8
%%
# La~0 Fixations= "6/"
# filiale~1 Fixations= "6/"
# déchets~2 Fixations= "7/"
# de~3 Fixations= "3/"
# Suez~4 Fixations= "3/"
# Lyonnaise~5 Fixations= "12/"
# des~6 Fixations= ""
# eaux~7 Fixations= "33/"
# a~8 Fixations= "33/"
# mis~9 Fixations= "28/"
# en~10 Fixations= "29/"
# garde~11 Fixations= "29/"
# mercredi~12 Fixations= "11/"
# 27~13 Fixations= ""
# janvier~14 Fixations= ""
# les~15 Fixations= ""
# marchés~16 Fixations= "25/"
# d'une~17 Fixations= "14/"
# possible~18 Fixations= "15/"
# baisse~19 Fixations= "16/"
# de~20 Fixations= ""
# ses~21 Fixations= ""
# résultats~22 Fixations= "17/"
# à~23 Fixations= ""
# la~24 Fixations= "19/"
# suite~25 Fixations= "19/"
# d'une~26 Fixations= "20/"
# modification~27 Fixations= "20/"
# de~28 Fixations= ""
# la~29 Fixations= "21/"
# réglementation~30 Fixations= "22/"
# sur~31 Fixations= ""
# les~32 Fixations= "23/"
# décharges~33 Fixations= "23/"
%%
#  LA[6] FILIALE[6] DéCHETS[7] DE[3] SUEZ[3] LYONNAISE[12] des EAUX[33] A[33] MIS[28] EN[29] GARDE[29] MERCREDI[11] 27 janvier les MARCHéS[25] D'UNE[14] POSSIBLE[15] BAISSE[16] de ses RéSULTATS[17] à LA[19] SUITE[19] D'UNE[20] MODIFICATION[20] de LA[21] RéGLEMENTATION[22] sur LES[23] DéCHARGES[23]
# s20 dechets_nucleaires-m1 PercentageOfWordsProcessed= 0.735294117647059 PercentageOfWordsReallyProcessed= 0.735294117647059
