# 173 Fixation 1 (357,275.5): l'aide~1
# 146 Fixation 2 (455.2,290.7): de~2 rabatteurs~4
# 158 Fixation 3 (545.7,311.7): leurs~3 rabatteurs~4
# 214 Fixation 4 (278.7,333.1): déguenillés~5
# 169 Fixation 5 (465,358.2): elles~6 pesaient~7
# 291 Fixation 6 (601.7,364.2): pesaient~7 l'offre~8
# 308 Fixation 7 (428.9,353): elles~6 pesaient~7
# 148 Fixation 8 (380.4,387.3): Elles~12 savaient~13
# 263 Fixation 9 (273.2,379.2): déguenillés~5
# 160 Fixation 10 (410.5,398.9): Elles~12 savaient~13
# 107 Fixation 11 (495.6,398.5): savaient~13
# 150 Fixation 12 (639.6,403.2): précisément~14
# 195 Fixation 13 (314.1,434.4): demande~11
# 152 Fixation 14 (446.9,449.5): mois~18 entreprises~20
# 142 Fixation 15 (518.5,455.2): entreprises~20
# 144 Fixation 16 (693.2,478.2): chercheraient~21
# 234 Fixation 17 (324.4,493.1): jour~16 mois~18
# 187 Fixation 18 (448.8,521.7): monnaie~24 locale~25
# 174 Fixation 19 (318.7,567.2): de~22 monnaie~24
%%
# Avec~0 Fixations= ""
# l'aide~1 Fixations= "1/"
# de~2 Fixations= "2/"
# leurs~3 Fixations= "3/"
# rabatteurs~4 Fixations= "3/"
# déguenillés~5 Fixations= "9/"
# elles~6 Fixations= "7/"
# pesaient~7 Fixations= "7/"
# l'offre~8 Fixations= "6/"
# et~9 Fixations= ""
# la~10 Fixations= ""
# demande~11 Fixations= "13/"
# Elles~12 Fixations= "10/"
# savaient~13 Fixations= "11/"
# précisément~14 Fixations= "12/"
# quel~15 Fixations= ""
# jour~16 Fixations= "17/"
# du~17 Fixations= ""
# mois~18 Fixations= "17/"
# les~19 Fixations= ""
# entreprises~20 Fixations= "15/"
# chercheraient~21 Fixations= "16/"
# de~22 Fixations= "19/"
# la~23 Fixations= ""
# monnaie~24 Fixations= "19/"
# locale~25 Fixations= "18/"
# pour~26 Fixations= ""
# payer~27 Fixations= ""
# leurs~28 Fixations= ""
# salariés~29 Fixations= ""
%%
#  Avec L'AIDE[1] DE[2] LEURS[3] RABATTEURS[3] DéGUENILLéS[9] ELLES[7] PESAIENT[7] L'OFFRE[6] et la DEMANDE[13] ELLES[10] SAVAIENT[11] PRéCISéMENT[12] quel JOUR[17] du MOIS[17] les ENTREPRISES[15] CHERCHERAIENT[16] DE[19] la MONNAIE[19] LOCALE[18] pour payer leurs salariés
# s07 faiblesse_dollar-m1 PercentageOfWordsProcessed= 0.633333333333333 PercentageOfWordsReallyProcessed= 0.730769230769231
