999 WORDS_L'exploit~0 130
999 WORDFREQ_5.2 130
999 WORDSALL_L'exploit~0 130
999 COSIND_0.01 130
999 COSGEN_0.01 130
101 ESRank1 130
999 WORDS_Louis~2 191
999 WORDFREQ_5.07 191
999 WORDSALL_de~1_Louis~2 191
999 COSIND_0.08 191
999 COSGEN_0.08 191
102 ESRank2 191
202 ESForwSacLong+2+4 191
999 WORDS_Blériot~3 173
999 WORDFREQ_N/A 173
999 WORDSALL_Louis~2_Blériot~3 173
999 COSIND_N/A 173
103 ESRank3 173
201 ESForwSacShort 173
999 WORDS_premier~5 129
999 WORDFREQ_237.91 129
999 WORDSALL_le~4_premier~5 129
999 COSIND_-0.00 129
999 COSGEN_-0.00 129
104 ESRank4 129
202 ESForwSacLong+2+4 129
999 WORDS_à~7 205
999 WORDFREQ_19209.05 205
999 WORDSALL_aviateur~6_à~7 205
999 COSIND_N/A 205
105 ESRank5 205
202 ESForwSacLong+2+10 205
999 WORDS_avoir~8 179
999 WORDFREQ_649.26 179
999 WORDSALL_à~7_avoir~8 179
999 COSIND_-0.09 179
999 COSGEN_-0.09 179
106 ESRank6 179
201 ESForwSacShort 179
999 WORDS_traversé~9 170
999 WORDFREQ_29.93 170
999 WORDSALL_traversé~9 170
999 COSIND_-0.05 170
999 COSGEN_-0.05 170
107 ESRank7 170
201 ESForwSacShort 170
999 WORDS_manche~11 155
999 WORDFREQ_35.41 155
999 WORDSALL_la~10_manche~11 155
999 COSIND_0.10 155
999 COSGEN_0.10 155
108 ESRank8 155
202 ESForwSacLong+2+4 155
999 WORDS_reproduit~18 172
999 WORDFREQ_3.11 172
999 WORDSALL_été~17_reproduit~18 172
999 COSIND_0.09 172
999 COSGEN_0.09 172
109 ESRank9 172
202 ESForwSacLong+7+26 172
999 WORDS_dimanche~19 216
999 WORDFREQ_87.84 216
999 WORDSALL_reproduit~18_dimanche~19 216
999 COSIND_0.03 216
999 COSGEN_0.03 216
110 ESRank10 216
201 ESForwSacShort 216
999 WORDS_1909~15 171
999 WORDFREQ_N/A 171
999 WORDSALL_avion~13_1909~15 171
999 COSIND_N/A 171
111 ESRank11 171
206 ESBackSacRegrLong-4-19 171
999 WORDS_a~16 118
999 WORDFREQ_2926.69 118
999 WORDSALL_1909~15_a~16 118
999 COSIND_N/A 118
112 ESRank12 118
201 ESForwSacShort 118
999 WORDS_jour~26 164
999 WORDFREQ_826.35 164
999 WORDSALL_jour~24_jour~26 164
999 COSIND_-0.03 164
999 COSGEN_-0.03 164
113 ESRank13 164
202 ESForwSacLong+10+54 164
999 WORDS_jour~26 140
999 WORDFREQ_826.35 140
999 WORDSALL_pour~25_jour~26 140
999 COSIND_-0.03 140
999 COSGEN_-0.03 140
114 ESRank14 140
203 ESBackSacRefixation 140
999 WORDS_ans~23 170
999 WORDFREQ_609.05 170
999 WORDSALL_90~22_ans~23 170
999 COSIND_-0.06 170
999 COSGEN_-0.06 170
115 ESRank15 170
206 ESBackSacRegrLong-3-11 170
999 WORDS_jour~24 97
999 WORDFREQ_826.35 97
999 WORDSALL_ans~23_jour~24 97
999 COSIND_-0.03 97
999 COSGEN_-0.03 97
116 ESRank16 97
201 ESForwSacShort 97
999 WORDS_juillet~21 174
999 WORDFREQ_47.57 174
999 WORDSALL_juillet~21 174
999 COSIND_-0.03 174
999 COSGEN_-0.03 174
117 ESRank17 174
206 ESBackSacRegrLong-3-8 174
999 WORDS_jour~24 203
999 WORDFREQ_826.35 203
999 WORDSALL_ans~23_jour~24 203
999 COSIND_-0.03 203
999 COSGEN_-0.03 203
118 ESRank18 203
202 ESForwSacLong+3+8 203
999 WORDS_jour~24 171
999 WORDFREQ_826.35 171
999 WORDSALL_90~22_ans~23_jour~24 171
999 COSIND_-0.03 171
999 COSGEN_-0.03 171
119 ESRank19 171
203 ESBackSacRefixation 171
999 WORDS_jour~24 330
999 WORDFREQ_826.35 330
999 WORDSALL_jour~24 330
999 COSIND_-0.03 330
999 COSGEN_-0.03 330
120 ESRank20 330
203 ESBackSacRefixation 330
999 WORDS_jour~24 225
999 WORDFREQ_826.35 225
999 WORDSALL_90~22_ans~23_jour~24 225
999 COSIND_-0.03 225
999 COSGEN_-0.03 225
203 ESBackSacRefixation 225
999 WORDS_jour~24 159
999 WORDFREQ_826.35 159
999 WORDSALL_jour~24 159
999 COSIND_-0.03 159
999 COSGEN_-0.03 159
203 ESBackSacRefixation 159
999 WORDS_Louis~2 284
999 WORDFREQ_5.07 284
999 WORDSALL_de~1_Louis~2 284
999 COSIND_0.08 284
999 COSGEN_0.08 284
206 ESBackSacRegrLong-22-121 284
200 ESRankN 284
199 ESRankNMinus1 159
198 ESRankNMinus2 225
197 ESRankNMinus3 330
196 ESRankNMinus4 171
195 ESRankNMinus5 203
194 ESRankNMinus6 174
193 ESRankNMinus7 97
192 ESRankNMinus8 170
191 ESRankNMinus9 140
190 ESRankNMinus10 164
