999 WORDS_plupart~1 154
999 WORDFREQ_0.07 154
999 WORDSALL_La~0_plupart~1 154
999 COSIND_0.11 154
999 COSGEN_0.11 154
101 ESRank1 154
999 WORDS_plupart~1 128
999 WORDFREQ_0.07 128
999 WORDSALL_La~0_plupart~1 128
999 COSIND_0.11 128
999 COSGEN_0.11 128
102 ESRank2 128
203 ESBackSacRefixation 128
999 WORDS_des~2 151
999 WORDFREQ_10624.93 151
999 WORDSALL_des~2 151
999 COSIND_N/A 151
103 ESRank3 151
201 ESForwSacShort 151
999 WORDS_animateurs-modérateurs~3 156
999 WORDFREQ_N/A 156
999 WORDSALL_des~2_animateurs-modérateurs~3 156
999 COSIND_N/A 156
104 ESRank4 156
201 ESForwSacShort 156
999 WORDS_animateurs-modérateurs~3 113
999 WORDFREQ_N/A 113
999 WORDSALL_animateurs-modérateurs~3 113
999 COSIND_N/A 113
105 ESRank5 113
203 ESBackSacRefixation 113
999 WORDS_animateurs-modérateurs~3 227
999 WORDFREQ_N/A 227
999 WORDSALL_animateurs-modérateurs~3 227
999 COSIND_N/A 227
106 ESRank6 227
203 ESBackSacRefixation 227
999 WORDS_ont~4 143
999 WORDFREQ_240.61 143
999 WORDSALL_ont~4 143
999 COSIND_0.02 143
999 COSGEN_0.02 143
107 ESRank7 143
201 ESForwSacShort 143
999 WORDS_formation~6 182
999 WORDFREQ_9.32 182
999 WORDSALL_une~5_formation~6 182
999 COSIND_0.93 182
999 COSGEN_0.93 182
108 ESRank8 182
202 ESForwSacLong+2+5 182
999 WORDS_formation~6 137
999 WORDFREQ_9.32 137
999 WORDSALL_une~5_formation~6 137
999 COSIND_0.93 137
999 COSGEN_0.93 137
109 ESRank9 137
203 ESBackSacRefixation 137
999 WORDS_journaliste~8 232
999 WORDFREQ_15.95 232
999 WORDSALL_de~7_journaliste~8 232
999 COSIND_0.03 232
999 COSGEN_0.03 232
110 ESRank10 232
202 ESForwSacLong+2+4 232
999 WORDS_journaliste~8 145
999 WORDFREQ_15.95 145
999 WORDSALL_journaliste~8 145
999 COSIND_0.03 145
999 COSGEN_0.03 145
111 ESRank11 145
203 ESBackSacRefixation 145
999 WORDS_journaliste~8 141
999 WORDFREQ_15.95 141
999 WORDSALL_journaliste~8 141
999 COSIND_0.03 141
999 COSGEN_0.03 141
112 ESRank12 141
203 ESBackSacRefixation 141
999 WORDS_n'existe~10 170
999 WORDFREQ_57.97 170
999 WORDSALL_Il~9_n'existe~10 170
999 COSIND_-0.02 170
999 COSGEN_-0.02 170
113 ESRank13 170
202 ESForwSacLong+2+4 170
999 WORDS_formation~13 149
999 WORDFREQ_9.32 149
999 WORDSALL_pas~11_formation~13 149
999 COSIND_0.93 149
999 COSGEN_0.93 149
114 ESRank14 149
202 ESForwSacLong+3+8 149
999 WORDS_formation~13 158
999 WORDFREQ_9.32 158
999 WORDSALL_de~12_formation~13 158
999 COSIND_0.93 158
999 COSGEN_0.93 158
115 ESRank15 158
203 ESBackSacRefixation 158
999 WORDS_spécifique~14 331
999 WORDFREQ_1.42 331
999 WORDSALL_spécifique~14 331
999 COSIND_0.30 331
999 COSGEN_0.30 331
116 ESRank16 331
201 ESForwSacShort 331
999 WORDS_mais~15 211
999 WORDFREQ_4463.72 211
999 WORDSALL_mais~15 211
999 COSIND_N/A 211
117 ESRank17 211
201 ESForwSacShort 211
999 WORDS_écoles~17 213
999 WORDFREQ_15.47 213
999 WORDSALL_écoles~17 213
999 COSIND_0.21 213
999 COSGEN_0.21 213
118 ESRank18 213
202 ESForwSacLong+2+5 213
999 WORDS_journalisme~19 191
999 WORDFREQ_3.51 191
999 WORDSALL_de~18_journalisme~19 191
999 COSIND_0.13 191
999 COSGEN_0.13 191
119 ESRank19 191
202 ESForwSacLong+2+4 191
999 WORDS_journalisme~19 160
999 WORDFREQ_3.51 160
999 WORDSALL_journalisme~19 160
999 COSIND_0.13 160
999 COSGEN_0.13 160
120 ESRank20 160
203 ESBackSacRefixation 160
200 ESRankN 160
199 ESRankNMinus1 191
198 ESRankNMinus2 213
197 ESRankNMinus3 211
196 ESRankNMinus4 331
195 ESRankNMinus5 158
194 ESRankNMinus6 149
193 ESRankNMinus7 170
192 ESRankNMinus8 141
191 ESRankNMinus9 145
190 ESRankNMinus10 232
