# 162 Fixation 1 (323,285.6): Ces~0 combats~1
# 153 Fixation 2 (442.7,288.4): qui~2 remettent~4
# 239 Fixation 3 (534.5,292): ne~3 remettent~4
# 176 Fixation 4 (667.2,291.7): pas~5 cause~7
# 155 Fixation 5 (710.1,290.8): pas~5 cause~7
# 302 Fixation 6 (321.6,336.6): la~8 suprématie~9
# 173 Fixation 7 (497.8,344.3): des~10 talibans~11
# 229 Fixation 8 (482.1,346.6): des~10 talibans~11
# 161 Fixation 9 (583.1,348.1): talibans~11
# 159 Fixation 10 (316.4,401.9): l'Afghanistan~13
# 144 Fixation 11 (298.8,403.9): l'Afghanistan~13
# 196 Fixation 12 (469.2,401.4): prouvent~14
# 150 Fixation 13 (614.9,410): que~15 l'état-major~16
# 179 Fixation 14 (659.4,415): l'état-major~16
%%
# Ces~0 Fixations= "1/"
# combats~1 Fixations= "1/"
# qui~2 Fixations= "2/"
# ne~3 Fixations= "3/"
# remettent~4 Fixations= "3/"
# pas~5 Fixations= "5/"
# en~6 Fixations= ""
# cause~7 Fixations= "5/"
# la~8 Fixations= "6/"
# suprématie~9 Fixations= "6/"
# des~10 Fixations= "8/"
# talibans~11 Fixations= "9/"
# sur~12 Fixations= ""
# l'Afghanistan~13 Fixations= "11/"
# prouvent~14 Fixations= "12/"
# que~15 Fixations= "13/"
# l'état-major~16 Fixations= "14/"
# veut~17 Fixations= ""
# et~18 Fixations= ""
# peut~19 Fixations= ""
# maintenir~20 Fixations= ""
# la~21 Fixations= ""
# pression~22 Fixations= ""
# sur~23 Fixations= ""
# ses~24 Fixations= ""
# adversaires~25 Fixations= ""
%%
#  CES[1] COMBATS[1] QUI[2] NE[3] REMETTENT[3] PAS[5] en CAUSE[5] LA[6] SUPRéMATIE[6] DES[8] TALIBANS[9] sur L'AFGHANISTAN[11] PROUVENT[12] QUE[13] L'éTAT-MAJOR[14] veut et peut maintenir la pression sur ses adversaires
# s05 chef_russie-m1 PercentageOfWordsProcessed= 0.576923076923077 PercentageOfWordsReallyProcessed= 0.882352941176471
