# 135 Fixation 1 (294.9,297.8): Il~0 s'agit~1
# 112 Fixation 2 (434.3,288.2): de~2 citoyens~4
# 153 Fixation 3 (510.4,286.4): citoyens~4
# 148 Fixation 4 (646.1,271.5): et~5 devoir~7
# 83 Fixation 5 (689.3,277.8): le~6 devoir~7
# 188 Fixation 6 (303.5,349.8): n'importe~9
# 162 Fixation 7 (454,348.5): quel~10 gouvernement~11
# 140 Fixation 8 (672.5,336.3): est~12 défendre~14
# 128 Fixation 9 (716.3,346.8): de~13 défendre~14
# 114 Fixation 10 (365.7,404.4): intérêts~16
# 92 Fixation 11 (294.1,404.8): les~15 intérêts~16
# 194 Fixation 12 (515.8,410.6): ses~18 citoyens~19
# 207 Fixation 13 (678.8,416.9): Des~20 mesures~21
# 162 Fixation 14 (346.7,460.6): prises~23
# 143 Fixation 15 (467.2,465.7): mais~24 également~25
# 211 Fixation 16 (695.1,477): coopération~27
# 229 Fixation 17 (453.5,514.4): organisations~30
# 253 Fixation 18 (604.1,526): internationales~31
# 184 Fixation 19 (391.1,526.3): les~29 organisations~30
# 203 Fixation 20 (286.9,518.7): avec~28
# 167 Fixation 21 (604.7,473.5): également~25
# 87 Fixation 22 (666.7,476.2): une~26 coopération~27
# 127 Fixation 23 (532.8,461.9): également~25
# 133 Fixation 24 (487.6,456.8): mais~24 également~25
# 163 Fixation 25 (403.6,452.5): prises~23
# 160 Fixation 26 (319.8,455): sont~22 prises~23
# 130 Fixation 27 (324,318.2): n'importe~9
# 119 Fixation 28 (349.4,291.6): s'agit~1
# 156 Fixation 29 (475.6,286.4): nos~3 citoyens~4
# 172 Fixation 30 (658.9,261.5): et~5 devoir~7
# 174 Fixation 31 (331.7,331.8): n'importe~9
# 129 Fixation 32 (456,335.4): quel~10 gouvernement~11
# 136 Fixation 33 (555,339.6): gouvernement~11
# 136 Fixation 34 (652.8,339.4): est~12 défendre~14
# 119 Fixation 35 (704.4,347.7): de~13 défendre~14
# 180 Fixation 36 (322.4,392.5): les~15 intérêts~16
# 155 Fixation 37 (498.1,401.4): ses~18 citoyens~19
# 89 Fixation 38 (548.1,404.6): citoyens~19
# 178 Fixation 39 (467.4,396.3): de~17 citoyens~19
%%
# Il~0 Fixations= "1/"
# s'agit~1 Fixations= "28/"
# de~2 Fixations= "2/"
# nos~3 Fixations= "29/"
# citoyens~4 Fixations= "29/"
# et~5 Fixations= "30/"
# le~6 Fixations= "5/"
# devoir~7 Fixations= "30/"
# de~8 Fixations= ""
# n'importe~9 Fixations= "31/"
# quel~10 Fixations= "32/"
# gouvernement~11 Fixations= "33/"
# est~12 Fixations= "34/"
# de~13 Fixations= "35/"
# défendre~14 Fixations= "35/"
# les~15 Fixations= "36/"
# intérêts~16 Fixations= "36/"
# de~17 Fixations= "39/"
# ses~18 Fixations= "37/"
# citoyens~19 Fixations= "39/"
# Des~20 Fixations= "13/"
# mesures~21 Fixations= "13/"
# sont~22 Fixations= "26/"
# prises~23 Fixations= "26/"
# mais~24 Fixations= "24/"
# également~25 Fixations= "24/"
# une~26 Fixations= "22/"
# coopération~27 Fixations= "22/"
# avec~28 Fixations= "20/"
# les~29 Fixations= "19/"
# organisations~30 Fixations= "19/"
# internationales~31 Fixations= "18/"
%%
#  IL[1] S'AGIT[28] DE[2] NOS[29] CITOYENS[29] ET[30] LE[5] DEVOIR[30] de N'IMPORTE[31] QUEL[32] GOUVERNEMENT[33] EST[34] DE[35] DéFENDRE[35] LES[36] INTéRêTS[36] DE[39] SES[37] CITOYENS[39] DES[13] MESURES[13] SONT[26] PRISES[26] MAIS[24] éGALEMENT[24] UNE[22] COOPéRATION[22] AVEC[20] LES[19] ORGANISATIONS[19] INTERNATIONALES[18]
# s10 associations_humanitaires-m1 PercentageOfWordsProcessed= 0.96875 PercentageOfWordsReallyProcessed= 0.96875
