999 WORDS_Plusieurs~0 186
999 WORDFREQ_14.86 186
999 WORDSALL_Plusieurs~0 186
999 COSIND_-0.04 186
999 COSGEN_-0.04 186
101 ESRank1 186
999 WORDS_tribunaux~1 199
999 WORDFREQ_3.04 199
999 WORDSALL_Plusieurs~0_tribunaux~1 199
999 COSIND_-0.01 199
999 COSGEN_-0.01 199
102 ESRank2 199
201 ESForwSacShort 199
999 WORDS_administratifs~2 345
999 WORDFREQ_1.62 345
999 WORDSALL_administratifs~2 345
999 COSIND_0.08 345
999 COSGEN_0.08 345
103 ESRank3 345
201 ESForwSacShort 345
999 WORDS_ont~3 218
999 WORDFREQ_553.31 218
999 WORDSALL_ont~3 218
999 COSIND_-0.01 218
999 COSGEN_-0.01 218
104 ESRank4 218
201 ESForwSacShort 218
999 WORDS_sommé~4 363
999 WORDFREQ_1.42 363
999 WORDSALL_sommé~4 363
999 COSIND_0.03 363
999 COSGEN_0.03 363
105 ESRank5 363
201 ESForwSacShort 363
999 WORDS_préfets~6 195
999 WORDFREQ_1.35 195
999 WORDSALL_sommé~4_préfets~6 195
999 COSIND_0.02 195
999 COSGEN_0.02 195
106 ESRank6 195
202 ESForwSacLong+2+5 195
999 WORDS_sommé~4 464
999 WORDFREQ_1.42 464
999 WORDSALL_sommé~4 464
999 COSIND_0.03 464
999 COSGEN_0.03 464
107 ESRank7 464
206 ESBackSacRegrLong-2-5 464
999 WORDS_treize~8 193
999 WORDFREQ_20.95 193
999 WORDSALL_de~7_treize~8 193
999 COSIND_0.01 193
999 COSGEN_0.01 193
108 ESRank8 193
202 ESForwSacLong+4+17 193
999 WORDS_préfets~6 188
999 WORDFREQ_1.35 188
999 WORDSALL_préfets~6 188
999 COSIND_0.02 188
999 COSGEN_0.02 188
109 ESRank9 188
206 ESBackSacRegrLong-2-4 188
999 WORDS_départements~9 236
999 WORDFREQ_4.32 236
999 WORDSALL_départements~9 236
999 COSIND_0.35 236
999 COSGEN_0.35 236
110 ESRank10 236
202 ESForwSacLong+3+11 236
999 WORDS_fermeture~15 167
999 WORDFREQ_14.86 167
999 WORDSALL_fermeture~15 167
999 COSIND_0.23 167
999 COSGEN_0.23 167
111 ESRank11 167
202 ESForwSacLong+6+29 167
999 WORDS_fermeture~15 212
999 WORDFREQ_14.86 212
999 WORDSALL_de~14_fermeture~15 212
999 COSIND_0.23 212
999 COSGEN_0.23 212
112 ESRank12 212
203 ESBackSacRefixation 212
999 WORDS_oiseaux~20 362
999 WORDFREQ_65.07 362
999 WORDSALL_aux~19_oiseaux~20 362
999 COSIND_0.83 362
999 COSGEN_0.83 362
113 ESRank13 362
202 ESForwSacLong+5+18 362
999 WORDS_migrateurs~21 254
999 WORDFREQ_1.08 254
999 WORDSALL_oiseaux~20_migrateurs~21 254
999 COSIND_0.88 254
999 COSGEN_0.88 254
114 ESRank14 254
201 ESForwSacShort 254
999 WORDS_31~23 256
999 WORDFREQ_N/A 256
999 WORDSALL_migrateurs~21_31~23 256
999 COSIND_N/A 256
115 ESRank15 256
202 ESForwSacLong+2+4 256
200 ESRankN 256
199 ESRankNMinus1 254
198 ESRankNMinus2 362
197 ESRankNMinus3 212
196 ESRankNMinus4 167
195 ESRankNMinus5 236
194 ESRankNMinus6 188
193 ESRankNMinus7 193
192 ESRankNMinus8 464
191 ESRankNMinus9 195
190 ESRankNMinus10 363
