# 203 Fixation 1 (281.1,297.9): L'équipe~0
# 177 Fixation 2 (376.1,291.2): L'équipe~0 France~2
# 140 Fixation 3 (577.7,286.8): football~4
# 318 Fixation 4 (666,290.2): a~5
# 252 Fixation 5 (283.2,341.3): l'Australie~7
# 152 Fixation 6 (349.7,349.6): l'Australie~7
# 232 Fixation 7 (469.3,348.3): en~8 finale~9
# 285 Fixation 8 (603.3,354.4): de~10 Coupe~12
# 131 Fixation 9 (745,353.1): du~13 Monde~14
# 156 Fixation 10 (256.6,414.1): L'entraineur~15
# 253 Fixation 11 (276.3,410.5): L'entraineur~15
# 202 Fixation 12 (407.3,407.1): L'entraineur~15 très~17
# 190 Fixation 13 (509.8,411): très~17
# 166 Fixation 14 (549.4,411): très~17 satisfait~18
# 137 Fixation 15 (680.3,418.2): de~19
# 280 Fixation 16 (272.4,463.2): équipe~21
# 252 Fixation 17 (413,477.1): et~22 envisage~23
# 299 Fixation 18 (600.8,479.6): rencontres~25
# 151 Fixation 19 (694.6,478.1): futures~26
# 189 Fixation 20 (281.7,585.6): avec~27 enthousiasme~28
# 160 Fixation 21 (370,550.7): enthousiasme~28
# 177 Fixation 22 (570.2,551.3): sérénité~30
%%
# L'équipe~0 Fixations= "2/"
# de~1 Fixations= ""
# France~2 Fixations= "2/"
# de~3 Fixations= ""
# football~4 Fixations= "3/"
# a~5 Fixations= "4/"
# vaincu~6 Fixations= ""
# l'Australie~7 Fixations= "6/"
# en~8 Fixations= "7/"
# finale~9 Fixations= "7/"
# de~10 Fixations= "8/"
# la~11 Fixations= ""
# Coupe~12 Fixations= "8/"
# du~13 Fixations= "9/"
# Monde~14 Fixations= "9/"
# L'entraineur~15 Fixations= "12/"
# est~16 Fixations= ""
# très~17 Fixations= "14/"
# satisfait~18 Fixations= "14/"
# de~19 Fixations= "15/"
# son~20 Fixations= ""
# équipe~21 Fixations= "16/"
# et~22 Fixations= "17/"
# envisage~23 Fixations= "17/"
# les~24 Fixations= ""
# rencontres~25 Fixations= "18/"
# futures~26 Fixations= "19/"
# avec~27 Fixations= "20/"
# enthousiasme~28 Fixations= "21/"
# et~29 Fixations= ""
# sérénité~30 Fixations= "22/"
%%
#  L'éQUIPE[2] de FRANCE[2] de FOOTBALL[3] A[4] vaincu L'AUSTRALIE[6] EN[7] FINALE[7] DE[8] la COUPE[8] DU[9] MONDE[9] L'ENTRAINEUR[12] est TRèS[14] SATISFAIT[14] DE[15] son éQUIPE[16] ET[17] ENVISAGE[17] les RENCONTRES[18] FUTURES[19] AVEC[20] ENTHOUSIASME[21] et SéRéNITé[22]
# s13 victoire_footballeurs-f2 PercentageOfWordsProcessed= 0.741935483870968 PercentageOfWordsReallyProcessed= 0.741935483870968
