999 WORDS_laboratoires~1 143
999 WORDFREQ_1.08 143
999 WORDSALL_Les~0_laboratoires~1 143
999 COSIND_-0.00 143
999 COSGEN_-0.00 143
101 ESRank1 143
999 WORDS_laboratoires~1 152
999 WORDFREQ_1.08 152
999 WORDSALL_laboratoires~1 152
999 COSIND_-0.00 152
999 COSGEN_-0.00 152
102 ESRank2 152
203 ESBackSacRefixation 152
999 WORDS_ont~2 178
999 WORDFREQ_553.31 178
999 WORDSALL_ont~2 178
999 COSIND_-0.02 178
999 COSGEN_-0.02 178
103 ESRank3 178
201 ESForwSacShort 178
999 WORDS_réalisé~4 196
999 WORDFREQ_6.22 196
999 WORDSALL_ainsi~3_réalisé~4 196
999 COSIND_0.02 196
999 COSGEN_0.02 196
104 ESRank4 196
202 ESForwSacLong+2+7 196
999 WORDS_premier~6 185
999 WORDFREQ_237.91 185
999 WORDSALL_Les~0_laboratoires~1_premier~6 185
999 COSIND_0.09 185
999 COSGEN_0.09 185
105 ESRank5 185
202 ESForwSacLong+2+7 185
999 WORDS_dur~8 120
999 WORDFREQ_80.68 120
999 WORDSALL_laboratoires~1_coup~7_dur~8 120
999 COSIND_-0.03 120
999 COSGEN_-0.03 120
106 ESRank6 120
202 ESForwSacLong+2+6 120
999 WORDS_existence~10 219
999 WORDFREQ_93.85 219
999 WORDSALL_ainsi~3_réalisé~4_existence~10 219
999 COSIND_0.02 219
999 COSGEN_0.02 219
107 ESRank7 219
202 ESForwSacLong+2+6 219
999 WORDS_même~11 190
999 WORDFREQ_705.81 190
999 WORDSALL_même~11 190
999 COSIND_N/A 190
108 ESRank8 190
201 ESForwSacShort 190
999 WORDS_menacée~13 190
999 WORDFREQ_2.23 190
999 WORDSALL_premier~6_coup~7_menacée~13 190
999 COSIND_0.16 190
999 COSGEN_0.16 190
109 ESRank9 190
202 ESForwSacLong+2+8 190
999 WORDS_médicaments~15 216
999 WORDFREQ_8.45 216
999 WORDSALL_dur~8_médicaments~15 216
999 COSIND_-0.12 216
999 COSGEN_-0.12 216
110 ESRank10 216
202 ESForwSacLong+2+5 216
999 WORDS_nouveaux~16 159
999 WORDFREQ_47.3 159
999 WORDSALL_nouveaux~16 159
999 COSIND_0.03 159
999 COSGEN_0.03 159
111 ESRank11 159
201 ESForwSacShort 159
999 WORDS_n'étaient~17 151
999 WORDFREQ_534.19 151
999 WORDSALL_n'étaient~17 151
999 COSIND_0.01 151
999 COSGEN_0.01 151
112 ESRank12 151
201 ESForwSacShort 151
999 WORDS_plus~18 201
999 WORDFREQ_5014.53 201
999 WORDSALL_plus~18 201
999 COSIND_0.01 201
999 COSGEN_0.01 201
113 ESRank13 201
201 ESForwSacShort 201
999 WORDS_nombreux~20 197
999 WORDFREQ_37.03 197
999 WORDSALL_Les~14_médicaments~15_nombreux~20 197
999 COSIND_0.04 197
999 COSGEN_0.04 197
114 ESRank14 197
202 ESForwSacLong+2+7 197
999 WORDS_compenser~22 204
999 WORDFREQ_3.99 204
999 WORDSALL_nouveaux~16_compenser~22 204
999 COSIND_0.03 204
999 COSGEN_0.03 204
115 ESRank15 204
202 ESForwSacLong+2+6 204
999 WORDS_chute~24 157
999 WORDFREQ_35.27 157
999 WORDSALL_la~23_chute~24 157
999 COSIND_-0.04 157
999 COSGEN_-0.04 157
116 ESRank16 157
202 ESForwSacLong+2+4 157
999 WORDS_brevets~27 180
999 WORDFREQ_0.47 180
999 WORDSALL_plus~18_brevets~27 180
999 COSIND_-0.05 180
999 COSGEN_-0.05 180
117 ESRank17 180
202 ESForwSacLong+3+10 180
999 WORDS_plus~18 88
999 WORDFREQ_5014.53 88
999 WORDSALL_plus~18 88
999 COSIND_0.01 88
999 COSGEN_0.01 88
118 ESRank18 88
206 ESBackSacRegrLong-9-49 88
999 WORDS_brevets~27 83
999 WORDFREQ_0.47 83
999 WORDSALL_assez~19_nombreux~20_brevets~27 83
999 COSIND_-0.05 83
999 COSGEN_-0.05 83
119 ESRank19 83
202 ESForwSacLong+9+49 83
999 WORDS_domaine~30 169
999 WORDFREQ_37.91 169
999 WORDSALL_pour~21_compenser~22_domaine~30 169
999 COSIND_0.01 169
999 COSGEN_0.01 169
120 ESRank20 169
202 ESForwSacLong+3+9 169
200 ESRankN 169
199 ESRankNMinus1 83
198 ESRankNMinus2 88
197 ESRankNMinus3 180
196 ESRankNMinus4 157
195 ESRankNMinus5 204
194 ESRankNMinus6 197
193 ESRankNMinus7 201
192 ESRankNMinus8 151
191 ESRankNMinus9 159
190 ESRankNMinus10 216
