999 WORDS_débattent~5 247
999 WORDFREQ_0.74 247
999 WORDSALL_Chez~0_démocrates~2_débattent~5 247
999 COSIND_0.02 247
999 COSGEN_0.02 247
101 ESRank1 247
999 WORDS_démocrates~2 215
999 WORDFREQ_0.74 215
999 WORDSALL_les~1_démocrates~2 215
999 COSIND_0.11 215
999 COSGEN_0.11 215
102 ESRank2 215
206 ESBackSacRegrLong-3-16 215
999 WORDS_débattent~5 145
999 WORDFREQ_0.74 145
999 WORDSALL_Chez~0_démocrates~2_débattent~5 145
999 COSIND_0.02 145
999 COSGEN_0.02 145
103 ESRank3 145
202 ESForwSacLong+3+16 145
999 WORDS_débattent~5 189
999 WORDFREQ_0.74 189
999 WORDSALL_Chez~0_débattent~5 189
999 COSIND_0.02 189
999 COSGEN_0.02 189
104 ESRank4 189
203 ESBackSacRefixation 189
999 WORDS_électeurs~4 222
999 WORDFREQ_2.23 222
999 WORDSALL_les~3_électeurs~4 222
999 COSIND_0.02 222
999 COSGEN_0.02 222
105 ESRank5 222
205 ESBackSacRegrShort 222
999 WORDS_électeurs~4 292
999 WORDFREQ_2.23 292
999 WORDSALL_les~3_électeurs~4 292
999 COSIND_0.02 292
999 COSGEN_0.02 292
106 ESRank6 292
203 ESBackSacRefixation 292
999 WORDS_débattent~5 298
999 WORDFREQ_0.74 298
999 WORDSALL_Chez~0_démocrates~2_débattent~5 298
999 COSIND_0.02 298
999 COSGEN_0.02 298
107 ESRank7 298
201 ESForwSacShort 298
999 WORDS_démocrates~2 199
999 WORDFREQ_0.74 199
999 WORDSALL_les~1_démocrates~2 199
999 COSIND_0.11 199
999 COSGEN_0.11 199
108 ESRank8 199
206 ESBackSacRegrLong-3-16 199
999 WORDS_débattent~5 221
999 WORDFREQ_0.74 221
999 WORDSALL_les~1_démocrates~2_débattent~5 221
999 COSIND_0.02 221
999 COSGEN_0.02 221
109 ESRank9 221
202 ESForwSacLong+3+16 221
999 WORDS_choix~8 186
999 WORDFREQ_51.42 186
999 WORDSALL_démocrates~2_choix~8 186
999 COSIND_-0.00 186
999 COSGEN_-0.00 186
110 ESRank10 186
202 ESForwSacLong+3+10 186
999 WORDS_démocrates~2 240
999 WORDFREQ_0.74 240
999 WORDSALL_les~1_démocrates~2 240
999 COSIND_0.11 240
999 COSGEN_0.11 240
111 ESRank11 240
206 ESBackSacRegrLong-6-36 240
999 WORDS_débattent~5 222
999 WORDFREQ_0.74 222
999 WORDSALL_les~1_démocrates~2_débattent~5 222
999 COSIND_0.02 222
999 COSGEN_0.02 222
112 ESRank12 222
202 ESForwSacLong+3+16 222
999 WORDS_choix~8 222
999 WORDFREQ_51.42 222
999 WORDSALL_démocrates~2_choix~8 222
999 COSIND_-0.00 222
999 COSGEN_-0.00 222
113 ESRank13 222
202 ESForwSacLong+3+10 222
999 WORDS_respectifs~9 189
999 WORDFREQ_3.92 189
999 WORDSALL_les~3_électeurs~4_choix~8_respectifs~9 189
999 COSIND_0.04 189
999 COSGEN_0.04 189
114 ESRank14 189
201 ESForwSacShort 189
999 WORDS_choix~8 244
999 WORDFREQ_51.42 244
999 WORDSALL_démocrates~2_choix~8 244
999 COSIND_-0.00 244
999 COSGEN_-0.00 244
115 ESRank15 244
205 ESBackSacRegrShort 244
999 WORDS_respectifs~9 258
999 WORDFREQ_3.92 258
999 WORDSALL_les~3_électeurs~4_choix~8_respectifs~9 258
999 COSIND_0.04 258
999 COSGEN_0.04 258
116 ESRank16 258
201 ESForwSacShort 258
999 WORDS_tentent~11 326
999 WORDFREQ_1.76 326
999 WORDSALL_débattent~5_tentent~11 326
999 COSIND_0.02 326
999 COSGEN_0.02 326
117 ESRank17 326
202 ESForwSacLong+2+4 326
999 WORDS_persuader~13 225
999 WORDFREQ_12.23 225
999 WORDSALL_de~6_choix~8_persuader~13 225
999 COSIND_0.03 225
999 COSGEN_0.03 225
118 ESRank18 225
202 ESForwSacLong+2+4 225
999 WORDS_respectifs~9 196
999 WORDFREQ_3.92 196
999 WORDSALL_électeurs~4_respectifs~9 196
999 COSIND_0.04 196
999 COSGEN_0.04 196
119 ESRank19 196
206 ESBackSacRegrLong-4-15 196
999 WORDS_voisins~15 187
999 WORDFREQ_33.31 187
999 WORDSALL_respectifs~9_voisins~15 187
999 COSIND_-0.10 187
999 COSGEN_-0.10 187
120 ESRank20 187
202 ESForwSacLong+6+31 187
999 WORDS_choix~8 233
999 WORDFREQ_51.42 233
999 WORDSALL_leurs~7_choix~8 233
999 COSIND_-0.00 233
999 COSGEN_-0.00 233
206 ESBackSacRegrLong-7-42 233
999 WORDS_candidat~21 222
999 WORDFREQ_2.84 222
999 WORDSALL_leur~20_candidat~21 222
999 COSIND_-0.08 222
999 COSGEN_-0.08 222
202 ESForwSacLong+13+72 222
999 WORDS_rallier~18 443
999 WORDFREQ_4.86 443
999 WORDSALL_tentent~11_rallier~18 443
999 COSIND_0.03 443
999 COSGEN_0.03 443
206 ESBackSacRegrLong-3-9 443
999 WORDS_à~19 192
999 WORDFREQ_19209.05 192
999 WORDSALL_à~19 192
999 COSIND_N/A 192
201 ESForwSacShort 192
999 WORDS_candidat~21 111
999 WORDFREQ_2.84 111
999 WORDSALL_de~12_persuader~13_candidat~21 111
999 COSIND_-0.08 111
999 COSGEN_-0.08 111
202 ESForwSacLong+2+6 111
999 WORDS_Côté~22 286
999 WORDFREQ_497.43 286
999 WORDSALL_Côté~22 286
999 COSIND_0.01 286
999 COSGEN_0.01 286
201 ESForwSacShort 286
999 WORDS_rapidement~28 203
999 WORDFREQ_62.64 203
999 WORDSALL_rapidement~28 203
999 COSIND_0.03 203
999 COSGEN_0.03 203
202 ESForwSacLong+6+37 203
999 WORDS_assemblées~32 337
999 WORDFREQ_4.05 337
999 WORDSALL_déroule~27_rapidement~28_assemblées~32 337
999 COSIND_0.03 337
999 COSGEN_0.03 337
202 ESForwSacLong+4+24 337
200 ESRankN 337
199 ESRankNMinus1 203
198 ESRankNMinus2 286
197 ESRankNMinus3 111
196 ESRankNMinus4 192
195 ESRankNMinus5 443
194 ESRankNMinus6 222
193 ESRankNMinus7 233
192 ESRankNMinus8 187
191 ESRankNMinus9 196
190 ESRankNMinus10 225
