999 WORDS_soixantaine~1 121
999 WORDFREQ_4.53 121
999 WORDSALL_Une~0_soixantaine~1 121
999 COSIND_0.03 121
999 COSGEN_0.03 121
101 ESRank1 121
999 WORDS_soixantaine~1 120
999 WORDFREQ_4.53 120
999 WORDSALL_soixantaine~1 120
999 COSIND_0.03 120
999 COSGEN_0.03 120
102 ESRank2 120
203 ESBackSacRefixation 120
999 WORDS_jeunes~3 267
999 WORDFREQ_30.14 267
999 WORDSALL_de~2_jeunes~3 267
999 COSIND_0.28 267
999 COSGEN_0.28 267
103 ESRank3 267
202 ESForwSacLong+2+4 267
999 WORDS_Courneuve~6 241
999 WORDFREQ_N/A 241
999 WORDSALL_de~4_Courneuve~6 241
999 COSIND_N/A 241
104 ESRank4 241
202 ESForwSacLong+3+7 241
999 WORDS_Courneuve~6 120
999 WORDFREQ_N/A 120
999 WORDSALL_la~5_Courneuve~6 120
999 COSIND_N/A 120
105 ESRank5 120
203 ESBackSacRefixation 120
999 WORDS_incendié~8 234
999 WORDFREQ_0.47 234
999 WORDSALL_ont~7_incendié~8 234
999 COSIND_0.01 234
999 COSGEN_0.01 234
106 ESRank6 234
202 ESForwSacLong+2+5 234
999 WORDS_incendié~8 107
999 WORDFREQ_0.47 107
999 WORDSALL_ont~7_incendié~8 107
999 COSIND_0.01 107
999 COSGEN_0.01 107
107 ESRank7 107
203 ESBackSacRefixation 107
999 WORDS_voitures~10 336
999 WORDFREQ_61.96 336
999 WORDSALL_voitures~10 336
999 COSIND_0.11 336
999 COSGEN_0.11 336
108 ESRank8 336
202 ESForwSacLong+2+5 336
999 WORDS_brisé~11 208
999 WORDFREQ_6.35 208
999 WORDSALL_brisé~11 208
999 COSIND_0.04 208
999 COSGEN_0.04 208
109 ESRank9 208
201 ESForwSacShort 208
999 WORDS_brisé~11 119
999 WORDFREQ_6.35 119
999 WORDSALL_brisé~11 119
999 COSIND_0.04 119
999 COSGEN_0.04 119
110 ESRank10 119
203 ESBackSacRefixation 119
200 ESRankN 119
199 ESRankNMinus1 208
198 ESRankNMinus2 336
197 ESRankNMinus3 107
196 ESRankNMinus4 234
195 ESRankNMinus5 120
194 ESRankNMinus6 241
193 ESRankNMinus7 267
192 ESRankNMinus8 120
191 ESRankNMinus9 121
