# 212 Fixation 1 (297.5,259.3): Le~0 catalogue~1
# 179 Fixation 2 (472.1,262.8): des~2 principes~3
# 94 Fixation 3 (487.6,282.7): des~2 principes~3
# 163 Fixation 4 (429.6,362.9): la~9 frontière~10
# 217 Fixation 5 (550.1,341.3): établi~11
# 206 Fixation 6 (559.8,403.9): l'essentiel~16
# 126 Fixation 7 (684.5,424.7): des~17 cinq~18
# 237 Fixation 8 (330.6,467.1): conditions~19
# 134 Fixation 9 (541,483.7): par~21 gouvernements~23
# 146 Fixation 10 (637.5,469.6): gouvernements~23
# 240 Fixation 11 (343.9,540.6): occidentaux~24
# 153 Fixation 12 (548.2,531.7): arrêt~27
# 170 Fixation 13 (655.1,534.2): des~28 frappes~29
%%
# Le~0 Fixations= "1/"
# catalogue~1 Fixations= "1/"
# des~2 Fixations= "3/"
# principes~3 Fixations= "3/"
# du~4 Fixations= ""
# retour~5 Fixations= ""
# au~6 Fixations= ""
# calme~7 Fixations= ""
# à~8 Fixations= ""
# la~9 Fixations= "4/"
# frontière~10 Fixations= "4/"
# établi~11 Fixations= "5/"
# par~12 Fixations= ""
# les~13 Fixations= ""
# ministres~14 Fixations= ""
# reprend~15 Fixations= ""
# l'essentiel~16 Fixations= "6/"
# des~17 Fixations= "7/"
# cinq~18 Fixations= "7/"
# conditions~19 Fixations= "8/"
# posées~20 Fixations= ""
# par~21 Fixations= "9/"
# les~22 Fixations= ""
# gouvernements~23 Fixations= "10/"
# occidentaux~24 Fixations= "11/"
# pour~25 Fixations= ""
# un~26 Fixations= ""
# arrêt~27 Fixations= "12/"
# des~28 Fixations= "13/"
# frappes~29 Fixations= "13/"
%%
#  LE[1] CATALOGUE[1] DES[3] PRINCIPES[3] du retour au calme à LA[4] FRONTIèRE[4] éTABLI[5] par les ministres reprend L'ESSENTIEL[6] DES[7] CINQ[7] CONDITIONS[8] posées PAR[9] les GOUVERNEMENTS[10] OCCIDENTAUX[11] pour un ARRêT[12] DES[13] FRAPPES[13]
# s21 aide_refugies-m1 PercentageOfWordsProcessed= 0.566666666666667 PercentageOfWordsReallyProcessed= 0.566666666666667
