# 200 Fixation 1 (382.3,276.5): l'interdiction~1
# 157 Fixation 2 (548.1,287): de~2 fumer~3
# 155 Fixation 3 (571.6,290.8): de~2 fumer~3
# 134 Fixation 4 (661.5,292.8): fumer~3 côté~9
# 236 Fixation 5 (298.9,340.2): Depuis~0 l'interdiction~1 l'affluence~5
# 242 Fixation 6 (466.7,340.6): l'interdiction~1 dimanche~7
# 89 Fixation 7 (497.3,345.3): l'interdiction~1 dimanche~7
# 145 Fixation 8 (635.4,356.2): D'un~8 côté~9
%%
# Depuis~0 Fixations= "5/"
# l'interdiction~1 Fixations= "7/"
# de~2 Fixations= "3/"
# fumer~3 Fixations= "4/"
# c'est~4 Fixations= ""
# l'affluence~5 Fixations= "5/"
# d'un~6 Fixations= ""
# dimanche~7 Fixations= "7/"
# D'un~8 Fixations= "8/"
# côté~9 Fixations= "8/"
# on~10 Fixations= ""
# fait~11 Fixations= ""
# la~12 Fixations= ""
# queue~13 Fixations= ""
# pour~14 Fixations= ""
# acheter~15 Fixations= ""
# des~16 Fixations= ""
# cigarettes~17 Fixations= ""
# de~18 Fixations= ""
# l'autre~19 Fixations= ""
# on~20 Fixations= ""
# patiente~21 Fixations= ""
# avec~22 Fixations= ""
# le~23 Fixations= ""
# bordereau~24 Fixations= ""
# des~25 Fixations= ""
# courses~26 Fixations= ""
# hippiques~27 Fixations= ""
# du~28 Fixations= ""
# jour~29 Fixations= ""
%%
#  DEPUIS[5] L'INTERDICTION[7] DE[3] FUMER[4] c'est L'AFFLUENCE[5] d'un DIMANCHE[7] D'UN[8] CôTé[8] on fait la queue pour acheter des cigarettes de l'autre on patiente avec le bordereau des courses hippiques du jour
# s05 conflit_irak-a1 PercentageOfWordsProcessed= 0.266666666666667 PercentageOfWordsReallyProcessed= 0.8
