999 WORDS_brûlons~2 132
999 WORDFREQ_0.27 132
999 WORDSALL_Quand~0_brûlons~2 132
999 COSIND_0.04 132
999 COSGEN_0.04 132
101 ESRank1 132
999 WORDS_brûlons~2 164
999 WORDFREQ_0.27 164
999 WORDSALL_brûlons~2 164
999 COSIND_0.04 164
999 COSGEN_0.04 164
102 ESRank2 164
203 ESBackSacRefixation 164
999 WORDS_combustibles~4 165
999 WORDFREQ_0.47 165
999 WORDSALL_des~3_combustibles~4 165
999 COSIND_0.20 165
999 COSGEN_0.20 165
103 ESRank3 165
202 ESForwSacLong+2+5 165
999 WORDS_brûlons~2 255
999 WORDFREQ_0.27 255
999 WORDSALL_Quand~0_brûlons~2 255
999 COSIND_0.04 255
999 COSGEN_0.04 255
104 ESRank4 255
206 ESBackSacRegrLong-2-5 255
999 WORDS_émettons~7 172
999 WORDFREQ_0.07 172
999 WORDSALL_nous~6_émettons~7 172
999 COSIND_0.19 172
999 COSGEN_0.19 172
105 ESRank5 172
202 ESForwSacLong+5+32 172
999 WORDS_émettons~7 118
999 WORDFREQ_0.07 118
999 WORDSALL_émettons~7 118
999 COSIND_0.19 118
999 COSGEN_0.19 118
106 ESRank6 118
203 ESBackSacRefixation 118
999 WORDS_a~18 180
999 WORDFREQ_1669.39 180
999 WORDSALL_ce~16_a~18 180
999 COSIND_N/A 180
107 ESRank7 180
202 ESForwSacLong+11+53 180
999 WORDS_l'atmosphère~15 243
999 WORDFREQ_36.15 243
999 WORDSALL_dans~14_l'atmosphère~15 243
999 COSIND_0.61 243
999 COSGEN_0.61 243
108 ESRank8 243
206 ESBackSacRegrLong-3-8 243
999 WORDS_réchauffer~23 194
999 WORDFREQ_11.62 194
999 WORDSALL_la~22_réchauffer~23 194
999 COSIND_0.16 194
999 COSGEN_0.16 194
109 ESRank9 194
202 ESForwSacLong+8+34 194
999 WORDS_contribuer~26 224
999 WORDFREQ_2.84 224
999 WORDSALL_contribuer~26 224
999 COSIND_0.07 224
999 COSGEN_0.07 224
110 ESRank10 224
202 ESForwSacLong+3+7 224
999 WORDS_fonte~29 158
999 WORDFREQ_8.31 158
999 WORDSALL_la~28_fonte~29 158
999 COSIND_0.47 158
999 COSGEN_0.47 158
111 ESRank11 158
202 ESForwSacLong+3+7 158
999 WORDS_glaciers~31 195
999 WORDFREQ_1.55 195
999 WORDSALL_des~30_glaciers~31 195
999 COSIND_0.34 195
999 COSGEN_0.34 195
112 ESRank12 195
202 ESForwSacLong+2+5 195
200 ESRankN 195
199 ESRankNMinus1 158
198 ESRankNMinus2 224
197 ESRankNMinus3 194
196 ESRankNMinus4 243
195 ESRankNMinus5 180
194 ESRankNMinus6 118
193 ESRankNMinus7 172
192 ESRankNMinus8 255
191 ESRankNMinus9 165
190 ESRankNMinus10 164
