999 WORDS_président~1 271
999 WORDFREQ_76.22 271
999 WORDSALL_Le~0_président~1 271
999 COSIND_-0.07 271
999 COSGEN_-0.07 271
101 ESRank1 271
999 WORDS_l'APM~3 184
999 WORDFREQ_N/A 184
999 WORDSALL_de~2_l'APM~3 184
999 COSIND_N/A 184
102 ESRank2 184
202 ESForwSacLong+2+4 184
999 WORDS_a~4 171
999 WORDFREQ_2926.69 171
999 WORDSALL_l'APM~3_a~4 171
999 COSIND_N/A 171
103 ESRank3 171
201 ESForwSacShort 171
999 WORDS_vilipendé~5 204
999 WORDFREQ_0.27 204
999 WORDSALL_a~4_vilipendé~5 204
999 COSIND_0.02 204
999 COSGEN_0.02 204
104 ESRank4 204
201 ESForwSacShort 204
999 WORDS_vilipendé~5 156
999 WORDFREQ_0.27 156
999 WORDSALL_vilipendé~5 156
999 COSIND_0.02 156
999 COSGEN_0.02 156
105 ESRank5 156
203 ESBackSacRefixation 156
999 WORDS_vilipendé~5 228
999 WORDFREQ_0.27 228
999 WORDSALL_a~4_vilipendé~5 228
999 COSIND_0.02 228
999 COSGEN_0.02 228
106 ESRank6 228
203 ESBackSacRefixation 228
999 WORDS_réforme~7 139
999 WORDFREQ_4.93 139
999 WORDSALL_réforme~7 139
999 COSIND_0.80 139
999 COSGEN_0.80 139
107 ESRank7 139
202 ESForwSacLong+2+4 139
999 WORDS_a~16 273
999 WORDFREQ_2926.69 273
999 WORDSALL_il~15_a~16 273
999 COSIND_N/A 273
108 ESRank8 273
202 ESForwSacLong+9+38 273
999 WORDS_mené~18 356
999 WORDFREQ_10.07 356
999 WORDSALL_surtout~17_mené~18 356
999 COSIND_0.09 356
999 COSGEN_0.09 356
109 ESRank9 356
202 ESForwSacLong+2+9 356
999 WORDS_vilipendé~5 170
999 WORDFREQ_0.27 170
999 WORDSALL_vilipendé~5 170
999 COSIND_0.02 170
999 COSGEN_0.02 170
110 ESRank10 170
206 ESBackSacRegrLong-13-60 170
999 WORDS_la~6 357
999 WORDFREQ_23633.92 357
999 WORDSALL_la~6 357
999 COSIND_N/A 357
111 ESRank11 357
201 ESForwSacShort 357
999 WORDS_élus~23 209
999 WORDFREQ_4.12 209
999 WORDSALL_élus~23 209
999 COSIND_-0.01 209
999 COSGEN_-0.01 209
112 ESRank12 209
202 ESForwSacLong+17+84 209
999 WORDS_a~16 261
999 WORDFREQ_2926.69 261
999 WORDSALL_il~15_a~16 261
999 COSIND_N/A 261
113 ESRank13 261
206 ESBackSacRegrLong-7-36 261
999 WORDS_mené~18 257
999 WORDFREQ_10.07 257
999 WORDSALL_surtout~17_mené~18 257
999 COSIND_0.09 257
999 COSGEN_0.09 257
114 ESRank14 257
202 ESForwSacLong+2+9 257
200 ESRankN 257
199 ESRankNMinus1 261
198 ESRankNMinus2 209
197 ESRankNMinus3 357
196 ESRankNMinus4 170
195 ESRankNMinus5 356
194 ESRankNMinus6 273
193 ESRankNMinus7 139
192 ESRankNMinus8 228
191 ESRankNMinus9 156
190 ESRankNMinus10 204
