999 WORDS_marges~1 288
999 WORDFREQ_2.23 288
999 WORDSALL_Les~0_marges~1 288
999 COSIND_0.12 288
999 COSGEN_0.12 288
101 ESRank1 288
999 WORDS_croissance~3 247
999 WORDFREQ_3.92 247
999 WORDSALL_de~2_croissance~3 247
999 COSIND_0.79 247
999 COSGEN_0.79 247
102 ESRank2 247
202 ESForwSacLong+2+4 247
999 WORDS_pourraient~4 273
999 WORDFREQ_26.62 273
999 WORDSALL_pourraient~4 273
999 COSIND_0.03 273
999 COSGEN_0.03 273
103 ESRank3 273
201 ESForwSacShort 273
999 WORDS_augmentées~6 193
999 WORDFREQ_0.07 193
999 WORDSALL_augmentées~6 193
999 COSIND_0.05 193
999 COSGEN_0.05 193
104 ESRank4 193
202 ESForwSacLong+2+7 193
999 WORDS_augmentées~6 164
999 WORDFREQ_0.07 164
999 WORDSALL_augmentées~6 164
999 COSIND_0.05 164
999 COSGEN_0.05 164
105 ESRank5 164
203 ESBackSacRefixation 164
999 WORDS_réformes~9 175
999 WORDFREQ_6.42 175
999 WORDSALL_par~7_réformes~9 175
999 COSIND_-0.01 175
999 COSGEN_-0.01 175
106 ESRank6 175
202 ESForwSacLong+3+9 175
999 WORDS_réformes~9 142
999 WORDFREQ_6.42 142
999 WORDSALL_des~8_réformes~9 142
999 COSIND_-0.01 142
999 COSGEN_-0.01 142
107 ESRank7 142
203 ESBackSacRefixation 142
999 WORDS_pourraient~4 208
999 WORDFREQ_26.62 208
999 WORDSALL_pourraient~4 208
999 COSIND_0.03 208
999 COSGEN_0.03 208
108 ESRank8 208
206 ESBackSacRegrLong-5-27 208
999 WORDS_marchés~13 174
999 WORDFREQ_5.07 174
999 WORDSALL_sur~11_marchés~13 174
999 COSIND_0.05 174
999 COSGEN_0.05 174
109 ESRank9 174
202 ESForwSacLong+9+59 174
999 WORDS_marchés~13 114
999 WORDFREQ_5.07 114
999 WORDSALL_les~12_marchés~13 114
999 COSIND_0.05 114
999 COSGEN_0.05 114
110 ESRank10 114
203 ESBackSacRefixation 114
999 WORDS_travail~15 217
999 WORDFREQ_223.99 217
999 WORDSALL_du~14_travail~15 217
999 COSIND_0.02 217
999 COSGEN_0.02 217
111 ESRank11 217
202 ESForwSacLong+2+4 217
200 ESRankN 217
199 ESRankNMinus1 114
198 ESRankNMinus2 174
197 ESRankNMinus3 208
196 ESRankNMinus4 142
195 ESRankNMinus5 175
194 ESRankNMinus6 164
193 ESRankNMinus7 193
192 ESRankNMinus8 273
191 ESRankNMinus9 247
190 ESRankNMinus10 288
