# 108 Fixation 1 (314.5,279.1): Le~0 Yen~1
# 246 Fixation 2 (373.9,278.7): Yen~1 faisait~2
# 240 Fixation 3 (469.5,284.1): toujours~3 preuve~4
# 161 Fixation 4 (561.3,286): toujours~3 preuve~4
# 138 Fixation 5 (611.3,294.5): preuve~4
# 109 Fixation 6 (682.2,293.6): de~5 fermeté~6
# 387 Fixation 7 (333.8,362.8): face~7 billet~9
# 96 Fixation 8 (289.2,359.4): face~7
# 238 Fixation 9 (532.8,345.7): vert~10 même~12
# 233 Fixation 10 (457.8,351.4): billet~9 vert~10
# 170 Fixation 11 (600,349.7): même~12
# 139 Fixation 12 (666.6,352.6): l'Euro~13
# 139 Fixation 13 (365.7,436.2): gagné~16
%%
# Le~0 Fixations= "1/"
# Yen~1 Fixations= "2/"
# faisait~2 Fixations= "2/"
# toujours~3 Fixations= "4/"
# preuve~4 Fixations= "5/"
# de~5 Fixations= "6/"
# fermeté~6 Fixations= "6/"
# face~7 Fixations= "8/"
# au~8 Fixations= ""
# billet~9 Fixations= "10/"
# vert~10 Fixations= "10/"
# De~11 Fixations= ""
# même~12 Fixations= "11/"
# l'Euro~13 Fixations= "12/"
# a~14 Fixations= ""
# encore~15 Fixations= ""
# gagné~16 Fixations= "13/"
# du~17 Fixations= ""
# terrain~18 Fixations= ""
# face~19 Fixations= ""
# au~20 Fixations= ""
# billet~21 Fixations= ""
# vert~22 Fixations= ""
# grâce~23 Fixations= ""
# aux~24 Fixations= ""
# perspectives~25 Fixations= ""
# encourageantes~26 Fixations= ""
# de~27 Fixations= ""
# reprise~28 Fixations= ""
# économique~29 Fixations= ""
%%
#  LE[1] YEN[2] FAISAIT[2] TOUJOURS[4] PREUVE[5] DE[6] FERMETé[6] FACE[8] au BILLET[10] VERT[10] De MêME[11] L'EURO[12] a encore GAGNé[13] du terrain face au billet vert grâce aux perspectives encourageantes de reprise économique
# s01 faiblesse_dollar-f2 PercentageOfWordsProcessed= 0.433333333333333 PercentageOfWordsReallyProcessed= 0.764705882352941
