999 WORDS_badminton~1 249
999 WORDFREQ_0.2 249
999 WORDSALL_Le~0_badminton~1 249
999 COSIND_-0.05 249
999 COSGEN_-0.05 249
101 ESRank1 249
999 WORDS_nécessite~2 392
999 WORDFREQ_1.08 392
999 WORDSALL_nécessite~2 392
999 COSIND_0.01 392
999 COSGEN_0.01 392
102 ESRank2 392
201 ESForwSacShort 392
999 WORDS_badminton~1 366
999 WORDFREQ_0.2 366
999 WORDSALL_Le~0_badminton~1 366
999 COSIND_-0.05 366
999 COSGEN_-0.05 366
103 ESRank3 366
205 ESBackSacRegrShort 366
999 WORDS_badminton~1 182
999 WORDFREQ_0.2 182
999 WORDSALL_Le~0_badminton~1 182
999 COSIND_-0.05 182
999 COSGEN_-0.05 182
104 ESRank4 182
203 ESBackSacRefixation 182
999 WORDS_badminton~1 190
999 WORDFREQ_0.2 190
999 WORDSALL_Le~0_badminton~1 190
999 COSIND_-0.05 190
999 COSGEN_-0.05 190
105 ESRank5 190
203 ESBackSacRefixation 190
999 WORDS_nombreuses~4 204
999 WORDFREQ_17.91 204
999 WORDSALL_de~3_nombreuses~4 204
999 COSIND_0.05 204
999 COSGEN_0.05 204
106 ESRank6 204
202 ESForwSacLong+3+15 204
200 ESRankN 204
199 ESRankNMinus1 190
198 ESRankNMinus2 182
197 ESRankNMinus3 366
196 ESRankNMinus4 392
195 ESRankNMinus5 249
