999 WORDS_Plusieurs~0 262
999 WORDFREQ_14.86 262
999 WORDSALL_Plusieurs~0 262
999 COSIND_-0.04 262
999 COSGEN_-0.04 262
101 ESRank1 262
999 WORDS_tribunaux~1 380
999 WORDFREQ_3.04 380
999 WORDSALL_tribunaux~1 380
999 COSIND_-0.01 380
999 COSGEN_-0.01 380
102 ESRank2 380
201 ESForwSacShort 380
999 WORDS_administratifs~2 314
999 WORDFREQ_1.62 314
999 WORDSALL_administratifs~2 314
999 COSIND_0.08 314
999 COSGEN_0.08 314
103 ESRank3 314
201 ESForwSacShort 314
999 WORDS_ont~3 184
999 WORDFREQ_553.31 184
999 WORDSALL_ont~3 184
999 COSIND_-0.01 184
999 COSGEN_-0.01 184
104 ESRank4 184
201 ESForwSacShort 184
999 WORDS_sommé~4 260
999 WORDFREQ_1.42 260
999 WORDSALL_sommé~4 260
999 COSIND_0.03 260
999 COSGEN_0.03 260
105 ESRank5 260
201 ESForwSacShort 260
999 WORDS_préfets~6 301
999 WORDFREQ_1.35 301
999 WORDSALL_les~5_préfets~6 301
999 COSIND_0.02 301
999 COSGEN_0.02 301
106 ESRank6 301
202 ESForwSacLong+2+5 301
999 WORDS_treize~8 135
999 WORDFREQ_20.95 135
999 WORDSALL_de~7_treize~8 135
999 COSIND_0.01 135
999 COSGEN_0.01 135
107 ESRank7 135
202 ESForwSacLong+2+4 135
999 WORDS_départements~9 456
999 WORDFREQ_4.32 456
999 WORDSALL_treize~8_départements~9 456
999 COSIND_0.35 456
999 COSGEN_0.35 456
108 ESRank8 456
201 ESForwSacShort 456
999 WORDS_départements~9 151
999 WORDFREQ_4.32 151
999 WORDSALL_départements~9 151
999 COSIND_0.35 151
999 COSGEN_0.35 151
109 ESRank9 151
203 ESBackSacRefixation 151
999 WORDS_prendre~11 221
999 WORDFREQ_344.05 221
999 WORDSALL_prendre~11 221
999 COSIND_0.02 221
999 COSGEN_0.02 221
110 ESRank10 221
202 ESForwSacLong+2+4 221
999 WORDS_prendre~11 203
999 WORDFREQ_344.05 203
999 WORDSALL_prendre~11 203
999 COSIND_0.02 203
999 COSGEN_0.02 203
111 ESRank11 203
203 ESBackSacRefixation 203
999 WORDS_arrêtés~13 220
999 WORDFREQ_1.22 220
999 WORDSALL_arrêtés~13 220
999 COSIND_-0.02 220
999 COSGEN_-0.02 220
112 ESRank12 220
202 ESForwSacLong+2+5 220
999 WORDS_arrêtés~13 84
999 WORDFREQ_1.22 84
999 WORDSALL_des~12_arrêtés~13 84
999 COSIND_-0.02 84
999 COSGEN_-0.02 84
113 ESRank13 84
203 ESBackSacRefixation 84
999 WORDS_fermeture~15 218
999 WORDFREQ_14.86 218
999 WORDSALL_fermeture~15 218
999 COSIND_0.23 218
999 COSGEN_0.23 218
114 ESRank14 218
202 ESForwSacLong+2+4 218
999 WORDS_fermeture~15 119
999 WORDFREQ_14.86 119
999 WORDSALL_de~14_fermeture~15 119
999 COSIND_0.23 119
999 COSGEN_0.23 119
115 ESRank15 119
203 ESBackSacRefixation 119
999 WORDS_chasse~18 154
999 WORDFREQ_53.38 154
999 WORDSALL_chasse~18 154
999 COSIND_0.98 154
999 COSGEN_0.98 154
116 ESRank16 154
202 ESForwSacLong+3+7 154
999 WORDS_janvier~24 155
999 WORDFREQ_30.61 155
999 WORDSALL_janvier~24 155
999 COSIND_-0.00 155
999 COSGEN_-0.00 155
117 ESRank17 155
202 ESForwSacLong+6+30 155
999 WORDS_chasse~18 251
999 WORDFREQ_53.38 251
999 WORDSALL_chasse~18 251
999 COSIND_0.98 251
999 COSGEN_0.98 251
118 ESRank18 251
206 ESBackSacRegrLong-6-30 251
999 WORDS_oiseaux~20 317
999 WORDFREQ_65.07 317
999 WORDSALL_aux~19_oiseaux~20 317
999 COSIND_0.83 317
999 COSGEN_0.83 317
119 ESRank19 317
202 ESForwSacLong+2+5 317
999 WORDS_migrateurs~21 153
999 WORDFREQ_1.08 153
999 WORDSALL_migrateurs~21 153
999 COSIND_0.88 153
999 COSGEN_0.88 153
120 ESRank20 153
201 ESForwSacShort 153
999 WORDS_ 130
999 WORDFREQ_ 130
999 WORDSALL_ 130
200 ESRankN 130
199 ESRankNMinus1 153
198 ESRankNMinus2 317
197 ESRankNMinus3 251
196 ESRankNMinus4 155
195 ESRankNMinus5 154
194 ESRankNMinus6 119
193 ESRankNMinus7 218
192 ESRankNMinus8 84
191 ESRankNMinus9 220
190 ESRankNMinus10 203
