# 119 Fixation 1 (295.1,295.4): Le~0 chanteur~1
# 231 Fixation 2 (414,294.1): chanteur~1 Yannick~2
# 109 Fixation 3 (550.2,295.8): Noah~3
# 137 Fixation 4 (640.6,289.2): ici~4 concert~6 classement~15
# 119 Fixation 5 (680.6,289.9): en~5 concert~6
# 154 Fixation 6 (364.2,339.7): chanteur~1 place~10
# 135 Fixation 7 (453.9,342.1): Yannick~2 place~10 à~11
# 158 Fixation 8 (546.8,344.4): Noah~3 tete~13
# 193 Fixation 9 (632,350.7): du~14 classement~15
# 193 Fixation 10 (613.2,402.7): du~14 classement~15 Français~20
# 121 Fixation 11 (428,417.3): préférées~18
%%
# Le~0 Fixations= "1/"
# chanteur~1 Fixations= "6/"
# Yannick~2 Fixations= "7/"
# Noah~3 Fixations= "8/"
# ici~4 Fixations= "4/"
# en~5 Fixations= "5/"
# concert~6 Fixations= "5/"
# a~7 Fixations= ""
# repris~8 Fixations= ""
# sa~9 Fixations= ""
# place~10 Fixations= "7/"
# à~11 Fixations= "7/"
# la~12 Fixations= ""
# tete~13 Fixations= "8/"
# du~14 Fixations= "10/"
# classement~15 Fixations= "10/"
# des~16 Fixations= ""
# personnalités~17 Fixations= ""
# préférées~18 Fixations= "11/"
# des~19 Fixations= ""
# Français~20 Fixations= "10/"
# et~21 Fixations= ""
# devance~22 Fixations= ""
# Zinédine~23 Fixations= ""
# Zidane~24 Fixations= ""
%%
#  LE[1] CHANTEUR[6] YANNICK[7] NOAH[8] ICI[4] EN[5] CONCERT[5] a repris sa PLACE[7] à[7] la TETE[8] DU[10] CLASSEMENT[10] des personnalités PRéFéRéES[11] des FRANçAIS[10] et devance Zinédine Zidane
# s08 reforme_justice-a2 PercentageOfWordsProcessed= 0.56 PercentageOfWordsReallyProcessed= 0.666666666666667
