999 WORDS_pacte~1 172
999 WORDFREQ_11.49 172
999 WORDSALL_Le~0_pacte~1 172
999 COSIND_0.15 172
999 COSGEN_0.15 172
101 ESRank1 172
999 WORDS_stabilité~3 161
999 WORDFREQ_3.18 161
999 WORDSALL_pacte~1_stabilité~3 161
999 COSIND_0.35 161
999 COSGEN_0.35 161
102 ESRank2 161
202 ESForwSacLong+2+4 161
999 WORDS_stabilité~3 203
999 WORDFREQ_3.18 203
999 WORDSALL_de~2_stabilité~3 203
999 COSIND_0.35 203
999 COSGEN_0.35 203
103 ESRank3 203
203 ESBackSacRefixation 203
999 WORDS_croissance~6 164
999 WORDFREQ_3.92 164
999 WORDSALL_et~4_croissance~6 164
999 COSIND_0.79 164
999 COSGEN_0.79 164
104 ESRank4 164
202 ESForwSacLong+3+7 164
999 WORDS_croissance~6 125
999 WORDFREQ_3.92 125
999 WORDSALL_et~4_croissance~6 125
999 COSIND_0.79 125
999 COSGEN_0.79 125
105 ESRank5 125
203 ESBackSacRefixation 125
999 WORDS_croissance~6 236
999 WORDFREQ_3.92 236
999 WORDSALL_et~4_croissance~6 236
999 COSIND_0.79 236
999 COSGEN_0.79 236
106 ESRank6 236
203 ESBackSacRefixation 236
999 WORDS_croissance~6 162
999 WORDFREQ_3.92 162
999 WORDSALL_croissance~6 162
999 COSIND_0.79 162
999 COSGEN_0.79 162
107 ESRank7 162
203 ESBackSacRefixation 162
999 WORDS_limites~9 252
999 WORDFREQ_25.47 252
999 WORDSALL_des~8_limites~9 252
999 COSIND_-0.01 252
999 COSGEN_-0.01 252
108 ESRank8 252
202 ESForwSacLong+3+10 252
999 WORDS_l'utilisation~11 196
999 WORDFREQ_4.12 196
999 WORDSALL_à~10_l'utilisation~11 196
999 COSIND_-0.06 196
999 COSGEN_-0.06 196
109 ESRank9 196
202 ESForwSacLong+2+4 196
999 WORDS_l'utilisation~11 90
999 WORDFREQ_4.12 90
999 WORDSALL_l'utilisation~11 90
999 COSIND_-0.06 90
999 COSGEN_-0.06 90
110 ESRank10 90
203 ESBackSacRefixation 90
999 WORDS_budget~13 214
999 WORDFREQ_5.34 214
999 WORDSALL_du~12_budget~13 214
999 COSIND_0.18 214
999 COSGEN_0.18 214
111 ESRank11 214
202 ESForwSacLong+2+4 214
999 WORDS_budget~13 107
999 WORDFREQ_5.34 107
999 WORDSALL_du~12_budget~13 107
999 COSIND_0.18 107
999 COSGEN_0.18 107
112 ESRank12 107
203 ESBackSacRefixation 107
999 WORDS_budget~13 116
999 WORDFREQ_5.34 116
999 WORDSALL_budget~13 116
999 COSIND_0.18 116
999 COSGEN_0.18 116
113 ESRank13 116
203 ESBackSacRefixation 116
999 WORDS_économie~17 128
999 WORDFREQ_15.74 128
999 WORDSALL_relancer~15_économie~17 128
999 COSIND_0.88 128
999 COSGEN_0.88 128
114 ESRank14 128
202 ESForwSacLong+4+19 128
999 WORDS_relancer~15 137
999 WORDFREQ_2.77 137
999 WORDSALL_relancer~15 137
999 COSIND_0.15 137
999 COSGEN_0.15 137
115 ESRank15 137
206 ESBackSacRegrLong-2-5 137
999 WORDS_relancer~15 169
999 WORDFREQ_2.77 169
999 WORDSALL_relancer~15 169
999 COSIND_0.15 169
999 COSGEN_0.15 169
116 ESRank16 169
203 ESBackSacRefixation 169
999 WORDS_économie~17 178
999 WORDFREQ_15.74 178
999 WORDSALL_une~16_économie~17 178
999 COSIND_0.88 178
999 COSGEN_0.88 178
117 ESRank17 178
202 ESForwSacLong+2+5 178
999 WORDS_économistes~19 178
999 WORDFREQ_0.14 178
999 WORDSALL_Les~18_économistes~19 178
999 COSIND_0.64 178
999 COSGEN_0.64 178
118 ESRank18 178
202 ESForwSacLong+2+5 178
999 WORDS_économistes~19 204
999 WORDFREQ_0.14 204
999 WORDSALL_Les~18_économistes~19 204
999 COSIND_0.64 204
999 COSGEN_0.64 204
119 ESRank19 204
203 ESBackSacRefixation 204
999 WORDS_s'interrogent~20 129
999 WORDFREQ_1.42 129
999 WORDSALL_s'interrogent~20 129
999 COSIND_0.04 129
999 COSGEN_0.04 129
120 ESRank20 129
201 ESForwSacShort 129
999 WORDS_s'interrogent~20 154
999 WORDFREQ_1.42 154
999 WORDSALL_s'interrogent~20 154
999 COSIND_0.04 154
999 COSGEN_0.04 154
203 ESBackSacRefixation 154
999 WORDS_pérennité~23 161
999 WORDFREQ_0.74 161
999 WORDSALL_sur~21_pérennité~23 161
999 COSIND_0.03 161
999 COSGEN_0.03 161
202 ESForwSacLong+3+8 161
200 ESRankN 161
199 ESRankNMinus1 154
198 ESRankNMinus2 129
197 ESRankNMinus3 204
196 ESRankNMinus4 178
195 ESRankNMinus5 178
194 ESRankNMinus6 169
193 ESRankNMinus7 137
192 ESRankNMinus8 128
191 ESRankNMinus9 116
190 ESRankNMinus10 107
