# 178 Fixation 1 (254.3,287.6): Le~0 malaise~1
# 136 Fixation 2 (354.6,293.9): malaise~1
# 186 Fixation 3 (427.7,300): des~2 personnels~3
# 151 Fixation 4 (400.1,298.6): malaise~1
# 282 Fixation 5 (585.1,304.6): personnels~3 porte~4
# 149 Fixation 6 (626.1,303.1): porte~4
# 115 Fixation 7 (292.1,350.5): sur~6 réforme~8
# 127 Fixation 8 (319.4,348.9): sur~6 réforme~8
# 136 Fixation 9 (356.5,349.7): une~7 réforme~8
# 162 Fixation 10 (487,354.9): de~9 statut~11
# 246 Fixation 11 (550.3,358.5): leur~10 statut~11
# 191 Fixation 12 (665.5,359.8): statut~11 ont~13
# 163 Fixation 13 (687.3,363.8): Ils~12 ont~13
# 157 Fixation 14 (317.8,398.6): avertis~15
# 166 Fixation 15 (285.6,403.7): avertis~15
# 160 Fixation 16 (397.8,399.5): par~16 direction~18
# 148 Fixation 17 (415.3,402.1): par~16 direction~18
# 187 Fixation 18 (449.4,399.6): la~17 direction~18
# 193 Fixation 19 (612.3,410.4): de~19 teneur~21
# 159 Fixation 20 (644.8,414): de~19 teneur~21
# 206 Fixation 21 (704.4,418.2): teneur~21
# 127 Fixation 22 (597.9,457): avant~26 réunion~28
# 134 Fixation 23 (318.7,461.6): cette~23 réforme~24
# 154 Fixation 24 (294.7,459.2): cette~23 réforme~24
# 163 Fixation 25 (418.4,458.2): réforme~24 juste~25
# 228 Fixation 26 (492,460.8): juste~25 avant~26
# 121 Fixation 27 (519.8,463.2): juste~25 avant~26
# 217 Fixation 28 (610.4,467.3): avant~26 réunion~28
# 126 Fixation 29 (675.2,466.5): réunion~28
# 185 Fixation 30 (340.4,527.7): comité~30
# 151 Fixation 31 (286.1,530.1): comité~30
# 209 Fixation 32 (400.3,523.3): qui~31 devait~32
# 231 Fixation 33 (508.9,520.6): procéder~33
# 178 Fixation 34 (658.5,530.5): à~34 examen~36
# 208 Fixation 35 (621.2,524.8): à~34
%%
# Le~0 Fixations= "1/"
# malaise~1 Fixations= "4/"
# des~2 Fixations= "3/"
# personnels~3 Fixations= "5/"
# porte~4 Fixations= "6/"
# également~5 Fixations= ""
# sur~6 Fixations= "8/"
# une~7 Fixations= "9/"
# réforme~8 Fixations= "9/"
# de~9 Fixations= "10/"
# leur~10 Fixations= "11/"
# statut~11 Fixations= "12/"
# Ils~12 Fixations= "13/"
# ont~13 Fixations= "13/"
# été~14 Fixations= ""
# avertis~15 Fixations= "15/"
# par~16 Fixations= "17/"
# la~17 Fixations= "18/"
# direction~18 Fixations= "18/"
# de~19 Fixations= "20/"
# la~20 Fixations= ""
# teneur~21 Fixations= "21/"
# de~22 Fixations= ""
# cette~23 Fixations= "24/"
# réforme~24 Fixations= "25/"
# juste~25 Fixations= "27/"
# avant~26 Fixations= "28/"
# la~27 Fixations= ""
# réunion~28 Fixations= "29/"
# du~29 Fixations= ""
# comité~30 Fixations= "31/"
# qui~31 Fixations= "32/"
# devait~32 Fixations= "32/"
# procéder~33 Fixations= "33/"
# à~34 Fixations= "35/"
# son~35 Fixations= ""
# examen~36 Fixations= "34/"
%%
#  LE[1] MALAISE[4] DES[3] PERSONNELS[5] PORTE[6] également SUR[8] UNE[9] RéFORME[9] DE[10] LEUR[11] STATUT[12] ILS[13] ONT[13] été AVERTIS[15] PAR[17] LA[18] DIRECTION[18] DE[20] la TENEUR[21] de CETTE[24] RéFORME[25] JUSTE[27] AVANT[28] la RéUNION[29] du COMITé[31] QUI[32] DEVAIT[32] PROCéDER[33] à[35] son EXAMEN[34]
# s05 greve_cheminot-m2 PercentageOfWordsProcessed= 0.810810810810811 PercentageOfWordsReallyProcessed= 0.810810810810811
