999 WORDS_labels~1 165
999 WORDFREQ_0.07 165
999 WORDSALL_Les~0_labels~1 165
999 COSIND_0.02 165
999 COSGEN_0.02 165
101 ESRank1 165
999 WORDS_labels~1 157
999 WORDFREQ_0.07 157
999 WORDSALL_Les~0_labels~1 157
999 COSIND_0.02 157
999 COSGEN_0.02 157
102 ESRank2 157
203 ESBackSacRefixation 157
999 WORDS_alertent~2 174
999 WORDFREQ_0 174
999 WORDSALL_alertent~2 174
999 COSIND_-0.05 174
999 COSGEN_-0.05 174
103 ESRank3 174
201 ESForwSacShort 174
999 WORDS_public~4 166
999 WORDFREQ_37.91 166
999 WORDSALL_le~3_public~4 166
999 COSIND_-0.02 166
999 COSGEN_-0.02 166
104 ESRank4 166
202 ESForwSacLong+2+4 166
999 WORDS_même~7 188
999 WORDFREQ_705.81 188
999 WORDSALL_avec~5_même~7 188
999 COSIND_N/A 188
105 ESRank5 188
202 ESForwSacLong+3+9 188
999 WORDS_refrain~8 179
999 WORDFREQ_8.24 179
999 WORDSALL_Les~0_labels~1_refrain~8 179
999 COSIND_0.04 179
999 COSGEN_0.04 179
106 ESRank6 179
201 ESForwSacShort 179
999 WORDS_plates-formes~10 147
999 WORDFREQ_2.7 147
999 WORDSALL_alertent~2_plates-formes~10 147
999 COSIND_N/A 147
107 ESRank7 147
202 ESForwSacLong+2+5 147
999 WORDS_plates-formes~10 133
999 WORDFREQ_2.7 133
999 WORDSALL_le~3_public~4_plates-formes~10 133
999 COSIND_N/A 133
108 ESRank8 133
203 ESBackSacRefixation 133
999 WORDS_téléchargement~12 219
999 WORDFREQ_0 219
999 WORDSALL_refrain~8_téléchargement~12 219
999 COSIND_N/A 219
109 ESRank9 219
202 ESForwSacLong+2+4 219
999 WORDS_illégales~13 201
999 WORDFREQ_0.41 201
999 WORDSALL_plates-formes~10_illégales~13 201
999 COSIND_-0.09 201
999 COSGEN_-0.09 201
110 ESRank10 201
201 ESForwSacShort 201
999 WORDS_tuent~14 93
999 WORDFREQ_3.31 93
999 WORDSALL_de~11_tuent~14 93
999 COSIND_-0.01 93
999 COSGEN_-0.01 93
111 ESRank11 93
201 ESForwSacShort 93
999 WORDS_l'industrie~15 130
999 WORDFREQ_10.34 130
999 WORDSALL_l'industrie~15 130
999 COSIND_-0.02 130
999 COSGEN_-0.02 130
112 ESRank12 130
201 ESForwSacShort 130
999 WORDS_téléchargement~12 143
999 WORDFREQ_0 143
999 WORDSALL_téléchargement~12 143
999 COSIND_N/A 143
113 ESRank13 143
206 ESBackSacRegrLong-3-18 143
999 WORDS_tuent~14 135
999 WORDFREQ_3.31 135
999 WORDSALL_tuent~14 135
999 COSIND_-0.01 135
999 COSGEN_-0.01 135
114 ESRank14 135
202 ESForwSacLong+2+12 135
999 WORDS_marchands~21 171
999 WORDFREQ_14.46 171
999 WORDSALL_l'industrie~15_marchands~21 171
999 COSIND_-0.00 171
999 COSGEN_-0.00 171
115 ESRank15 171
202 ESForwSacLong+7+43 171
999 WORDS_disques~23 165
999 WORDFREQ_20.68 165
999 WORDSALL_musicale~16_disques~23 165
999 COSIND_-0.01 165
999 COSGEN_-0.01 165
116 ESRank16 165
202 ESForwSacLong+2+4 165
999 WORDS_moral~26 163
999 WORDFREQ_14.19 163
999 WORDSALL_ce~18_temps~19_moral~26 163
999 COSIND_-0.09 163
999 COSGEN_-0.09 163
117 ESRank17 163
202 ESForwSacLong+3+8 163
999 WORDS_berne~28 165
999 WORDFREQ_1.49 165
999 WORDSALL_temps~19_berne~28 165
999 COSIND_-0.07 165
999 COSGEN_-0.07 165
118 ESRank18 165
202 ESForwSacLong+2+4 165
200 ESRankN 165
199 ESRankNMinus1 163
198 ESRankNMinus2 165
197 ESRankNMinus3 171
196 ESRankNMinus4 135
195 ESRankNMinus5 143
194 ESRankNMinus6 130
193 ESRankNMinus7 93
192 ESRankNMinus8 201
191 ESRankNMinus9 219
190 ESRankNMinus10 133
