999 WORDS_souvient~2 145
999 WORDFREQ_15.68 145
999 WORDSALL_se~1_souvient~2 145
999 COSIND_-0.03 145
999 COSGEN_-0.03 145
101 ESRank1 145
999 WORDS_souvient~2 235
999 WORDFREQ_15.68 235
999 WORDSALL_On~0_souvient~2 235
999 COSIND_-0.03 235
999 COSGEN_-0.03 235
102 ESRank2 235
203 ESBackSacRefixation 235
999 WORDS_souvient~2 100
999 WORDFREQ_15.68 100
999 WORDSALL_On~0_souvient~2 100
999 COSIND_-0.03 100
999 COSGEN_-0.03 100
103 ESRank3 100
203 ESBackSacRefixation 100
999 WORDS_fameux~4 205
999 WORDFREQ_33.31 205
999 WORDSALL_souvient~2_fameux~4 205
999 COSIND_0.00 205
999 COSGEN_0.00 205
104 ESRank4 205
202 ESForwSacLong+2+4 205
999 WORDS_fameux~4 164
999 WORDFREQ_33.31 164
999 WORDSALL_souvient~2_fameux~4 164
999 COSIND_0.00 164
999 COSGEN_0.00 164
105 ESRank5 164
203 ESBackSacRefixation 164
999 WORDS_souvient~2 153
999 WORDFREQ_15.68 153
999 WORDSALL_souvient~2 153
999 COSIND_-0.03 153
999 COSGEN_-0.03 153
106 ESRank6 153
206 ESBackSacRegrLong-2-4 153
999 WORDS_symbole~5 287
999 WORDFREQ_12.57 287
999 WORDSALL_fameux~4_symbole~5 287
999 COSIND_0.03 287
999 COSGEN_0.03 287
107 ESRank7 287
202 ESForwSacLong+3+11 287
999 WORDS_symbole~5 170
999 WORDFREQ_12.57 170
999 WORDSALL_fameux~4_symbole~5 170
999 COSIND_0.03 170
999 COSGEN_0.03 170
108 ESRank8 170
203 ESBackSacRefixation 170
999 WORDS_dollar~7 316
999 WORDFREQ_3.85 316
999 WORDSALL_symbole~5_dollar~7 316
999 COSIND_0.04 316
999 COSGEN_0.04 316
109 ESRank9 316
202 ESForwSacLong+2+4 316
999 WORDS_dollar~7 135
999 WORDFREQ_3.85 135
999 WORDSALL_du~6_dollar~7 135
999 COSIND_0.04 135
999 COSGEN_0.04 135
110 ESRank10 135
203 ESBackSacRefixation 135
999 WORDS_revu~8 210
999 WORDFREQ_0.68 210
999 WORDSALL_revu~8 210
999 COSIND_0.01 210
999 COSGEN_0.01 210
111 ESRank11 210
201 ESForwSacShort 210
999 WORDS_revu~8 290
999 WORDFREQ_0.68 290
999 WORDSALL_revu~8 290
999 COSIND_0.01 290
999 COSGEN_0.01 290
112 ESRank12 290
203 ESBackSacRefixation 290
999 WORDS_Andy~10 395
999 WORDFREQ_N/A 395
999 WORDSALL_par~9_Andy~10 395
999 COSIND_N/A 395
113 ESRank13 395
202 ESForwSacLong+2+5 395
999 WORDS_Warhol~11 225
999 WORDFREQ_N/A 225
999 WORDSALL_Andy~10_Warhol~11 225
999 COSIND_N/A 225
114 ESRank14 225
201 ESForwSacShort 225
999 WORDS_pop-artiste~13 311
999 WORDFREQ_N/A 311
999 WORDSALL_Warhol~11_pop-artiste~13 311
999 COSIND_N/A 311
115 ESRank15 311
202 ESForwSacLong+2+4 311
999 WORDS_pop-artiste~13 321
999 WORDFREQ_N/A 321
999 WORDSALL_Le~12_pop-artiste~13 321
999 COSIND_N/A 321
116 ESRank16 321
203 ESBackSacRefixation 321
999 WORDS_signe~17 246
999 WORDFREQ_119.19 246
999 WORDSALL_d'un~16_signe~17 246
999 COSIND_0.08 246
999 COSGEN_0.08 246
117 ESRank17 246
202 ESForwSacLong+4+23 246
999 WORDS_américain~14 240
999 WORDFREQ_25.95 240
999 WORDSALL_américain~14 240
999 COSIND_0.02 240
999 COSGEN_0.02 240
118 ESRank18 240
206 ESBackSacRegrLong-3-12 240
200 ESRankN 240
199 ESRankNMinus1 246
198 ESRankNMinus2 321
197 ESRankNMinus3 311
196 ESRankNMinus4 225
195 ESRankNMinus5 395
194 ESRankNMinus6 290
193 ESRankNMinus7 210
192 ESRankNMinus8 135
191 ESRankNMinus9 316
190 ESRankNMinus10 170
