# 198 Fixation 1 (293.7,271.4): L'espace~0
# 195 Fixation 2 (428,257.3): dans~1 évoluent~3
# 223 Fixation 3 (550,265.8): évoluent~3
# 219 Fixation 4 (635.4,258.5): évoluent~3
# 138 Fixation 5 (343.4,314.7): L'espace~0
# 232 Fixation 6 (287.5,342.8): satellites~5
# 154 Fixation 7 (423.9,324.6): autour~6
# 177 Fixation 8 (549.1,328.6): de~7 planète~9
# 147 Fixation 9 (633.3,337.9): planète~9
# 141 Fixation 10 (366.2,382.6): de~12 milliers~13
# 88 Fixation 11 (459.2,403.6): milliers~13
# 124 Fixation 12 (612.6,406.7): débris~15
# 131 Fixation 13 (673.1,418.7): de~16 toutes~17
# 198 Fixation 14 (399.8,468.4): qui~19 inquiètent~20
%%
# L'espace~0 Fixations= "5/"
# dans~1 Fixations= "2/"
# lequel~2 Fixations= ""
# évoluent~3 Fixations= "4/"
# les~4 Fixations= ""
# satellites~5 Fixations= "6/"
# autour~6 Fixations= "7/"
# de~7 Fixations= "8/"
# notre~8 Fixations= ""
# planète~9 Fixations= "9/"
# est~10 Fixations= ""
# jonché~11 Fixations= ""
# de~12 Fixations= "10/"
# milliers~13 Fixations= "11/"
# de~14 Fixations= ""
# débris~15 Fixations= "12/"
# de~16 Fixations= "13/"
# toutes~17 Fixations= "13/"
# sortes~18 Fixations= ""
# qui~19 Fixations= "14/"
# inquiètent~20 Fixations= "14/"
# les~21 Fixations= ""
# professionnels~22 Fixations= ""
%%
#  L'ESPACE[5] DANS[2] lequel éVOLUENT[4] les SATELLITES[6] AUTOUR[7] DE[8] notre PLANèTE[9] est jonché DE[10] MILLIERS[11] de DéBRIS[12] DE[13] TOUTES[13] sortes QUI[14] INQUIèTENT[14] les professionnels
# s17 decollage_fusee-m2 PercentageOfWordsProcessed= 0.608695652173913 PercentageOfWordsReallyProcessed= 0.666666666666667
