# 105 Fixation 1 (285.3,267.5): Les~0 familles~1
# 84 Fixation 2 (330.7,269.7): Les~0 familles~1
# 289 Fixation 3 (440.6,278): ayant~2
# 146 Fixation 4 (552.9,278): des~3 jumeaux~4
# 121 Fixation 5 (611.2,284.8): jumeaux~4
# 242 Fixation 6 (665.5,288.4): jumeaux~4 bénéficient~5
# 219 Fixation 7 (358.9,344.9): mêmes~7
# 144 Fixation 8 (325.9,346.1): des~6 mêmes~7
# 200 Fixation 9 (426.4,349.7): prestations~8
# 248 Fixation 10 (574.5,344.3): familiales~9
# 154 Fixation 11 (331.4,407.2): autres~12
# 115 Fixation 12 (279.8,414.3): autres~12
# 203 Fixation 13 (493,420.5): les~14 congés~15
# 212 Fixation 14 (581.3,409.7): congés~15 maternité~16
# 126 Fixation 15 (712.4,406.2): sont~17
# 203 Fixation 16 (331.8,470.4): longs~19 18~21
# 88 Fixation 17 (367.9,469.7): de~20 18~21
%%
# Les~0 Fixations= "2/"
# familles~1 Fixations= "2/"
# ayant~2 Fixations= "3/"
# des~3 Fixations= "4/"
# jumeaux~4 Fixations= "6/"
# bénéficient~5 Fixations= "6/"
# des~6 Fixations= "8/"
# mêmes~7 Fixations= "8/"
# prestations~8 Fixations= "9/"
# familiales~9 Fixations= "10/"
# que~10 Fixations= ""
# les~11 Fixations= ""
# autres~12 Fixations= "12/"
# mais~13 Fixations= ""
# les~14 Fixations= "13/"
# congés~15 Fixations= "14/"
# maternité~16 Fixations= "14/"
# sont~17 Fixations= "15/"
# plus~18 Fixations= ""
# longs~19 Fixations= "16/"
# de~20 Fixations= "17/"
# 18~21 Fixations= "17/"
# semaines~22 Fixations= ""
%%
#  LES[2] FAMILLES[2] AYANT[3] DES[4] JUMEAUX[6] BéNéFICIENT[6] DES[8] MêMES[8] PRESTATIONS[9] FAMILIALES[10] que les AUTRES[12] mais LES[13] CONGéS[14] MATERNITé[14] SONT[15] plus LONGS[16] DE[17] 18[17] semaines
# s01 allocation_familiale-f1 PercentageOfWordsProcessed= 0.782608695652174 PercentageOfWordsReallyProcessed= 0.818181818181818
