# 136 Fixation 1 (292.2,283.9): Les~0 transports~1
# 177 Fixation 2 (456.7,319.8): perturbations~5
# 137 Fixation 3 (656.8,339.8): au~6 quatrième~7
# 220 Fixation 4 (295.8,358.2): d'importantes~4
# 177 Fixation 5 (472.7,363.6): perturbations~5
# 172 Fixation 6 (672.8,391.9): les~13 syndicats~14
# 100 Fixation 7 (290.5,441): jour~8
# 260 Fixation 8 (466.1,457.4): contre~17 projet~19
# 184 Fixation 9 (651.3,456.4): projet~19
# 194 Fixation 10 (489,525.5): temps~23
# 143 Fixation 11 (590.1,510.4): travail~25
# 153 Fixation 12 (605,556.2): travail~25
%%
# Les~0 Fixations= "1/"
# transports~1 Fixations= "1/"
# connaissaient~2 Fixations= ""
# toujours~3 Fixations= ""
# d'importantes~4 Fixations= "4/"
# perturbations~5 Fixations= "5/"
# au~6 Fixations= "3/"
# quatrième~7 Fixations= "3/"
# jour~8 Fixations= "7/"
# d'une~9 Fixations= ""
# grève~10 Fixations= ""
# lancée~11 Fixations= ""
# par~12 Fixations= ""
# les~13 Fixations= "6/"
# syndicats~14 Fixations= "6/"
# pour~15 Fixations= ""
# protester~16 Fixations= ""
# contre~17 Fixations= "8/"
# le~18 Fixations= ""
# projet~19 Fixations= "9/"
# de~20 Fixations= ""
# réduction~21 Fixations= ""
# du~22 Fixations= ""
# temps~23 Fixations= "10/"
# de~24 Fixations= ""
# travail~25 Fixations= "12/"
# présenté~26 Fixations= ""
# par~27 Fixations= ""
# la~28 Fixations= ""
# direction~29 Fixations= ""
%%
#  LES[1] TRANSPORTS[1] connaissaient toujours D'IMPORTANTES[4] PERTURBATIONS[5] AU[3] QUATRIèME[3] JOUR[7] d'une grève lancée par LES[6] SYNDICATS[6] pour protester CONTRE[8] le PROJET[9] de réduction du TEMPS[10] de TRAVAIL[12] présenté par la direction
# s07 greve_cheminot-f2 PercentageOfWordsProcessed= 0.433333333333333 PercentageOfWordsReallyProcessed= 0.5
