# 157 Fixation 1 (291.8,279.9): Il~0 s'agit~1
# 180 Fixation 2 (430.1,282.4): de~2 citoyens~4
# 174 Fixation 3 (488.6,280.6): nos~3 citoyens~4
# 172 Fixation 4 (633.6,296.8): et~5 devoir~7
# 239 Fixation 5 (602,296): et~5 devoir~7
# 186 Fixation 6 (670.7,292.9): le~6 devoir~7
# 194 Fixation 7 (603.8,293.9): et~5 devoir~7
# 144 Fixation 8 (705,285.1): devoir~7
# 100 Fixation 9 (736.2,283.6): devoir~7
# 149 Fixation 10 (329.5,346.2): n'importe~9
# 123 Fixation 11 (283.4,358.8): n'importe~9
# 161 Fixation 12 (419.3,346.3): quel~10 gouvernement~11
# 254 Fixation 13 (483,350.9): gouvernement~11
# 148 Fixation 14 (644.5,364.6): est~12 défendre~14
# 156 Fixation 15 (725.5,363.7): de~13 défendre~14
# 217 Fixation 16 (325.5,415.4): les~15 intérêts~16
# 157 Fixation 17 (500.4,411.3): ses~18 citoyens~19
# 116 Fixation 18 (552.3,414.5): citoyens~19
# 175 Fixation 19 (680.1,420.8): Des~20 mesures~21
# 169 Fixation 20 (320.9,472.9): sont~22 prises~23
# 140 Fixation 21 (592.3,423.6): citoyens~19
# 120 Fixation 22 (545.9,416.6): citoyens~19
# 159 Fixation 23 (689.3,421.8): Des~20 mesures~21
# 231 Fixation 24 (314.2,474.7): sont~22 prises~23
# 166 Fixation 25 (450.2,485.4): mais~24 également~25
# 204 Fixation 26 (499.2,484.1): mais~24 également~25
# 220 Fixation 27 (691.4,480.8): coopération~27
# 166 Fixation 28 (333.9,530.8): avec~28 organisations~30
# 150 Fixation 29 (411,537): organisations~30
# 258 Fixation 30 (615.9,541.4): internationales~31
# 107 Fixation 31 (473.9,319.9): quel~10 gouvernement~11
# 246 Fixation 32 (381,280.9): s'agit~1
# 135 Fixation 33 (504.9,278.9): citoyens~4
# 173 Fixation 34 (660.2,290.8): et~5 devoir~7
# 192 Fixation 35 (326.9,338.1): n'importe~9
# 155 Fixation 36 (457.8,344): quel~10 gouvernement~11
# 208 Fixation 37 (709.8,362.1): de~13 défendre~14
# 182 Fixation 38 (323,402): les~15 intérêts~16
# 231 Fixation 39 (538.2,414.7): ses~18 citoyens~19
# 171 Fixation 40 (671.5,420.8): Des~20 mesures~21
%%
# Il~0 Fixations= "1/"
# s'agit~1 Fixations= "32/"
# de~2 Fixations= "2/"
# nos~3 Fixations= "3/"
# citoyens~4 Fixations= "33/"
# et~5 Fixations= "34/"
# le~6 Fixations= "6/"
# devoir~7 Fixations= "34/"
# de~8 Fixations= ""
# n'importe~9 Fixations= "35/"
# quel~10 Fixations= "36/"
# gouvernement~11 Fixations= "36/"
# est~12 Fixations= "14/"
# de~13 Fixations= "37/"
# défendre~14 Fixations= "37/"
# les~15 Fixations= "38/"
# intérêts~16 Fixations= "38/"
# de~17 Fixations= ""
# ses~18 Fixations= "39/"
# citoyens~19 Fixations= "39/"
# Des~20 Fixations= "40/"
# mesures~21 Fixations= "40/"
# sont~22 Fixations= "24/"
# prises~23 Fixations= "24/"
# mais~24 Fixations= "26/"
# également~25 Fixations= "26/"
# une~26 Fixations= ""
# coopération~27 Fixations= "27/"
# avec~28 Fixations= "28/"
# les~29 Fixations= ""
# organisations~30 Fixations= "29/"
# internationales~31 Fixations= "30/"
%%
#  IL[1] S'AGIT[32] DE[2] NOS[3] CITOYENS[33] ET[34] LE[6] DEVOIR[34] de N'IMPORTE[35] QUEL[36] GOUVERNEMENT[36] EST[14] DE[37] DéFENDRE[37] LES[38] INTéRêTS[38] de SES[39] CITOYENS[39] DES[40] MESURES[40] SONT[24] PRISES[24] MAIS[26] éGALEMENT[26] une COOPéRATION[27] AVEC[28] les ORGANISATIONS[29] INTERNATIONALES[30]
# s17 associations_humanitaires-m1 PercentageOfWordsProcessed= 0.875 PercentageOfWordsReallyProcessed= 0.875
