999 WORDS_détresse~1 162
999 WORDFREQ_18.38 162
999 WORDSALL_La~0_détresse~1 162
999 COSIND_0.29 162
999 COSGEN_0.29 162
101 ESRank1 162
999 WORDS_détresse~1 123
999 WORDFREQ_18.38 123
999 WORDSALL_détresse~1 123
999 COSIND_0.29 123
999 COSGEN_0.29 123
102 ESRank2 123
203 ESBackSacRefixation 123
999 WORDS_souffrance~4 152
999 WORDFREQ_33.58 152
999 WORDSALL_et~2_souffrance~4 152
999 COSIND_0.17 152
999 COSGEN_0.17 152
103 ESRank3 152
202 ESForwSacLong+3+7 152
999 WORDS_souffrance~4 171
999 WORDFREQ_33.58 171
999 WORDSALL_la~3_souffrance~4 171
999 COSIND_0.17 171
999 COSGEN_0.17 171
104 ESRank4 171
203 ESBackSacRefixation 171
999 WORDS_réfugiés~6 225
999 WORDFREQ_8.18 225
999 WORDSALL_des~5_réfugiés~6 225
999 COSIND_0.12 225
999 COSGEN_0.12 225
105 ESRank5 225
202 ESForwSacLong+2+5 225
999 WORDS_largement~7 176
999 WORDFREQ_26.76 176
999 WORDSALL_largement~7 176
999 COSIND_0.09 176
999 COSGEN_0.09 176
106 ESRank6 176
201 ESForwSacShort 176
999 WORDS_largement~7 269
999 WORDFREQ_26.76 269
999 WORDSALL_largement~7 269
999 COSIND_0.09 269
999 COSGEN_0.09 269
107 ESRank7 269
203 ESBackSacRefixation 269
999 WORDS_médiatisées~8 133
999 WORDFREQ_0 133
999 WORDSALL_médiatisées~8 133
999 COSIND_0.12 133
999 COSGEN_0.12 133
108 ESRank8 133
201 ESForwSacShort 133
999 WORDS_suscitent~9 353
999 WORDFREQ_1.01 353
999 WORDSALL_suscitent~9 353
999 COSIND_0.02 353
999 COSGEN_0.02 353
109 ESRank9 353
201 ESForwSacShort 353
999 WORDS_d'immenses~10 152
999 WORDFREQ_22.91 152
999 WORDSALL_d'immenses~10 152
999 COSIND_-0.01 152
999 COSGEN_-0.01 152
110 ESRank10 152
201 ESForwSacShort 152
999 WORDS_élans~11 232
999 WORDFREQ_7.16 232
999 WORDSALL_élans~11 232
999 COSIND_0.14 232
999 COSGEN_0.14 232
111 ESRank11 232
201 ESForwSacShort 232
999 WORDS_générosité~13 218
999 WORDFREQ_10.95 218
999 WORDSALL_de~12_générosité~13 218
999 COSIND_0.26 218
999 COSGEN_0.26 218
112 ESRank12 218
202 ESForwSacLong+2+4 218
999 WORDS_convois~15 332
999 WORDFREQ_7.43 332
999 WORDSALL_Des~14_convois~15 332
999 COSIND_0.41 332
999 COSGEN_0.41 332
113 ESRank13 332
202 ESForwSacLong+2+5 332
999 WORDS_convois~15 145
999 WORDFREQ_7.43 145
999 WORDSALL_convois~15 145
999 COSIND_0.41 145
999 COSGEN_0.41 145
114 ESRank14 145
203 ESBackSacRefixation 145
999 WORDS_humanitaire~17 212
999 WORDFREQ_1.22 212
999 WORDSALL_humanitaire~17 212
999 COSIND_1.00 212
999 COSGEN_1.00 212
115 ESRank15 212
202 ESForwSacLong+2+8 212
999 WORDS_humanitaire~17 148
999 WORDFREQ_1.22 148
999 WORDSALL_humanitaire~17 148
999 COSIND_1.00 148
999 COSGEN_1.00 148
116 ESRank16 148
203 ESBackSacRefixation 148
999 WORDS_constitués~18 161
999 WORDFREQ_0.47 161
999 WORDSALL_constitués~18 161
999 COSIND_0.05 161
999 COSGEN_0.05 161
117 ESRank17 161
201 ESForwSacShort 161
999 WORDS_bénévoles~21 173
999 WORDFREQ_0.14 173
999 WORDSALL_des~20_bénévoles~21 173
999 COSIND_0.18 173
999 COSGEN_0.18 173
118 ESRank18 173
202 ESForwSacLong+3+9 173
999 WORDS_bénévoles~21 145
999 WORDFREQ_0.14 145
999 WORDSALL_bénévoles~21 145
999 COSIND_0.18 145
999 COSGEN_0.18 145
119 ESRank19 145
203 ESBackSacRefixation 145
999 WORDS_différentes~23 157
999 WORDFREQ_23.65 157
999 WORDSALL_différentes~23 157
999 COSIND_-0.03 157
999 COSGEN_-0.03 157
120 ESRank20 157
202 ESForwSacLong+2+4 157
999 WORDS_différentes~23 160
999 WORDFREQ_23.65 160
999 WORDSALL_différentes~23 160
999 COSIND_-0.03 160
999 COSGEN_-0.03 160
203 ESBackSacRefixation 160
999 WORDS_camps~28 142
999 WORDFREQ_21.62 142
999 WORDSALL_camps~28 142
999 COSIND_0.57 142
999 COSGEN_0.57 142
202 ESForwSacLong+5+35 142
200 ESRankN 142
199 ESRankNMinus1 160
198 ESRankNMinus2 157
197 ESRankNMinus3 145
196 ESRankNMinus4 173
195 ESRankNMinus5 161
194 ESRankNMinus6 148
193 ESRankNMinus7 212
192 ESRankNMinus8 145
191 ESRankNMinus9 332
190 ESRankNMinus10 218
