# 142 Fixation 1 (285.8,262.1): Ces~0 combats~1
# 152 Fixation 2 (326.2,260.9): Ces~0 combats~1
# 147 Fixation 3 (450,251.6): qui~2 remettent~4
# 215 Fixation 4 (531.4,248.9): ne~3 remettent~4
# 164 Fixation 5 (652.4,258.5): pas~5 cause~7
# 178 Fixation 6 (569.3,259.6): remettent~4
# 152 Fixation 7 (659.3,263.5): pas~5 cause~7
# 156 Fixation 8 (529.5,253): ne~3 remettent~4
# 215 Fixation 9 (662.7,264.1): pas~5 cause~7
# 108 Fixation 10 (709,267.6): pas~5 cause~7
# 151 Fixation 11 (343.1,335): suprématie~9
# 156 Fixation 12 (301.1,349.8): la~8 suprématie~9
# 210 Fixation 13 (498.8,336.1): des~10 talibans~11
# 141 Fixation 14 (590.4,337.6): talibans~11
# 205 Fixation 15 (310.6,410.5): l'Afghanistan~13
# 220 Fixation 16 (498.5,406.6): prouvent~14
# 146 Fixation 17 (473.5,410): prouvent~14
# 283 Fixation 18 (315.2,414.2): l'Afghanistan~13
# 157 Fixation 19 (447.7,411.9): prouvent~14
# 103 Fixation 20 (481.3,416.4): prouvent~14
# 136 Fixation 21 (641.3,422.1): que~15 l'état-major~16
# 135 Fixation 22 (694.1,422): l'état-major~16
# 244 Fixation 23 (338.3,474.6): veut~17 peut~19
# 181 Fixation 24 (285.7,469.9): veut~17
# 149 Fixation 25 (432,471.3): peut~19 maintenir~20
# 105 Fixation 26 (406,476.8): peut~19
# 198 Fixation 27 (635.2,472.5): pression~22
# 126 Fixation 28 (731.8,472.1): sur~23
# 306 Fixation 29 (293.6,518.5): adversaires~25
%%
# Ces~0 Fixations= "2/"
# combats~1 Fixations= "2/"
# qui~2 Fixations= "3/"
# ne~3 Fixations= "8/"
# remettent~4 Fixations= "8/"
# pas~5 Fixations= "10/"
# en~6 Fixations= ""
# cause~7 Fixations= "10/"
# la~8 Fixations= "12/"
# suprématie~9 Fixations= "12/"
# des~10 Fixations= "13/"
# talibans~11 Fixations= "14/"
# sur~12 Fixations= ""
# l'Afghanistan~13 Fixations= "18/"
# prouvent~14 Fixations= "20/"
# que~15 Fixations= "21/"
# l'état-major~16 Fixations= "22/"
# veut~17 Fixations= "24/"
# et~18 Fixations= ""
# peut~19 Fixations= "26/"
# maintenir~20 Fixations= "25/"
# la~21 Fixations= ""
# pression~22 Fixations= "27/"
# sur~23 Fixations= "28/"
# ses~24 Fixations= ""
# adversaires~25 Fixations= "29/"
%%
#  CES[2] COMBATS[2] QUI[3] NE[8] REMETTENT[8] PAS[10] en CAUSE[10] LA[12] SUPRéMATIE[12] DES[13] TALIBANS[14] sur L'AFGHANISTAN[18] PROUVENT[20] QUE[21] L'éTAT-MAJOR[22] VEUT[24] et PEUT[26] MAINTENIR[25] la PRESSION[27] SUR[28] ses ADVERSAIRES[29]
# s17 chef_russie-m1 PercentageOfWordsProcessed= 0.807692307692308 PercentageOfWordsReallyProcessed= 0.807692307692308
