# 192 Fixation 1 (253.5,291.2): Les~0 via~1
# 252 Fixation 2 (324.8,269.5): Les~0 via~1
# 286 Fixation 3 (513,300.1): et~3 sports~5
# 174 Fixation 4 (642.2,265.4): sports~5 d'eau~6
# 187 Fixation 5 (433.1,330.9): un~9 succès~10
# 135 Fixation 6 (634.8,337.6): constant~11
# 336 Fixation 7 (320.3,393.6): candidats~13
# 175 Fixation 8 (462.1,338.1): un~9 succès~10
# 114 Fixation 9 (548.9,316.9): succès~10 constant~11
# 213 Fixation 10 (424.3,416.9): au~14 vertige~15
# 167 Fixation 11 (450.5,448.3): sur~20 cinquantaine~22
# 147 Fixation 12 (642,489.6): de~23 parcours~24
%%
# Les~0 Fixations= "2/"
# via~1 Fixations= "2/"
# ferrata~2 Fixations= ""
# et~3 Fixations= "3/"
# les~4 Fixations= ""
# sports~5 Fixations= "4/"
# d'eau~6 Fixations= "4/"
# vive~7 Fixations= ""
# connaissent~8 Fixations= ""
# un~9 Fixations= "8/"
# succès~10 Fixations= "9/"
# constant~11 Fixations= "9/"
# Les~12 Fixations= ""
# candidats~13 Fixations= "7/"
# au~14 Fixations= "10/"
# vertige~15 Fixations= "10/"
# se~16 Fixations= ""
# comptent~17 Fixations= ""
# par~18 Fixations= ""
# milliers~19 Fixations= ""
# sur~20 Fixations= "11/"
# la~21 Fixations= ""
# cinquantaine~22 Fixations= "11/"
# de~23 Fixations= "12/"
# parcours~24 Fixations= "12/"
# de~25 Fixations= ""
# via~26 Fixations= ""
# ferrata~27 Fixations= ""
# ancrés~28 Fixations= ""
# en~29 Fixations= ""
# pleine~30 Fixations= ""
# falaise~31 Fixations= ""
%%
#  LES[2] VIA[2] ferrata ET[3] les SPORTS[4] D'EAU[4] vive connaissent UN[8] SUCCèS[9] CONSTANT[9] Les CANDIDATS[7] AU[10] VERTIGE[10] se comptent par milliers SUR[11] la CINQUANTAINE[11] DE[12] PARCOURS[12] de via ferrata ancrés en pleine falaise
# s07 tourisme_montagne-f1 PercentageOfWordsProcessed= 0.46875 PercentageOfWordsReallyProcessed= 0.6
