999 WORDS_représentant~1 136
999 WORDFREQ_12.3 136
999 WORDSALL_Le~0_représentant~1 136
999 COSIND_0.14 136
999 COSGEN_0.14 136
101 ESRank1 136
999 WORDS_représentant~1 132
999 WORDFREQ_12.3 132
999 WORDSALL_représentant~1 132
999 COSIND_0.14 132
999 COSGEN_0.14 132
102 ESRank2 132
203 ESBackSacRefixation 132
999 WORDS_consortium~3 169
999 WORDFREQ_0.07 169
999 WORDSALL_du~2_consortium~3 169
999 COSIND_0.29 169
999 COSGEN_0.29 169
103 ESRank3 169
202 ESForwSacLong+2+4 169
999 WORDS_aéronautique~4 160
999 WORDFREQ_0.07 160
999 WORDSALL_aéronautique~4 160
999 COSIND_0.60 160
999 COSGEN_0.60 160
104 ESRank4 160
201 ESForwSacShort 160
999 WORDS_aéronautique~4 151
999 WORDFREQ_0.07 151
999 WORDSALL_aéronautique~4 151
999 COSIND_0.60 151
999 COSGEN_0.60 151
105 ESRank5 151
203 ESBackSacRefixation 151
999 WORDS_52~17 146
999 WORDFREQ_N/A 146
999 WORDSALL_commande~15_52~17 146
999 COSIND_N/A 146
106 ESRank6 146
202 ESForwSacLong+13+74 146
999 WORDS_52~17 192
999 WORDFREQ_N/A 192
999 WORDSALL_de~16_52~17 192
999 COSIND_N/A 192
107 ESRank7 192
203 ESBackSacRefixation 192
999 WORDS_avions~18 139
999 WORDFREQ_31.22 139
999 WORDSALL_52~17_avions~18 139
999 COSIND_0.34 139
999 COSGEN_0.34 139
108 ESRank8 139
201 ESForwSacShort 139
999 WORDS_salon~24 166
999 WORDFREQ_84.12 166
999 WORDSALL_du~23_salon~24 166
999 COSIND_0.89 166
999 COSGEN_0.89 166
109 ESRank9 166
202 ESForwSacLong+6+25 166
999 WORDS_Bourget~26 139
999 WORDFREQ_N/A 139
999 WORDSALL_du~25_Bourget~26 139
999 COSIND_N/A 139
110 ESRank10 139
202 ESForwSacLong+2+4 139
999 WORDS_jour~22 136
999 WORDFREQ_826.35 136
999 WORDSALL_premier~21_jour~22 136
999 COSIND_-0.03 136
999 COSGEN_-0.03 136
111 ESRank11 136
206 ESBackSacRegrLong-4-13 136
999 WORDS_premier~21 181
999 WORDFREQ_237.91 181
999 WORDSALL_le~20_premier~21 181
999 COSIND_-0.00 181
999 COSGEN_-0.00 181
112 ESRank12 181
205 ESBackSacRegrShort 181
999 WORDS_a~12 176
999 WORDFREQ_2926.69 176
999 WORDSALL_Airbus~11_a~12 176
999 COSIND_N/A 176
113 ESRank13 176
206 ESBackSacRegrLong-9-41 176
200 ESRankN 176
199 ESRankNMinus1 181
198 ESRankNMinus2 136
197 ESRankNMinus3 139
196 ESRankNMinus4 166
195 ESRankNMinus5 139
194 ESRankNMinus6 192
193 ESRankNMinus7 146
192 ESRankNMinus8 151
191 ESRankNMinus9 160
190 ESRankNMinus10 169
