999 WORDS_syndicats~1 87
999 WORDFREQ_3.24 87
999 WORDSALL_Les~0_syndicats~1 87
999 COSIND_0.86 87
999 COSGEN_0.86 87
101 ESRank1 87
999 WORDS_syndicats~1 180
999 WORDFREQ_3.24 180
999 WORDSALL_Les~0_syndicats~1 180
999 COSIND_0.86 180
999 COSGEN_0.86 180
102 ESRank2 180
203 ESBackSacRefixation 180
999 WORDS_avaient~3 182
999 WORDFREQ_524.26 182
999 WORDSALL_qui~2_avaient~3 182
999 COSIND_0.04 182
999 COSGEN_0.04 182
103 ESRank3 182
202 ESForwSacLong+2+5 182
999 WORDS_lancé~4 150
999 WORDFREQ_24.66 150
999 WORDSALL_lancé~4 150
999 COSIND_0.11 150
999 COSGEN_0.11 150
104 ESRank4 150
201 ESForwSacShort 150
999 WORDS_l'ordre~5 143
999 WORDFREQ_179.26 143
999 WORDSALL_l'ordre~5 143
999 COSIND_0.06 143
999 COSGEN_0.06 143
105 ESRank5 143
201 ESForwSacShort 143
999 WORDS_grève~7 145
999 WORDFREQ_22.36 145
999 WORDSALL_grève~7 145
999 COSIND_0.51 145
999 COSGEN_0.51 145
106 ESRank6 145
202 ESForwSacLong+2+4 145
999 WORDS_réclamaient~8 173
999 WORDFREQ_4.05 173
999 WORDSALL_grève~7_réclamaient~8 173
999 COSIND_0.33 173
999 COSGEN_0.33 173
107 ESRank7 173
201 ESForwSacShort 173
999 WORDS_amélioration~10 136
999 WORDFREQ_2.23 136
999 WORDSALL_amélioration~10 136
999 COSIND_-0.02 136
999 COSGEN_-0.02 136
108 ESRank8 136
202 ESForwSacLong+2+5 136
999 WORDS_amélioration~10 113
999 WORDFREQ_2.23 113
999 WORDSALL_amélioration~10 113
999 COSIND_-0.02 113
999 COSGEN_-0.02 113
109 ESRank9 113
203 ESBackSacRefixation 113
999 WORDS_l'aménagement~12 241
999 WORDFREQ_1.82 241
999 WORDSALL_l'aménagement~12 241
999 COSIND_0.12 241
999 COSGEN_0.12 241
110 ESRank10 241
202 ESForwSacLong+2+4 241
999 WORDS_temps~14 149
999 WORDFREQ_1289.39 149
999 WORDSALL_du~13_temps~14 149
999 COSIND_-0.01 149
999 COSGEN_-0.01 149
111 ESRank11 149
202 ESForwSacLong+2+4 149
999 WORDS_temps~14 99
999 WORDFREQ_1289.39 99
999 WORDSALL_temps~14 99
999 COSIND_-0.01 99
999 COSGEN_-0.01 99
112 ESRank12 99
203 ESBackSacRefixation 99
999 WORDS_travail~16 144
999 WORDFREQ_223.99 144
999 WORDSALL_travail~16 144
999 COSIND_0.02 144
999 COSGEN_0.02 144
113 ESRank13 144
202 ESForwSacLong+2+4 144
999 WORDS_travail~16 103
999 WORDFREQ_223.99 103
999 WORDSALL_travail~16 103
999 COSIND_0.02 103
999 COSGEN_0.02 103
114 ESRank14 103
203 ESBackSacRefixation 103
999 WORDS_l'embauche~19 188
999 WORDFREQ_2.97 188
999 WORDSALL_que~18_l'embauche~19 188
999 COSIND_0.20 188
999 COSGEN_0.20 188
115 ESRank15 188
202 ESForwSacLong+3+11 188
999 WORDS_l'embauche~19 103
999 WORDFREQ_2.97 103
999 WORDSALL_l'embauche~19 103
999 COSIND_0.20 103
999 COSGEN_0.20 103
116 ESRank16 103
203 ESBackSacRefixation 103
999 WORDS_trente~21 145
999 WORDFREQ_79.12 145
999 WORDSALL_de~20_trente~21 145
999 COSIND_0.09 145
999 COSGEN_0.09 145
117 ESRank17 145
202 ESForwSacLong+2+4 145
999 WORDS_personnes~22 224
999 WORDFREQ_63.85 224
999 WORDSALL_trente~21_personnes~22 224
999 COSIND_-0.01 224
999 COSGEN_-0.01 224
118 ESRank18 224
201 ESForwSacShort 224
999 WORDS_supplémentaires~23 182
999 WORDFREQ_5.47 182
999 WORDSALL_supplémentaires~23 182
999 COSIND_0.11 182
999 COSGEN_0.11 182
119 ESRank19 182
201 ESForwSacShort 182
999 WORDS_supplémentaires~23 298
999 WORDFREQ_5.47 298
999 WORDSALL_supplémentaires~23 298
999 COSIND_0.11 298
999 COSGEN_0.11 298
120 ESRank20 298
203 ESBackSacRefixation 298
999 WORDS_l'aménagement~12 163
999 WORDFREQ_1.82 163
999 WORDSALL_l'aménagement~12 163
999 COSIND_0.12 163
999 COSGEN_0.12 163
206 ESBackSacRegrLong-11-62 163
999 WORDS_réclamaient~8 95
999 WORDFREQ_4.05 95
999 WORDSALL_grève~7_réclamaient~8 95
999 COSIND_0.33 95
999 COSGEN_0.33 95
206 ESBackSacRegrLong-4-22 95
999 WORDS_réclamaient~8 144
999 WORDFREQ_4.05 144
999 WORDSALL_grève~7_réclamaient~8 144
999 COSIND_0.33 144
999 COSGEN_0.33 144
203 ESBackSacRefixation 144
999 WORDS_réclamaient~8 96
999 WORDFREQ_4.05 96
999 WORDSALL_réclamaient~8 96
999 COSIND_0.33 96
999 COSGEN_0.33 96
203 ESBackSacRefixation 96
999 WORDS_amélioration~10 92
999 WORDFREQ_2.23 92
999 WORDSALL_une~9_amélioration~10 92
999 COSIND_-0.02 92
999 COSGEN_-0.02 92
202 ESForwSacLong+2+5 92
999 WORDS_amélioration~10 190
999 WORDFREQ_2.23 190
999 WORDSALL_amélioration~10 190
999 COSIND_-0.02 190
999 COSGEN_-0.02 190
203 ESBackSacRefixation 190
200 ESRankN 190
199 ESRankNMinus1 92
198 ESRankNMinus2 96
197 ESRankNMinus3 144
196 ESRankNMinus4 95
195 ESRankNMinus5 163
194 ESRankNMinus6 298
193 ESRankNMinus7 182
192 ESRankNMinus8 224
191 ESRankNMinus9 145
190 ESRankNMinus10 103
