# 143 Fixation 1 (230,281.2): Le~0 chef~1
# 174 Fixation 2 (377.2,282.7): chef~1 gouvernement~3
# 235 Fixation 3 (627.7,284.7): est~4 accusé~5
# 120 Fixation 4 (340.9,338.9): relations~7
# 183 Fixation 5 (263.9,323.6): relations~7
# 191 Fixation 6 (503.8,358.4): avec~9 États-Unis~11
# 148 Fixation 7 (672.7,332.4): États-Unis~11
# 182 Fixation 8 (311.2,395): l'isolement~13
# 199 Fixation 9 (458.6,407): d'Israël~14
# 146 Fixation 10 (597.7,414.8): dans~15 monde~17
# 268 Fixation 11 (338.4,492.4): chômage~19
# 200 Fixation 12 (479.1,480.2): montée~21 vertigineuse~22
# 143 Fixation 13 (701,475.4): et~23
# 213 Fixation 14 (398.5,570.2): détérioration~26
# 153 Fixation 15 (271.5,548.9): détérioration~26
# 261 Fixation 16 (528.8,541.5): toutes~28
%%
# Le~0 Fixations= "1/"
# chef~1 Fixations= "2/"
# du~2 Fixations= ""
# gouvernement~3 Fixations= "2/"
# est~4 Fixations= "3/"
# accusé~5 Fixations= "3/"
# des~6 Fixations= ""
# relations~7 Fixations= "5/"
# tendues~8 Fixations= ""
# avec~9 Fixations= "6/"
# les~10 Fixations= ""
# États-Unis~11 Fixations= "7/"
# de~12 Fixations= ""
# l'isolement~13 Fixations= "8/"
# d'Israël~14 Fixations= "9/"
# dans~15 Fixations= "10/"
# le~16 Fixations= ""
# monde~17 Fixations= "10/"
# du~18 Fixations= ""
# chômage~19 Fixations= "11/"
# en~20 Fixations= ""
# montée~21 Fixations= "12/"
# vertigineuse~22 Fixations= "12/"
# et~23 Fixations= "13/"
# de~24 Fixations= ""
# la~25 Fixations= ""
# détérioration~26 Fixations= "15/"
# de~27 Fixations= ""
# toutes~28 Fixations= "16/"
# les~29 Fixations= ""
# normes~30 Fixations= ""
# de~31 Fixations= ""
# gouvernement~32 Fixations= ""
# démocratique~33 Fixations= ""
%%
#  LE[1] CHEF[2] du GOUVERNEMENT[2] EST[3] ACCUSé[3] des RELATIONS[5] tendues AVEC[6] les ÉTATS-UNIS[7] de L'ISOLEMENT[8] D'ISRAëL[9] DANS[10] le MONDE[10] du CHôMAGE[11] en MONTéE[12] VERTIGINEUSE[12] ET[13] de la DéTéRIORATION[15] de TOUTES[16] les normes de gouvernement démocratique
# s07 conflit_israelo_palestinien-m1 PercentageOfWordsProcessed= 0.529411764705882 PercentageOfWordsReallyProcessed= 0.620689655172414
