999 WORDS_premier~1 165
999 WORDFREQ_237.91 165
999 WORDSALL_Le~0_premier~1 165
999 COSIND_0.05 165
999 COSGEN_0.05 165
101 ESRank1 165
999 WORDS_premier~1 124
999 WORDFREQ_237.91 124
999 WORDSALL_Le~0_premier~1 124
999 COSIND_0.05 124
999 COSGEN_0.05 124
102 ESRank2 124
203 ESBackSacRefixation 124
999 WORDS_tir~2 223
999 WORDFREQ_16.01 223
999 WORDSALL_premier~1_tir~2 223
999 COSIND_0.44 223
999 COSGEN_0.44 223
103 ESRank3 223
201 ESForwSacShort 223
999 WORDS_l'année~4 296
999 WORDFREQ_128.99 296
999 WORDSALL_de~3_l'année~4 296
999 COSIND_0.03 296
999 COSGEN_0.03 296
104 ESRank4 296
202 ESForwSacLong+2+4 296
999 WORDS_fusée~7 178
999 WORDFREQ_4.59 178
999 WORDSALL_de~5_fusée~7 178
999 COSIND_0.91 178
999 COSGEN_0.91 178
105 ESRank5 178
202 ESForwSacLong+3+7 178
999 WORDS_fusée~7 151
999 WORDFREQ_4.59 151
999 WORDSALL_de~5_fusée~7 151
999 COSIND_0.91 151
999 COSGEN_0.91 151
106 ESRank6 151
203 ESBackSacRefixation 151
999 WORDS_Ariane-4~8 277
999 WORDFREQ_N/A 277
999 WORDSALL_Ariane-4~8 277
999 COSIND_N/A 277
107 ESRank7 277
201 ESForwSacShort 277
999 WORDS_Ariane-4~8 143
999 WORDFREQ_N/A 143
999 WORDSALL_Ariane-4~8 143
999 COSIND_N/A 143
108 ESRank8 143
203 ESBackSacRefixation 143
999 WORDS_Ariane-4~8 356
999 WORDFREQ_N/A 356
999 WORDSALL_Ariane-4~8 356
999 COSIND_N/A 356
109 ESRank9 356
203 ESBackSacRefixation 356
999 WORDS_centre~11 210
999 WORDFREQ_80 210
999 WORDSALL_le~10_centre~11 210
999 COSIND_0.09 210
999 COSGEN_0.09 210
110 ESRank10 210
202 ESForwSacLong+3+11 210
999 WORDS_spatial~12 302
999 WORDFREQ_0.61 302
999 WORDSALL_spatial~12 302
999 COSIND_0.79 302
999 COSGEN_0.79 302
111 ESRank11 302
201 ESForwSacShort 302
999 WORDS_spatial~12 133
999 WORDFREQ_0.61 133
999 WORDSALL_centre~11_spatial~12 133
999 COSIND_0.79 133
999 COSGEN_0.79 133
112 ESRank12 133
203 ESBackSacRefixation 133
999 WORDS_guyanais~13 164
999 WORDFREQ_0.07 164
999 WORDSALL_guyanais~13 164
999 COSIND_N/A 164
113 ESRank13 164
201 ESForwSacShort 164
999 WORDS_guyanais~13 102
999 WORDFREQ_0.07 102
999 WORDSALL_spatial~12_guyanais~13 102
999 COSIND_N/A 102
114 ESRank14 102
203 ESBackSacRefixation 102
999 WORDS_Kourou~15 258
999 WORDFREQ_N/A 258
999 WORDSALL_de~14_Kourou~15 258
999 COSIND_N/A 258
115 ESRank15 258
202 ESForwSacLong+2+4 258
999 WORDS_Kourou~15 199
999 WORDFREQ_N/A 199
999 WORDSALL_de~14_Kourou~15 199
999 COSIND_N/A 199
116 ESRank16 199
203 ESBackSacRefixation 199
999 WORDS_été~17 293
999 WORDFREQ_818.99 293
999 WORDSALL_a~16_été~17 293
999 COSIND_0.01 293
999 COSGEN_0.01 293
117 ESRank17 293
202 ESForwSacLong+2+3 293
999 WORDS_succès~19 227
999 WORDFREQ_53.72 227
999 WORDSALL_un~18_succès~19 227
999 COSIND_0.03 227
999 COSGEN_0.03 227
118 ESRank18 227
202 ESForwSacLong+2+4 227
999 WORDS_lanceur~21 201
999 WORDFREQ_0.34 201
999 WORDSALL_le~20_lanceur~21 201
999 COSIND_0.82 201
999 COSGEN_0.82 201
119 ESRank19 201
202 ESForwSacLong+2+4 201
999 WORDS_lanceur~21 395
999 WORDFREQ_0.34 395
999 WORDSALL_le~20_lanceur~21 395
999 COSIND_0.82 395
999 COSGEN_0.82 395
120 ESRank20 395
203 ESBackSacRefixation 395
999 WORDS_lanceur~21 178
999 WORDFREQ_0.34 178
999 WORDSALL_le~20_lanceur~21 178
999 COSIND_0.82 178
999 COSGEN_0.82 178
203 ESBackSacRefixation 178
999 WORDS_européen~22 166
999 WORDFREQ_3.78 166
999 WORDSALL_européen~22 166
999 COSIND_0.06 166
999 COSGEN_0.06 166
201 ESForwSacShort 166
999 WORDS_européen~22 241
999 WORDFREQ_3.78 241
999 WORDSALL_européen~22 241
999 COSIND_0.06 241
999 COSGEN_0.06 241
203 ESBackSacRefixation 241
999 WORDS_a~23 195
999 WORDFREQ_2926.69 195
999 WORDSALL_européen~22_a~23 195
999 COSIND_N/A 195
201 ESForwSacShort 195
999 WORDS_mis~24 139
999 WORDFREQ_245.68 139
999 WORDSALL_a~23_mis~24 139
999 COSIND_0.06 139
999 COSGEN_0.06 139
201 ESForwSacShort 139
999 WORDS_orbite~26 134
999 WORDFREQ_2.64 134
999 WORDSALL_sur~25_orbite~26 134
999 COSIND_0.75 134
999 COSGEN_0.75 134
202 ESForwSacLong+2+5 134
200 ESRankN 134
199 ESRankNMinus1 139
198 ESRankNMinus2 195
197 ESRankNMinus3 241
196 ESRankNMinus4 166
195 ESRankNMinus5 178
194 ESRankNMinus6 395
193 ESRankNMinus7 201
192 ESRankNMinus8 227
191 ESRankNMinus9 293
190 ESRankNMinus10 199
