# 204 Fixation 1 (330.4,293): Ces~0 combats~1
# 171 Fixation 2 (460,273.1): qui~2 remettent~4
# 140 Fixation 3 (535,272.6): ne~3 remettent~4
# 155 Fixation 4 (320.4,279.9): Ces~0 combats~1
# 140 Fixation 5 (265.6,284.2): Ces~0 combats~1
# 327 Fixation 6 (517,271.1): ne~3 remettent~4
# 187 Fixation 7 (652.4,281.8): pas~5 cause~7
# 173 Fixation 8 (698.9,284.1): pas~5 cause~7
# 141 Fixation 9 (610.5,280.9): remettent~4
# 116 Fixation 10 (670.5,284.6): pas~5 cause~7
# 140 Fixation 11 (350.9,334.8): suprématie~9
# 202 Fixation 12 (299.5,340.4): la~8 suprématie~9
# 243 Fixation 13 (461.7,339.9): des~10 talibans~11
# 231 Fixation 14 (492.8,338.5): des~10 talibans~11
# 316 Fixation 15 (532.9,340): talibans~11
# 188 Fixation 16 (518.4,275.5): ne~3 remettent~4
# 265 Fixation 17 (362.9,277.7): combats~1
# 320 Fixation 18 (532.4,332.7): talibans~11
# 140 Fixation 19 (378,373.8): suprématie~9
# 258 Fixation 20 (465.2,341.1): des~10 talibans~11
# 215 Fixation 21 (339.9,344.6): suprématie~9
# 155 Fixation 22 (547.5,295.1): ne~3 remettent~4
# 243 Fixation 23 (521.6,318.1): talibans~11
# 248 Fixation 24 (327.1,412.2): l'Afghanistan~13
# 186 Fixation 25 (513.6,405.4): prouvent~14
# 232 Fixation 26 (630.3,396.2): que~15 l'état-major~16
# 94 Fixation 27 (695.6,398.9): l'état-major~16
# 145 Fixation 28 (486.8,403.2): prouvent~14
# 227 Fixation 29 (340,468.2): veut~17 peut~19
# 105 Fixation 30 (433.6,461.1): peut~19 maintenir~20
# 186 Fixation 31 (281.1,457): veut~17
# 101 Fixation 32 (414.1,464): peut~19 maintenir~20
# 116 Fixation 33 (566.3,465.8): la~21 pression~22
# 187 Fixation 34 (640.6,468.5): pression~22
# 255 Fixation 35 (439.9,463.4): peut~19 maintenir~20
# 190 Fixation 36 (374.1,461.1): et~18 peut~19
# 139 Fixation 37 (309.2,512): adversaires~25
# 82 Fixation 38 (668.3,470.7): pression~22
# 89 Fixation 39 (703.4,448.9): pression~22
# 216 Fixation 40 (542.6,305.1): ne~3 remettent~4
# 276 Fixation 41 (405.6,288): combats~1
# 180 Fixation 42 (545.9,268.6): ne~3 remettent~4
# 308 Fixation 43 (484.4,342.3): des~10 talibans~11
%%
# Ces~0 Fixations= "5/"
# combats~1 Fixations= "41/"
# qui~2 Fixations= "2/"
# ne~3 Fixations= "42/"
# remettent~4 Fixations= "42/"
# pas~5 Fixations= "10/"
# en~6 Fixations= ""
# cause~7 Fixations= "10/"
# la~8 Fixations= "12/"
# suprématie~9 Fixations= "21/"
# des~10 Fixations= "43/"
# talibans~11 Fixations= "43/"
# sur~12 Fixations= ""
# l'Afghanistan~13 Fixations= "24/"
# prouvent~14 Fixations= "28/"
# que~15 Fixations= "26/"
# l'état-major~16 Fixations= "27/"
# veut~17 Fixations= "31/"
# et~18 Fixations= "36/"
# peut~19 Fixations= "36/"
# maintenir~20 Fixations= "35/"
# la~21 Fixations= "33/"
# pression~22 Fixations= "39/"
# sur~23 Fixations= ""
# ses~24 Fixations= ""
# adversaires~25 Fixations= "37/"
%%
#  CES[5] COMBATS[41] QUI[2] NE[42] REMETTENT[42] PAS[10] en CAUSE[10] LA[12] SUPRéMATIE[21] DES[43] TALIBANS[43] sur L'AFGHANISTAN[24] PROUVENT[28] QUE[26] L'éTAT-MAJOR[27] VEUT[31] ET[36] PEUT[36] MAINTENIR[35] LA[33] PRESSION[39] sur ses ADVERSAIRES[37]
# s04 chef_russie-m1 PercentageOfWordsProcessed= 0.846153846153846 PercentageOfWordsReallyProcessed= 0.846153846153846
