999 WORDS_formule~1 182
999 WORDFREQ_22.84 182
999 WORDSALL_La~0_formule~1 182
999 COSIND_0.07 182
999 COSGEN_0.07 182
101 ESRank1 182
999 WORDS_réclamé~4 182
999 WORDFREQ_2.64 182
999 WORDSALL_1~2_a~3_réclamé~4 182
999 COSIND_0.02 182
999 COSGEN_0.02 182
102 ESRank2 182
202 ESForwSacLong+3+5 182
999 WORDS_pilotes~7 241
999 WORDFREQ_3.11 241
999 WORDSALL_de~5_pilotes~7 241
999 COSIND_0.26 241
999 COSGEN_0.26 241
103 ESRank3 241
202 ESForwSacLong+3+8 241
999 WORDS_soient~9 130
999 WORDFREQ_32.03 130
999 WORDSALL_qu'ils~8_soient~9 130
999 COSIND_0.04 130
999 COSGEN_0.04 130
104 ESRank4 130
202 ESForwSacLong+2+8 130
999 WORDS_qu'ils~8 162
999 WORDFREQ_N/A 162
999 WORDSALL_qu'ils~8 162
999 COSIND_N/A 162
105 ESRank5 162
205 ESBackSacRegrShort 162
999 WORDS_soient~9 197
999 WORDFREQ_32.03 197
999 WORDSALL_soient~9 197
999 COSIND_0.04 197
999 COSGEN_0.04 197
106 ESRank6 197
201 ESForwSacShort 197
999 WORDS_pilotes~7 262
999 WORDFREQ_3.11 262
999 WORDSALL_ses~6_pilotes~7 262
999 COSIND_0.26 262
999 COSGEN_0.26 262
107 ESRank7 262
206 ESBackSacRegrLong-2-8 262
999 WORDS_soient~9 134
999 WORDFREQ_32.03 134
999 WORDSALL_qu'ils~8_soient~9 134
999 COSIND_0.04 134
999 COSGEN_0.04 134
108 ESRank8 134
202 ESForwSacLong+2+8 134
999 WORDS_soient~9 115
999 WORDFREQ_32.03 115
999 WORDSALL_soient~9 115
999 COSIND_0.04 115
999 COSGEN_0.04 115
109 ESRank9 115
203 ESBackSacRefixation 115
999 WORDS_plus~11 138
999 WORDFREQ_5014.53 138
999 WORDSALL_les~10_plus~11 138
999 COSIND_0.01 138
999 COSGEN_0.01 138
110 ESRank10 138
202 ESForwSacLong+2+5 138
999 WORDS_plus~11 81
999 WORDFREQ_5014.53 81
999 WORDSALL_les~10_plus~11 81
999 COSIND_0.01 81
999 COSGEN_0.01 81
111 ESRank11 81
203 ESBackSacRefixation 81
999 WORDS_rapides~12 154
999 WORDFREQ_17.84 154
999 WORDSALL_plus~11_rapides~12 154
999 COSIND_0.07 154
999 COSGEN_0.07 154
112 ESRank12 154
201 ESForwSacShort 154
999 WORDS_à~13 162
999 WORDFREQ_19209.05 162
999 WORDSALL_rapides~12_à~13 162
999 COSIND_N/A 162
113 ESRank13 162
201 ESForwSacShort 162
999 WORDS_moment~15 252
999 WORDFREQ_611.62 252
999 WORDSALL_moment~15 252
999 COSIND_0.09 252
999 COSGEN_0.09 252
114 ESRank14 252
202 ESForwSacLong+2+6 252
999 WORDS_discipline~17 395
999 WORDFREQ_20.27 395
999 WORDSALL_la~16_discipline~17 395
999 COSIND_0.13 395
999 COSGEN_0.13 395
115 ESRank15 395
202 ESForwSacLong+2+4 395
999 WORDS_discipline~17 206
999 WORDFREQ_20.27 206
999 WORDSALL_discipline~17 206
999 COSIND_0.13 206
999 COSGEN_0.13 206
116 ESRank16 206
203 ESBackSacRefixation 206
999 WORDS_reine~18 153
999 WORDFREQ_30 153
999 WORDSALL_reine~18 153
999 COSIND_0.09 153
999 COSGEN_0.09 153
117 ESRank17 153
201 ESForwSacShort 153
999 WORDS_sport~20 151
999 WORDFREQ_15.54 151
999 WORDSALL_du~19_sport~20 151
999 COSIND_0.11 151
999 COSGEN_0.11 151
118 ESRank18 151
202 ESForwSacLong+2+4 151
999 WORDS_reine~18 232
999 WORDFREQ_30 232
999 WORDSALL_reine~18 232
999 COSIND_0.09 232
999 COSGEN_0.09 232
119 ESRank19 232
206 ESBackSacRegrLong-2-4 232
999 WORDS_automobile~21 156
999 WORDFREQ_4.86 156
999 WORDSALL_automobile~21 156
999 COSIND_0.06 156
999 COSGEN_0.06 156
120 ESRank20 156
202 ESForwSacLong+3+10 156
999 WORDS_automobile~21 168
999 WORDFREQ_4.86 168
999 WORDSALL_automobile~21 168
999 COSIND_0.06 168
999 COSGEN_0.06 168
203 ESBackSacRefixation 168
999 WORDS_exige~22 227
999 WORDFREQ_14.53 227
999 WORDSALL_exige~22 227
999 COSIND_0.08 227
999 COSGEN_0.08 227
201 ESForwSacShort 227
999 WORDS_exige~22 184
999 WORDFREQ_14.53 184
999 WORDSALL_exige~22 184
999 COSIND_0.08 184
999 COSGEN_0.08 184
203 ESBackSacRefixation 184
999 WORDS_parfois~23 116
999 WORDFREQ_287.36 116
999 WORDSALL_parfois~23 116
999 COSIND_N/A 116
201 ESForwSacShort 116
999 WORDS_conducteurs~26 162
999 WORDFREQ_3.24 162
999 WORDSALL_ses~25_conducteurs~26 162
999 COSIND_0.12 162
999 COSGEN_0.12 162
202 ESForwSacLong+3+8 162
999 WORDS_conducteurs~26 103
999 WORDFREQ_3.24 103
999 WORDSALL_ses~25_conducteurs~26 103
999 COSIND_0.12 103
999 COSGEN_0.12 103
203 ESBackSacRefixation 103
200 ESRankN 103
199 ESRankNMinus1 162
198 ESRankNMinus2 116
197 ESRankNMinus3 184
196 ESRankNMinus4 227
195 ESRankNMinus5 168
194 ESRankNMinus6 156
193 ESRankNMinus7 232
192 ESRankNMinus8 151
191 ESRankNMinus9 153
190 ESRankNMinus10 206
