# 164 Fixation 1 (341.5,315): problème~1
# 221 Fixation 2 (317.7,286.8): Le~0 problème~1
# 140 Fixation 3 (304.1,285.7): Le~0 problème~1
# 215 Fixation 4 (427.9,286.3): que~2 devra~3
# 230 Fixation 5 (492.3,278.6): devra~3
# 208 Fixation 6 (544.3,278.5): devra~3 gérer~4
# 174 Fixation 7 (640.6,276): le~5 gouvernement~6
# 220 Fixation 8 (583.4,274.9): gérer~4
# 137 Fixation 9 (558.4,270.5): devra~3 gérer~4
# 117 Fixation 10 (618.1,270.3): gérer~4
# 317 Fixation 11 (306.4,353.2): est~7 canaliser~9
# 264 Fixation 12 (357.5,347): de~8 canaliser~9
# 231 Fixation 13 (285.4,345.1): est~7 canaliser~9
# 156 Fixation 14 (266.4,347.8): est~7 canaliser~9
# 336 Fixation 15 (488.6,346.8): le~10 retour~11
# 329 Fixation 16 (627.1,346.3): des~12 sinistrés~13
# 296 Fixation 17 (652.4,337.5): des~12 sinistrés~13
# 155 Fixation 18 (606.6,338.5): retour~11
# 160 Fixation 19 (362.6,419.5): les~15 familles~16
# 212 Fixation 20 (267,416.1): dans~14 familles~16
# 259 Fixation 21 (486.3,407.1): familles~16 d'accueil~17
# 174 Fixation 22 (541,412): d'accueil~17
# 315 Fixation 23 (651.7,414): Le~18 préalable~19
# 137 Fixation 24 (681.2,409.2): Le~18 préalable~19
# 320 Fixation 25 (374.5,465): leur~21 identification~22
# 207 Fixation 26 (459.5,510.5): d'identité~29
%%
# Le~0 Fixations= "3/"
# problème~1 Fixations= "3/"
# que~2 Fixations= "4/"
# devra~3 Fixations= "9/"
# gérer~4 Fixations= "10/"
# le~5 Fixations= "7/"
# gouvernement~6 Fixations= "7/"
# est~7 Fixations= "14/"
# de~8 Fixations= "12/"
# canaliser~9 Fixations= "14/"
# le~10 Fixations= "15/"
# retour~11 Fixations= "18/"
# des~12 Fixations= "17/"
# sinistrés~13 Fixations= "17/"
# dans~14 Fixations= "20/"
# les~15 Fixations= "19/"
# familles~16 Fixations= "21/"
# d'accueil~17 Fixations= "22/"
# Le~18 Fixations= "24/"
# préalable~19 Fixations= "24/"
# est~20 Fixations= ""
# leur~21 Fixations= "25/"
# identification~22 Fixations= "25/"
# car~23 Fixations= ""
# ils~24 Fixations= ""
# n'ont~25 Fixations= ""
# plus~26 Fixations= ""
# de~27 Fixations= ""
# pièce~28 Fixations= ""
# d'identité~29 Fixations= "26/"
%%
#  LE[3] PROBLèME[3] QUE[4] DEVRA[9] GéRER[10] LE[7] GOUVERNEMENT[7] EST[14] DE[12] CANALISER[14] LE[15] RETOUR[18] DES[17] SINISTRéS[17] DANS[20] LES[19] FAMILLES[21] D'ACCUEIL[22] LE[24] PRéALABLE[24] est LEUR[25] IDENTIFICATION[25] car ils n'ont plus de pièce D'IDENTITé[26]
# s14 associations_humanitaires-m2 PercentageOfWordsProcessed= 0.766666666666667 PercentageOfWordsReallyProcessed= 0.766666666666667
