# 130 Fixation 1 (192.9,291.2): La~0 Patagonie~1 Coincée~6
# 263 Fixation 2 (286.5,277): La~0 Patagonie~1
# 155 Fixation 3 (375.9,256.8): Patagonie~1
# 231 Fixation 4 (426,257.6): Patagonie~1 chilienne~2
# 192 Fixation 5 (597.8,222.6): est~3 mal~4
# 105 Fixation 6 (630,220.8): est~3 mal~4
# 180 Fixation 7 (300.3,332.6): La~0 Patagonie~1 Coincée~6
# 211 Fixation 8 (259.5,345.6): La~0 Patagonie~1 Coincée~6
# 129 Fixation 9 (446.4,367.4): entre~7 cordillère~9 Pacifique~14
# 164 Fixation 10 (382.8,400.5): entre~7 cordillère~9 Pacifique~14
# 205 Fixation 11 (271.7,415.7): l'océan~13
# 255 Fixation 12 (327.7,483.5): de~19 grands~20
%%
# La~0 Fixations= "8/"
# Patagonie~1 Fixations= "8/"
# chilienne~2 Fixations= "4/"
# est~3 Fixations= "6/"
# mal~4 Fixations= "6/"
# connue~5 Fixations= ""
# Coincée~6 Fixations= "8/"
# entre~7 Fixations= "10/"
# la~8 Fixations= ""
# cordillère~9 Fixations= "10/"
# des~10 Fixations= ""
# Andes~11 Fixations= ""
# et~12 Fixations= ""
# l'océan~13 Fixations= "11/"
# Pacifique~14 Fixations= "10/"
# elle~15 Fixations= ""
# séduit~16 Fixations= ""
# les~17 Fixations= ""
# amateurs~18 Fixations= ""
# de~19 Fixations= "12/"
# grands~20 Fixations= "12/"
# espaces~21 Fixations= ""
# de~22 Fixations= ""
# solitude~23 Fixations= ""
# et~24 Fixations= ""
# de~25 Fixations= ""
# paysages~26 Fixations= ""
# grandioses~27 Fixations= ""
%%
#  LA[8] PATAGONIE[8] CHILIENNE[4] EST[6] MAL[6] connue COINCéE[8] ENTRE[10] la CORDILLèRE[10] des Andes et L'OCéAN[11] PACIFIQUE[10] elle séduit les amateurs DE[12] GRANDS[12] espaces de solitude et de paysages grandioses
# s20 tribunal_international-a2 PercentageOfWordsProcessed= 0.428571428571429 PercentageOfWordsReallyProcessed= 0.571428571428571
