999 WORDS_revenu~1 92
999 WORDFREQ_2.23 92
999 WORDSALL_Le~0_revenu~1 92
999 COSIND_0.33 92
999 COSGEN_0.33 92
101 ESRank1 92
999 WORDS_moyen~2 265
999 WORDFREQ_28.24 265
999 WORDSALL_revenu~1_moyen~2 265
999 COSIND_0.01 265
999 COSGEN_0.01 265
102 ESRank2 265
201 ESForwSacShort 265
999 WORDS_imposable~3 238
999 WORDFREQ_0.07 238
999 WORDSALL_moyen~2_imposable~3 238
999 COSIND_0.34 238
999 COSGEN_0.34 238
103 ESRank3 238
201 ESForwSacShort 238
999 WORDS_imposable~3 147
999 WORDFREQ_0.07 147
999 WORDSALL_imposable~3 147
999 COSIND_0.34 147
999 COSGEN_0.34 147
104 ESRank4 147
203 ESBackSacRefixation 147
999 WORDS_foyer~5 132
999 WORDFREQ_25.81 132
999 WORDSALL_par~4_foyer~5 132
999 COSIND_0.27 132
999 COSGEN_0.27 132
105 ESRank5 132
202 ESForwSacLong+2+5 132
999 WORDS_fiscal~6 264
999 WORDFREQ_0.14 264
999 WORDSALL_foyer~5_fiscal~6 264
999 COSIND_0.29 264
999 COSGEN_0.29 264
106 ESRank6 264
201 ESForwSacShort 264
999 WORDS_fiscal~6 195
999 WORDFREQ_0.14 195
999 WORDSALL_foyer~5_fiscal~6 195
999 COSIND_0.29 195
999 COSGEN_0.29 195
107 ESRank7 195
203 ESBackSacRefixation 195
999 WORDS_plus~9 186
999 WORDFREQ_5014.53 186
999 WORDSALL_est~7_plus~9 186
999 COSIND_0.03 186
999 COSGEN_0.03 186
108 ESRank8 186
202 ESForwSacLong+3+8 186
999 WORDS_plus~9 138
999 WORDFREQ_5014.53 138
999 WORDSALL_le~8_plus~9 138
999 COSIND_0.03 138
999 COSGEN_0.03 138
109 ESRank9 138
203 ESBackSacRefixation 138
999 WORDS_faible~10 135
999 WORDFREQ_40.95 135
999 WORDSALL_faible~10 135
999 COSIND_0.17 135
999 COSGEN_0.17 135
110 ESRank10 135
201 ESForwSacShort 135
999 WORDS_faible~10 137
999 WORDFREQ_40.95 137
999 WORDSALL_plus~9_faible~10 137
999 COSIND_0.17 137
999 COSGEN_0.17 137
111 ESRank11 137
203 ESBackSacRefixation 137
999 WORDS_communes~12 207
999 WORDFREQ_2.57 207
999 WORDSALL_des~11_communes~12 207
999 COSIND_0.19 207
999 COSGEN_0.19 207
112 ESRank12 207
202 ESForwSacLong+2+5 207
999 WORDS_communes~12 144
999 WORDFREQ_2.57 144
999 WORDSALL_communes~12 144
999 COSIND_0.19 144
999 COSGEN_0.19 144
113 ESRank13 144
203 ESBackSacRefixation 144
999 WORDS_l'agglomération~14 157
999 WORDFREQ_1.62 157
999 WORDSALL_l'agglomération~14 157
999 COSIND_0.30 157
999 COSGEN_0.30 157
114 ESRank14 157
202 ESForwSacLong+2+4 157
999 WORDS_l'agglomération~14 130
999 WORDFREQ_1.62 130
999 WORDSALL_l'agglomération~14 130
999 COSIND_0.30 130
999 COSGEN_0.30 130
115 ESRank15 130
203 ESBackSacRefixation 130
999 WORDS_l'agglomération~14 134
999 WORDFREQ_1.62 134
999 WORDSALL_l'agglomération~14 134
999 COSIND_0.30 134
999 COSGEN_0.30 134
116 ESRank16 134
203 ESBackSacRefixation 134
999 WORDS_Riches-pauvres~15 132
999 WORDFREQ_N/A 132
999 WORDSALL_Riches-pauvres~15 132
999 COSIND_N/A 132
117 ESRank17 132
201 ESForwSacShort 132
999 WORDS_Riches-pauvres~15 99
999 WORDFREQ_N/A 99
999 WORDSALL_Riches-pauvres~15 99
999 COSIND_N/A 99
118 ESRank18 99
203 ESBackSacRefixation 99
999 WORDS_Riches-pauvres~15 215
999 WORDFREQ_N/A 215
999 WORDSALL_Riches-pauvres~15 215
999 COSIND_N/A 215
119 ESRank19 215
203 ESBackSacRefixation 215
999 WORDS_on~16 155
999 WORDFREQ_4838.38 155
999 WORDSALL_on~16 155
999 COSIND_N/A 155
120 ESRank20 155
201 ESForwSacShort 155
999 WORDS_n'échappe~17 235
999 WORDFREQ_18.65 235
999 WORDSALL_n'échappe~17 235
999 COSIND_-0.02 235
999 COSGEN_-0.02 235
201 ESForwSacShort 235
999 WORDS_face-à-face~20 229
999 WORDFREQ_0.47 229
999 WORDSALL_pas~18_face-à-face~20 229
999 COSIND_N/A 229
202 ESForwSacLong+3+8 229
999 WORDS_face-à-face~20 180
999 WORDFREQ_0.47 180
999 WORDSALL_face-à-face~20 180
999 COSIND_N/A 180
203 ESBackSacRefixation 180
999 WORDS_C'est~21 138
999 WORDFREQ_6331.76 138
999 WORDSALL_C'est~21 138
999 COSIND_0.03 138
999 COSGEN_0.03 138
201 ESForwSacShort 138
999 WORDS_C'est~21 100
999 WORDFREQ_6331.76 100
999 WORDSALL_C'est~21 100
999 COSIND_0.03 100
999 COSGEN_0.03 100
203 ESBackSacRefixation 100
999 WORDS_embrase~24 119
999 WORDFREQ_1.01 119
999 WORDSALL_qui~23_embrase~24 119
999 COSIND_0.07 119
999 COSGEN_0.07 119
202 ESForwSacLong+3+11 119
999 WORDS_embrase~24 84
999 WORDFREQ_1.01 84
999 WORDSALL_qui~23_embrase~24 84
999 COSIND_0.07 84
999 COSGEN_0.07 84
203 ESBackSacRefixation 84
999 WORDS_embrase~24 152
999 WORDFREQ_1.01 152
999 WORDSALL_embrase~24 152
999 COSIND_0.07 152
999 COSGEN_0.07 152
203 ESBackSacRefixation 152
999 WORDS_plupart~26 179
999 WORDFREQ_0.07 179
999 WORDSALL_la~25_plupart~26 179
999 COSIND_0.01 179
999 COSGEN_0.01 179
202 ESForwSacLong+2+4 179
999 WORDS_plupart~26 86
999 WORDFREQ_0.07 86
999 WORDSALL_la~25_plupart~26 86
999 COSIND_0.01 86
999 COSGEN_0.01 86
203 ESBackSacRefixation 86
999 WORDS_convulsions~28 94
999 WORDFREQ_4.32 94
999 WORDSALL_plupart~26_convulsions~28 94
999 COSIND_-0.14 94
999 COSGEN_-0.14 94
202 ESForwSacLong+2+5 94
999 WORDS_convulsions~28 178
999 WORDFREQ_4.32 178
999 WORDSALL_convulsions~28 178
999 COSIND_-0.14 178
999 COSGEN_-0.14 178
203 ESBackSacRefixation 178
999 WORDS_convulsions~28 107
999 WORDFREQ_4.32 107
999 WORDSALL_convulsions~28 107
999 COSIND_-0.14 107
999 COSGEN_-0.14 107
203 ESBackSacRefixation 107
999 WORDS_l'histoire~30 191
999 WORDFREQ_292.23 191
999 WORDSALL_l'histoire~30 191
999 COSIND_0.04 191
999 COSGEN_0.04 191
202 ESForwSacLong+2+4 191
999 WORDS_l'histoire~30 91
999 WORDFREQ_292.23 91
999 WORDSALL_l'histoire~30 91
999 COSIND_0.04 91
999 COSGEN_0.04 91
203 ESBackSacRefixation 91
999 WORDS_plus~9 199
999 WORDFREQ_5014.53 199
999 WORDSALL_le~8_plus~9 199
999 COSIND_0.03 199
999 COSGEN_0.03 199
206 ESBackSacRegrLong-21-144 199
999 WORDS_Riches-pauvres~15 153
999 WORDFREQ_N/A 153
999 WORDSALL_Riches-pauvres~15 153
999 COSIND_N/A 153
202 ESForwSacLong+6+41 153
999 WORDS_Riches-pauvres~15 216
999 WORDFREQ_N/A 216
999 WORDSALL_Riches-pauvres~15 216
999 COSIND_N/A 216
203 ESBackSacRefixation 216
999 WORDS_Riches-pauvres~15 277
999 WORDFREQ_N/A 277
999 WORDSALL_Riches-pauvres~15 277
999 COSIND_N/A 277
203 ESBackSacRefixation 277
200 ESRankN 277
199 ESRankNMinus1 216
198 ESRankNMinus2 153
197 ESRankNMinus3 199
196 ESRankNMinus4 91
195 ESRankNMinus5 191
194 ESRankNMinus6 107
193 ESRankNMinus7 178
192 ESRankNMinus8 94
191 ESRankNMinus9 86
190 ESRankNMinus10 179
