999 WORDS_galeries~1 140
999 WORDFREQ_10.95 140
999 WORDSALL_Les~0_galeries~1 140
999 COSIND_0.82 140
999 COSGEN_0.82 140
101 ESRank1 140
999 WORDS_d'anatomie~2 144
999 WORDFREQ_4.66 144
999 WORDSALL_d'anatomie~2 144
999 COSIND_0.06 144
999 COSGEN_0.06 144
102 ESRank2 144
201 ESForwSacShort 144
999 WORDS_comparée~3 181
999 WORDFREQ_0.07 181
999 WORDSALL_comparée~3 181
999 COSIND_0.01 181
999 COSGEN_0.01 181
103 ESRank3 181
201 ESForwSacShort 181
999 WORDS_comparée~3 81
999 WORDFREQ_0.07 81
999 WORDSALL_comparée~3 81
999 COSIND_0.01 81
999 COSGEN_0.01 81
104 ESRank4 81
203 ESBackSacRefixation 81
999 WORDS_paléontologie~6 254
999 WORDFREQ_0.14 254
999 WORDSALL_paléontologie~6 254
999 COSIND_0.10 254
999 COSGEN_0.10 254
105 ESRank5 254
202 ESForwSacLong+3+7 254
999 WORDS_musée~8 141
999 WORDFREQ_21.55 141
999 WORDSALL_musée~8 141
999 COSIND_0.86 141
999 COSGEN_0.86 141
106 ESRank6 141
202 ESForwSacLong+2+4 141
999 WORDS_national~9 98
999 WORDFREQ_42.7 98
999 WORDSALL_national~9 98
999 COSIND_-0.01 98
999 COSGEN_-0.01 98
107 ESRank7 98
201 ESForwSacShort 98
999 WORDS_d'histoire~10 137
999 WORDFREQ_292.23 137
999 WORDSALL_d'histoire~10 137
999 COSIND_0.02 137
999 COSGEN_0.02 137
108 ESRank8 137
201 ESForwSacShort 137
999 WORDS_naturelle~11 156
999 WORDFREQ_24.86 156
999 WORDSALL_naturelle~11 156
999 COSIND_0.09 156
999 COSGEN_0.09 156
109 ESRank9 156
201 ESForwSacShort 156
999 WORDS_naturelle~11 97
999 WORDFREQ_24.86 97
999 WORDSALL_naturelle~11 97
999 COSIND_0.09 97
999 COSGEN_0.09 97
110 ESRank10 97
203 ESBackSacRefixation 97
999 WORDS_nouveau~14 161
999 WORDFREQ_190.47 161
999 WORDSALL_de~13_nouveau~14 161
999 COSIND_0.03 161
999 COSGEN_0.03 161
111 ESRank11 161
202 ESForwSacLong+3+9 161
999 WORDS_ouvertes~15 127
999 WORDFREQ_15.14 127
999 WORDSALL_ouvertes~15 127
999 COSIND_N/A 127
112 ESRank12 127
201 ESForwSacShort 127
999 WORDS_public~17 151
999 WORDFREQ_37.91 151
999 WORDSALL_public~17 151
999 COSIND_-0.02 151
999 COSGEN_-0.02 151
113 ESRank13 151
202 ESForwSacLong+2+4 151
999 WORDS_18~20 119
999 WORDFREQ_N/A 119
999 WORDSALL_le~19_18~20 119
999 COSIND_N/A 119
114 ESRank14 119
202 ESForwSacLong+3+11 119
999 WORDS_décembre~21 86
999 WORDFREQ_31.15 86
999 WORDSALL_18~20_décembre~21 86
999 COSIND_0.03 86
999 COSGEN_0.03 86
115 ESRank15 86
201 ESForwSacShort 86
999 WORDS_trois~23 141
999 WORDFREQ_660.34 141
999 WORDSALL_après~22_trois~23 141
999 COSIND_0.01 141
999 COSGEN_0.01 141
116 ESRank16 141
202 ESForwSacLong+2+8 141
999 WORDS_travaux~26 188
999 WORDFREQ_39.46 188
999 WORDSALL_mois~24_travaux~26 188
999 COSIND_-0.01 188
999 COSGEN_-0.01 188
117 ESRank17 188
202 ESForwSacLong+3+9 188
999 WORDS_mois~24 160
999 WORDFREQ_304.86 160
999 WORDSALL_mois~24 160
999 COSIND_-0.02 160
999 COSGEN_-0.02 160
118 ESRank18 160
206 ESBackSacRegrLong-2-4 160
999 WORDS_ouvertes~15 145
999 WORDFREQ_15.14 145
999 WORDSALL_ouvertes~15 145
999 COSIND_N/A 145
119 ESRank19 145
206 ESBackSacRegrLong-9-47 145
200 ESRankN 145
199 ESRankNMinus1 160
198 ESRankNMinus2 188
197 ESRankNMinus3 141
196 ESRankNMinus4 86
195 ESRankNMinus5 119
194 ESRankNMinus6 151
193 ESRankNMinus7 127
192 ESRankNMinus8 161
191 ESRankNMinus9 97
190 ESRankNMinus10 156
