999 WORDS_raison~1 169
999 WORDFREQ_247.5 169
999 WORDSALL_En~0_raison~1 169
999 COSIND_0.01 169
999 COSGEN_0.01 169
101 ESRank1 169
999 WORDS_raison~1 133
999 WORDFREQ_247.5 133
999 WORDSALL_En~0_raison~1 133
999 COSIND_0.01 133
999 COSGEN_0.01 133
102 ESRank2 133
203 ESBackSacRefixation 133
999 WORDS_travaux~3 282
999 WORDFREQ_39.46 282
999 WORDSALL_des~2_travaux~3 282
999 COSIND_-0.01 282
999 COSGEN_-0.01 282
103 ESRank3 282
202 ESForwSacLong+2+5 282
999 WORDS_entrepris~4 430
999 WORDFREQ_10.74 430
999 WORDSALL_travaux~3_entrepris~4 430
999 COSIND_0.04 430
999 COSGEN_0.04 430
104 ESRank4 430
201 ESForwSacShort 430
999 WORDS_entrepris~4 229
999 WORDFREQ_10.74 229
999 WORDSALL_entrepris~4 229
999 COSIND_0.04 229
999 COSGEN_0.04 229
105 ESRank5 229
203 ESBackSacRefixation 229
999 WORDS_l'aile~6 272
999 WORDFREQ_20.47 272
999 WORDSALL_dans~5_l'aile~6 272
999 COSIND_0.18 272
999 COSGEN_0.18 272
106 ESRank6 272
202 ESForwSacLong+2+6 272
999 WORDS_l'aile~6 183
999 WORDFREQ_20.47 183
999 WORDSALL_dans~5_l'aile~6 183
999 COSIND_0.18 183
999 COSGEN_0.18 183
107 ESRank7 183
203 ESBackSacRefixation 183
999 WORDS_nord~7 449
999 WORDFREQ_11.89 449
999 WORDSALL_nord~7 449
999 COSIND_0.03 449
999 COSGEN_0.03 449
108 ESRank8 449
201 ESForwSacShort 449
999 WORDS_château~9 244
999 WORDFREQ_63.38 244
999 WORDSALL_du~8_château~9 244
999 COSIND_0.13 244
999 COSGEN_0.13 244
109 ESRank9 244
202 ESForwSacLong+2+4 244
999 WORDS_Versailles~11 167
999 WORDFREQ_N/A 167
999 WORDSALL_château~9_Versailles~11 167
999 COSIND_N/A 167
110 ESRank10 167
202 ESForwSacLong+2+4 167
999 WORDS_château~9 285
999 WORDFREQ_63.38 285
999 WORDSALL_du~8_château~9 285
999 COSIND_0.13 285
999 COSGEN_0.13 285
111 ESRank11 285
206 ESBackSacRegrLong-2-4 285
999 WORDS_Versailles~11 202
999 WORDFREQ_N/A 202
999 WORDSALL_de~10_Versailles~11 202
999 COSIND_N/A 202
112 ESRank12 202
202 ESForwSacLong+2+4 202
999 WORDS_salles~13 352
999 WORDFREQ_18.18 352
999 WORDSALL_les~12_salles~13 352
999 COSIND_0.15 352
999 COSGEN_0.15 352
113 ESRank13 352
202 ESForwSacLong+2+5 352
999 WORDS_croisades~15 518
999 WORDFREQ_2.97 518
999 WORDSALL_des~14_croisades~15 518
999 COSIND_-0.04 518
999 COSGEN_-0.04 518
114 ESRank14 518
202 ESForwSacLong+2+5 518
999 WORDS_circuit~18 211
999 WORDFREQ_7.77 211
999 WORDSALL_et~16_circuit~18 211
999 COSIND_0.01 211
999 COSGEN_0.01 211
115 ESRank15 211
202 ESForwSacLong+3+7 211
999 WORDS_circuit~18 251
999 WORDFREQ_7.77 251
999 WORDSALL_le~17_circuit~18 251
999 COSIND_0.01 251
999 COSGEN_0.01 251
116 ESRank16 251
203 ESBackSacRefixation 251
999 WORDS_font~23 212
999 WORDFREQ_153.92 212
999 WORDSALL_qui~22_font~23 212
999 COSIND_0.02 212
999 COSGEN_0.02 212
117 ESRank17 212
202 ESForwSacLong+5+22 212
999 WORDS_font~23 339
999 WORDFREQ_153.92 339
999 WORDSALL_siècle~21_font~23 339
999 COSIND_0.02 339
999 COSGEN_0.02 339
118 ESRank18 339
203 ESBackSacRefixation 339
999 WORDS_partie~24 226
999 WORDFREQ_187.97 226
999 WORDSALL_font~23_partie~24 226
999 COSIND_0.03 226
999 COSGEN_0.03 226
119 ESRank19 226
201 ESForwSacShort 226
999 WORDS_musée~26 303
999 WORDFREQ_21.55 303
999 WORDSALL_du~25_musée~26 303
999 COSIND_0.86 303
999 COSGEN_0.86 303
120 ESRank20 303
202 ESForwSacLong+2+4 303
999 WORDS_l'histoire~28 261
999 WORDFREQ_292.23 261
999 WORDSALL_l'histoire~28 261
999 COSIND_0.02 261
999 COSGEN_0.02 261
202 ESForwSacLong+2+4 261
999 WORDS_France~30 171
999 WORDFREQ_N/A 171
999 WORDSALL_de~29_France~30 171
999 COSIND_N/A 171
202 ESForwSacLong+2+4 171
999 WORDS_seront~31 291
999 WORDFREQ_23.99 291
999 WORDSALL_seront~31 291
999 COSIND_0.06 291
999 COSGEN_0.06 291
201 ESForwSacShort 291
200 ESRankN 291
199 ESRankNMinus1 171
198 ESRankNMinus2 261
197 ESRankNMinus3 303
196 ESRankNMinus4 226
195 ESRankNMinus5 339
194 ESRankNMinus6 212
193 ESRankNMinus7 251
192 ESRankNMinus8 211
191 ESRankNMinus9 518
190 ESRankNMinus10 352
