# 176 Fixation 1 (330.3,302.7): Une~0 information~1 involontaires~5
# 134 Fixation 2 (292.9,288.3): Une~0 information~1 involontaires~5
# 126 Fixation 3 (242.2,282.1): Une~0 information~1
# 490 Fixation 4 (473.1,280): judiciaire~2
# 277 Fixation 5 (591.7,270.8): judiciaire~2
# 198 Fixation 6 (626.7,270.7): pour~3 blessures~4
# 356 Fixation 7 (597.3,267.2): judiciaire~2
# 169 Fixation 8 (673.1,270.1): pour~3 blessures~4
# 371 Fixation 9 (273.6,334): Une~0 information~1 involontaires~5
# 309 Fixation 10 (436.9,342.7): information~1 judiciaire~2 commises~6
# 320 Fixation 11 (593.3,340.9): judiciaire~2 négligences~8
# 104 Fixation 12 (509.4,403.7): commises~6 chute~14
# 151 Fixation 13 (504.7,404.4): commises~6 chute~14
# 312 Fixation 14 (487.6,444.8): après~12 chute~14 wagon~22
%%
# Une~0 Fixations= "9/"
# information~1 Fixations= "10/"
# judiciaire~2 Fixations= "11/"
# pour~3 Fixations= "8/"
# blessures~4 Fixations= "8/"
# involontaires~5 Fixations= "9/"
# commises~6 Fixations= "13/"
# par~7 Fixations= ""
# négligences~8 Fixations= "11/"
# a~9 Fixations= ""
# été~10 Fixations= ""
# ouverte~11 Fixations= ""
# après~12 Fixations= "14/"
# la~13 Fixations= ""
# chute~14 Fixations= "14/"
# d'un~15 Fixations= ""
# enfant~16 Fixations= ""
# de~17 Fixations= ""
# six~18 Fixations= ""
# ans~19 Fixations= ""
# tombé~20 Fixations= ""
# d'un~21 Fixations= ""
# wagon~22 Fixations= "14/"
# non~23 Fixations= ""
# équipé~24 Fixations= ""
# de~25 Fixations= ""
# fermetures~26 Fixations= ""
# de~27 Fixations= ""
# sécurité~28 Fixations= ""
# du~29 Fixations= ""
# train~30 Fixations= ""
# Toulouse-Paris~31 Fixations= ""
%%
#  UNE[9] INFORMATION[10] JUDICIAIRE[11] POUR[8] BLESSURES[8] INVOLONTAIRES[9] COMMISES[13] par NéGLIGENCES[11] a été ouverte APRèS[14] la CHUTE[14] d'un enfant de six ans tombé d'un WAGON[14] non équipé de fermetures de sécurité du train Toulouse-Paris
# s14 art_contemporain-a2 PercentageOfWordsProcessed= 0.34375 PercentageOfWordsReallyProcessed= 0.478260869565217
