999 WORDS_société~1 149
999 WORDFREQ_56.55 149
999 WORDSALL_La~0_société~1 149
999 COSIND_0.07 149
999 COSGEN_0.07 149
101 ESRank1 149
999 WORDS_HLM~2 85
999 WORDFREQ_N/A 85
999 WORDSALL_société~1_HLM~2 85
999 COSIND_N/A 85
102 ESRank2 85
201 ESForwSacShort 85
999 WORDS_3F~3 257
999 WORDFREQ_N/A 257
999 WORDSALL_HLM~2_3F~3 257
999 COSIND_N/A 257
103 ESRank3 257
201 ESForwSacShort 257
999 WORDS_organisé~5 152
999 WORDFREQ_7.16 152
999 WORDSALL_organisé~5 152
999 COSIND_0.12 152
999 COSGEN_0.12 152
104 ESRank4 152
202 ESForwSacLong+2+3 152
999 WORDS_organisé~5 232
999 WORDFREQ_7.16 232
999 WORDSALL_a~4_organisé~5 232
999 COSIND_0.12 232
999 COSGEN_0.12 232
105 ESRank5 232
203 ESBackSacRefixation 232
999 WORDS_formation~7 210
999 WORDFREQ_9.32 210
999 WORDSALL_une~6_formation~7 210
999 COSIND_-0.01 210
999 COSGEN_-0.01 210
106 ESRank6 210
202 ESForwSacLong+2+5 210
999 WORDS_trois~9 213
999 WORDFREQ_660.34 213
999 WORDSALL_trois~9 213
999 COSIND_-0.01 213
999 COSGEN_-0.01 213
107 ESRank7 213
202 ESForwSacLong+2+4 213
999 WORDS_trois~9 101
999 WORDFREQ_660.34 101
999 WORDSALL_de~8_trois~9 101
999 COSIND_-0.01 101
999 COSGEN_-0.01 101
108 ESRank8 101
203 ESBackSacRefixation 101
999 WORDS_réservée~11 246
999 WORDFREQ_2.36 246
999 WORDSALL_réservée~11 246
999 COSIND_0.01 246
999 COSGEN_0.01 246
109 ESRank9 246
202 ESForwSacLong+2+7 246
999 WORDS_gardiens~13 214
999 WORDFREQ_9.59 214
999 WORDSALL_aux~12_gardiens~13 214
999 COSIND_0.32 214
999 COSGEN_0.32 214
110 ESRank10 214
202 ESForwSacLong+2+5 214
999 WORDS_d'immeubles~14 139
999 WORDFREQ_17.91 139
999 WORDSALL_d'immeubles~14 139
999 COSIND_0.10 139
999 COSGEN_0.10 139
111 ESRank11 139
201 ESForwSacShort 139
999 WORDS_d'immeubles~14 144
999 WORDFREQ_17.91 144
999 WORDSALL_d'immeubles~14 144
999 COSIND_0.10 144
999 COSGEN_0.10 144
112 ESRank12 144
203 ESBackSacRefixation 144
999 WORDS_L'objectif~15 334
999 WORDFREQ_9.19 334
999 WORDSALL_L'objectif~15 334
999 COSIND_0.04 334
999 COSGEN_0.04 334
113 ESRank13 334
201 ESForwSacShort 334
999 WORDS_permettre~18 218
999 WORDFREQ_25.81 218
999 WORDSALL_est~16_permettre~18 218
999 COSIND_0.03 218
999 COSGEN_0.03 218
114 ESRank14 218
202 ESForwSacLong+3+8 218
999 WORDS_personnels~20 251
999 WORDFREQ_0.61 251
999 WORDSALL_aux~19_personnels~20 251
999 COSIND_-0.02 251
999 COSGEN_-0.02 251
115 ESRank15 251
202 ESForwSacLong+2+5 251
999 WORDS_terrain~22 239
999 WORDFREQ_64.86 239
999 WORDSALL_de~21_terrain~22 239
999 COSIND_0.17 239
999 COSGEN_0.17 239
116 ESRank16 239
202 ESForwSacLong+2+4 239
999 WORDS_garder~24 93
999 WORDFREQ_68.31 93
999 WORDSALL_de~23_garder~24 93
999 COSIND_-0.12 93
999 COSGEN_-0.12 93
117 ESRank17 93
202 ESForwSacLong+2+4 93
999 WORDS_distance~26 207
999 WORDFREQ_52.64 207
999 WORDSALL_distance~26 207
999 COSIND_-0.04 207
999 COSGEN_-0.04 207
118 ESRank18 207
202 ESForwSacLong+2+4 207
999 WORDS_nécessaire~27 110
999 WORDFREQ_48.45 110
999 WORDSALL_nécessaire~27 110
999 COSIND_0.18 110
999 COSGEN_0.18 110
119 ESRank19 110
201 ESForwSacShort 110
999 WORDS_situations~30 177
999 WORDFREQ_8.24 177
999 WORDSALL_les~29_situations~30 177
999 COSIND_0.07 177
999 COSGEN_0.07 177
120 ESRank20 177
202 ESForwSacLong+3+10 177
999 WORDS_violence~32 327
999 WORDFREQ_53.11 327
999 WORDSALL_violence~32 327
999 COSIND_0.43 327
999 COSGEN_0.43 327
202 ESForwSacLong+2+4 327
999 WORDS_personnels~20 220
999 WORDFREQ_0.61 220
999 WORDSALL_aux~19_personnels~20 220
999 COSIND_-0.02 220
999 COSGEN_-0.02 220
206 ESBackSacRegrLong-12-69 220
999 WORDS_d'immeubles~14 245
999 WORDFREQ_17.91 245
999 WORDSALL_d'immeubles~14 245
999 COSIND_0.10 245
999 COSGEN_0.10 245
206 ESBackSacRegrLong-6-33 245
200 ESRankN 245
199 ESRankNMinus1 220
198 ESRankNMinus2 327
197 ESRankNMinus3 177
196 ESRankNMinus4 110
195 ESRankNMinus5 207
194 ESRankNMinus6 93
193 ESRankNMinus7 239
192 ESRankNMinus8 251
191 ESRankNMinus9 218
190 ESRankNMinus10 334
