999 WORDS_Laure~0 123
999 WORDFREQ_N/A 123
999 WORDSALL_Laure~0 123
999 COSIND_N/A 123
101 ESRank1 123
999 WORDS_Manaudou~1 196
999 WORDFREQ_N/A 196
999 WORDSALL_Laure~0_Manaudou~1 196
999 COSIND_N/A 196
102 ESRank2 196
201 ESForwSacShort 196
999 WORDS_a~2 123
999 WORDFREQ_2926.69 123
999 WORDSALL_Manaudou~1_a~2 123
999 COSIND_N/A 123
103 ESRank3 123
201 ESForwSacShort 123
999 WORDS_remporté~3 138
999 WORDFREQ_2.84 138
999 WORDSALL_remporté~3 138
999 COSIND_-0.06 138
999 COSGEN_-0.06 138
104 ESRank4 138
201 ESForwSacShort 138
999 WORDS_médaille~5 306
999 WORDFREQ_9.53 306
999 WORDSALL_la~4_médaille~5 306
999 COSIND_-0.03 306
999 COSGEN_-0.03 306
105 ESRank5 306
202 ESForwSacLong+2+4 306
200 ESRankN 306
199 ESRankNMinus1 138
198 ESRankNMinus2 123
197 ESRankNMinus3 196
196 ESRankNMinus4 123
