# 165 Fixation 1 (264.6,287.8): L'exploit~0
# 81 Fixation 2 (348.3,284.6): L'exploit~0
# 107 Fixation 3 (442.5,283.9): de~1 Louis~2
# 177 Fixation 4 (500.7,282.4): Louis~2 Blériot~3
# 104 Fixation 5 (531.4,278.6): Blériot~3
# 151 Fixation 6 (621.7,284.5): le~4 premier~5
# 136 Fixation 7 (270.6,364): aviateur~6
# 129 Fixation 8 (288.3,356.5): aviateur~6
# 239 Fixation 9 (382,343.6): à~7 avoir~8
# 227 Fixation 10 (502.7,344): traversé~9
# 182 Fixation 11 (636,346.5): la~10 manche~11
# 165 Fixation 12 (295.4,396.6): avion~13
# 86 Fixation 13 (282.6,400.7): avion~13
# 201 Fixation 14 (267.9,400.1): avion~13
%%
# L'exploit~0 Fixations= "2/"
# de~1 Fixations= "3/"
# Louis~2 Fixations= "4/"
# Blériot~3 Fixations= "5/"
# le~4 Fixations= "6/"
# premier~5 Fixations= "6/"
# aviateur~6 Fixations= "8/"
# à~7 Fixations= "9/"
# avoir~8 Fixations= "9/"
# traversé~9 Fixations= "10/"
# la~10 Fixations= "11/"
# manche~11 Fixations= "11/"
# en~12 Fixations= ""
# avion~13 Fixations= "14/"
# en~14 Fixations= ""
# 1909~15 Fixations= ""
# a~16 Fixations= ""
# été~17 Fixations= ""
# reproduit~18 Fixations= ""
# dimanche~19 Fixations= ""
# 25~20 Fixations= ""
# juillet~21 Fixations= ""
# 90~22 Fixations= ""
# ans~23 Fixations= ""
# jour~24 Fixations= ""
# pour~25 Fixations= ""
# jour~26 Fixations= ""
# aprés~27 Fixations= ""
# par~28 Fixations= ""
# un~29 Fixations= ""
# pilote~30 Fixations= ""
# de~31 Fixations= ""
# ligne~32 Fixations= ""
# suédois~33 Fixations= ""
%%
#  L'EXPLOIT[2] DE[3] LOUIS[4] BLéRIOT[5] LE[6] PREMIER[6] AVIATEUR[8] à[9] AVOIR[9] TRAVERSé[10] LA[11] MANCHE[11] en AVION[14] en 1909 a été reproduit dimanche 25 juillet 90 ans jour pour jour aprés par un pilote de ligne suédois
# s02 salon_aeronautique-m1 PercentageOfWordsProcessed= 0.382352941176471 PercentageOfWordsReallyProcessed= 0.928571428571429
