# 147 Fixation 1 (286.3,283.4): Il~0 a~2
# 160 Fixation 2 (426.1,282.9): une~3 multitude~4
# 176 Fixation 3 (571.7,289.1): de~5 variantes~6
# 201 Fixation 4 (721.3,270.7): qui~7 vont~8
# 245 Fixation 5 (285.9,338.2): de~9 l'impossibilité~10
# 163 Fixation 6 (527.6,347.3): pour~11 sonde~13
# 134 Fixation 7 (601.7,356.7): la~12 sonde~13
# 169 Fixation 8 (722.9,351.3): de~14 pointer~15
# 226 Fixation 9 (339.1,397.4): antenne~17
# 169 Fixation 10 (475.2,396.4): vers~18 à~20
# 254 Fixation 11 (603.5,404.7): à~20 basculement~22
# 249 Fixation 12 (319.8,467.5): l'engin~24
# 187 Fixation 13 (394.5,461.1): qui~25 aurait~26
# 207 Fixation 14 (553.8,469.5): été~27 déséquilibré~28
# 108 Fixation 15 (727.4,456.4): par~29
# 117 Fixation 16 (310.2,542.6): accident~31
# 194 Fixation 17 (327.3,534.6): accident~31
%%
# Il~0 Fixations= "1/"
# y~1 Fixations= ""
# a~2 Fixations= "1/"
# une~3 Fixations= "2/"
# multitude~4 Fixations= "2/"
# de~5 Fixations= "3/"
# variantes~6 Fixations= "3/"
# qui~7 Fixations= "4/"
# vont~8 Fixations= "4/"
# de~9 Fixations= "5/"
# l'impossibilité~10 Fixations= "5/"
# pour~11 Fixations= "6/"
# la~12 Fixations= "7/"
# sonde~13 Fixations= "7/"
# de~14 Fixations= "8/"
# pointer~15 Fixations= "8/"
# son~16 Fixations= ""
# antenne~17 Fixations= "9/"
# vers~18 Fixations= "10/"
# nous~19 Fixations= ""
# à~20 Fixations= "11/"
# un~21 Fixations= ""
# basculement~22 Fixations= "11/"
# de~23 Fixations= ""
# l'engin~24 Fixations= "12/"
# qui~25 Fixations= "13/"
# aurait~26 Fixations= "13/"
# été~27 Fixations= "14/"
# déséquilibré~28 Fixations= "14/"
# par~29 Fixations= "15/"
# un~30 Fixations= ""
# accident~31 Fixations= "17/"
# de~32 Fixations= ""
# terrain~33 Fixations= ""
%%
#  IL[1] y A[1] UNE[2] MULTITUDE[2] DE[3] VARIANTES[3] QUI[4] VONT[4] DE[5] L'IMPOSSIBILITé[5] POUR[6] LA[7] SONDE[7] DE[8] POINTER[8] son ANTENNE[9] VERS[10] nous à[11] un BASCULEMENT[11] de L'ENGIN[12] QUI[13] AURAIT[13] éTé[14] DéSéQUILIBRé[14] PAR[15] un ACCIDENT[17] de terrain
# s07 observation_planetes-m1 PercentageOfWordsProcessed= 0.764705882352941 PercentageOfWordsReallyProcessed= 0.8125
