999 WORDS_musée~1 125
999 WORDFREQ_21.55 125
999 WORDSALL_Le~0_musée~1 125
999 COSIND_0.86 125
999 COSGEN_0.86 125
101 ESRank1 125
999 WORDS_d'art~2 123
999 WORDFREQ_81.49 123
999 WORDSALL_d'art~2 123
999 COSIND_1.00 123
999 COSGEN_1.00 123
102 ESRank2 123
201 ESForwSacShort 123
999 WORDS_moderne~3 175
999 WORDFREQ_24.46 175
999 WORDSALL_moderne~3 175
999 COSIND_0.59 175
999 COSGEN_0.59 175
103 ESRank3 175
201 ESForwSacShort 175
999 WORDS_ville~6 204
999 WORDFREQ_311.69 204
999 WORDSALL_la~5_ville~6 204
999 COSIND_0.02 204
999 COSGEN_0.02 204
104 ESRank4 204
202 ESForwSacLong+3+7 204
999 WORDS_abstraite~25 129
999 WORDFREQ_4.8 129
999 WORDSALL_peinture~24_abstraite~25 129
999 COSIND_0.41 129
999 COSGEN_0.41 129
105 ESRank5 129
202 ESForwSacLong+19+117 129
999 WORDS_abstraite~25 163
999 WORDFREQ_4.8 163
999 WORDSALL_abstraite~25 163
999 COSIND_0.41 163
999 COSGEN_0.41 163
106 ESRank6 163
203 ESBackSacRefixation 163
999 WORDS_abstraite~25 145
999 WORDFREQ_4.8 145
999 WORDSALL_abstraite~25 145
999 COSIND_0.41 145
999 COSGEN_0.41 145
107 ESRank7 145
203 ESBackSacRefixation 145
999 WORDS_peinture~24 111
999 WORDFREQ_59.39 111
999 WORDSALL_la~23_peinture~24 111
999 COSIND_0.76 111
999 COSGEN_0.76 111
108 ESRank8 111
205 ESBackSacRegrShort 111
999 WORDS_l'après-guerre~27 122
999 WORDFREQ_3.24 122
999 WORDSALL_l'après-guerre~27 122
999 COSIND_N/A 122
109 ESRank9 122
202 ESForwSacLong+3+14 122
200 ESRankN 122
199 ESRankNMinus1 111
198 ESRankNMinus2 145
197 ESRankNMinus3 163
196 ESRankNMinus4 129
195 ESRankNMinus5 204
194 ESRankNMinus6 175
193 ESRankNMinus7 123
192 ESRankNMinus8 125
