# 116 Fixation 1 (288.4,260.7): Dans~0 Pas-de-Calais~2
# 119 Fixation 2 (434.4,276): Pas-de-Calais~2
# 225 Fixation 3 (590.2,289.5): les~3 chasseurs~4
# 131 Fixation 4 (324.7,338.7): réclament~5
# 137 Fixation 5 (282.5,331.9): réclament~5
# 176 Fixation 6 (446,352.9): le~6 droit~7
# 154 Fixation 7 (613,346.3): continuer~9 à~10
# 90 Fixation 8 (718,343.3): à~10 chasser~11
# 288 Fixation 9 (327,390.6): dans~12 huttes~14
# 181 Fixation 10 (634.6,364.2): continuer~9 à~10
# 249 Fixation 11 (337.6,466.1): lourde~20
# 129 Fixation 12 (478.2,450.5): amende~21
# 208 Fixation 13 (626.4,467.7): contrevient~24
# 216 Fixation 14 (372.7,497): lourde~20 amende~21
# 152 Fixation 15 (296.3,509.8): directives~26
%%
# Dans~0 Fixations= "1/"
# le~1 Fixations= ""
# Pas-de-Calais~2 Fixations= "2/"
# les~3 Fixations= "3/"
# chasseurs~4 Fixations= "3/"
# réclament~5 Fixations= "5/"
# le~6 Fixations= "6/"
# droit~7 Fixations= "6/"
# de~8 Fixations= ""
# continuer~9 Fixations= "10/"
# à~10 Fixations= "10/"
# chasser~11 Fixations= "8/"
# dans~12 Fixations= "9/"
# les~13 Fixations= ""
# huttes~14 Fixations= "9/"
# La~15 Fixations= ""
# France~16 Fixations= ""
# risque~17 Fixations= ""
# pourtant~18 Fixations= ""
# une~19 Fixations= ""
# lourde~20 Fixations= "14/"
# amende~21 Fixations= "14/"
# si~22 Fixations= ""
# elle~23 Fixations= ""
# contrevient~24 Fixations= "13/"
# aux~25 Fixations= ""
# directives~26 Fixations= "15/"
# européennes~27 Fixations= ""
# qui~28 Fixations= ""
# protègent~29 Fixations= ""
# les~30 Fixations= ""
# oiseaux~31 Fixations= ""
# migrateurs~32 Fixations= ""
%%
#  DANS[1] le PAS-DE-CALAIS[2] LES[3] CHASSEURS[3] RéCLAMENT[5] LE[6] DROIT[6] de CONTINUER[10] à[10] CHASSER[8] DANS[9] les HUTTES[9] La France risque pourtant une LOURDE[14] AMENDE[14] si elle CONTREVIENT[13] aux DIRECTIVES[15] européennes qui protègent les oiseaux migrateurs
# s07 chasse_oiseaux-f1 PercentageOfWordsProcessed= 0.484848484848485 PercentageOfWordsReallyProcessed= 0.592592592592593
