999 WORDS_Quatre~0 187
999 WORDFREQ_282.64 187
999 WORDSALL_Quatre~0 187
999 COSIND_0.01 187
999 COSGEN_0.01 187
101 ESRank1 187
999 WORDS_Quatre~0 93
999 WORDFREQ_282.64 93
999 WORDSALL_Quatre~0 93
999 COSIND_0.01 93
999 COSGEN_0.01 93
102 ESRank2 93
203 ESBackSacRefixation 93
999 WORDS_jours~1 191
999 WORDFREQ_515.41 191
999 WORDSALL_Quatre~0_jours~1 191
999 COSIND_-0.00 191
999 COSGEN_-0.00 191
103 ESRank3 191
201 ESForwSacShort 191
999 WORDS_grains~3 253
999 WORDFREQ_11.69 253
999 WORDSALL_de~2_grains~3 253
999 COSIND_-0.00 253
999 COSGEN_-0.00 253
104 ESRank4 253
202 ESForwSacLong+2+4 253
999 WORDS_sont~4 190
999 WORDFREQ_386.35 190
999 WORDSALL_grains~3_sont~4 190
999 COSIND_-0.01 190
999 COSGEN_-0.01 190
105 ESRank5 190
201 ESForwSacShort 190
999 WORDS_venus~5 345
999 WORDFREQ_40.41 345
999 WORDSALL_sont~4_venus~5 345
999 COSIND_-0.00 345
999 COSGEN_-0.00 345
106 ESRank6 345
201 ESForwSacShort 345
999 WORDS_clore~6 265
999 WORDFREQ_2.57 265
999 WORDSALL_venus~5_clore~6 265
999 COSIND_-0.02 265
999 COSGEN_-0.02 265
107 ESRank7 265
201 ESForwSacShort 265
999 WORDS_clore~6 149
999 WORDFREQ_2.57 149
999 WORDSALL_clore~6 149
999 COSIND_-0.02 149
999 COSGEN_-0.02 149
108 ESRank8 149
203 ESBackSacRefixation 149
999 WORDS_traversée~8 112
999 WORDFREQ_13.58 112
999 WORDSALL_Quatre~0_traversée~8 112
999 COSIND_-0.01 112
999 COSGEN_-0.01 112
109 ESRank9 112
202 ESForwSacLong+2+4 112
999 WORDS_traversée~8 203
999 WORDFREQ_13.58 203
999 WORDSALL_Quatre~0_traversée~8 203
999 COSIND_-0.01 203
999 COSGEN_-0.01 203
110 ESRank10 203
203 ESBackSacRefixation 203
999 WORDS_traversée~8 101
999 WORDFREQ_13.58 101
999 WORDSALL_Quatre~0_traversée~8 101
999 COSIND_-0.01 101
999 COSGEN_-0.01 101
111 ESRank11 101
203 ESBackSacRefixation 101
999 WORDS_Pacifique~10 240
999 WORDFREQ_0.34 240
999 WORDSALL_du~9_Pacifique~10 240
999 COSIND_-0.02 240
999 COSGEN_-0.02 240
112 ESRank12 240
202 ESForwSacLong+2+4 240
999 WORDS_Pacifique~10 102
999 WORDFREQ_0.34 102
999 WORDSALL_du~9_Pacifique~10 102
999 COSIND_-0.02 102
999 COSGEN_-0.02 102
113 ESRank13 102
203 ESBackSacRefixation 102
999 WORDS_L'eau~11 182
999 WORDFREQ_417.84 182
999 WORDSALL_Pacifique~10_L'eau~11 182
999 COSIND_0.02 182
999 COSGEN_0.02 182
114 ESRank14 182
201 ESForwSacShort 182
999 WORDS_a~12 169
999 WORDFREQ_2926.69 169
999 WORDSALL_L'eau~11_a~12 169
999 COSIND_N/A 169
115 ESRank15 169
201 ESForwSacShort 169
999 WORDS_L'eau~11 148
999 WORDFREQ_417.84 148
999 WORDSALL_L'eau~11 148
999 COSIND_0.02 148
999 COSGEN_0.02 148
116 ESRank16 148
205 ESBackSacRegrShort 148
999 WORDS_gagné~13 262
999 WORDFREQ_33.51 262
999 WORDSALL_L'eau~11_a~12_gagné~13 262
999 COSIND_-0.03 262
999 COSGEN_-0.03 262
117 ESRank17 262
202 ESForwSacLong+2+3 262
999 WORDS_bagarre~15 135
999 WORDFREQ_9.86 135
999 WORDSALL_traversée~8_bagarre~15 135
999 COSIND_-0.01 135
999 COSGEN_-0.01 135
118 ESRank18 135
202 ESForwSacLong+2+4 135
999 WORDS_bagarre~15 227
999 WORDFREQ_9.86 227
999 WORDSALL_bagarre~15 227
999 COSIND_-0.01 227
999 COSGEN_-0.01 227
119 ESRank19 227
203 ESBackSacRefixation 227
999 WORDS_était~18 183
999 WORDFREQ_3688.99 183
999 WORDSALL_du~9_Pacifique~10_était~18 183
999 COSIND_-0.01 183
999 COSGEN_-0.01 183
120 ESRank20 183
202 ESForwSacLong+3+9 183
999 WORDS_était~18 167
999 WORDFREQ_3688.99 167
999 WORDSALL_Pacifique~10_était~18 167
999 COSIND_-0.01 167
999 COSGEN_-0.01 167
203 ESBackSacRefixation 167
999 WORDS_trempé~19 219
999 WORDFREQ_3.85 219
999 WORDSALL_était~18_trempé~19 219
999 COSIND_-0.04 219
999 COSGEN_-0.04 219
201 ESForwSacShort 219
999 WORDS_bord~21 159
999 WORDFREQ_197.36 159
999 WORDSALL_à~20_bord~21 159
999 COSIND_0.08 159
999 COSGEN_0.08 159
202 ESForwSacLong+2+4 159
999 WORDS_bord~21 162
999 WORDFREQ_197.36 162
999 WORDSALL_trempé~19_à~20_bord~21 162
999 COSIND_0.08 162
999 COSGEN_0.08 162
203 ESBackSacRefixation 162
999 WORDS_bord~21 96
999 WORDFREQ_197.36 96
999 WORDSALL_bord~21 96
999 COSIND_0.08 96
999 COSGEN_0.08 96
203 ESBackSacRefixation 96
999 WORDS_navigateur~23 132
999 WORDFREQ_1.89 132
999 WORDSALL_navigateur~23 132
999 COSIND_0.04 132
999 COSGEN_0.04 132
202 ESForwSacLong+2+4 132
999 WORDS_navigateur~23 149
999 WORDFREQ_1.89 149
999 WORDSALL_navigateur~23 149
999 COSIND_0.04 149
999 COSGEN_0.04 149
203 ESBackSacRefixation 149
999 WORDS_navigateur~23 126
999 WORDFREQ_1.89 126
999 WORDSALL_navigateur~23 126
999 COSIND_0.04 126
999 COSGEN_0.04 126
203 ESBackSacRefixation 126
999 WORDS_attend~24 208
999 WORDFREQ_74.46 208
999 WORDSALL_attend~24 208
999 COSIND_-0.05 208
999 COSGEN_-0.05 208
201 ESForwSacShort 208
999 WORDS_idéal~27 140
999 WORDFREQ_7.97 140
999 WORDSALL_moment~26_idéal~27 140
999 COSIND_-0.02 140
999 COSGEN_-0.02 140
202 ESForwSacLong+3+11 140
999 WORDS_idéal~27 219
999 WORDFREQ_7.97 219
999 WORDSALL_idéal~27 219
999 COSIND_-0.02 219
999 COSGEN_-0.02 219
203 ESBackSacRefixation 219
200 ESRankN 219
199 ESRankNMinus1 140
198 ESRankNMinus2 208
197 ESRankNMinus3 126
196 ESRankNMinus4 149
195 ESRankNMinus5 132
194 ESRankNMinus6 96
193 ESRankNMinus7 162
192 ESRankNMinus8 159
191 ESRankNMinus9 219
190 ESRankNMinus10 167
