999 WORDS_Plusieurs~0 150
999 WORDFREQ_14.86 150
999 WORDSALL_Plusieurs~0 150
999 COSIND_-0.04 150
999 COSGEN_-0.04 150
101 ESRank1 150
999 WORDS_tribunaux~1 204
999 WORDFREQ_3.04 204
999 WORDSALL_tribunaux~1 204
999 COSIND_-0.01 204
999 COSGEN_-0.01 204
102 ESRank2 204
201 ESForwSacShort 204
999 WORDS_administratifs~2 280
999 WORDFREQ_1.62 280
999 WORDSALL_administratifs~2 280
999 COSIND_0.08 280
999 COSGEN_0.08 280
103 ESRank3 280
201 ESForwSacShort 280
999 WORDS_sommé~4 194
999 WORDFREQ_1.42 194
999 WORDSALL_sommé~4 194
999 COSIND_0.03 194
999 COSGEN_0.03 194
104 ESRank4 194
202 ESForwSacLong+2+5 194
999 WORDS_préfets~6 218
999 WORDFREQ_1.35 218
999 WORDSALL_les~5_préfets~6 218
999 COSIND_0.02 218
999 COSGEN_0.02 218
105 ESRank5 218
202 ESForwSacLong+2+5 218
999 WORDS_treize~8 289
999 WORDFREQ_20.95 289
999 WORDSALL_de~7_treize~8 289
999 COSIND_0.01 289
999 COSGEN_0.01 289
106 ESRank6 289
202 ESForwSacLong+2+4 289
999 WORDS_ont~3 198
999 WORDFREQ_553.31 198
999 WORDSALL_administratifs~2_ont~3 198
999 COSIND_-0.01 198
999 COSGEN_-0.01 198
107 ESRank7 198
206 ESBackSacRegrLong-5-24 198
999 WORDS_prendre~11 244
999 WORDFREQ_344.05 244
999 WORDSALL_prendre~11 244
999 COSIND_0.02 244
999 COSGEN_0.02 244
108 ESRank8 244
202 ESForwSacLong+8+48 244
999 WORDS_arrêtés~13 257
999 WORDFREQ_1.22 257
999 WORDSALL_arrêtés~13 257
999 COSIND_-0.02 257
999 COSGEN_-0.02 257
109 ESRank9 257
202 ESForwSacLong+2+5 257
999 WORDS_fermeture~15 323
999 WORDFREQ_14.86 323
999 WORDSALL_de~14_fermeture~15 323
999 COSIND_0.23 323
999 COSGEN_0.23 323
110 ESRank10 323
202 ESForwSacLong+2+4 323
999 WORDS_prendre~11 180
999 WORDFREQ_344.05 180
999 WORDSALL_prendre~11 180
999 COSIND_0.02 180
999 COSGEN_0.02 180
111 ESRank11 180
206 ESBackSacRegrLong-4-18 180
999 WORDS_chasse~18 128
999 WORDFREQ_53.38 128
999 WORDSALL_chasse~18 128
999 COSIND_0.98 128
999 COSGEN_0.98 128
112 ESRank12 128
202 ESForwSacLong+7+34 128
999 WORDS_oiseaux~20 177
999 WORDFREQ_65.07 177
999 WORDSALL_aux~19_oiseaux~20 177
999 COSIND_0.83 177
999 COSGEN_0.83 177
113 ESRank13 177
202 ESForwSacLong+2+5 177
999 WORDS_migrateurs~21 174
999 WORDFREQ_1.08 174
999 WORDSALL_migrateurs~21 174
999 COSIND_0.88 174
999 COSGEN_0.88 174
114 ESRank14 174
201 ESForwSacShort 174
999 WORDS_migrateurs~21 179
999 WORDFREQ_1.08 179
999 WORDSALL_oiseaux~20_migrateurs~21 179
999 COSIND_0.88 179
999 COSGEN_0.88 179
115 ESRank15 179
203 ESBackSacRefixation 179
200 ESRankN 179
199 ESRankNMinus1 174
198 ESRankNMinus2 177
197 ESRankNMinus3 128
196 ESRankNMinus4 180
195 ESRankNMinus5 323
194 ESRankNMinus6 257
193 ESRankNMinus7 244
192 ESRankNMinus8 198
191 ESRankNMinus9 289
190 ESRankNMinus10 218
