999 WORDS_souvient~2 125
999 WORDFREQ_15.68 125
999 WORDSALL_On~0_souvient~2 125
999 COSIND_-0.03 125
999 COSGEN_-0.03 125
101 ESRank1 125
999 WORDS_souvient~2 117
999 WORDFREQ_15.68 117
999 WORDSALL_souvient~2 117
999 COSIND_-0.03 117
999 COSGEN_-0.03 117
102 ESRank2 117
203 ESBackSacRefixation 117
999 WORDS_fameux~4 148
999 WORDFREQ_33.31 148
999 WORDSALL_du~3_fameux~4 148
999 COSIND_0.00 148
999 COSGEN_0.00 148
103 ESRank3 148
202 ESForwSacLong+2+4 148
999 WORDS_symbole~5 152
999 WORDFREQ_12.57 152
999 WORDSALL_symbole~5 152
999 COSIND_0.03 152
999 COSGEN_0.03 152
104 ESRank4 152
201 ESForwSacShort 152
999 WORDS_dollar~7 182
999 WORDFREQ_3.85 182
999 WORDSALL_du~6_dollar~7 182
999 COSIND_0.04 182
999 COSGEN_0.04 182
105 ESRank5 182
202 ESForwSacLong+2+4 182
999 WORDS_l'argent~22 128
999 WORDFREQ_194.32 128
999 WORDSALL_l'argent~22 128
999 COSIND_0.03 128
999 COSGEN_0.03 128
106 ESRank6 128
202 ESForwSacLong+15+91 128
999 WORDS_avait~15 109
999 WORDFREQ_3116.42 109
999 WORDSALL_avait~15 109
999 COSIND_0.03 109
999 COSGEN_0.03 109
107 ESRank7 109
206 ESBackSacRegrLong-7-38 109
999 WORDS_signe~17 131
999 WORDFREQ_119.19 131
999 WORDSALL_d'un~16_signe~17 131
999 COSIND_0.08 131
999 COSGEN_0.08 131
108 ESRank8 131
202 ESForwSacLong+2+6 131
999 WORDS_simple~18 145
999 WORDFREQ_124.26 145
999 WORDSALL_simple~18 145
999 COSIND_0.01 145
999 COSGEN_0.01 145
109 ESRank9 145
201 ESForwSacShort 145
999 WORDS_amalgamé~19 149
999 WORDFREQ_0.14 149
999 WORDSALL_simple~18_amalgamé~19 149
999 COSIND_0.28 149
999 COSGEN_0.28 149
110 ESRank10 149
201 ESForwSacShort 149
999 WORDS_l'art~20 134
999 WORDFREQ_81.49 134
999 WORDSALL_l'art~20 134
999 COSIND_1.00 134
999 COSGEN_1.00 134
111 ESRank11 134
201 ESForwSacShort 134
999 WORDS_l'argent~22 164
999 WORDFREQ_194.32 164
999 WORDSALL_l'argent~22 164
999 COSIND_0.03 164
999 COSGEN_0.03 164
112 ESRank12 164
202 ESForwSacLong+2+4 164
999 WORDS_plus~25 135
999 WORDFREQ_5014.53 135
999 WORDSALL_la~24_plus~25 135
999 COSIND_0.04 135
999 COSGEN_0.04 135
113 ESRank13 135
202 ESForwSacLong+3+9 135
999 WORDS_grande~26 162
999 WORDFREQ_378.65 162
999 WORDSALL_plus~25_grande~26 162
999 COSIND_-0.03 162
999 COSGEN_-0.03 162
114 ESRank14 162
201 ESForwSacShort 162
999 WORDS_joie~27 102
999 WORDFREQ_134.12 102
999 WORDSALL_grande~26_joie~27 102
999 COSIND_-0.01 102
999 COSGEN_-0.01 102
115 ESRank15 102
201 ESForwSacShort 102
999 WORDS_collectionneurs~30 228
999 WORDFREQ_1.76 228
999 WORDSALL_ses~29_collectionneurs~30 228
999 COSIND_0.78 228
999 COSGEN_0.78 228
116 ESRank16 228
202 ESForwSacLong+3+8 228
999 WORDS_collectionneurs~30 131
999 WORDFREQ_1.76 131
999 WORDSALL_de~28_collectionneurs~30 131
999 COSIND_0.78 131
999 COSGEN_0.78 131
117 ESRank17 131
203 ESBackSacRefixation 131
999 WORDS_avait~15 146
999 WORDFREQ_3116.42 146
999 WORDSALL_avait~15 146
999 COSIND_0.03 146
999 COSGEN_0.03 146
118 ESRank18 146
206 ESBackSacRegrLong-15-79 146
999 WORDS_signe~17 110
999 WORDFREQ_119.19 110
999 WORDSALL_d'un~16_signe~17 110
999 COSIND_0.08 110
999 COSGEN_0.08 110
119 ESRank19 110
202 ESForwSacLong+2+6 110
999 WORDS_simple~18 144
999 WORDFREQ_124.26 144
999 WORDSALL_signe~17_simple~18 144
999 COSIND_0.01 144
999 COSGEN_0.01 144
120 ESRank20 144
201 ESForwSacShort 144
999 WORDS_amalgamé~19 154
999 WORDFREQ_0.14 154
999 WORDSALL_simple~18_amalgamé~19 154
999 COSIND_0.28 154
999 COSGEN_0.28 154
201 ESForwSacShort 154
999 WORDS_pop-artiste~13 157
999 WORDFREQ_N/A 157
999 WORDSALL_Le~12_pop-artiste~13 157
999 COSIND_N/A 157
206 ESBackSacRegrLong-6-36 157
200 ESRankN 157
199 ESRankNMinus1 154
198 ESRankNMinus2 144
197 ESRankNMinus3 110
196 ESRankNMinus4 146
195 ESRankNMinus5 131
194 ESRankNMinus6 228
193 ESRankNMinus7 102
192 ESRankNMinus8 162
191 ESRankNMinus9 135
190 ESRankNMinus10 164
