# 94 Fixation 1 (254.5,287.4): Les~0 États-Unis~1
# 81 Fixation 2 (295.1,284.7): Les~0 États-Unis~1
# 100 Fixation 3 (328.3,287): Les~0 États-Unis~1
# 121 Fixation 4 (406.1,287.8): États-Unis~1 ont~2
# 184 Fixation 5 (535.6,292.9): profité~3
# 131 Fixation 6 (668.5,288.4): de~4 commission~6
# 90 Fixation 7 (716.8,297.7): commission~6
# 211 Fixation 8 (280.2,341.9): spéciale~7
# 194 Fixation 9 (447.9,348.3): l'ONU~9
# 203 Fixation 10 (269.1,388.3): l'Irak~13
# 134 Fixation 11 (381.7,402.4): pour~14 espionner~15
# 140 Fixation 12 (437.9,404.4): espionner~15
# 216 Fixation 13 (532.2,404.9): espionner~15 Bagdad~16
# 142 Fixation 14 (569.4,413.1): Bagdad~16
# 138 Fixation 15 (622.6,417.4): Bagdad~16
# 178 Fixation 16 (292.1,455.3): responsables~18
# 142 Fixation 17 (417.3,463.4): américains~19
# 150 Fixation 18 (492.7,469.8): américains~19
# 163 Fixation 19 (592,470.1): admettent~20
# 108 Fixation 20 (299.7,535.3): profité~22
# 159 Fixation 21 (290,524.4): profité~22
# 137 Fixation 22 (446.1,529.5): informations~24
# 115 Fixation 23 (513.3,526.8): informations~24
# 148 Fixation 24 (571.4,370.6): chargée~10
%%
# Les~0 Fixations= "3/"
# États-Unis~1 Fixations= "4/"
# ont~2 Fixations= "4/"
# profité~3 Fixations= "5/"
# de~4 Fixations= "6/"
# la~5 Fixations= ""
# commission~6 Fixations= "7/"
# spéciale~7 Fixations= "8/"
# de~8 Fixations= ""
# l'ONU~9 Fixations= "9/"
# chargée~10 Fixations= "24/"
# de~11 Fixations= ""
# désarmer~12 Fixations= ""
# l'Irak~13 Fixations= "10/"
# pour~14 Fixations= "11/"
# espionner~15 Fixations= "13/"
# Bagdad~16 Fixations= "15/"
# Les~17 Fixations= ""
# responsables~18 Fixations= "16/"
# américains~19 Fixations= "18/"
# admettent~20 Fixations= "19/"
# avoir~21 Fixations= ""
# profité~22 Fixations= "21/"
# des~23 Fixations= ""
# informations~24 Fixations= "23/"
# militaires~25 Fixations= ""
# pouvant~26 Fixations= ""
# aider~27 Fixations= ""
# à~28 Fixations= ""
# renverser~29 Fixations= ""
# le~30 Fixations= ""
# régime~31 Fixations= ""
%%
#  LES[3] ÉTATS-UNIS[4] ONT[4] PROFITé[5] DE[6] la COMMISSION[7] SPéCIALE[8] de L'ONU[9] CHARGéE[24] de désarmer L'IRAK[10] POUR[11] ESPIONNER[13] BAGDAD[15] Les RESPONSABLES[16] AMéRICAINS[18] ADMETTENT[19] avoir PROFITé[21] des INFORMATIONS[23] militaires pouvant aider à renverser le régime
# s02 conflit_irak-f1 PercentageOfWordsProcessed= 0.5625 PercentageOfWordsReallyProcessed= 0.72
