999 WORDS_Principal~0 82
999 WORDFREQ_15.81 82
999 WORDSALL_Principal~0 82
999 COSIND_0.06 82
999 COSGEN_0.06 82
101 ESRank1 82
999 WORDS_Principal~0 230
999 WORDFREQ_15.81 230
999 WORDSALL_Principal~0 230
999 COSIND_0.06 230
999 COSGEN_0.06 230
102 ESRank2 230
203 ESBackSacRefixation 230
999 WORDS_accusé~1 266
999 WORDFREQ_6.89 266
999 WORDSALL_accusé~1 266
999 COSIND_0.28 266
999 COSGEN_0.28 266
103 ESRank3 266
201 ESForwSacShort 266
999 WORDS_volet~3 328
999 WORDFREQ_6.89 328
999 WORDSALL_du~2_volet~3 328
999 COSIND_-0.02 328
999 COSGEN_-0.02 328
104 ESRank4 328
202 ESForwSacLong+2+4 328
999 WORDS_corruption~4 333
999 WORDFREQ_3.45 333
999 WORDSALL_volet~3_corruption~4 333
999 COSIND_0.23 333
999 COSGEN_0.23 333
105 ESRank5 333
201 ESForwSacShort 333
999 WORDS_corruption~4 208
999 WORDFREQ_3.45 208
999 WORDSALL_corruption~4 208
999 COSIND_0.23 208
999 COSGEN_0.23 208
106 ESRank6 208
203 ESBackSacRefixation 208
999 WORDS_corruption~4 197
999 WORDFREQ_3.45 197
999 WORDSALL_corruption~4 197
999 COSIND_0.23 197
999 COSGEN_0.23 197
107 ESRank7 197
203 ESBackSacRefixation 197
999 WORDS_corruption~4 116
999 WORDFREQ_3.45 116
999 WORDSALL_corruption~4 116
999 COSIND_0.23 116
999 COSGEN_0.23 116
108 ESRank8 116
203 ESBackSacRefixation 116
999 WORDS_escroquerie~6 379
999 WORDFREQ_2.16 379
999 WORDSALL_escroquerie~6 379
999 COSIND_0.32 379
999 COSGEN_0.32 379
109 ESRank9 379
202 ESForwSacLong+2+4 379
999 WORDS_escroquerie~6 128
999 WORDFREQ_2.16 128
999 WORDSALL_escroquerie~6 128
999 COSIND_0.32 128
999 COSGEN_0.32 128
110 ESRank10 128
203 ESBackSacRefixation 128
999 WORDS_ancien~8 201
999 WORDFREQ_59.26 201
999 WORDSALL_un~7_ancien~8 201
999 COSIND_0.00 201
999 COSGEN_0.00 201
111 ESRank11 201
202 ESForwSacLong+2+4 201
999 WORDS_ancien~8 172
999 WORDFREQ_59.26 172
999 WORDSALL_un~7_ancien~8 172
999 COSIND_0.00 172
999 COSGEN_0.00 172
112 ESRank12 172
203 ESBackSacRefixation 172
999 WORDS_cadre~9 302
999 WORDFREQ_29.8 302
999 WORDSALL_cadre~9 302
999 COSIND_0.05 302
999 COSGEN_0.05 302
113 ESRank13 302
201 ESForwSacShort 302
999 WORDS_grande~11 196
999 WORDFREQ_378.65 196
999 WORDSALL_d'une~10_grande~11 196
999 COSIND_0.10 196
999 COSGEN_0.10 196
114 ESRank14 196
202 ESForwSacLong+2+7 196
999 WORDS_entreprise~12 197
999 WORDFREQ_29.05 197
999 WORDSALL_entreprise~12 197
999 COSIND_-0.02 197
999 COSGEN_-0.02 197
115 ESRank15 197
201 ESForwSacShort 197
999 WORDS_entreprise~12 138
999 WORDFREQ_29.05 138
999 WORDSALL_entreprise~12 138
999 COSIND_-0.02 138
999 COSGEN_-0.02 138
116 ESRank16 138
203 ESBackSacRefixation 138
999 WORDS_poursuivi~14 315
999 WORDFREQ_9.59 315
999 WORDSALL_poursuivi~14 315
999 COSIND_0.30 315
999 COSGEN_0.30 315
117 ESRank17 315
202 ESForwSacLong+2+5 315
999 WORDS_avoir~16 183
999 WORDFREQ_649.26 183
999 WORDSALL_avoir~16 183
999 COSIND_-0.01 183
999 COSGEN_-0.01 183
118 ESRank18 183
202 ESForwSacLong+2+6 183
999 WORDS_perçu~17 257
999 WORDFREQ_4.53 257
999 WORDSALL_avoir~16_perçu~17 257
999 COSIND_-0.03 257
999 COSGEN_-0.03 257
119 ESRank19 257
201 ESForwSacShort 257
999 WORDS_millions~19 190
999 WORDFREQ_46.22 190
999 WORDSALL_des~18_millions~19 190
999 COSIND_-0.01 190
999 COSGEN_-0.01 190
120 ESRank20 190
202 ESForwSacLong+2+5 190
200 ESRankN 190
199 ESRankNMinus1 257
198 ESRankNMinus2 183
197 ESRankNMinus3 315
196 ESRankNMinus4 138
195 ESRankNMinus5 197
194 ESRankNMinus6 196
193 ESRankNMinus7 302
192 ESRankNMinus8 172
191 ESRankNMinus9 201
190 ESRankNMinus10 128
