999 WORDS_société~1 138
999 WORDFREQ_56.55 138
999 WORDSALL_La~0_société~1 138
999 COSIND_0.07 138
999 COSGEN_0.07 138
101 ESRank1 138
999 WORDS_3F~3 138
999 WORDFREQ_N/A 138
999 WORDSALL_HLM~2_3F~3 138
999 COSIND_N/A 138
102 ESRank2 138
202 ESForwSacLong+2+5 138
999 WORDS_organisé~5 132
999 WORDFREQ_7.16 132
999 WORDSALL_organisé~5 132
999 COSIND_0.12 132
999 COSGEN_0.12 132
103 ESRank3 132
202 ESForwSacLong+2+3 132
999 WORDS_formation~7 162
999 WORDFREQ_9.32 162
999 WORDSALL_une~6_formation~7 162
999 COSIND_-0.01 162
999 COSGEN_-0.01 162
104 ESRank4 162
202 ESForwSacLong+2+5 162
999 WORDS_trois~9 179
999 WORDFREQ_660.34 179
999 WORDSALL_de~8_trois~9 179
999 COSIND_-0.01 179
999 COSGEN_-0.01 179
105 ESRank5 179
202 ESForwSacLong+2+4 179
999 WORDS_jours~10 140
999 WORDFREQ_515.41 140
999 WORDSALL_jours~10 140
999 COSIND_0.01 140
999 COSGEN_0.01 140
106 ESRank6 140
201 ESForwSacShort 140
999 WORDS_gardiens~13 174
999 WORDFREQ_9.59 174
999 WORDSALL_aux~12_gardiens~13 174
999 COSIND_0.32 174
999 COSGEN_0.32 174
107 ESRank7 174
202 ESForwSacLong+3+16 174
999 WORDS_d'immeubles~14 184
999 WORDFREQ_17.91 184
999 WORDSALL_d'immeubles~14 184
999 COSIND_0.10 184
999 COSGEN_0.10 184
108 ESRank8 184
201 ESForwSacShort 184
999 WORDS_L'objectif~15 169
999 WORDFREQ_9.19 169
999 WORDSALL_L'objectif~15 169
999 COSIND_0.04 169
999 COSGEN_0.04 169
109 ESRank9 169
201 ESForwSacShort 169
999 WORDS_permettre~18 205
999 WORDFREQ_25.81 205
999 WORDSALL_de~17_permettre~18 205
999 COSIND_0.03 205
999 COSGEN_0.03 205
110 ESRank10 205
202 ESForwSacLong+3+8 205
999 WORDS_personnels~20 161
999 WORDFREQ_0.61 161
999 WORDSALL_aux~19_personnels~20 161
999 COSIND_-0.02 161
999 COSGEN_-0.02 161
111 ESRank11 161
202 ESForwSacLong+2+5 161
999 WORDS_terrain~22 148
999 WORDFREQ_64.86 148
999 WORDSALL_de~21_terrain~22 148
999 COSIND_0.17 148
999 COSGEN_0.17 148
112 ESRank12 148
202 ESForwSacLong+2+4 148
999 WORDS_garder~24 189
999 WORDFREQ_68.31 189
999 WORDSALL_terrain~22_garder~24 189
999 COSIND_-0.12 189
999 COSGEN_-0.12 189
113 ESRank13 189
202 ESForwSacLong+2+4 189
999 WORDS_distance~26 207
999 WORDFREQ_52.64 207
999 WORDSALL_distance~26 207
999 COSIND_-0.04 207
999 COSGEN_-0.04 207
114 ESRank14 207
202 ESForwSacLong+2+4 207
999 WORDS_nécessaire~27 130
999 WORDFREQ_48.45 130
999 WORDSALL_nécessaire~27 130
999 COSIND_0.18 130
999 COSGEN_0.18 130
115 ESRank15 130
201 ESForwSacShort 130
999 WORDS_situations~30 170
999 WORDFREQ_8.24 170
999 WORDSALL_les~29_situations~30 170
999 COSIND_0.07 170
999 COSGEN_0.07 170
116 ESRank16 170
202 ESForwSacLong+3+10 170
200 ESRankN 170
199 ESRankNMinus1 130
198 ESRankNMinus2 207
197 ESRankNMinus3 189
196 ESRankNMinus4 148
195 ESRankNMinus5 161
194 ESRankNMinus6 205
193 ESRankNMinus7 169
192 ESRankNMinus8 184
191 ESRankNMinus9 174
190 ESRankNMinus10 140
