# 91 Fixation 1 (225.8,284.3): Les~0 familles~1
# 133 Fixation 2 (344.7,287.5): familles~1
# 185 Fixation 3 (429.8,284.4): familles~1 ayant~2
# 203 Fixation 4 (540.7,283.4): des~3 jumeaux~4
# 308 Fixation 5 (668.3,277.2): jumeaux~4 bénéficient~5
# 158 Fixation 6 (274.6,345.6): des~6 mêmes~7
# 273 Fixation 7 (433.8,345.4): prestations~8
# 456 Fixation 8 (556.6,347): familiales~9
# 188 Fixation 9 (691.8,349.9): que~10
# 245 Fixation 10 (268.5,391.8): autres~12
# 143 Fixation 11 (366.2,388.4): mais~13 congés~15
# 127 Fixation 12 (454.9,397.5): les~14 congés~15
# 123 Fixation 13 (546.4,407.7): congés~15 maternité~16
%%
# Les~0 Fixations= "1/"
# familles~1 Fixations= "3/"
# ayant~2 Fixations= "3/"
# des~3 Fixations= "4/"
# jumeaux~4 Fixations= "5/"
# bénéficient~5 Fixations= "5/"
# des~6 Fixations= "6/"
# mêmes~7 Fixations= "6/"
# prestations~8 Fixations= "7/"
# familiales~9 Fixations= "8/"
# que~10 Fixations= "9/"
# les~11 Fixations= ""
# autres~12 Fixations= "10/"
# mais~13 Fixations= "11/"
# les~14 Fixations= "12/"
# congés~15 Fixations= "13/"
# maternité~16 Fixations= "13/"
# sont~17 Fixations= ""
# plus~18 Fixations= ""
# longs~19 Fixations= ""
# de~20 Fixations= ""
# 18~21 Fixations= ""
# semaines~22 Fixations= ""
%%
#  LES[1] FAMILLES[3] AYANT[3] DES[4] JUMEAUX[5] BéNéFICIENT[5] DES[6] MêMES[6] PRESTATIONS[7] FAMILIALES[8] QUE[9] les AUTRES[10] MAIS[11] LES[12] CONGéS[13] MATERNITé[13] sont plus longs de 18 semaines
# s06 allocation_familiale-f1 PercentageOfWordsProcessed= 0.695652173913043 PercentageOfWordsReallyProcessed= 0.941176470588235
