999 WORDS_États-Unis~1 198
999 WORDFREQ_N/A 198
999 WORDSALL_Les~0_États-Unis~1 198
999 COSIND_N/A 198
101 ESRank1 198
999 WORDS_ont~2 173
999 WORDFREQ_553.31 173
999 WORDSALL_États-Unis~1_ont~2 173
999 COSIND_-0.02 173
999 COSGEN_-0.02 173
102 ESRank2 173
201 ESForwSacShort 173
999 WORDS_profité~3 220
999 WORDFREQ_12.16 220
999 WORDSALL_ont~2_profité~3 220
999 COSIND_-0.07 220
999 COSGEN_-0.07 220
103 ESRank3 220
201 ESForwSacShort 220
999 WORDS_ 253
999 WORDFREQ_ 253
999 WORDSALL_ 253
104 ESRank4 253
999 WORDS_spéciale~7 157
999 WORDFREQ_7.09 157
999 WORDSALL_spéciale~7 157
999 COSIND_-0.06 157
999 COSGEN_-0.06 157
105 ESRank5 157
999 WORDS_spéciale~7 153
999 WORDFREQ_7.09 153
999 WORDSALL_spéciale~7 153
999 COSIND_-0.06 153
999 COSGEN_-0.06 153
106 ESRank6 153
203 ESBackSacRefixation 153
999 WORDS_l'ONU~9 124
999 WORDFREQ_N/A 124
999 WORDSALL_de~8_l'ONU~9 124
999 COSIND_N/A 124
107 ESRank7 124
202 ESForwSacLong+2+4 124
999 WORDS_l'Irak~13 177
999 WORDFREQ_N/A 177
999 WORDSALL_l'Irak~13 177
999 COSIND_N/A 177
108 ESRank8 177
202 ESForwSacLong+4+23 177
999 WORDS_l'Irak~13 157
999 WORDFREQ_N/A 157
999 WORDSALL_l'Irak~13 157
999 COSIND_N/A 157
109 ESRank9 157
203 ESBackSacRefixation 157
999 WORDS_espionner~15 183
999 WORDFREQ_2.03 183
999 WORDSALL_pour~14_espionner~15 183
999 COSIND_-0.04 183
999 COSGEN_-0.04 183
110 ESRank10 183
202 ESForwSacLong+2+6 183
999 WORDS_désarmer~12 229
999 WORDFREQ_1.96 229
999 WORDSALL_chargée~10_désarmer~12 229
999 COSIND_-0.04 229
999 COSGEN_-0.04 229
111 ESRank11 229
206 ESBackSacRegrLong-3-13 229
999 WORDS_désarmer~12 119
999 WORDFREQ_1.96 119
999 WORDSALL_de~11_désarmer~12 119
999 COSIND_-0.04 119
999 COSGEN_-0.04 119
112 ESRank12 119
203 ESBackSacRefixation 119
200 ESRankN 119
199 ESRankNMinus1 229
198 ESRankNMinus2 183
197 ESRankNMinus3 157
196 ESRankNMinus4 177
195 ESRankNMinus5 124
194 ESRankNMinus6 153
193 ESRankNMinus7 157
192 ESRankNMinus8 253
191 ESRankNMinus9 220
190 ESRankNMinus10 173
