# 116 Fixation 1 (279,278.9): Dans~0 jugement~2
# 236 Fixation 2 (355.4,277): le~1 jugement~2
# 561 Fixation 3 (515.4,285.6): cité~3
# 299 Fixation 4 (612.1,288.2): par~4 Nacion~6
# 122 Fixation 5 (723.6,297.6): Nacion~6 arguments~13
# 287 Fixation 6 (352.9,356.6): juges~8 mettent~9
# 101 Fixation 7 (329.8,353.2): juges~8 mettent~9
# 190 Fixation 8 (556,343.7): cité~3 avant~11 plusieurs~12
# 87 Fixation 9 (608.7,345.6): par~4 Nacion~6 plusieurs~12
# 136 Fixation 10 (686.6,351.5): plusieurs~12 arguments~13
# 189 Fixation 11 (354.6,413.3): forme~15 arguant~16
# 190 Fixation 12 (309,420.5): de~14 forme~15
# 209 Fixation 13 (406.3,416): arguant~16
# 158 Fixation 14 (600.7,410.6): plusieurs~12 type~19
# 169 Fixation 15 (576,413.4): le~18 type~19
# 177 Fixation 16 (696.9,411.9): arguments~13 procédure~21
# 147 Fixation 17 (351.8,481.6): lancé~22 juge~25
# 164 Fixation 18 (305,472.4): de~14 forme~15 lancé~22
# 260 Fixation 19 (449.8,474.8): arguant~16 juge~25
# 161 Fixation 20 (508.1,471.3): que~17 type~19 juge~25 Cerda~26
# 208 Fixation 21 (690.7,471.1): de~20 procédure~21 inapproprié~28
%%
# Dans~0 Fixations= "1/"
# le~1 Fixations= "2/"
# jugement~2 Fixations= "2/"
# cité~3 Fixations= "8/"
# par~4 Fixations= "9/"
# La~5 Fixations= ""
# Nacion~6 Fixations= "9/"
# les~7 Fixations= ""
# juges~8 Fixations= "7/"
# mettent~9 Fixations= "7/"
# en~10 Fixations= ""
# avant~11 Fixations= "8/"
# plusieurs~12 Fixations= "14/"
# arguments~13 Fixations= "16/"
# de~14 Fixations= "18/"
# forme~15 Fixations= "18/"
# arguant~16 Fixations= "19/"
# que~17 Fixations= "20/"
# le~18 Fixations= "15/"
# type~19 Fixations= "20/"
# de~20 Fixations= "21/"
# procédure~21 Fixations= "21/"
# lancé~22 Fixations= "18/"
# par~23 Fixations= ""
# le~24 Fixations= ""
# juge~25 Fixations= "20/"
# Cerda~26 Fixations= "20/"
# serait~27 Fixations= ""
# inapproprié~28 Fixations= "21/"
%%
#  DANS[1] LE[2] JUGEMENT[2] CITé[8] PAR[9] La NACION[9] les JUGES[7] METTENT[7] en AVANT[8] PLUSIEURS[14] ARGUMENTS[16] DE[18] FORME[18] ARGUANT[19] QUE[20] LE[15] TYPE[20] DE[21] PROCéDURE[21] LANCé[18] par le JUGE[20] CERDA[20] serait INAPPROPRIé[21]
# s01 rechauffement_climatique-a1 PercentageOfWordsProcessed= 0.793103448275862 PercentageOfWordsReallyProcessed= 0.793103448275862
