# 159 Fixation 1 (287.6,278.8): L'écrivain~0
# 207 Fixation 2 (397,282): L'écrivain~0 Amélie~1
# 217 Fixation 3 (489.1,283.7): Amélie~1 Nothomb~2
# 176 Fixation 4 (597.2,288.1): Nothomb~2 présidera~3
# 131 Fixation 5 (642.5,293): présidera~3
# 177 Fixation 6 (719.6,291.3): présidera~3 jury~5
# 197 Fixation 7 (364.2,328.7): Livre~7 Inter~8
# 115 Fixation 8 (330.1,334.7): Livre~7
%%
# L'écrivain~0 Fixations= "2/"
# Amélie~1 Fixations= "3/"
# Nothomb~2 Fixations= "4/"
# présidera~3 Fixations= "6/"
# le~4 Fixations= ""
# jury~5 Fixations= "6/"
# du~6 Fixations= ""
# Livre~7 Fixations= "8/"
# Inter~8 Fixations= "7/"
# Les~9 Fixations= ""
# auditeurs~10 Fixations= ""
# qui~11 Fixations= ""
# souhaitent~12 Fixations= ""
# participer~13 Fixations= ""
# au~14 Fixations= ""
# jury~15 Fixations= ""
# sont~16 Fixations= ""
# invités~17 Fixations= ""
# à~18 Fixations= ""
# écrire~19 Fixations= ""
# à~20 Fixations= ""
# la~21 Fixations= ""
# station~22 Fixations= ""
# en~23 Fixations= ""
# exposant~24 Fixations= ""
# leurs~25 Fixations= ""
# goûts~26 Fixations= ""
# littéraires~27 Fixations= ""
%%
#  L'éCRIVAIN[2] AMéLIE[3] NOTHOMB[4] PRéSIDERA[6] le JURY[6] du LIVRE[8] INTER[7] Les auditeurs qui souhaitent participer au jury sont invités à écrire à la station en exposant leurs goûts littéraires
# s05 prix_litteraire-f1 PercentageOfWordsProcessed= 0.25 PercentageOfWordsReallyProcessed= 0.777777777777778
