999 WORDS_bonne~1 159
999 WORDFREQ_294.53 159
999 WORDSALL_Une~0_bonne~1 159
999 COSIND_-0.00 159
999 COSGEN_-0.00 159
101 ESRank1 159
999 WORDS_connaissance~2 186
999 WORDFREQ_55.81 186
999 WORDSALL_connaissance~2 186
999 COSIND_0.12 186
999 COSGEN_0.12 186
102 ESRank2 186
201 ESForwSacShort 186
999 WORDS_fonctionnement~4 225
999 WORDFREQ_6.01 225
999 WORDSALL_du~3_fonctionnement~4 225
999 COSIND_0.02 225
999 COSGEN_0.02 225
103 ESRank3 225
202 ESForwSacLong+2+4 225
999 WORDS_l'ordinateur~6 143
999 WORDFREQ_2.3 143
999 WORDSALL_l'ordinateur~6 143
999 COSIND_0.28 143
999 COSGEN_0.28 143
104 ESRank4 143
202 ESForwSacLong+2+4 143
999 WORDS_l'ordinateur~6 140
999 WORDFREQ_2.3 140
999 WORDSALL_l'ordinateur~6 140
999 COSIND_0.28 140
999 COSGEN_0.28 140
105 ESRank5 140
203 ESBackSacRefixation 140
999 WORDS_d'Internet~8 152
999 WORDFREQ_0 152
999 WORDSALL_et~7_d'Internet~8 152
999 COSIND_N/A 152
106 ESRank6 152
202 ESForwSacLong+2+4 152
999 WORDS_importante~10 270
999 WORDFREQ_18.31 270
999 WORDSALL_est~9_importante~10 270
999 COSIND_0.01 270
999 COSGEN_0.01 270
107 ESRank7 270
202 ESForwSacLong+2+5 270
999 WORDS_systèmes~12 126
999 WORDFREQ_4.73 126
999 WORDSALL_systèmes~12 126
999 COSIND_0.13 126
999 COSGEN_0.13 126
108 ESRank8 126
202 ESForwSacLong+2+5 126
999 WORDS_systèmes~12 197
999 WORDFREQ_4.73 197
999 WORDSALL_Des~11_systèmes~12 197
999 COSIND_0.13 197
999 COSGEN_0.13 197
109 ESRank9 197
203 ESBackSacRefixation 197
999 WORDS_formation~14 167
999 WORDFREQ_9.32 167
999 WORDSALL_de~13_formation~14 167
999 COSIND_0.93 167
999 COSGEN_0.93 167
110 ESRank10 167
202 ESForwSacLong+2+4 167
999 WORDS_distance~16 150
999 WORDFREQ_52.64 150
999 WORDSALL_distance~16 150
999 COSIND_0.23 150
999 COSGEN_0.23 150
111 ESRank11 150
202 ESForwSacLong+2+4 150
999 WORDS_pédagogie~20 183
999 WORDFREQ_1.22 183
999 WORDSALL_pédagogie~20 183
999 COSIND_0.19 183
999 COSGEN_0.19 183
112 ESRank12 183
202 ESForwSacLong+4+10 183
999 WORDS_formation~14 164
999 WORDFREQ_9.32 164
999 WORDSALL_formation~14 164
999 COSIND_0.93 164
999 COSGEN_0.93 164
113 ESRank13 164
206 ESBackSacRegrLong-6-22 164
999 WORDS_formation~24 175
999 WORDFREQ_9.32 175
999 WORDSALL_en~23_formation~24 175
999 COSIND_0.93 175
999 COSGEN_0.93 175
114 ESRank14 175
202 ESForwSacLong+10+49 175
999 WORDS_vont~26 153
999 WORDFREQ_116.62 153
999 WORDSALL_continue~25_vont~26 153
999 COSIND_-0.01 153
999 COSGEN_-0.01 153
115 ESRank15 153
202 ESForwSacLong+2+10 153
999 WORDS_continue~25 146
999 WORDFREQ_8.85 146
999 WORDSALL_continue~25 146
999 COSIND_N/A 146
116 ESRank16 146
205 ESBackSacRegrShort 146
999 WORDS_mis~28 170
999 WORDFREQ_12.5 170
999 WORDSALL_être~27_mis~28 170
999 COSIND_0.02 170
999 COSGEN_0.02 170
117 ESRank17 170
202 ESForwSacLong+3+12 170
999 WORDS_place~30 111
999 WORDFREQ_437.97 111
999 WORDSALL_en~29_place~30 111
999 COSIND_-0.01 111
999 COSGEN_-0.01 111
118 ESRank18 111
202 ESForwSacLong+2+4 111
200 ESRankN 111
199 ESRankNMinus1 170
198 ESRankNMinus2 146
197 ESRankNMinus3 153
196 ESRankNMinus4 175
195 ESRankNMinus5 164
194 ESRankNMinus6 183
193 ESRankNMinus7 150
192 ESRankNMinus8 167
191 ESRankNMinus9 197
190 ESRankNMinus10 126
