999 WORDS_jeu~1 213
999 WORDFREQ_130.68 213
999 WORDSALL_Le~0_jeu~1 213
999 COSIND_0.03 213
999 COSGEN_0.03 213
101 ESRank1 213
999 WORDS_favori~2 225
999 WORDFREQ_5.81 225
999 WORDSALL_jeu~1_favori~2 225
999 COSIND_0.09 225
999 COSGEN_0.09 225
102 ESRank2 225
201 ESForwSacShort 225
999 WORDS_biographes~4 233
999 WORDFREQ_0.27 233
999 WORDSALL_des~3_biographes~4 233
999 COSIND_0.11 233
999 COSGEN_0.11 233
103 ESRank3 233
202 ESForwSacLong+2+5 233
999 WORDS_biographes~4 151
999 WORDFREQ_0.27 151
999 WORDSALL_des~3_biographes~4 151
999 COSIND_0.11 151
999 COSGEN_0.11 151
104 ESRank4 151
203 ESBackSacRefixation 151
999 WORDS_Conrad~6 217
999 WORDFREQ_N/A 217
999 WORDSALL_de~5_Conrad~6 217
999 COSIND_N/A 217
105 ESRank5 217
202 ESForwSacLong+2+4 217
999 WORDS_Conrad~6 192
999 WORDFREQ_N/A 192
999 WORDSALL_de~5_Conrad~6 192
999 COSIND_N/A 192
106 ESRank6 192
203 ESBackSacRefixation 192
999 WORDS_Conrad~6 108
999 WORDFREQ_N/A 108
999 WORDSALL_Conrad~6 108
999 COSIND_N/A 108
107 ESRank7 108
203 ESBackSacRefixation 108
999 WORDS_célèbre~8 291
999 WORDFREQ_24.73 291
999 WORDSALL_célèbre~8 291
999 COSIND_N/A 291
108 ESRank8 291
202 ESForwSacLong+2+4 291
999 WORDS_écrivain~9 235
999 WORDFREQ_32.43 235
999 WORDSALL_écrivain~9 235
999 COSIND_0.26 235
999 COSGEN_0.26 235
109 ESRank9 235
201 ESForwSacShort 235
999 WORDS_anglais~10 227
999 WORDFREQ_36.69 227
999 WORDSALL_anglais~10 227
999 COSIND_0.03 227
999 COSGEN_0.03 227
110 ESRank10 227
201 ESForwSacShort 227
999 WORDS_anglais~10 121
999 WORDFREQ_36.69 121
999 WORDSALL_écrivain~9_anglais~10 121
999 COSIND_0.03 121
999 COSGEN_0.03 121
111 ESRank11 121
203 ESBackSacRefixation 121
999 WORDS_consiste~11 188
999 WORDFREQ_12.84 188
999 WORDSALL_consiste~11 188
999 COSIND_-0.01 188
999 COSGEN_-0.01 188
112 ESRank12 188
201 ESForwSacShort 188
999 WORDS_réelle~21 186
999 WORDFREQ_17.5 186
999 WORDSALL_vie~20_réelle~21 186
999 COSIND_0.15 186
999 COSGEN_0.15 186
113 ESRank13 186
202 ESForwSacLong+10+54 186
999 WORDS_réelle~21 146
999 WORDFREQ_17.5 146
999 WORDSALL_réelle~21 146
999 COSIND_0.15 146
999 COSGEN_0.15 146
114 ESRank14 146
203 ESBackSacRefixation 146
999 WORDS_romans~24 236
999 WORDFREQ_23.51 236
999 WORDSALL_et~22_romans~24 236
999 COSIND_0.19 236
999 COSGEN_0.19 236
115 ESRank15 236
202 ESForwSacLong+3+8 236
999 WORDS_romans~24 114
999 WORDFREQ_23.51 114
999 WORDSALL_romans~24 114
999 COSIND_0.19 114
999 COSGEN_0.19 114
116 ESRank16 114
203 ESBackSacRefixation 114
999 WORDS_a~27 205
999 WORDFREQ_2926.69 205
999 WORDSALL_qu'il~25_a~27 205
999 COSIND_N/A 205
117 ESRank17 205
202 ESForwSacLong+3+10 205
999 WORDS_tirés~28 295
999 WORDFREQ_13.65 295
999 WORDSALL_en~26_a~27_tirés~28 295
999 COSIND_-0.03 295
999 COSGEN_-0.03 295
118 ESRank18 295
201 ESForwSacShort 295
200 ESRankN 295
199 ESRankNMinus1 205
198 ESRankNMinus2 114
197 ESRankNMinus3 236
196 ESRankNMinus4 146
195 ESRankNMinus5 186
194 ESRankNMinus6 188
193 ESRankNMinus7 121
192 ESRankNMinus8 227
191 ESRankNMinus9 235
190 ESRankNMinus10 291
