999 WORDS_L'équipe~0 158
999 WORDFREQ_26.28 158
999 WORDSALL_L'équipe~0 158
999 COSIND_0.07 158
999 COSGEN_0.07 158
101 ESRank1 158
999 WORDS_cycliste~1 286
999 WORDFREQ_2.43 286
999 WORDSALL_cycliste~1 286
999 COSIND_0.57 286
999 COSGEN_0.57 286
102 ESRank2 286
201 ESForwSacShort 286
999 WORDS_a~2 235
999 WORDFREQ_2926.69 235
999 WORDSALL_cycliste~1_a~2 235
999 COSIND_N/A 235
103 ESRank3 235
201 ESForwSacShort 235
999 WORDS_a~2 179
999 WORDFREQ_2926.69 179
999 WORDSALL_cycliste~1_a~2 179
999 COSIND_N/A 179
104 ESRank4 179
203 ESBackSacRefixation 179
999 WORDS_retrouvé~3 183
999 WORDFREQ_55 183
999 WORDSALL_a~2_retrouvé~3 183
999 COSIND_0.05 183
999 COSGEN_0.05 183
105 ESRank5 183
201 ESForwSacShort 183
999 WORDS_retrouvé~3 177
999 WORDFREQ_55 177
999 WORDSALL_retrouvé~3 177
999 COSIND_0.05 177
999 COSGEN_0.05 177
106 ESRank6 177
203 ESBackSacRefixation 177
999 WORDS_retrouvé~3 99
999 WORDFREQ_55 99
999 WORDSALL_retrouvé~3 99
999 COSIND_0.05 99
999 COSGEN_0.05 99
107 ESRank7 99
203 ESBackSacRefixation 99
999 WORDS_sportives~6 292
999 WORDFREQ_0.88 292
999 WORDSALL_couleurs~5_sportives~6 292
999 COSIND_0.36 292
999 COSGEN_0.36 292
108 ESRank8 292
202 ESForwSacLong+3+19 292
200 ESRankN 292
199 ESRankNMinus1 99
198 ESRankNMinus2 177
197 ESRankNMinus3 183
196 ESRankNMinus4 179
195 ESRankNMinus5 235
194 ESRankNMinus6 286
193 ESRankNMinus7 158
