999 WORDS_Quatre~0 118
999 WORDFREQ_282.64 118
999 WORDSALL_Quatre~0 118
999 COSIND_0.01 118
999 COSGEN_0.01 118
101 ESRank1 118
999 WORDS_jours~1 184
999 WORDFREQ_515.41 184
999 WORDSALL_jours~1 184
999 COSIND_-0.00 184
999 COSGEN_-0.00 184
102 ESRank2 184
201 ESForwSacShort 184
999 WORDS_grains~3 213
999 WORDFREQ_11.69 213
999 WORDSALL_de~2_grains~3 213
999 COSIND_-0.00 213
999 COSGEN_-0.00 213
103 ESRank3 213
202 ESForwSacLong+2+4 213
999 WORDS_sont~4 207
999 WORDFREQ_386.35 207
999 WORDSALL_grains~3_sont~4 207
999 COSIND_-0.01 207
999 COSGEN_-0.01 207
104 ESRank4 207
201 ESForwSacShort 207
999 WORDS_venus~5 193
999 WORDFREQ_40.41 193
999 WORDSALL_sont~4_venus~5 193
999 COSIND_-0.00 193
999 COSGEN_-0.00 193
105 ESRank5 193
201 ESForwSacShort 193
999 WORDS_clore~6 321
999 WORDFREQ_2.57 321
999 WORDSALL_venus~5_clore~6 321
999 COSIND_-0.02 321
999 COSGEN_-0.02 321
106 ESRank6 321
201 ESForwSacShort 321
999 WORDS_clore~6 114
999 WORDFREQ_2.57 114
999 WORDSALL_clore~6 114
999 COSIND_-0.02 114
999 COSGEN_-0.02 114
107 ESRank7 114
203 ESBackSacRefixation 114
999 WORDS_traversée~8 216
999 WORDFREQ_13.58 216
999 WORDSALL_Quatre~0_traversée~8 216
999 COSIND_-0.01 216
999 COSGEN_-0.01 216
108 ESRank8 216
202 ESForwSacLong+2+4 216
999 WORDS_traversée~8 119
999 WORDFREQ_13.58 119
999 WORDSALL_Quatre~0_jours~1_traversée~8 119
999 COSIND_-0.01 119
999 COSGEN_-0.01 119
109 ESRank9 119
203 ESBackSacRefixation 119
999 WORDS_Pacifique~10 368
999 WORDFREQ_0.34 368
999 WORDSALL_jours~1_grains~3_Pacifique~10 368
999 COSIND_-0.02 368
999 COSGEN_-0.02 368
110 ESRank10 368
202 ESForwSacLong+2+4 368
999 WORDS_L'eau~11 144
999 WORDFREQ_417.84 144
999 WORDSALL_L'eau~11 144
999 COSIND_0.02 144
999 COSGEN_0.02 144
111 ESRank11 144
201 ESForwSacShort 144
999 WORDS_gagné~13 297
999 WORDFREQ_33.51 297
999 WORDSALL_venus~5_L'eau~11_a~12_gagné~13 297
999 COSIND_-0.03 297
999 COSGEN_-0.03 297
112 ESRank12 297
202 ESForwSacLong+2+3 297
999 WORDS_gagné~13 118
999 WORDFREQ_33.51 118
999 WORDSALL_gagné~13 118
999 COSIND_-0.03 118
999 COSGEN_-0.03 118
113 ESRank13 118
203 ESBackSacRefixation 118
999 WORDS_bagarre~15 145
999 WORDFREQ_9.86 145
999 WORDSALL_traversée~8_bagarre~15 145
999 COSIND_-0.01 145
999 COSGEN_-0.01 145
114 ESRank14 145
202 ESForwSacLong+2+4 145
999 WORDS_bagarre~15 126
999 WORDFREQ_9.86 126
999 WORDSALL_traversée~8_bagarre~15 126
999 COSIND_-0.01 126
999 COSGEN_-0.01 126
115 ESRank15 126
203 ESBackSacRefixation 126
999 WORDS_bagarre~15 158
999 WORDFREQ_9.86 158
999 WORDSALL_traversée~8_bagarre~15 158
999 COSIND_-0.01 158
999 COSGEN_-0.01 158
116 ESRank16 158
203 ESBackSacRefixation 158
999 WORDS_était~18 125
999 WORDFREQ_3688.99 125
999 WORDSALL_du~9_Pacifique~10_était~18 125
999 COSIND_-0.01 125
999 COSGEN_-0.01 125
117 ESRank17 125
202 ESForwSacLong+3+9 125
999 WORDS_trempé~19 131
999 WORDFREQ_3.85 131
999 WORDSALL_était~18_trempé~19 131
999 COSIND_-0.04 131
999 COSGEN_-0.04 131
118 ESRank18 131
201 ESForwSacShort 131
999 WORDS_trempé~19 166
999 WORDFREQ_3.85 166
999 WORDSALL_trempé~19 166
999 COSIND_-0.04 166
999 COSGEN_-0.04 166
119 ESRank19 166
203 ESBackSacRefixation 166
999 WORDS_bord~21 189
999 WORDFREQ_197.36 189
999 WORDSALL_à~20_bord~21 189
999 COSIND_0.08 189
999 COSGEN_0.08 189
120 ESRank20 189
202 ESForwSacLong+2+4 189
999 WORDS_bord~21 93
999 WORDFREQ_197.36 93
999 WORDSALL_bord~21 93
999 COSIND_0.08 93
999 COSGEN_0.08 93
203 ESBackSacRefixation 93
999 WORDS_navigateur~23 101
999 WORDFREQ_1.89 101
999 WORDSALL_bagarre~15_navigateur~23 101
999 COSIND_0.04 101
999 COSGEN_0.04 101
202 ESForwSacLong+2+4 101
999 WORDS_bagarre~15 201
999 WORDFREQ_9.86 201
999 WORDSALL_bagarre~15 201
999 COSIND_-0.01 201
999 COSGEN_-0.01 201
206 ESBackSacRegrLong-8-35 201
200 ESRankN 201
199 ESRankNMinus1 101
198 ESRankNMinus2 93
197 ESRankNMinus3 189
196 ESRankNMinus4 166
195 ESRankNMinus5 131
194 ESRankNMinus6 125
193 ESRankNMinus7 158
192 ESRankNMinus8 126
191 ESRankNMinus9 145
190 ESRankNMinus10 118
