# 88 Fixation 1 (211,302.7): Le~0 bombardier~1 salon~7
# 331 Fixation 2 (305.4,295.6): Le~0 bombardier~1
# 185 Fixation 3 (463.6,254.3): Spirit~2
# 138 Fixation 4 (436.8,283.8): Spirit~2
# 217 Fixation 5 (625.7,202.2): les~4 visiteurs~5
# 130 Fixation 6 (660.6,189.5): visiteurs~5
# 243 Fixation 7 (270.8,348.7): Le~0 bombardier~1 salon~7
# 209 Fixation 8 (376,346): bombardier~1 Bourget~9
# 212 Fixation 9 (574.9,328.2): que~3 visiteurs~5 entraperçu~11
# 345 Fixation 10 (521.9,357.2): ont~10 entraperçu~11
# 246 Fixation 11 (570.9,354.2): entraperçu~11
# 185 Fixation 12 (539.3,354.1): ont~10 entraperçu~11
# 152 Fixation 13 (710.1,254.4): visiteurs~5
# 194 Fixation 14 (743.1,250): visiteurs~5
# 272 Fixation 15 (285.5,405.7): salon~7 temps~15
# 160 Fixation 16 (398.9,413.3): d'un~16 très~17
# 159 Fixation 17 (454.6,420): très~17 bref~18
# 199 Fixation 18 (526.5,426.1): bref~18 passage~19
# 122 Fixation 19 (641.1,402.6): entraperçu~11 juin~13 au-dessus~20
# 174 Fixation 20 (288.7,473.4): temps~15 têtes~23
%%
# Le~0 Fixations= "7/"
# bombardier~1 Fixations= "8/"
# Spirit~2 Fixations= "4/"
# que~3 Fixations= "9/"
# les~4 Fixations= "5/"
# visiteurs~5 Fixations= "14/"
# du~6 Fixations= ""
# salon~7 Fixations= "15/"
# du~8 Fixations= ""
# Bourget~9 Fixations= "8/"
# ont~10 Fixations= "12/"
# entraperçu~11 Fixations= "19/"
# en~12 Fixations= ""
# juin~13 Fixations= "19/"
# le~14 Fixations= ""
# temps~15 Fixations= "20/"
# d'un~16 Fixations= "16/"
# très~17 Fixations= "17/"
# bref~18 Fixations= "18/"
# passage~19 Fixations= "18/"
# au-dessus~20 Fixations= "19/"
# de~21 Fixations= ""
# leurs~22 Fixations= ""
# têtes~23 Fixations= "20/"
# est~24 Fixations= ""
# une~25 Fixations= ""
# drôle~26 Fixations= ""
# de~27 Fixations= ""
# machine~28 Fixations= ""
# volante~29 Fixations= ""
# pour~30 Fixations= ""
# les~31 Fixations= ""
# non~32 Fixations= ""
# initiés~33 Fixations= ""
%%
#  LE[7] BOMBARDIER[8] SPIRIT[4] QUE[9] LES[5] VISITEURS[14] du SALON[15] du BOURGET[8] ONT[12] ENTRAPERçU[19] en JUIN[19] le TEMPS[20] D'UN[16] TRèS[17] BREF[18] PASSAGE[18] AU-DESSUS[19] de leurs TêTES[20] est une drôle de machine volante pour les non initiés
# s20 allocation_familiale-a1 PercentageOfWordsProcessed= 0.529411764705882 PercentageOfWordsReallyProcessed= 0.75
