999 WORDS_navigateur~1 155
999 WORDFREQ_1.89 155
999 WORDSALL_navigateur~1 155
999 COSIND_0.56 155
999 COSGEN_0.56 155
101 ESRank1 155
999 WORDS_solitaire~2 223
999 WORDFREQ_20.88 223
999 WORDSALL_solitaire~2 223
999 COSIND_0.57 223
999 COSGEN_0.57 223
102 ESRank2 223
201 ESForwSacShort 223
999 WORDS_voulait~3 229
999 WORDFREQ_225.34 229
999 WORDSALL_voulait~3 229
999 COSIND_0.03 229
999 COSGEN_0.03 229
103 ESRank3 229
201 ESForwSacShort 229
999 WORDS_gagner~4 207
999 WORDFREQ_64.59 207
999 WORDSALL_gagner~4 207
999 COSIND_0.31 207
999 COSGEN_0.31 207
104 ESRank4 207
201 ESForwSacShort 207
999 WORDS_gagner~4 98
999 WORDFREQ_64.59 98
999 WORDSALL_gagner~4 98
999 COSIND_0.31 98
999 COSGEN_0.31 98
105 ESRank5 98
203 ESBackSacRefixation 98
999 WORDS_l'honneur~6 313
999 WORDFREQ_87.64 313
999 WORDSALL_l'honneur~6 313
999 COSIND_0.00 313
999 COSGEN_0.00 313
106 ESRank6 313
202 ESForwSacLong+2+6 313
999 WORDS_choix~8 168
999 WORDFREQ_51.42 168
999 WORDSALL_Un~7_choix~8 168
999 COSIND_-0.01 168
999 COSGEN_-0.01 168
107 ESRank7 168
202 ESForwSacLong+2+4 168
999 WORDS_météo~9 220
999 WORDFREQ_1.69 220
999 WORDSALL_météo~9 220
999 COSIND_N/A 220
108 ESRank8 220
201 ESForwSacShort 220
999 WORDS_décevant~10 251
999 WORDFREQ_2.23 251
999 WORDSALL_météo~9_décevant~10 251
999 COSIND_0.11 251
999 COSGEN_0.11 251
109 ESRank9 251
201 ESForwSacShort 251
999 WORDS_décevant~10 278
999 WORDFREQ_2.23 278
999 WORDSALL_décevant~10 278
999 COSIND_0.11 278
999 COSGEN_0.11 278
110 ESRank10 278
203 ESBackSacRefixation 278
999 WORDS_et~11 128
999 WORDFREQ_20879.73 128
999 WORDSALL_et~11 128
999 COSIND_N/A 128
111 ESRank11 128
201 ESForwSacShort 128
999 WORDS_grosse~13 254
999 WORDFREQ_85.81 254
999 WORDSALL_grosse~13 254
999 COSIND_0.17 254
999 COSGEN_0.17 254
112 ESRank12 254
202 ESForwSacLong+2+5 254
999 WORDS_avarie~14 228
999 WORDFREQ_0.41 228
999 WORDSALL_avarie~14 228
999 COSIND_0.55 228
999 COSGEN_0.55 228
113 ESRank13 228
201 ESForwSacShort 228
999 WORDS_avarie~14 226
999 WORDFREQ_0.41 226
999 WORDSALL_grosse~13_avarie~14 226
999 COSIND_0.55 226
999 COSGEN_0.55 226
114 ESRank14 226
203 ESBackSacRefixation 226
999 WORDS_grosse~13 145
999 WORDFREQ_85.81 145
999 WORDSALL_grosse~13 145
999 COSIND_0.17 145
999 COSGEN_0.17 145
115 ESRank15 145
205 ESBackSacRegrShort 145
999 WORDS_avarie~14 134
999 WORDFREQ_0.41 134
999 WORDSALL_grosse~13_avarie~14 134
999 COSIND_0.55 134
999 COSGEN_0.55 134
116 ESRank16 134
201 ESForwSacShort 134
999 WORDS_Pacifique~17 241
999 WORDFREQ_0.34 241
999 WORDSALL_dans~15_Pacifique~17 241
999 COSIND_0.19 241
999 COSGEN_0.19 241
117 ESRank17 241
202 ESForwSacLong+3+9 241
999 WORDS_ont~18 120
999 WORDFREQ_240.61 120
999 WORDSALL_ont~18 120
999 COSIND_0.04 120
999 COSGEN_0.04 120
118 ESRank18 120
201 ESForwSacShort 120
999 WORDS_raison~20 180
999 WORDFREQ_247.5 180
999 WORDSALL_raison~20 180
999 COSIND_0.04 180
999 COSGEN_0.04 180
119 ESRank19 180
202 ESForwSacLong+2+4 180
999 WORDS_chances~23 140
999 WORDFREQ_22.3 140
999 WORDSALL_ses~22_chances~23 140
999 COSIND_0.17 140
999 COSGEN_0.17 140
120 ESRank20 140
202 ESForwSacLong+3+8 140
999 WORDS_raison~20 167
999 WORDFREQ_247.5 167
999 WORDSALL_raison~20 167
999 COSIND_0.04 167
999 COSGEN_0.04 167
206 ESBackSacRegrLong-3-8 167
999 WORDS_a~25 264
999 WORDFREQ_2926.69 264
999 WORDSALL_Il~24_a~25 264
999 COSIND_N/A 264
202 ESForwSacLong+5+19 264
999 WORDS_drôle~28 169
999 WORDFREQ_85.47 169
999 WORDSALL_vécu~26_drôle~28 169
999 COSIND_0.09 169
999 COSGEN_0.09 169
202 ESForwSacLong+3+10 169
999 WORDS_monde~32 280
999 WORDFREQ_732.43 280
999 WORDSALL_tour~30_monde~32 280
999 COSIND_0.11 280
999 COSGEN_0.11 280
202 ESForwSacLong+4+12 280
999 WORDS_vécu~26 190
999 WORDFREQ_56.62 190
999 WORDSALL_vécu~26 190
999 COSIND_0.05 190
999 COSGEN_0.05 190
206 ESBackSacRegrLong-6-22 190
999 WORDS_vécu~26 124
999 WORDFREQ_56.62 124
999 WORDSALL_Il~24_a~25_vécu~26 124
999 COSIND_0.05 124
999 COSGEN_0.05 124
203 ESBackSacRefixation 124
999 WORDS_drôle~28 312
999 WORDFREQ_85.47 312
999 WORDSALL_un~27_drôle~28 312
999 COSIND_0.09 312
999 COSGEN_0.09 312
202 ESForwSacLong+2+4 312
999 WORDS_vécu~26 218
999 WORDFREQ_56.62 218
999 WORDSALL_Il~24_a~25_vécu~26 218
999 COSIND_0.05 218
999 COSGEN_0.05 218
206 ESBackSacRegrLong-2-4 218
999 WORDS_drôle~28 96
999 WORDFREQ_85.47 96
999 WORDSALL_un~27_drôle~28 96
999 COSIND_0.09 96
999 COSGEN_0.09 96
202 ESForwSacLong+2+4 96
999 WORDS_tour~30 206
999 WORDFREQ_280.27 206
999 WORDSALL_de~29_tour~30 206
999 COSIND_0.50 206
999 COSGEN_0.50 206
202 ESForwSacLong+2+4 206
999 WORDS_monde~32 297
999 WORDFREQ_732.43 297
999 WORDSALL_du~31_monde~32 297
999 COSIND_0.11 297
999 COSGEN_0.11 297
202 ESForwSacLong+2+4 297
999 WORDS_choix~8 374
999 WORDFREQ_51.42 374
999 WORDSALL_Un~7_choix~8 374
999 COSIND_-0.01 374
999 COSGEN_-0.01 374
206 ESBackSacRegrLong-24-119 374
999 WORDS_avarie~14 160
999 WORDFREQ_0.41 160
999 WORDSALL_avarie~14 160
999 COSIND_0.55 160
999 COSGEN_0.55 160
202 ESForwSacLong+6+33 160
999 WORDS_solitaire~2 135
999 WORDFREQ_20.88 135
999 WORDSALL_navigateur~1_solitaire~2 135
999 COSIND_0.57 135
999 COSGEN_0.57 135
206 ESBackSacRegrLong-12-72 135
200 ESRankN 135
199 ESRankNMinus1 160
198 ESRankNMinus2 374
197 ESRankNMinus3 297
196 ESRankNMinus4 206
195 ESRankNMinus5 96
194 ESRankNMinus6 218
193 ESRankNMinus7 312
192 ESRankNMinus8 124
191 ESRankNMinus9 190
190 ESRankNMinus10 280
