999 WORDS_réaction~1 275
999 WORDFREQ_20 275
999 WORDSALL_réaction~1 275
999 COSIND_-0.05 275
999 COSGEN_-0.05 275
101 ESRank1 275
999 WORDS_conduit~2 200
999 WORDFREQ_33.45 200
999 WORDSALL_conduit~2 200
999 COSIND_-0.07 200
999 COSGEN_-0.07 200
102 ESRank2 200
201 ESForwSacShort 200
999 WORDS_industriels~3 257
999 WORDFREQ_2.23 257
999 WORDSALL_industriels~3 257
999 COSIND_-0.00 257
999 COSGEN_-0.00 257
103 ESRank3 257
201 ESForwSacShort 257
999 WORDS_industriels~3 240
999 WORDFREQ_2.23 240
999 WORDSALL_industriels~3 240
999 COSIND_-0.00 240
999 COSGEN_-0.00 240
104 ESRank4 240
203 ESBackSacRefixation 240
999 WORDS_financiers~6 139
999 WORDFREQ_2.36 139
999 WORDSALL_milieux~5_financiers~6 139
999 COSIND_0.08 139
999 COSGEN_0.08 139
105 ESRank5 139
202 ESForwSacLong+3+12 139
999 WORDS_industriels~3 168
999 WORDFREQ_2.23 168
999 WORDSALL_conduit~2_industriels~3 168
999 COSIND_-0.00 168
999 COSGEN_-0.00 168
106 ESRank6 168
206 ESBackSacRegrLong-3-12 168
999 WORDS_conduit~2 165
999 WORDFREQ_33.45 165
999 WORDSALL_conduit~2 165
999 COSIND_-0.07 165
999 COSGEN_-0.07 165
107 ESRank7 165
205 ESBackSacRegrShort 165
999 WORDS_industriels~3 219
999 WORDFREQ_2.23 219
999 WORDSALL_industriels~3 219
999 COSIND_-0.00 219
999 COSGEN_-0.00 219
108 ESRank8 219
201 ESForwSacShort 219
999 WORDS_industriels~3 136
999 WORDFREQ_2.23 136
999 WORDSALL_industriels~3 136
999 COSIND_-0.00 136
999 COSGEN_-0.00 136
109 ESRank9 136
203 ESBackSacRefixation 136
999 WORDS_conduit~2 282
999 WORDFREQ_33.45 282
999 WORDSALL_conduit~2 282
999 COSIND_-0.07 282
999 COSGEN_-0.07 282
110 ESRank10 282
205 ESBackSacRegrShort 282
999 WORDS_réaction~1 264
999 WORDFREQ_20 264
999 WORDSALL_réaction~1 264
999 COSIND_-0.05 264
999 COSGEN_-0.05 264
111 ESRank11 264
205 ESBackSacRegrShort 264
999 WORDS_réaction~1 162
999 WORDFREQ_20 162
999 WORDSALL_réaction~1 162
999 COSIND_-0.05 162
999 COSGEN_-0.05 162
112 ESRank12 162
203 ESBackSacRefixation 162
999 WORDS_conduit~2 154
999 WORDFREQ_33.45 154
999 WORDSALL_conduit~2 154
999 COSIND_-0.07 154
999 COSGEN_-0.07 154
113 ESRank13 154
201 ESForwSacShort 154
999 WORDS_industriels~3 182
999 WORDFREQ_2.23 182
999 WORDSALL_industriels~3 182
999 COSIND_-0.00 182
999 COSGEN_-0.00 182
114 ESRank14 182
201 ESForwSacShort 182
999 WORDS_industriels~3 198
999 WORDFREQ_2.23 198
999 WORDSALL_industriels~3 198
999 COSIND_-0.00 198
999 COSGEN_-0.00 198
115 ESRank15 198
203 ESBackSacRefixation 198
999 WORDS_industriels~3 282
999 WORDFREQ_2.23 282
999 WORDSALL_industriels~3 282
999 COSIND_-0.00 282
999 COSGEN_-0.00 282
116 ESRank16 282
203 ESBackSacRefixation 282
999 WORDS_milieux~5 245
999 WORDFREQ_9.39 245
999 WORDSALL_milieux~5 245
999 COSIND_0.00 245
999 COSGEN_0.00 245
117 ESRank17 245
202 ESForwSacLong+2+4 245
999 WORDS_financiers~6 190
999 WORDFREQ_2.36 190
999 WORDSALL_financiers~6 190
999 COSIND_0.08 190
999 COSGEN_0.08 190
118 ESRank18 190
201 ESForwSacShort 190
999 WORDS_prudence~9 167
999 WORDFREQ_19.32 167
999 WORDSALL_à~7_prudence~9 167
999 COSIND_0.16 167
999 COSGEN_0.16 167
119 ESRank19 167
202 ESForwSacLong+3+7 167
999 WORDS_prudence~9 215
999 WORDFREQ_19.32 215
999 WORDSALL_la~8_prudence~9 215
999 COSIND_0.16 215
999 COSGEN_0.16 215
120 ESRank20 215
203 ESBackSacRefixation 215
999 WORDS_D'autant~10 178
999 WORDFREQ_240.41 178
999 WORDSALL_D'autant~10 178
999 COSIND_N/A 178
201 ESForwSacShort 178
999 WORDS_champion~13 195
999 WORDFREQ_10.81 195
999 WORDSALL_que~11_champion~13 195
999 COSIND_-0.05 195
999 COSGEN_-0.05 195
202 ESForwSacLong+3+8 195
999 WORDS_champion~13 174
999 WORDFREQ_10.81 174
999 WORDSALL_le~12_champion~13 174
999 COSIND_-0.05 174
999 COSGEN_-0.05 174
203 ESBackSacRefixation 174
999 WORDS_a~16 289
999 WORDFREQ_2926.69 289
999 WORDSALL_des~14_OGM~15_a~16 289
999 COSIND_N/A 289
202 ESForwSacLong+3+9 289
999 WORDS_OGM~15 162
999 WORDFREQ_N/A 162
999 WORDSALL_des~14_OGM~15 162
999 COSIND_N/A 162
205 ESBackSacRegrShort 162
999 WORDS_vu~17 271
999 WORDFREQ_393.45 271
999 WORDSALL_a~16_vu~17 271
999 COSIND_-0.07 271
999 COSGEN_-0.07 271
202 ESForwSacLong+2+3 271
999 WORDS_chiffre~19 142
999 WORDFREQ_12.7 142
999 WORDSALL_son~18_chiffre~19 142
999 COSIND_0.15 142
999 COSGEN_0.15 142
202 ESForwSacLong+2+5 142
999 WORDS_d'affaire~20 179
999 WORDFREQ_150.54 179
999 WORDSALL_d'affaire~20 179
999 COSIND_0.06 179
999 COSGEN_0.06 179
201 ESForwSacShort 179
999 WORDS_d'affaire~20 148
999 WORDFREQ_150.54 148
999 WORDSALL_d'affaire~20 148
999 COSIND_0.06 148
999 COSGEN_0.06 148
203 ESBackSacRefixation 148
999 WORDS_baisser~21 161
999 WORDFREQ_12.7 161
999 WORDSALL_baisser~21 161
999 COSIND_0.24 161
999 COSGEN_0.24 161
201 ESForwSacShort 161
999 WORDS_valeurs~23 214
999 WORDFREQ_11.55 214
999 WORDSALL_Les~22_valeurs~23 214
999 COSIND_0.54 214
999 COSGEN_0.54 214
202 ESForwSacLong+2+5 214
999 WORDS_biotechnologie~25 333
999 WORDFREQ_0 333
999 WORDSALL_biotechnologie~25 333
999 COSIND_N/A 333
202 ESForwSacLong+2+4 333
999 WORDS_valeurs~23 246
999 WORDFREQ_11.55 246
999 WORDSALL_Les~22_valeurs~23 246
999 COSIND_0.54 246
999 COSGEN_0.54 246
206 ESBackSacRegrLong-2-4 246
999 WORDS_ont~26 153
999 WORDFREQ_553.31 153
999 WORDSALL_ont~26 153
999 COSIND_0.08 153
999 COSGEN_0.08 153
202 ESForwSacLong+3+19 153
999 WORDS_perdu~27 177
999 WORDFREQ_115.07 177
999 WORDSALL_perdu~27 177
999 COSIND_0.12 177
999 COSGEN_0.12 177
201 ESForwSacShort 177
999 WORDS_attrait~30 264
999 WORDFREQ_6.96 264
999 WORDSALL_leur~29_attrait~30 264
999 COSIND_-0.04 264
999 COSGEN_-0.04 264
202 ESForwSacLong+3+9 264
999 WORDS_a~16 225
999 WORDFREQ_2926.69 225
999 WORDSALL_OGM~15_a~16 225
999 COSIND_N/A 225
206 ESBackSacRegrLong-14-82 225
200 ESRankN 225
199 ESRankNMinus1 264
198 ESRankNMinus2 177
197 ESRankNMinus3 153
196 ESRankNMinus4 246
195 ESRankNMinus5 333
194 ESRankNMinus6 214
193 ESRankNMinus7 161
192 ESRankNMinus8 148
191 ESRankNMinus9 179
190 ESRankNMinus10 142
