999 WORDS_magie~2 124
999 WORDFREQ_15.14 124
999 WORDSALL_Toute~0_magie~2 124
999 COSIND_0.19 124
999 COSGEN_0.19 124
101 ESRank1 124
999 WORDS_hauts~4 152
999 WORDFREQ_29.26 152
999 WORDSALL_des~3_hauts~4 152
999 COSIND_0.10 152
999 COSGEN_0.10 152
102 ESRank2 152
202 ESForwSacLong+2+5 152
999 WORDS_basaltiques~6 175
999 WORDFREQ_N/A 175
999 WORDSALL_basaltiques~6 175
999 COSIND_N/A 175
103 ESRank3 175
202 ESForwSacLong+2+10 175
999 WORDS_neige~9 107
999 WORDFREQ_74.93 107
999 WORDSALL_avec~7_neige~9 107
999 COSIND_0.56 107
999 COSGEN_0.56 107
104 ESRank4 107
202 ESForwSacLong+3+9 107
999 WORDS_plus~11 161
999 WORDFREQ_5014.53 161
999 WORDSALL_en~10_plus~11 161
999 COSIND_0.00 161
999 COSGEN_0.00 161
105 ESRank5 161
202 ESForwSacLong+2+4 161
999 WORDS_programme~13 168
999 WORDFREQ_21.89 168
999 WORDSALL_programme~13 168
999 COSIND_-0.03 168
999 COSGEN_-0.03 168
106 ESRank6 168
202 ESForwSacLong+2+4 168
999 WORDS_randonnée~14 135
999 WORDFREQ_2.64 135
999 WORDSALL_randonnée~14 135
999 COSIND_0.70 135
999 COSGEN_0.70 135
107 ESRank7 135
201 ESForwSacShort 135
999 WORDS_ski~19 108
999 WORDFREQ_5 108
999 WORDSALL_ski~19 108
999 COSIND_0.52 108
999 COSGEN_0.52 108
108 ESRank8 108
202 ESForwSacLong+5+25 108
200 ESRankN 108
199 ESRankNMinus1 135
198 ESRankNMinus2 168
197 ESRankNMinus3 161
196 ESRankNMinus4 107
195 ESRankNMinus5 175
194 ESRankNMinus6 152
193 ESRankNMinus7 124
