# 188 Fixation 1 (365.6,267.2): le~1 jugement~2
# 180 Fixation 2 (552,277): cité~3
# 185 Fixation 3 (548,303.8): cité~3 plusieurs~12
# 150 Fixation 4 (661.2,345.1): La~5 Nacion~6 plusieurs~12 arguments~13
# 296 Fixation 5 (612.7,277): par~4 Nacion~6
# 163 Fixation 6 (665.7,360.5): plusieurs~12 arguments~13
# 246 Fixation 7 (649.3,344.6): La~5 Nacion~6 plusieurs~12
# 118 Fixation 8 (347,335.3): le~1 jugement~2 juges~8 mettent~9
# 139 Fixation 9 (263.5,368.5): juges~8
# 170 Fixation 10 (435.6,419.6): arguant~16
# 156 Fixation 11 (581.2,388.9): plusieurs~12 type~19
# 146 Fixation 12 (661.7,375.5): plusieurs~12 arguments~13
# 210 Fixation 13 (291.6,460.7): de~14 forme~15
# 172 Fixation 14 (456.1,451.6): arguant~16 juge~25
# 192 Fixation 15 (613.7,448.9): type~19
%%
# Dans~0 Fixations= ""
# le~1 Fixations= "8/"
# jugement~2 Fixations= "8/"
# cité~3 Fixations= "3/"
# par~4 Fixations= "5/"
# La~5 Fixations= "7/"
# Nacion~6 Fixations= "7/"
# les~7 Fixations= ""
# juges~8 Fixations= "9/"
# mettent~9 Fixations= "8/"
# en~10 Fixations= ""
# avant~11 Fixations= ""
# plusieurs~12 Fixations= "12/"
# arguments~13 Fixations= "12/"
# de~14 Fixations= "13/"
# forme~15 Fixations= "13/"
# arguant~16 Fixations= "14/"
# que~17 Fixations= ""
# le~18 Fixations= ""
# type~19 Fixations= "15/"
# de~20 Fixations= ""
# procédure~21 Fixations= ""
# lancé~22 Fixations= ""
# par~23 Fixations= ""
# le~24 Fixations= ""
# juge~25 Fixations= "14/"
# Cerda~26 Fixations= ""
# serait~27 Fixations= ""
# inapproprié~28 Fixations= ""
%%
#  Dans LE[8] JUGEMENT[8] CITé[3] PAR[5] LA[7] NACION[7] les JUGES[9] METTENT[8] en avant PLUSIEURS[12] ARGUMENTS[12] DE[13] FORME[13] ARGUANT[14] que le TYPE[15] de procédure lancé par le JUGE[14] Cerda serait inapproprié
# s21 rechauffement_climatique-a1 PercentageOfWordsProcessed= 0.517241379310345 PercentageOfWordsReallyProcessed= 0.576923076923077
