999 WORDS_bourse~1 240
999 WORDFREQ_11.22 240
999 WORDSALL_La~0_bourse~1 240
999 COSIND_0.89 240
999 COSGEN_0.89 240
101 ESRank1 240
999 WORDS_Tokyo~3 155
999 WORDFREQ_N/A 155
999 WORDSALL_de~2_Tokyo~3 155
999 COSIND_N/A 155
102 ESRank2 155
202 ESForwSacLong+2+4 155
999 WORDS_a~4 177
999 WORDFREQ_2926.69 177
999 WORDSALL_Tokyo~3_a~4 177
999 COSIND_N/A 177
103 ESRank3 177
201 ESForwSacShort 177
999 WORDS_ 157
999 WORDFREQ_ 157
999 WORDSALL_ 157
104 ESRank4 157
999 WORDS_ 168
999 WORDFREQ_ 168
999 WORDSALL_ 168
105 ESRank5 168
999 WORDS_mardi~9 167
999 WORDFREQ_15.47 167
999 WORDSALL_mardi~9 167
999 COSIND_0.14 167
999 COSGEN_0.14 167
106 ESRank6 167
999 WORDS_mardi~9 172
999 WORDFREQ_15.47 172
999 WORDSALL_mardi~9 172
999 COSIND_0.14 172
999 COSGEN_0.14 172
107 ESRank7 172
203 ESBackSacRefixation 172
999 WORDS_légère~11 200
999 WORDFREQ_47.84 200
999 WORDSALL_en~10_légère~11 200
999 COSIND_0.33 200
999 COSGEN_0.33 200
108 ESRank8 200
202 ESForwSacLong+2+4 200
999 WORDS_hausse~12 290
999 WORDFREQ_2.09 290
999 WORDSALL_légère~11_hausse~12 290
999 COSIND_0.85 290
999 COSGEN_0.85 290
109 ESRank9 290
201 ESForwSacShort 290
999 WORDS_soutenue~13 131
999 WORDFREQ_1.49 131
999 WORDSALL_soutenue~13 131
999 COSIND_0.10 131
999 COSGEN_0.10 131
110 ESRank10 131
201 ESForwSacShort 131
999 WORDS_légère~11 248
999 WORDFREQ_47.84 248
999 WORDSALL_en~10_légère~11 248
999 COSIND_0.33 248
999 COSGEN_0.33 248
111 ESRank11 248
206 ESBackSacRegrLong-2-8 248
999 WORDS_mardi~9 245
999 WORDFREQ_15.47 245
999 WORDSALL_mardi~9 245
999 COSIND_0.14 245
999 COSGEN_0.14 245
112 ESRank12 245
206 ESBackSacRegrLong-2-4 245
999 WORDS_soutenue~13 332
999 WORDFREQ_1.49 332
999 WORDSALL_hausse~12_soutenue~13 332
999 COSIND_0.10 332
999 COSGEN_0.10 332
113 ESRank13 332
202 ESForwSacLong+4+20 332
999 WORDS_achats~16 205
999 WORDFREQ_6.01 205
999 WORDSALL_achats~16 205
999 COSIND_0.20 205
999 COSGEN_0.20 205
114 ESRank14 205
202 ESForwSacLong+3+9 205
999 WORDS_achats~16 206
999 WORDFREQ_6.01 206
999 WORDSALL_achats~16 206
999 COSIND_0.20 206
999 COSGEN_0.20 206
115 ESRank15 206
203 ESBackSacRefixation 206
200 ESRankN 206
199 ESRankNMinus1 205
198 ESRankNMinus2 332
197 ESRankNMinus3 245
196 ESRankNMinus4 248
195 ESRankNMinus5 131
194 ESRankNMinus6 290
193 ESRankNMinus7 200
192 ESRankNMinus8 172
191 ESRankNMinus9 167
190 ESRankNMinus10 168
