999 WORDS_ 211
999 WORDFREQ_ 211
999 WORDSALL_ 211
101 ESRank1 211
999 WORDS_serment~2 227
999 WORDFREQ_8.85 227
999 WORDSALL_sous~1_serment~2 227
999 COSIND_0.23 227
999 COSGEN_0.23 227
102 ESRank2 227
999 WORDS_insulte~5 163
999 WORDFREQ_6.96 163
999 WORDSALL_c'est~3_insulte~5 163
999 COSIND_-0.04 163
999 COSGEN_-0.04 163
103 ESRank3 163
202 ESForwSacLong+3+11 163
999 WORDS_insulte~5 135
999 WORDFREQ_6.96 135
999 WORDSALL_une~4_insulte~5 135
999 COSIND_-0.04 135
999 COSGEN_-0.04 135
104 ESRank4 135
203 ESBackSacRefixation 135
999 WORDS_sous~1 147
999 WORDFREQ_1032.7 147
999 WORDSALL_sous~1 147
999 COSIND_0.05 147
999 COSGEN_0.05 147
105 ESRank5 147
206 ESBackSacRegrLong-4-19 147
999 WORDS_Mentir~0 216
999 WORDFREQ_15.2 216
999 WORDSALL_Mentir~0 216
999 COSIND_0.01 216
999 COSGEN_0.01 216
106 ESRank6 216
205 ESBackSacRegrShort 216
999 WORDS_serment~2 186
999 WORDFREQ_8.85 186
999 WORDSALL_sous~1_serment~2 186
999 COSIND_0.23 186
999 COSGEN_0.23 186
107 ESRank7 186
202 ESForwSacLong+2+6 186
999 WORDS_insulte~5 149
999 WORDFREQ_6.96 149
999 WORDSALL_c'est~3_insulte~5 149
999 COSIND_-0.04 149
999 COSGEN_-0.04 149
108 ESRank8 149
202 ESForwSacLong+3+11 149
999 WORDS_a~20 197
999 WORDFREQ_1669.39 197
999 WORDSALL_y~19_a~20 197
999 COSIND_N/A 197
109 ESRank9 197
202 ESForwSacLong+15+74 197
999 WORDS_gens~22 81
999 WORDFREQ_409.39 81
999 WORDSALL_des~21_gens~22 81
999 COSIND_-0.01 81
999 COSGEN_-0.01 81
110 ESRank10 81
202 ESForwSacLong+2+5 81
999 WORDS_crimes~28 138
999 WORDFREQ_15.74 138
999 WORDSALL_de~26_crimes~28 138
999 COSIND_0.17 138
999 COSGEN_0.17 138
111 ESRank11 138
202 ESForwSacLong+6+24 138
999 WORDS_prison~24 181
999 WORDFREQ_64.66 181
999 WORDSALL_prison~24 181
999 COSIND_0.02 181
999 COSGEN_0.02 181
112 ESRank12 181
206 ESBackSacRegrLong-4-14 181
999 WORDS_prison~24 103
999 WORDFREQ_64.66 103
999 WORDSALL_prison~24 103
999 COSIND_0.02 103
999 COSGEN_0.02 103
113 ESRank13 103
203 ESBackSacRefixation 103
999 WORDS_crimes~28 265
999 WORDFREQ_15.74 265
999 WORDSALL_de~26_crimes~28 265
999 COSIND_0.17 265
999 COSGEN_0.17 265
114 ESRank14 265
202 ESForwSacLong+4+14 265
999 WORDS_loi~17 158
999 WORDFREQ_44.46 158
999 WORDSALL_bafouer~15_loi~17 158
999 COSIND_-0.06 158
999 COSGEN_-0.06 158
115 ESRank15 158
206 ESBackSacRegrLong-11-40 158
999 WORDS_bafouer~15 347
999 WORDFREQ_0.68 347
999 WORDSALL_c'est~14_bafouer~15 347
999 COSIND_0.13 347
999 COSGEN_0.13 347
116 ESRank16 347
206 ESBackSacRegrLong-2-4 347
200 ESRankN 347
199 ESRankNMinus1 158
198 ESRankNMinus2 265
197 ESRankNMinus3 103
196 ESRankNMinus4 181
195 ESRankNMinus5 138
194 ESRankNMinus6 81
193 ESRankNMinus7 197
192 ESRankNMinus8 149
191 ESRankNMinus9 186
190 ESRankNMinus10 216
