999 WORDS_Sud-ouest~9 265
999 WORDFREQ_3.51 265
999 WORDSALL_du~8_Sud-ouest~9 265
999 COSIND_N/A 265
101 ESRank1 265
999 WORDS_appartiendra~10 266
999 WORDFREQ_1.01 266
999 WORDSALL_appartiendra~10 266
999 COSIND_-0.02 266
999 COSGEN_-0.02 266
102 ESRank2 266
201 ESForwSacShort 266
999 WORDS_décret~16 325
999 WORDFREQ_6.42 325
999 WORDSALL_Un~15_décret~16 325
999 COSIND_0.18 325
999 COSGEN_0.18 325
103 ESRank3 325
202 ESForwSacLong+6+38 325
999 WORDS_premier~23 244
999 WORDFREQ_237.91 244
999 WORDSALL_le~22_premier~23 244
999 COSIND_-0.06 244
999 COSGEN_-0.06 244
104 ESRank4 244
202 ESForwSacLong+7+35 244
999 WORDS_global~27 194
999 WORDFREQ_1.15 194
999 WORDSALL_global~27 194
999 COSIND_0.03 194
999 COSGEN_0.03 194
105 ESRank5 194
202 ESForwSacLong+4+21 194
999 WORDS_écologistes~29 135
999 WORDFREQ_0.2 135
999 WORDSALL_entre~28_écologistes~29 135
999 COSIND_0.46 135
999 COSGEN_0.46 135
106 ESRank6 135
202 ESForwSacLong+2+7 135
200 ESRankN 135
199 ESRankNMinus1 194
198 ESRankNMinus2 244
197 ESRankNMinus3 325
196 ESRankNMinus4 266
195 ESRankNMinus5 265
