999 WORDS_réaction~1 99
999 WORDFREQ_20 99
999 WORDSALL_Cette~0_réaction~1 99
999 COSIND_-0.05 99
999 COSGEN_-0.05 99
101 ESRank1 99
999 WORDS_réaction~1 212
999 WORDFREQ_20 212
999 WORDSALL_Cette~0_réaction~1 212
999 COSIND_-0.05 212
999 COSGEN_-0.05 212
102 ESRank2 212
203 ESBackSacRefixation 212
999 WORDS_conduit~2 388
999 WORDFREQ_33.45 388
999 WORDSALL_conduit~2 388
999 COSIND_-0.07 388
999 COSGEN_-0.07 388
103 ESRank3 388
201 ESForwSacShort 388
999 WORDS_industriels~3 243
999 WORDFREQ_2.23 243
999 WORDSALL_industriels~3 243
999 COSIND_-0.00 243
999 COSGEN_-0.00 243
104 ESRank4 243
201 ESForwSacShort 243
999 WORDS_milieux~5 291
999 WORDFREQ_9.39 291
999 WORDSALL_milieux~5 291
999 COSIND_0.00 291
999 COSGEN_0.00 291
105 ESRank5 291
202 ESForwSacLong+2+4 291
999 WORDS_financiers~6 138
999 WORDFREQ_2.36 138
999 WORDSALL_financiers~6 138
999 COSIND_0.08 138
999 COSGEN_0.08 138
106 ESRank6 138
201 ESForwSacShort 138
999 WORDS_prudence~9 373
999 WORDFREQ_19.32 373
999 WORDSALL_à~7_prudence~9 373
999 COSIND_0.16 373
999 COSGEN_0.16 373
107 ESRank7 373
202 ESForwSacLong+3+7 373
999 WORDS_financiers~6 232
999 WORDFREQ_2.36 232
999 WORDSALL_financiers~6 232
999 COSIND_0.08 232
999 COSGEN_0.08 232
108 ESRank8 232
206 ESBackSacRegrLong-3-7 232
999 WORDS_prudence~9 201
999 WORDFREQ_19.32 201
999 WORDSALL_prudence~9 201
999 COSIND_0.16 201
999 COSGEN_0.16 201
109 ESRank9 201
202 ESForwSacLong+3+7 201
999 WORDS_champion~13 259
999 WORDFREQ_10.81 259
999 WORDSALL_le~12_champion~13 259
999 COSIND_-0.05 259
999 COSGEN_-0.05 259
110 ESRank10 259
202 ESForwSacLong+4+17 259
999 WORDS_OGM~15 198
999 WORDFREQ_N/A 198
999 WORDSALL_des~14_OGM~15 198
999 COSIND_N/A 198
111 ESRank11 198
202 ESForwSacLong+2+5 198
999 WORDS_OGM~15 103
999 WORDFREQ_N/A 103
999 WORDSALL_des~14_OGM~15 103
999 COSIND_N/A 103
112 ESRank12 103
203 ESBackSacRefixation 103
999 WORDS_chiffre~19 254
999 WORDFREQ_12.7 254
999 WORDSALL_vu~17_chiffre~19 254
999 COSIND_0.15 254
999 COSGEN_0.15 254
113 ESRank13 254
202 ESForwSacLong+4+10 254
999 WORDS_d'affaire~20 262
999 WORDFREQ_150.54 262
999 WORDSALL_d'affaire~20 262
999 COSIND_0.06 262
999 COSGEN_0.06 262
114 ESRank14 262
201 ESForwSacShort 262
999 WORDS_d'affaire~20 178
999 WORDFREQ_150.54 178
999 WORDSALL_d'affaire~20 178
999 COSIND_0.06 178
999 COSGEN_0.06 178
115 ESRank15 178
203 ESBackSacRefixation 178
999 WORDS_valeurs~23 188
999 WORDFREQ_11.55 188
999 WORDSALL_Les~22_valeurs~23 188
999 COSIND_0.54 188
999 COSGEN_0.54 188
116 ESRank16 188
202 ESForwSacLong+3+13 188
999 WORDS_biotechnologie~25 234
999 WORDFREQ_0 234
999 WORDSALL_biotechnologie~25 234
999 COSIND_N/A 234
117 ESRank17 234
202 ESForwSacLong+2+4 234
999 WORDS_biotechnologie~25 121
999 WORDFREQ_0 121
999 WORDSALL_biotechnologie~25 121
999 COSIND_N/A 121
118 ESRank18 121
203 ESBackSacRefixation 121
999 WORDS_perdu~27 284
999 WORDFREQ_115.07 284
999 WORDSALL_perdu~27 284
999 COSIND_0.12 284
999 COSGEN_0.12 284
119 ESRank19 284
202 ESForwSacLong+2+5 284
999 WORDS_perdu~27 121
999 WORDFREQ_115.07 121
999 WORDSALL_ont~26_perdu~27 121
999 COSIND_0.12 121
999 COSGEN_0.12 121
120 ESRank20 121
203 ESBackSacRefixation 121
999 WORDS_attrait~30 209
999 WORDFREQ_6.96 209
999 WORDSALL_leur~29_attrait~30 209
999 COSIND_-0.04 209
999 COSGEN_-0.04 209
202 ESForwSacLong+3+9 209
200 ESRankN 209
199 ESRankNMinus1 121
198 ESRankNMinus2 284
197 ESRankNMinus3 121
196 ESRankNMinus4 234
195 ESRankNMinus5 188
194 ESRankNMinus6 178
193 ESRankNMinus7 262
192 ESRankNMinus8 254
191 ESRankNMinus9 103
190 ESRankNMinus10 198
