# 110 Fixation 1 (263.1,298.8): La~0 filiale~1
# 151 Fixation 2 (302,297.6): La~0 filiale~1
# 185 Fixation 3 (438,290.4): déchets~2
# 113 Fixation 4 (511.4,292.5): déchets~2 Suez~4
# 139 Fixation 5 (567.9,291.8): de~3 Suez~4
# 236 Fixation 6 (641.7,294.4): Lyonnaise~5
# 114 Fixation 7 (714.1,290.8): Lyonnaise~5
# 183 Fixation 8 (271.2,350.5): eaux~7
# 235 Fixation 9 (344.7,345.9): eaux~7 a~8 mis~9
# 260 Fixation 10 (333.2,343.7): eaux~7 a~8 mis~9
# 161 Fixation 11 (429.4,348.5): en~10 garde~11
# 195 Fixation 12 (538.9,351.9): mercredi~12
# 87 Fixation 13 (588.3,349.2): mercredi~12 27~13
# 112 Fixation 14 (763.3,357.7): janvier~14
# 129 Fixation 15 (316.1,395.8): marchés~16
# 197 Fixation 16 (464.5,405.4): possible~18
# 193 Fixation 17 (571.9,412.6): baisse~19
# 88 Fixation 18 (678,418.6): de~20
# 192 Fixation 19 (279.1,463.9): résultats~22
# 202 Fixation 20 (451.3,467.5): la~24 suite~25
# 131 Fixation 21 (610.7,480.7): d'une~26 modification~27
# 131 Fixation 22 (667.8,475.6): modification~27
# 138 Fixation 23 (357.3,536.3): réglementation~30
# 158 Fixation 24 (596.5,540): les~32 décharges~33
# 160 Fixation 25 (642.9,542.4): décharges~33
%%
# La~0 Fixations= "2/"
# filiale~1 Fixations= "2/"
# déchets~2 Fixations= "4/"
# de~3 Fixations= "5/"
# Suez~4 Fixations= "5/"
# Lyonnaise~5 Fixations= "7/"
# des~6 Fixations= ""
# eaux~7 Fixations= "10/"
# a~8 Fixations= "10/"
# mis~9 Fixations= "10/"
# en~10 Fixations= "11/"
# garde~11 Fixations= "11/"
# mercredi~12 Fixations= "13/"
# 27~13 Fixations= "13/"
# janvier~14 Fixations= "14/"
# les~15 Fixations= ""
# marchés~16 Fixations= "15/"
# d'une~17 Fixations= ""
# possible~18 Fixations= "16/"
# baisse~19 Fixations= "17/"
# de~20 Fixations= "18/"
# ses~21 Fixations= ""
# résultats~22 Fixations= "19/"
# à~23 Fixations= ""
# la~24 Fixations= "20/"
# suite~25 Fixations= "20/"
# d'une~26 Fixations= "21/"
# modification~27 Fixations= "22/"
# de~28 Fixations= ""
# la~29 Fixations= ""
# réglementation~30 Fixations= "23/"
# sur~31 Fixations= ""
# les~32 Fixations= "24/"
# décharges~33 Fixations= "25/"
%%
#  LA[2] FILIALE[2] DéCHETS[4] DE[5] SUEZ[5] LYONNAISE[7] des EAUX[10] A[10] MIS[10] EN[11] GARDE[11] MERCREDI[13] 27[13] JANVIER[14] les MARCHéS[15] d'une POSSIBLE[16] BAISSE[17] DE[18] ses RéSULTATS[19] à LA[20] SUITE[20] D'UNE[21] MODIFICATION[22] de la RéGLEMENTATION[23] sur LES[24] DéCHARGES[25]
# s06 dechets_nucleaires-m1 PercentageOfWordsProcessed= 0.764705882352941 PercentageOfWordsReallyProcessed= 0.764705882352941
