# 155 Fixation 1 (283.4,283.3): Une~0 inquiétude~1
# 160 Fixation 2 (315,294.4): Une~0 inquiétude~1
# 269 Fixation 3 (475.4,231.3): particulière~2
# 265 Fixation 4 (672.4,170.7): pointe~3
# 240 Fixation 5 (652,177.1): pointe~3
# 258 Fixation 6 (303.1,345.4): Une~0 inquiétude~1 responsabilité~7
# 164 Fixation 7 (460.1,340.4): particulière~2 pénale~8
# 149 Fixation 8 (522.4,332.7): particulière~2 pénale~8
# 205 Fixation 9 (642,297.3): pointe~3
# 261 Fixation 10 (303,415.9): d'établissement~11
# 194 Fixation 11 (501.7,412.2): pénale~8 mise~12
# 135 Fixation 12 (462.8,420.2): mise~12
# 218 Fixation 13 (577.6,417.4): en~13 jeu~14
# 165 Fixation 14 (314,483.1): d'accidents~16
%%
# Une~0 Fixations= "6/"
# inquiétude~1 Fixations= "6/"
# particulière~2 Fixations= "8/"
# pointe~3 Fixations= "9/"
# quant~4 Fixations= ""
# à~5 Fixations= ""
# la~6 Fixations= ""
# responsabilité~7 Fixations= "6/"
# pénale~8 Fixations= "11/"
# des~9 Fixations= ""
# chefs~10 Fixations= ""
# d'établissement~11 Fixations= "10/"
# mise~12 Fixations= "12/"
# en~13 Fixations= "13/"
# jeu~14 Fixations= "13/"
# lors~15 Fixations= ""
# d'accidents~16 Fixations= "14/"
# survenus~17 Fixations= ""
# à~18 Fixations= ""
# cause~19 Fixations= ""
# d'équipements~20 Fixations= ""
# défectueux~21 Fixations= ""
# alors~22 Fixations= ""
# que~23 Fixations= ""
# l'entretien~24 Fixations= ""
# en~25 Fixations= ""
# incombe~26 Fixations= ""
# aux~27 Fixations= ""
# collectivités~28 Fixations= ""
# locales~29 Fixations= ""
%%
#  UNE[6] INQUIéTUDE[6] PARTICULIèRE[8] POINTE[9] quant à la RESPONSABILITé[6] PéNALE[11] des chefs D'éTABLISSEMENT[10] MISE[12] EN[13] JEU[13] lors D'ACCIDENTS[14] survenus à cause d'équipements défectueux alors que l'entretien en incombe aux collectivités locales
# s20 plantation_fleurs-a1 PercentageOfWordsProcessed= 0.366666666666667 PercentageOfWordsReallyProcessed= 0.647058823529412
