999 WORDS_L'entraîneur~0 134
999 WORDFREQ_2.77 134
999 WORDSALL_L'entraîneur~0 134
999 COSIND_-0.01 134
999 COSGEN_-0.01 134
101 ESRank1 134
999 WORDS_dirige~1 194
999 WORDFREQ_12.77 194
999 WORDSALL_dirige~1 194
999 COSIND_0.04 194
999 COSGEN_0.04 194
102 ESRank2 194
201 ESForwSacShort 194
999 WORDS_l'équipe~2 189
999 WORDFREQ_26.28 189
999 WORDSALL_l'équipe~2 189
999 COSIND_0.05 189
999 COSGEN_0.05 189
103 ESRank3 189
201 ESForwSacShort 189
999 WORDS_féminine~3 124
999 WORDFREQ_13.38 124
999 WORDSALL_féminine~3 124
999 COSIND_-0.06 124
999 COSGEN_-0.06 124
104 ESRank4 124
201 ESForwSacShort 124
999 WORDS_cinq~5 173
999 WORDFREQ_220.61 173
999 WORDSALL_L'entraîneur~0_cinq~5 173
999 COSIND_0.03 173
999 COSGEN_0.03 173
105 ESRank5 173
202 ESForwSacLong+2+11 173
999 WORDS_ans~6 164
999 WORDFREQ_609.05 164
999 WORDSALL_dirige~1_ans~6 164
999 COSIND_-0.04 164
999 COSGEN_-0.04 164
106 ESRank6 164
201 ESForwSacShort 164
999 WORDS_avoir~8 148
999 WORDFREQ_649.26 148
999 WORDSALL_l'équipe~2_après~7_avoir~8 148
999 COSIND_-0.02 148
999 COSGEN_-0.02 148
107 ESRank7 148
202 ESForwSacLong+2+8 148
999 WORDS_été~9 137
999 WORDFREQ_818.99 137
999 WORDSALL_féminine~3_été~9 137
999 COSIND_0.00 137
999 COSGEN_0.00 137
108 ESRank8 137
201 ESForwSacShort 137
999 WORDS_champion~10 152
999 WORDFREQ_10.81 152
999 WORDSALL_féminine~3_été~9_champion~10 152
999 COSIND_-0.06 152
999 COSGEN_-0.06 152
109 ESRank9 152
201 ESForwSacShort 152
999 WORDS_après~7 141
999 WORDFREQ_821.55 141
999 WORDSALL_ans~6_après~7 141
999 COSIND_-0.12 141
999 COSGEN_-0.12 141
110 ESRank10 141
206 ESBackSacRegrLong-3-13 141
999 WORDS_avoir~8 131
999 WORDFREQ_649.26 131
999 WORDSALL_avoir~8 131
999 COSIND_-0.02 131
999 COSGEN_-0.02 131
111 ESRank11 131
201 ESForwSacShort 131
999 WORDS_hommes~17 101
999 WORDFREQ_546.62 101
999 WORDSALL_avoir~8_été~9_hommes~17 101
999 COSIND_-0.01 101
999 COSGEN_-0.01 101
112 ESRank12 101
202 ESForwSacLong+9+49 101
999 WORDS_adjoint~15 121
999 WORDFREQ_1.89 121
999 WORDSALL_coach~14_adjoint~15 121
999 COSIND_0.02 121
999 COSGEN_0.02 121
113 ESRank13 121
206 ESBackSacRegrLong-2-5 121
999 WORDS_rituel~24 172
999 WORDFREQ_5.54 172
999 WORDSALL_adjoint~15_hommes~17_rituel~24 172
999 COSIND_0.04 172
999 COSGEN_0.04 172
114 ESRank14 172
202 ESForwSacLong+9+42 172
999 WORDS_commence~25 122
999 WORDFREQ_82.5 122
999 WORDSALL_des~16_hommes~17_commence~25 122
999 COSIND_-0.11 122
999 COSGEN_-0.11 122
115 ESRank15 122
201 ESForwSacShort 122
999 WORDS_coach~14 215
999 WORDFREQ_0 215
999 WORDSALL_comme~13_coach~14 215
999 COSIND_-0.04 215
999 COSGEN_-0.04 215
116 ESRank16 215
206 ESBackSacRegrLong-11-57 215
999 WORDS_petites~21 96
999 WORDFREQ_152.16 96
999 WORDSALL_monde~12_petites~21 96
999 COSIND_-0.05 96
999 COSGEN_-0.05 96
117 ESRank17 96
202 ESForwSacLong+7+29 96
999 WORDS_petites~21 153
999 WORDFREQ_152.16 153
999 WORDSALL_ses~20_petites~21 153
999 COSIND_-0.05 153
999 COSGEN_-0.05 153
118 ESRank18 153
203 ESBackSacRefixation 153
999 WORDS_petites~21 123
999 WORDFREQ_152.16 123
999 WORDSALL_petites~21 123
999 COSIND_-0.05 123
999 COSGEN_-0.05 123
119 ESRank19 123
203 ESBackSacRefixation 123
200 ESRankN 123
199 ESRankNMinus1 153
198 ESRankNMinus2 96
197 ESRankNMinus3 215
196 ESRankNMinus4 122
195 ESRankNMinus5 172
194 ESRankNMinus6 121
193 ESRankNMinus7 101
192 ESRankNMinus8 131
191 ESRankNMinus9 141
190 ESRankNMinus10 152
