# 91 Fixation 1 (250.4,275.6): Entre~0 31~2
# 176 Fixation 2 (339.5,268.8): Entre~0 31~2
# 139 Fixation 3 (402,269): le~1 31~2 décembre~3
# 241 Fixation 4 (538.2,270.3): à~4
# 241 Fixation 5 (657,282.4): minuit~5 jusqu'à~7
# 147 Fixation 6 (726.4,290): jusqu'à~7
# 314 Fixation 7 (277.2,336.6): Entre~0 31~2 fin~9
# 200 Fixation 8 (434.4,334.1): 31~2 décembre~3 janvier~13
# 232 Fixation 9 (585.6,342.1): à~4 minuit~5 clubs~15
# 193 Fixation 10 (649.2,350.6): clubs~15
# 128 Fixation 11 (661.9,347.4): et~6 jusqu'à~7 clubs~15
# 167 Fixation 12 (305.3,411.7): fin~9 mois~11 football~17
# 97 Fixation 13 (261.9,408): fin~9 football~17
# 203 Fixation 14 (424.9,413.7): sont~18 autorisés~19
# 200 Fixation 15 (617.1,411.1): les~14 clubs~15 renouveler~21
# 274 Fixation 16 (710.6,415.5): renouveler~21
# 289 Fixation 17 (279.7,473.4): football~17 effectif~23
# 216 Fixation 18 (422.6,384.8): mois~11 janvier~13 sont~18 autorisés~19
%%
# Entre~0 Fixations= "7/"
# le~1 Fixations= "3/"
# 31~2 Fixations= "8/"
# décembre~3 Fixations= "8/"
# à~4 Fixations= "9/"
# minuit~5 Fixations= "9/"
# et~6 Fixations= "11/"
# jusqu'à~7 Fixations= "11/"
# la~8 Fixations= ""
# fin~9 Fixations= "13/"
# du~10 Fixations= ""
# mois~11 Fixations= "18/"
# de~12 Fixations= ""
# janvier~13 Fixations= "18/"
# les~14 Fixations= "15/"
# clubs~15 Fixations= "15/"
# de~16 Fixations= ""
# football~17 Fixations= "17/"
# sont~18 Fixations= "18/"
# autorisés~19 Fixations= "18/"
# à~20 Fixations= ""
# renouveler~21 Fixations= "16/"
# leur~22 Fixations= ""
# effectif~23 Fixations= "17/"
%%
#  ENTRE[7] LE[3] 31[8] DéCEMBRE[8] à[9] MINUIT[9] ET[11] JUSQU'à[11] la FIN[13] du MOIS[18] de JANVIER[18] LES[15] CLUBS[15] de FOOTBALL[17] SONT[18] AUTORISéS[18] à RENOUVELER[16] leur EFFECTIF[17]
# s17 aide_refugies-a1 PercentageOfWordsProcessed= 0.75 PercentageOfWordsReallyProcessed= 0.75
