# 139 Fixation 1 (365.3,284.1): baie~1 Somme~3
# 138 Fixation 2 (513.4,273): en~4 hiver~5
# 218 Fixation 3 (637.1,267): l'espace~6
# 129 Fixation 4 (317,338.2): La~0 baie~1 silence~8
# 141 Fixation 5 (272.9,345.4): La~0 baie~1 silence~8
# 144 Fixation 6 (429.7,339.1): de~2 Somme~3 instants~10
# 201 Fixation 7 (589.7,326.4): hiver~5 l'espace~6 fugaces~11
# 162 Fixation 8 (306.6,392.2): silence~8 lumières~14
# 139 Fixation 9 (558.9,395.7): fugaces~11
# 95 Fixation 10 (647.2,398): fugaces~11 coucher~18
# 155 Fixation 11 (313,460.6): lumières~14
# 113 Fixation 12 (454.3,464.8): magiques~15 pointe~23
%%
# La~0 Fixations= "5/"
# baie~1 Fixations= "5/"
# de~2 Fixations= "6/"
# Somme~3 Fixations= "6/"
# en~4 Fixations= "2/"
# hiver~5 Fixations= "7/"
# l'espace~6 Fixations= "7/"
# le~7 Fixations= ""
# silence~8 Fixations= "8/"
# des~9 Fixations= ""
# instants~10 Fixations= "6/"
# fugaces~11 Fixations= "10/"
# et~12 Fixations= ""
# des~13 Fixations= ""
# lumières~14 Fixations= "11/"
# magiques~15 Fixations= "12/"
# Comme~16 Fixations= ""
# ce~17 Fixations= ""
# coucher~18 Fixations= "10/"
# de~19 Fixations= ""
# soleil~20 Fixations= ""
# sur~21 Fixations= ""
# la~22 Fixations= ""
# pointe~23 Fixations= "12/"
# du~24 Fixations= ""
# Hourdel~25 Fixations= ""
%%
#  LA[5] BAIE[5] DE[6] SOMME[6] EN[2] HIVER[7] L'ESPACE[7] le SILENCE[8] des INSTANTS[6] FUGACES[10] et des LUMIèRES[11] MAGIQUES[12] Comme ce COUCHER[10] de soleil sur la POINTE[12] du Hourdel
# s19 rehabilitation_logement-a1 PercentageOfWordsProcessed= 0.538461538461538 PercentageOfWordsReallyProcessed= 0.583333333333333
