# 150 Fixation 1 (204.9,280.9): Il~0 a~1
# 160 Fixation 2 (290.9,286): Il~0 a~1
# 182 Fixation 3 (460.9,292.1): une~3 forme~4
# 239 Fixation 4 (586.3,299.6): de~5 tennis~6
# 152 Fixation 5 (680.3,294.2): tennis~6
# 159 Fixation 6 (328.6,333.6): convient~9
# 152 Fixation 7 (291,339.8): convient~9
# 261 Fixation 8 (394.1,346.7): parfaitement~10
# 252 Fixation 9 (601.3,351): et~11 rend~13
# 224 Fixation 10 (664.5,356.5): rend~13
# 167 Fixation 11 (345.4,400.6): dangereux~15
# 149 Fixation 12 (314.5,397.7): dangereux~15
# 183 Fixation 13 (456.8,402.7): Avec~16 façon~18
%%
# Il~0 Fixations= "2/"
# a~1 Fixations= "2/"
# inventé~2 Fixations= ""
# une~3 Fixations= "3/"
# forme~4 Fixations= "3/"
# de~5 Fixations= "4/"
# tennis~6 Fixations= "5/"
# qui~7 Fixations= ""
# lui~8 Fixations= ""
# convient~9 Fixations= "7/"
# parfaitement~10 Fixations= "8/"
# et~11 Fixations= "9/"
# le~12 Fixations= ""
# rend~13 Fixations= "10/"
# toujours~14 Fixations= ""
# dangereux~15 Fixations= "12/"
# Avec~16 Fixations= "13/"
# cette~17 Fixations= ""
# façon~18 Fixations= "13/"
# d'engager~19 Fixations= ""
# des~20 Fixations= ""
# revers~21 Fixations= ""
# sa~22 Fixations= ""
# raquette~23 Fixations= ""
# réalise~24 Fixations= ""
# des~25 Fixations= ""
# coups~26 Fixations= ""
# souvent~27 Fixations= ""
# surprenants~28 Fixations= ""
%%
#  IL[2] A[2] inventé UNE[3] FORME[3] DE[4] TENNIS[5] qui lui CONVIENT[7] PARFAITEMENT[8] ET[9] le REND[10] toujours DANGEREUX[12] AVEC[13] cette FAçON[13] d'engager des revers sa raquette réalise des coups souvent surprenants
# s05 victoire_footballeurs-m1 PercentageOfWordsProcessed= 0.448275862068966 PercentageOfWordsReallyProcessed= 0.684210526315789
