# 130 Fixation 1 (266.4,291.5): Les~0 habitants~1
# 140 Fixation 2 (307.7,287.9): Les~0 habitants~1
# 105 Fixation 3 (370.5,290.6): habitants~1
# 184 Fixation 4 (454.8,291.1): de~2 Tirana~3
# 192 Fixation 5 (546.9,295.7): Tirana~3
# 190 Fixation 6 (498,293.7): de~2 Tirana~3
# 212 Fixation 7 (592.8,298): compatissent~4
# 160 Fixation 8 (644.6,300.1): compatissent~4
# 276 Fixation 9 (722.7,298.3): compatissent~4
# 95 Fixation 10 (266.9,363.9): malheurs~6
# 135 Fixation 11 (266.2,351.5): malheurs~6
# 181 Fixation 12 (398.6,345.7): de~7 frères~9
# 153 Fixation 13 (494,340.6): leurs~8 frères~9
# 163 Fixation 14 (607.9,345.5): kosovars~10
# 164 Fixation 15 (586,350.9): frères~9 kosovars~10
# 212 Fixation 16 (691.9,350.7): kosovars~10
# 181 Fixation 17 (272.3,385.3): déclarent~13
# 132 Fixation 18 (257,392.6): déclarent~13
# 239 Fixation 19 (401.8,390.1): ulcérés~14
# 201 Fixation 20 (548.3,406.6): par~15 l'enchaînement~16
# 185 Fixation 21 (606.2,406): l'enchaînement~16
# 128 Fixation 22 (282.5,437): déclarent~13
# 219 Fixation 23 (265.9,454.9): d'événements~17
# 211 Fixation 24 (432.9,456.2): qu'ils~18
# 414 Fixation 25 (548.9,468.6): ressentent~19
# 191 Fixation 26 (633.9,465.6): ressentent~19
# 143 Fixation 27 (698.3,470.8): comme~20
# 148 Fixation 28 (209.7,520.4): profonde~22
# 255 Fixation 29 (253.9,522.1): profonde~22
# 258 Fixation 30 (363.5,520): profonde~22 injustice~23
# 167 Fixation 31 (389,527.6): injustice~23
# 134 Fixation 32 (437.7,528.3): injustice~23
# 233 Fixation 33 (548,525.7): et~24 reprochent~25
# 134 Fixation 34 (638.5,531.2): reprochent~25 à~26
# 279 Fixation 35 (715.7,531.7): à~26 l'UCK~27
# 105 Fixation 36 (273.2,593.8): d'avoir~28
# 132 Fixation 37 (265.4,586.8): d'avoir~28
# 189 Fixation 38 (364.4,582.2): d'avoir~28 lancé~29
# 208 Fixation 39 (504.6,584.3): des~30 opérations~31
# 130 Fixation 40 (553.3,586.6): opérations~31
# 438 Fixation 41 (658.5,591.1): armées~32
%%
# Les~0 Fixations= "2/"
# habitants~1 Fixations= "3/"
# de~2 Fixations= "6/"
# Tirana~3 Fixations= "6/"
# compatissent~4 Fixations= "9/"
# aux~5 Fixations= ""
# malheurs~6 Fixations= "11/"
# de~7 Fixations= "12/"
# leurs~8 Fixations= "13/"
# frères~9 Fixations= "15/"
# kosovars~10 Fixations= "16/"
# Ils~11 Fixations= ""
# se~12 Fixations= ""
# déclarent~13 Fixations= "22/"
# ulcérés~14 Fixations= "19/"
# par~15 Fixations= "20/"
# l'enchaînement~16 Fixations= "21/"
# d'événements~17 Fixations= "23/"
# qu'ils~18 Fixations= "24/"
# ressentent~19 Fixations= "26/"
# comme~20 Fixations= "27/"
# une~21 Fixations= ""
# profonde~22 Fixations= "30/"
# injustice~23 Fixations= "32/"
# et~24 Fixations= "33/"
# reprochent~25 Fixations= "34/"
# à~26 Fixations= "35/"
# l'UCK~27 Fixations= "35/"
# d'avoir~28 Fixations= "38/"
# lancé~29 Fixations= "38/"
# des~30 Fixations= "39/"
# opérations~31 Fixations= "40/"
# armées~32 Fixations= "41/"
%%
#  LES[2] HABITANTS[3] DE[6] TIRANA[6] COMPATISSENT[9] aux MALHEURS[11] DE[12] LEURS[13] FRèRES[15] KOSOVARS[16] Ils se DéCLARENT[22] ULCéRéS[19] PAR[20] L'ENCHAîNEMENT[21] D'éVéNEMENTS[23] QU'ILS[24] RESSENTENT[26] COMME[27] une PROFONDE[30] INJUSTICE[32] ET[33] REPROCHENT[34] à[35] L'UCK[35] D'AVOIR[38] LANCé[38] DES[39] OPéRATIONS[40] ARMéES[41]
# s06 aide_refugies-m2 PercentageOfWordsProcessed= 0.878787878787879 PercentageOfWordsReallyProcessed= 0.878787878787879
