999 WORDS_Commission~4 162
999 WORDFREQ_10.81 162
999 WORDSALL_Commission~4 162
999 COSIND_-0.01 162
999 COSGEN_-0.01 162
101 ESRank1 162
999 WORDS_prévisions~6 163
999 WORDFREQ_3.45 163
999 WORDSALL_prévisions~6 163
999 COSIND_-0.04 163
999 COSGEN_-0.04 163
102 ESRank2 163
202 ESForwSacLong+2+5 163
999 WORDS_l'année~8 151
999 WORDFREQ_128.99 151
999 WORDSALL_l'année~8 151
999 COSIND_0.00 151
999 COSGEN_0.00 151
103 ESRank3 151
202 ESForwSacLong+2+6 151
999 WORDS_confirme~9 137
999 WORDFREQ_3.92 137
999 WORDSALL_confirme~9 137
999 COSIND_-0.04 137
999 COSGEN_-0.04 137
104 ESRank4 137
201 ESForwSacShort 137
999 WORDS_en~10 122
999 WORDFREQ_8732.57 122
999 WORDSALL_en~10 122
999 COSIND_N/A 122
105 ESRank5 122
201 ESForwSacShort 122
999 WORDS_qu'il~13 147
999 WORDFREQ_N/A 147
999 WORDSALL_cas~12_qu'il~13 147
999 COSIND_N/A 147
106 ESRank6 147
202 ESForwSacLong+3+10 147
999 WORDS_bien~16 130
999 WORDFREQ_2535.14 130
999 WORDSALL_a~15_bien~16 130
999 COSIND_-0.02 130
999 COSGEN_-0.02 130
107 ESRank7 130
202 ESForwSacLong+3+5 130
999 WORDS_problème~18 145
999 WORDFREQ_55.2 145
999 WORDSALL_un~17_problème~18 145
999 COSIND_0.02 145
999 COSGEN_0.02 145
108 ESRank8 145
202 ESForwSacLong+2+4 145
999 WORDS_Cette~19 91
999 WORDFREQ_2320.68 91
999 WORDSALL_Cette~19 91
999 COSIND_N/A 91
109 ESRank9 91
201 ESForwSacShort 91
999 WORDS_année~20 172
999 WORDFREQ_128.99 172
999 WORDSALL_année~20 172
999 COSIND_0.00 172
999 COSGEN_0.00 172
110 ESRank10 172
201 ESForwSacShort 172
999 WORDS_croissance~22 127
999 WORDFREQ_3.92 127
999 WORDSALL_croissance~22 127
999 COSIND_-0.06 127
999 COSGEN_-0.06 127
111 ESRank11 127
202 ESForwSacLong+2+4 127
999 WORDS_zone~25 148
999 WORDFREQ_34.39 148
999 WORDSALL_de~23_zone~25 148
999 COSIND_-0.00 148
999 COSGEN_-0.00 148
112 ESRank12 148
202 ESForwSacLong+3+7 148
999 WORDS_euro~26 129
999 WORDFREQ_0 129
999 WORDSALL_zone~25_euro~26 129
999 COSIND_N/A 129
113 ESRank13 129
201 ESForwSacShort 129
999 WORDS_être~29 163
999 WORDFREQ_505.61 163
999 WORDSALL_devrait~28_être~29 163
999 COSIND_0.06 163
999 COSGEN_0.06 163
114 ESRank14 163
202 ESForwSacLong+3+12 163
999 WORDS_légèrement~31 172
999 WORDFREQ_65.2 172
999 WORDSALL_que~30_légèrement~31 172
999 COSIND_0.18 172
999 COSGEN_0.18 172
115 ESRank15 172
202 ESForwSacLong+2+5 172
999 WORDS_au-dessus~32 217
999 WORDFREQ_0.07 217
999 WORDSALL_au-dessus~32 217
999 COSIND_N/A 217
116 ESRank16 217
201 ESForwSacShort 217
999 WORDS_2%~34 172
999 WORDFREQ_N/A 172
999 WORDSALL_2%~34 172
999 COSIND_N/A 172
117 ESRank17 172
202 ESForwSacLong+2+4 172
999 WORDS_2%~34 92
999 WORDFREQ_N/A 92
999 WORDSALL_2%~34 92
999 COSIND_N/A 92
118 ESRank18 92
203 ESBackSacRefixation 92
200 ESRankN 92
199 ESRankNMinus1 172
198 ESRankNMinus2 217
197 ESRankNMinus3 172
196 ESRankNMinus4 163
195 ESRankNMinus5 129
194 ESRankNMinus6 148
193 ESRankNMinus7 127
192 ESRankNMinus8 172
191 ESRankNMinus9 91
190 ESRankNMinus10 145
