999 WORDS_chanteur~1 162
999 WORDFREQ_9.19 162
999 WORDSALL_Le~0_chanteur~1 162
999 COSIND_0.04 162
999 COSGEN_0.04 162
101 ESRank1 162
999 WORDS_Yannick~2 182
999 WORDFREQ_N/A 182
999 WORDSALL_Yannick~2 182
999 COSIND_N/A 182
102 ESRank2 182
201 ESForwSacShort 182
999 WORDS_Noah~3 170
999 WORDFREQ_N/A 170
999 WORDSALL_Noah~3 170
999 COSIND_N/A 170
103 ESRank3 170
201 ESForwSacShort 170
999 WORDS_concert~6 246
999 WORDFREQ_24.86 246
999 WORDSALL_en~5_concert~6 246
999 COSIND_0.03 246
999 COSGEN_0.03 246
104 ESRank4 246
202 ESForwSacLong+3+8 246
999 WORDS_concert~6 109
999 WORDFREQ_24.86 109
999 WORDSALL_ici~4_concert~6 109
999 COSIND_0.03 109
999 COSGEN_0.03 109
105 ESRank5 109
203 ESBackSacRefixation 109
999 WORDS_place~10 173
999 WORDFREQ_437.97 173
999 WORDSALL_chanteur~1_place~10 173
999 COSIND_-0.01 173
999 COSGEN_-0.01 173
106 ESRank6 173
202 ESForwSacLong+4+13 173
999 WORDS_repris~8 117
999 WORDFREQ_51.55 117
999 WORDSALL_repris~8 117
999 COSIND_0.00 117
999 COSGEN_0.00 117
107 ESRank7 117
206 ESBackSacRegrLong-2-4 117
999 WORDS_Français~20 183
999 WORDFREQ_148.72 183
999 WORDSALL_du~14_classement~15_Français~20 183
999 COSIND_0.03 183
999 COSGEN_0.03 183
108 ESRank8 183
202 ESForwSacLong+12+71 183
999 WORDS_classement~15 82
999 WORDFREQ_1.76 82
999 WORDSALL_du~14_classement~15 82
999 COSIND_0.03 82
999 COSGEN_0.03 82
109 ESRank9 82
206 ESBackSacRegrLong-5-37 82
999 WORDS_place~10 258
999 WORDFREQ_437.97 258
999 WORDSALL_sa~9_place~10 258
999 COSIND_-0.01 258
999 COSGEN_-0.01 258
110 ESRank10 258
206 ESBackSacRegrLong-5-15 258
999 WORDS_Français~20 176
999 WORDFREQ_148.72 176
999 WORDSALL_des~19_Français~20 176
999 COSIND_0.03 176
999 COSGEN_0.03 176
111 ESRank11 176
202 ESForwSacLong+10+62 176
200 ESRankN 176
199 ESRankNMinus1 258
198 ESRankNMinus2 82
197 ESRankNMinus3 183
196 ESRankNMinus4 117
195 ESRankNMinus5 173
194 ESRankNMinus6 109
193 ESRankNMinus7 246
192 ESRankNMinus8 170
191 ESRankNMinus9 182
190 ESRankNMinus10 162
