999 WORDS_L'arsenal~0 149
999 WORDFREQ_4.86 149
999 WORDSALL_L'arsenal~0 149
999 COSIND_-0.01 149
999 COSGEN_-0.01 149
101 ESRank1 149
999 WORDS_militaire~1 180
999 WORDFREQ_69.19 180
999 WORDSALL_L'arsenal~0_militaire~1 180
999 COSIND_0.17 180
999 COSGEN_0.17 180
102 ESRank2 180
201 ESForwSacShort 180
999 WORDS_pays~3 169
999 WORDFREQ_241.55 169
999 WORDSALL_du~2_pays~3 169
999 COSIND_0.04 169
999 COSGEN_0.04 169
103 ESRank3 169
202 ESForwSacLong+2+4 169
999 WORDS_enrichi~5 198
999 WORDFREQ_2.03 198
999 WORDSALL_s'est~4_enrichi~5 198
999 COSIND_N/A 198
104 ESRank4 198
202 ESForwSacLong+2+7 198
999 WORDS_d'armes~6 179
999 WORDFREQ_74.39 179
999 WORDSALL_d'armes~6 179
999 COSIND_0.06 179
999 COSGEN_0.06 179
105 ESRank5 179
201 ESForwSacShort 179
999 WORDS_micro-ondes~8 255
999 WORDFREQ_0.14 255
999 WORDSALL_à~7_micro-ondes~8 255
999 COSIND_N/A 255
106 ESRank6 255
202 ESForwSacLong+2+4 255
999 WORDS_susceptibles~9 291
999 WORDFREQ_4.12 291
999 WORDSALL_susceptibles~9 291
999 COSIND_-0.02 291
999 COSGEN_-0.02 291
107 ESRank7 291
201 ESForwSacShort 291
999 WORDS_susceptibles~9 109
999 WORDFREQ_4.12 109
999 WORDSALL_susceptibles~9 109
999 COSIND_-0.02 109
999 COSGEN_-0.02 109
108 ESRank8 109
203 ESBackSacRefixation 109
999 WORDS_susceptibles~9 87
999 WORDFREQ_4.12 87
999 WORDSALL_susceptibles~9 87
999 COSIND_-0.02 87
999 COSGEN_-0.02 87
109 ESRank9 87
203 ESBackSacRefixation 87
999 WORDS_détruire~11 230
999 WORDFREQ_20.34 230
999 WORDSALL_détruire~11 230
999 COSIND_-0.01 230
999 COSGEN_-0.01 230
110 ESRank10 230
202 ESForwSacLong+2+4 230
999 WORDS_détruire~11 175
999 WORDFREQ_20.34 175
999 WORDSALL_détruire~11 175
999 COSIND_-0.01 175
999 COSGEN_-0.01 175
111 ESRank11 175
203 ESBackSacRefixation 175
999 WORDS_détruire~11 155
999 WORDFREQ_20.34 155
999 WORDSALL_détruire~11 155
999 COSIND_-0.01 155
999 COSGEN_-0.01 155
112 ESRank12 155
203 ESBackSacRefixation 155
999 WORDS_circuits~13 185
999 WORDFREQ_1.82 185
999 WORDSALL_circuits~13 185
999 COSIND_-0.08 185
999 COSGEN_-0.08 185
113 ESRank13 185
202 ESForwSacLong+2+5 185
999 WORDS_informatiques~14 169
999 WORDFREQ_0 169
999 WORDSALL_informatiques~14 169
999 COSIND_-0.02 169
999 COSGEN_-0.02 169
114 ESRank14 169
201 ESForwSacShort 169
999 WORDS_télécommunications~19 149
999 WORDFREQ_0.14 149
999 WORDSALL_de~18_télécommunications~19 149
999 COSIND_-0.04 149
999 COSGEN_-0.04 149
115 ESRank15 149
202 ESForwSacLong+5+24 149
999 WORDS_équipements~17 212
999 WORDFREQ_2.09 212
999 WORDSALL_équipements~17 212
999 COSIND_-0.02 212
999 COSGEN_-0.02 212
116 ESRank16 212
206 ESBackSacRegrLong-2-4 212
999 WORDS_télécommunications~19 165
999 WORDFREQ_0.14 165
999 WORDSALL_de~18_télécommunications~19 165
999 COSIND_-0.04 165
999 COSGEN_-0.04 165
117 ESRank17 165
202 ESForwSacLong+2+4 165
999 WORDS_Les~20 142
999 WORDFREQ_14662.3 142
999 WORDSALL_Les~20 142
999 COSIND_N/A 142
118 ESRank18 142
201 ESForwSacShort 142
999 WORDS_militaires~21 156
999 WORDFREQ_11.96 156
999 WORDSALL_militaires~21 156
999 COSIND_0.17 156
999 COSGEN_0.17 156
119 ESRank19 156
201 ESForwSacShort 156
999 WORDS_militaires~21 91
999 WORDFREQ_11.96 91
999 WORDSALL_militaires~21 91
999 COSIND_0.17 91
999 COSGEN_0.17 91
120 ESRank20 91
203 ESBackSacRefixation 91
999 WORDS_garder~24 173
999 WORDFREQ_68.31 173
999 WORDSALL_les~23_garder~24 173
999 COSIND_-0.08 173
999 COSGEN_-0.08 173
202 ESForwSacLong+3+13 173
999 WORDS_pour~25 133
999 WORDFREQ_6198.24 133
999 WORDSALL_pour~25 133
999 COSIND_N/A 133
201 ESForwSacShort 133
200 ESRankN 133
199 ESRankNMinus1 173
198 ESRankNMinus2 91
197 ESRankNMinus3 156
196 ESRankNMinus4 142
195 ESRankNMinus5 165
194 ESRankNMinus6 212
193 ESRankNMinus7 149
192 ESRankNMinus8 169
191 ESRankNMinus9 185
190 ESRankNMinus10 155
