# 328 Fixation 1 (314.6,283.3): Cette~0 annonce~1
# 144 Fixation 2 (488.6,218.5): qui~2 avait~3
# 208 Fixation 3 (586.8,183.6):
# 278 Fixation 4 (280.9,323.9): pronostiquée~6
# 232 Fixation 5 (258.1,341.8): pronostiquée~6
# 279 Fixation 6 (239.4,349.8): pronostiquée~6
# 186 Fixation 7 (436.2,340.5): par~7 certains~8
# 128 Fixation 8 (479.2,340.6): par~7 certains~8
# 245 Fixation 9 (615.9,275.1): déjà~4 été~5
# 182 Fixation 10 (286.7,392.7): semaine~11
# 427 Fixation 11 (250.4,401.3): semaine~11
# 228 Fixation 12 (382.8,404.4): dernière~12
# 220 Fixation 13 (529.3,412.9): a~13 été~14
# 227 Fixation 14 (488.2,415.5): a~13
# 290 Fixation 15 (270.3,451.1): accueillie~16
# 215 Fixation 16 (446.1,467.1): Cette~17 diminution~18
# 193 Fixation 17 (487.2,470.1): Cette~17 diminution~18
# 371 Fixation 18 (626.9,477.8): diminution~18 fait~20
# 234 Fixation 19 (276.1,511): poursuivre~22
# 249 Fixation 20 (452,541): une~23 tendance~24
# 263 Fixation 21 (595.5,554.2): à~25
%%
# Cette~0 Fixations= "1/"
# annonce~1 Fixations= "1/"
# qui~2 Fixations= "2/"
# avait~3 Fixations= "2/"
# déjà~4 Fixations= "9/"
# été~5 Fixations= "9/"
# pronostiquée~6 Fixations= "6/"
# par~7 Fixations= "8/"
# certains~8 Fixations= "8/"
# analystes~9 Fixations= ""
# la~10 Fixations= ""
# semaine~11 Fixations= "11/"
# dernière~12 Fixations= "12/"
# a~13 Fixations= "14/"
# été~14 Fixations= "13/"
# fraîchement~15 Fixations= ""
# accueillie~16 Fixations= "15/"
# Cette~17 Fixations= "17/"
# diminution~18 Fixations= "18/"
# ne~19 Fixations= ""
# fait~20 Fixations= "18/"
# que~21 Fixations= ""
# poursuivre~22 Fixations= "19/"
# une~23 Fixations= "20/"
# tendance~24 Fixations= "20/"
# à~25 Fixations= "21/"
# la~26 Fixations= ""
# baisse~27 Fixations= ""
# du~28 Fixations= ""
# titre~29 Fixations= ""
%%
#  CETTE[1] ANNONCE[1] QUI[2] AVAIT[2] DéJà[9] éTé[9] PRONOSTIQUéE[6] PAR[8] CERTAINS[8] analystes la SEMAINE[11] DERNIèRE[12] A[14] éTé[13] fraîchement ACCUEILLIE[15] CETTE[17] DIMINUTION[18] ne FAIT[18] que POURSUIVRE[19] UNE[20] TENDANCE[20] à[21] la baisse du titre
# s20 hausse_bourse-m1 PercentageOfWordsProcessed= 0.7 PercentageOfWordsReallyProcessed= 0.807692307692308
