999 WORDS_annonce~1 115
999 WORDFREQ_13.18 115
999 WORDSALL_Cette~0_annonce~1 115
999 COSIND_0.25 115
999 COSGEN_0.25 115
101 ESRank1 115
999 WORDS_annonce~1 139
999 WORDFREQ_13.18 139
999 WORDSALL_annonce~1 139
999 COSIND_0.25 139
999 COSGEN_0.25 139
102 ESRank2 139
203 ESBackSacRefixation 139
999 WORDS_avait~3 178
999 WORDFREQ_3116.42 178
999 WORDSALL_qui~2_avait~3 178
999 COSIND_0.08 178
999 COSGEN_0.08 178
103 ESRank3 178
202 ESForwSacLong+2+5 178
999 WORDS_déjà~4 182
999 WORDFREQ_702.23 182
999 WORDSALL_avait~3_déjà~4 182
999 COSIND_N/A 182
104 ESRank4 182
201 ESForwSacShort 182
999 WORDS_pronostiquée~6 205
999 WORDFREQ_N/A 205
999 WORDSALL_pronostiquée~6 205
999 COSIND_N/A 205
105 ESRank5 205
202 ESForwSacLong+2+7 205
999 WORDS_certains~8 185
999 WORDFREQ_32.64 185
999 WORDSALL_par~7_certains~8 185
999 COSIND_-0.05 185
999 COSGEN_-0.05 185
106 ESRank6 185
202 ESForwSacLong+2+5 185
999 WORDS_analystes~9 201
999 WORDFREQ_0.2 201
999 WORDSALL_analystes~9 201
999 COSIND_0.50 201
999 COSGEN_0.50 201
107 ESRank7 201
201 ESForwSacShort 201
999 WORDS_dernière~12 176
999 WORDFREQ_145.27 176
999 WORDSALL_semaine~11_dernière~12 176
999 COSIND_-0.10 176
999 COSGEN_-0.10 176
108 ESRank8 176
202 ESForwSacLong+3+12 176
999 WORDS_semaine~11 146
999 WORDFREQ_111.89 146
999 WORDSALL_semaine~11 146
999 COSIND_0.07 146
999 COSGEN_0.07 146
109 ESRank9 146
205 ESBackSacRegrShort 146
999 WORDS_été~14 182
999 WORDFREQ_818.99 182
999 WORDSALL_a~13_été~14 182
999 COSIND_0.01 182
999 COSGEN_0.01 182
110 ESRank10 182
202 ESForwSacLong+3+13 182
999 WORDS_été~14 98
999 WORDFREQ_818.99 98
999 WORDSALL_été~14 98
999 COSIND_0.01 98
999 COSGEN_0.01 98
111 ESRank11 98
203 ESBackSacRefixation 98
999 WORDS_accueillie~16 171
999 WORDFREQ_2.23 171
999 WORDSALL_accueillie~16 171
999 COSIND_0.04 171
999 COSGEN_0.04 171
112 ESRank12 171
202 ESForwSacLong+2+14 171
999 WORDS_diminution~18 163
999 WORDFREQ_1.01 163
999 WORDSALL_Cette~17_diminution~18 163
999 COSIND_0.12 163
999 COSGEN_0.12 163
113 ESRank13 163
202 ESForwSacLong+2+7 163
999 WORDS_diminution~18 140
999 WORDFREQ_1.01 140
999 WORDSALL_Cette~17_diminution~18 140
999 COSIND_0.12 140
999 COSGEN_0.12 140
114 ESRank14 140
203 ESBackSacRefixation 140
999 WORDS_fait~20 205
999 WORDFREQ_1459.26 205
999 WORDSALL_ne~19_fait~20 205
999 COSIND_0.02 205
999 COSGEN_0.02 205
115 ESRank15 205
202 ESForwSacLong+2+4 205
999 WORDS_poursuivre~22 120
999 WORDFREQ_22.23 120
999 WORDSALL_poursuivre~22 120
999 COSIND_0.11 120
999 COSGEN_0.11 120
116 ESRank16 120
202 ESForwSacLong+2+5 120
999 WORDS_tendance~24 300
999 WORDFREQ_14.26 300
999 WORDSALL_une~23_tendance~24 300
999 COSIND_0.24 300
999 COSGEN_0.24 300
117 ESRank17 300
202 ESForwSacLong+2+5 300
999 WORDS_à~25 179
999 WORDFREQ_19209.05 179
999 WORDSALL_à~25 179
999 COSIND_N/A 179
118 ESRank18 179
201 ESForwSacShort 179
999 WORDS_titre~29 181
999 WORDFREQ_53.04 181
999 WORDSALL_titre~29 181
999 COSIND_0.07 181
999 COSGEN_0.07 181
119 ESRank19 181
202 ESForwSacLong+4+14 181
999 WORDS_baisse~27 157
999 WORDFREQ_3.38 157
999 WORDSALL_à~25_baisse~27 157
999 COSIND_0.44 157
999 COSGEN_0.44 157
120 ESRank20 157
206 ESBackSacRegrLong-2-4 157
200 ESRankN 157
199 ESRankNMinus1 181
198 ESRankNMinus2 179
197 ESRankNMinus3 300
196 ESRankNMinus4 120
195 ESRankNMinus5 205
194 ESRankNMinus6 140
193 ESRankNMinus7 163
192 ESRankNMinus8 171
191 ESRankNMinus9 98
190 ESRankNMinus10 182
