999 WORDS_3e~1 190
999 WORDFREQ_N/A 190
999 WORDSALL_Le~0_3e~1 190
999 COSIND_N/A 190
101 ESRank1 190
999 WORDS_ligne~2 167
999 WORDFREQ_101.01 167
999 WORDSALL_3e~1_ligne~2 167
999 COSIND_0.13 167
999 COSGEN_0.13 167
102 ESRank2 167
201 ESForwSacShort 167
999 WORDS_XV~4 137
999 WORDFREQ_N/A 137
999 WORDSALL_du~3_XV~4 137
999 COSIND_N/A 137
103 ESRank3 137
202 ESForwSacLong+2+4 137
999 WORDS_XV~4 114
999 WORDFREQ_N/A 114
999 WORDSALL_du~3_XV~4 114
999 COSIND_N/A 114
104 ESRank4 114
203 ESBackSacRefixation 114
999 WORDS_d'Angleterre~5 210
999 WORDFREQ_0.47 210
999 WORDSALL_d'Angleterre~5 210
999 COSIND_0.05 210
999 COSGEN_0.05 210
105 ESRank5 210
201 ESForwSacShort 210
999 WORDS_85~7 160
999 WORDFREQ_N/A 160
999 WORDSALL_aux~6_85~7 160
999 COSIND_N/A 160
106 ESRank6 160
202 ESForwSacLong+2+5 160
999 WORDS_sélections~8 204
999 WORDFREQ_0.27 204
999 WORDSALL_sélections~8 204
999 COSIND_-0.04 204
999 COSGEN_-0.04 204
107 ESRank7 204
201 ESForwSacShort 204
999 WORDS_annoncé~10 257
999 WORDFREQ_15.68 257
999 WORDSALL_du~3_XV~4_annoncé~10 257
999 COSIND_0.04 257
999 COSGEN_0.04 257
108 ESRank8 257
202 ESForwSacLong+2+3 257
999 WORDS_retraite~12 127
999 WORDFREQ_38.78 127
999 WORDSALL_d'Angleterre~5_retraite~12 127
999 COSIND_-0.00 127
999 COSGEN_-0.00 127
109 ESRank9 127
202 ESForwSacLong+2+4 127
200 ESRankN 127
199 ESRankNMinus1 257
198 ESRankNMinus2 204
197 ESRankNMinus3 160
196 ESRankNMinus4 210
195 ESRankNMinus5 114
194 ESRankNMinus6 137
193 ESRankNMinus7 167
192 ESRankNMinus8 190
