999 WORDS_L'Euro~0 139
999 WORDFREQ_0 139
999 WORDSALL_L'Euro~0 139
999 COSIND_N/A 139
101 ESRank1 139
999 WORDS_poursuivait~1 152
999 WORDFREQ_15.41 152
999 WORDSALL_poursuivait~1 152
999 COSIND_0.03 152
999 COSGEN_0.03 152
102 ESRank2 152
201 ESForwSacShort 152
999 WORDS_remontée~3 154
999 WORDFREQ_1.49 154
999 WORDSALL_remontée~3 154
999 COSIND_0.21 154
999 COSGEN_0.21 154
103 ESRank3 154
202 ESForwSacLong+2+4 154
999 WORDS_face~4 128
999 WORDFREQ_262.16 128
999 WORDSALL_face~4 128
999 COSIND_0.11 128
999 COSGEN_0.11 128
104 ESRank4 128
201 ESForwSacShort 128
999 WORDS_vendredi~7 188
999 WORDFREQ_18.31 188
999 WORDSALL_vendredi~7 188
999 COSIND_0.04 188
999 COSGEN_0.04 188
105 ESRank5 188
202 ESForwSacLong+3+11 188
999 WORDS_premiers~10 163
999 WORDFREQ_77.7 163
999 WORDSALL_les~9_premiers~10 163
999 COSIND_0.01 163
999 COSGEN_0.01 163
106 ESRank6 163
202 ESForwSacLong+3+10 163
999 WORDS_échanges~11 111
999 WORDFREQ_8.45 111
999 WORDSALL_premiers~10_échanges~11 111
999 COSIND_0.09 111
999 COSGEN_0.09 111
107 ESRank7 111
201 ESForwSacShort 111
200 ESRankN 111
199 ESRankNMinus1 163
198 ESRankNMinus2 188
197 ESRankNMinus3 128
196 ESRankNMinus4 154
195 ESRankNMinus5 152
194 ESRankNMinus6 139
