999 WORDS_L'économie~0 173
999 WORDFREQ_15.74 173
999 WORDSALL_L'économie~0 173
999 COSIND_-0.00 173
999 COSGEN_-0.00 173
101 ESRank1 173
999 WORDS_algérienne~1 264
999 WORDFREQ_2.03 264
999 WORDSALL_algérienne~1 264
999 COSIND_0.02 264
999 COSGEN_0.02 264
102 ESRank2 264
201 ESForwSacShort 264
999 WORDS_brut~9 207
999 WORDFREQ_3.31 207
999 WORDSALL_pétrole~8_brut~9 207
999 COSIND_0.09 207
999 COSGEN_0.09 207
103 ESRank3 207
202 ESForwSacLong+8+47 207
999 WORDS_Après~10 156
999 WORDFREQ_137.23 156
999 WORDSALL_Après~10 156
999 COSIND_0.02 156
999 COSGEN_0.02 156
104 ESRank4 156
201 ESForwSacShort 156
999 WORDS_niveaux~15 213
999 WORDFREQ_2.16 213
999 WORDSALL_à~13_niveaux~15 213
999 COSIND_0.03 213
999 COSGEN_0.03 213
105 ESRank5 213
202 ESForwSacLong+5+22 213
999 WORDS_jamais~16 171
999 WORDFREQ_1122.97 171
999 WORDSALL_niveaux~15_jamais~16 171
999 COSIND_N/A 171
106 ESRank6 171
201 ESForwSacShort 171
999 WORDS_observés~17 143
999 WORDFREQ_0 143
999 WORDSALL_observés~17 143
999 COSIND_-0.01 143
999 COSGEN_-0.01 143
107 ESRank7 143
201 ESForwSacShort 143
999 WORDS_pays~21 156
999 WORDFREQ_241.55 156
999 WORDSALL_par~19_pays~21 156
999 COSIND_0.03 156
999 COSGEN_0.03 156
108 ESRank8 156
202 ESForwSacLong+4+19 156
999 WORDS_l'annonce~18 197
999 WORDFREQ_13.18 197
999 WORDSALL_l'annonce~18 197
999 COSIND_0.04 197
999 COSGEN_0.04 197
109 ESRank9 197
206 ESBackSacRegrLong-3-9 197
999 WORDS_pays~21 212
999 WORDFREQ_241.55 212
999 WORDSALL_les~20_pays~21 212
999 COSIND_0.03 212
999 COSGEN_0.03 212
110 ESRank10 212
202 ESForwSacLong+3+9 212
999 WORDS_redressé~29 226
999 WORDFREQ_5.61 226
999 WORDSALL_a~28_redressé~29 226
999 COSIND_0.20 226
999 COSGEN_0.20 226
111 ESRank11 226
202 ESForwSacLong+8+49 226
200 ESRankN 226
199 ESRankNMinus1 212
198 ESRankNMinus2 197
197 ESRankNMinus3 156
196 ESRankNMinus4 143
195 ESRankNMinus5 171
194 ESRankNMinus6 213
193 ESRankNMinus7 156
192 ESRankNMinus8 207
191 ESRankNMinus9 264
190 ESRankNMinus10 173
