# 141 Fixation 1 (284,273.1): L'allocation~0
# 122 Fixation 2 (347.4,274): L'allocation~0
# 284 Fixation 3 (498.9,277.8): rentrée~2
# 153 Fixation 4 (599.6,279.4): scolaire~3
# 193 Fixation 5 (699.2,288.4): concerne~4
# 244 Fixation 6 (364.7,340.2): 000~6 familles~7
# 313 Fixation 7 (568.5,343.6): modestes~8 ayant~9
# 126 Fixation 8 (620.1,418.5): pourrait~15
%%
# L'allocation~0 Fixations= "2/"
# de~1 Fixations= ""
# rentrée~2 Fixations= "3/"
# scolaire~3 Fixations= "4/"
# concerne~4 Fixations= "5/"
# 350~5 Fixations= ""
# 000~6 Fixations= "6/"
# familles~7 Fixations= "6/"
# modestes~8 Fixations= "7/"
# ayant~9 Fixations= "7/"
# un~10 Fixations= ""
# enfant~11 Fixations= ""
# scolarisé~12 Fixations= ""
# Cette~13 Fixations= ""
# prestation~14 Fixations= ""
# pourrait~15 Fixations= "8/"
# être~16 Fixations= ""
# prochainement~17 Fixations= ""
# étendue~18 Fixations= ""
%%
#  L'ALLOCATION[2] de RENTRéE[3] SCOLAIRE[4] CONCERNE[5] 350 000[6] FAMILLES[6] MODESTES[7] AYANT[7] un enfant scolarisé Cette prestation POURRAIT[8] être prochainement étendue
# s01 allocation_familiale-f2 PercentageOfWordsProcessed= 0.473684210526316 PercentageOfWordsReallyProcessed= 0.5625
