999 WORDS_grève~1 121
999 WORDFREQ_22.36 121
999 WORDSALL_Cette~0_grève~1 121
999 COSIND_1.00 121
999 COSGEN_1.00 121
101 ESRank1 121
999 WORDS_grève~1 138
999 WORDFREQ_22.36 138
999 WORDSALL_grève~1 138
999 COSIND_1.00 138
999 COSGEN_1.00 138
102 ESRank2 138
203 ESBackSacRefixation 138
999 WORDS_manifestation~4 158
999 WORDFREQ_9.8 158
999 WORDSALL_et~2_manifestation~4 158
999 COSIND_0.24 158
999 COSGEN_0.24 158
103 ESRank3 158
202 ESForwSacLong+3+10 158
999 WORDS_manifestation~4 153
999 WORDFREQ_9.8 153
999 WORDSALL_manifestation~4 153
999 COSIND_0.24 153
999 COSGEN_0.24 153
104 ESRank4 153
203 ESBackSacRefixation 153
999 WORDS_grève~1 207
999 WORDFREQ_22.36 207
999 WORDSALL_Cette~0_grève~1 207
999 COSIND_1.00 207
999 COSGEN_1.00 207
105 ESRank5 207
206 ESBackSacRegrLong-3-10 207
999 WORDS_positions~7 192
999 WORDFREQ_9.53 192
999 WORDSALL_positions~7 192
999 COSIND_-0.03 192
999 COSGEN_-0.03 192
106 ESRank6 192
202 ESForwSacLong+6+40 192
999 WORDS_objectifs~10 155
999 WORDFREQ_3.24 155
999 WORDSALL_et~8_objectifs~10 155
999 COSIND_-0.07 155
999 COSGEN_-0.07 155
107 ESRank7 155
202 ESForwSacLong+3+8 155
999 WORDS_objectifs~10 113
999 WORDFREQ_3.24 113
999 WORDSALL_des~9_objectifs~10 113
999 COSIND_-0.07 113
999 COSGEN_-0.07 113
108 ESRank8 113
203 ESBackSacRefixation 113
999 WORDS_affichaient~5 162
999 WORDFREQ_1.35 162
999 WORDSALL_affichaient~5 162
999 COSIND_0.07 162
999 COSGEN_0.07 162
109 ESRank9 162
206 ESBackSacRegrLong-5-22 162
999 WORDS_positions~7 132
999 WORDFREQ_9.53 132
999 WORDSALL_positions~7 132
999 COSIND_-0.03 132
999 COSGEN_-0.03 132
110 ESRank10 132
202 ESForwSacLong+2+5 132
999 WORDS_positions~7 147
999 WORDFREQ_9.53 147
999 WORDSALL_positions~7 147
999 COSIND_-0.03 147
999 COSGEN_-0.03 147
111 ESRank11 147
203 ESBackSacRefixation 147
999 WORDS_croyait~14 242
999 WORDFREQ_73.24 242
999 WORDSALL_croyait~14 242
999 COSIND_0.01 242
999 COSGEN_0.01 242
112 ESRank12 242
202 ESForwSacLong+7+47 242
999 WORDS_direction~13 197
999 WORDFREQ_103.04 197
999 WORDSALL_direction~13 197
999 COSIND_0.55 197
999 COSGEN_0.55 197
113 ESRank13 197
205 ESBackSacRegrShort 197
999 WORDS_direction~13 153
999 WORDFREQ_103.04 153
999 WORDSALL_direction~13 153
999 COSIND_0.55 153
999 COSGEN_0.55 153
114 ESRank14 153
203 ESBackSacRefixation 153
200 ESRankN 153
199 ESRankNMinus1 197
198 ESRankNMinus2 242
197 ESRankNMinus3 147
196 ESRankNMinus4 132
195 ESRankNMinus5 162
194 ESRankNMinus6 113
193 ESRankNMinus7 155
192 ESRankNMinus8 192
191 ESRankNMinus9 207
190 ESRankNMinus10 153
