999 WORDS_moitié~1 161
999 WORDFREQ_76.96 161
999 WORDSALL_La~0_moitié~1 161
999 COSIND_0.12 161
999 COSGEN_0.12 161
101 ESRank1 161
999 WORDS_moitié~1 131
999 WORDFREQ_76.96 131
999 WORDSALL_La~0_moitié~1 131
999 COSIND_0.12 131
999 COSGEN_0.12 131
102 ESRank2 131
203 ESBackSacRefixation 131
999 WORDS_tout-petits~3 200
999 WORDFREQ_0.41 200
999 WORDSALL_des~2_tout-petits~3 200
999 COSIND_N/A 200
103 ESRank3 200
202 ESForwSacLong+2+5 200
999 WORDS_tout-petits~3 154
999 WORDFREQ_0.41 154
999 WORDSALL_tout-petits~3 154
999 COSIND_N/A 154
104 ESRank4 154
203 ESBackSacRefixation 154
999 WORDS_ 165
999 WORDFREQ_ 165
999 WORDSALL_ 165
105 ESRank5 165
999 WORDS_ 169
999 WORDFREQ_ 169
999 WORDSALL_ 169
106 ESRank6 169
999 WORDS_foyer~7 239
999 WORDFREQ_25.81 239
999 WORDSALL_foyer~7 239
999 COSIND_0.40 239
999 COSGEN_0.40 239
107 ESRank7 239
999 WORDS_parent~10 294
999 WORDFREQ_4.53 294
999 WORDSALL_un~9_parent~10 294
999 COSIND_0.31 294
999 COSGEN_0.31 294
108 ESRank8 294
202 ESForwSacLong+3+8 294
999 WORDS_foyer~7 190
999 WORDFREQ_25.81 190
999 WORDSALL_foyer~7 190
999 COSIND_0.40 190
999 COSGEN_0.40 190
109 ESRank9 190
206 ESBackSacRegrLong-3-8 190
999 WORDS_maman~12 266
999 WORDFREQ_140.2 266
999 WORDSALL_la~11_maman~12 266
999 COSIND_0.13 266
999 COSGEN_0.13 266
110 ESRank10 266
202 ESForwSacLong+5+18 266
999 WORDS_quasi-totalité~15 233
999 WORDFREQ_0.88 233
999 WORDSALL_quasi-totalité~15 233
999 COSIND_N/A 233
111 ESRank11 233
202 ESForwSacLong+3+9 233
999 WORDS_quasi-totalité~15 159
999 WORDFREQ_0.88 159
999 WORDSALL_quasi-totalité~15 159
999 COSIND_N/A 159
112 ESRank12 159
203 ESBackSacRefixation 159
200 ESRankN 159
199 ESRankNMinus1 233
198 ESRankNMinus2 266
197 ESRankNMinus3 190
196 ESRankNMinus4 294
195 ESRankNMinus5 239
194 ESRankNMinus6 169
193 ESRankNMinus7 165
192 ESRankNMinus8 154
191 ESRankNMinus9 200
190 ESRankNMinus10 131
