999 WORDS_deux~8 213
999 WORDFREQ_1557.91 213
999 WORDSALL_football~1_deux~8 213
999 COSIND_0.04 213
999 COSGEN_0.04 213
101 ESRank1 213
999 WORDS_équipes~9 147
999 WORDFREQ_8.04 147
999 WORDSALL_est~2_sport~4_équipes~9 147
999 COSIND_0.01 147
999 COSGEN_0.01 147
102 ESRank2 147
201 ESForwSacShort 147
999 WORDS_sport~4 162
999 WORDFREQ_15.54 162
999 WORDSALL_un~3_sport~4 162
999 COSIND_0.03 162
999 COSGEN_0.03 162
103 ESRank3 162
206 ESBackSacRegrLong-5-27 162
999 WORDS_onze~11 219
999 WORDFREQ_38.85 219
999 WORDSALL_sport~4_collectif~5_onze~11 219
999 COSIND_0.09 219
999 COSGEN_0.09 219
104 ESRank4 219
202 ESForwSacLong+7+39 219
999 WORDS_deux~8 269
999 WORDFREQ_1557.91 269
999 WORDSALL_oppose~7_deux~8 269
999 COSIND_0.04 269
999 COSGEN_0.04 269
105 ESRank5 269
206 ESBackSacRegrLong-3-13 269
999 WORDS_oppose~7 159
999 WORDFREQ_5.74 159
999 WORDSALL_oppose~7 159
999 COSIND_-0.05 159
999 COSGEN_-0.05 159
106 ESRank6 159
205 ESBackSacRegrShort 159
999 WORDS_équipes~9 168
999 WORDFREQ_8.04 168
999 WORDSALL_deux~8_équipes~9 168
999 COSIND_0.01 168
999 COSGEN_0.01 168
107 ESRank7 168
202 ESForwSacLong+2+6 168
999 WORDS_onze~11 198
999 WORDFREQ_38.85 198
999 WORDSALL_de~10_onze~11 198
999 COSIND_0.09 198
999 COSGEN_0.09 198
108 ESRank8 198
202 ESForwSacLong+2+4 198
999 WORDS_joueurs~12 151
999 WORDFREQ_9.53 151
999 WORDSALL_onze~11_joueurs~12 151
999 COSIND_0.03 151
999 COSGEN_0.03 151
109 ESRank9 151
201 ESForwSacShort 151
999 WORDS_deux~8 164
999 WORDFREQ_1557.91 164
999 WORDSALL_oppose~7_deux~8 164
999 COSIND_0.04 164
999 COSGEN_0.04 164
110 ESRank10 164
206 ESBackSacRegrLong-4-18 164
999 WORDS_but~18 193
999 WORDFREQ_51.89 193
999 WORDSALL_équipes~9_but~18 193
999 COSIND_0.01 193
999 COSGEN_0.01 193
111 ESRank11 193
202 ESForwSacLong+10+48 193
999 WORDS_mettre~21 158
999 WORDFREQ_230.2 158
999 WORDSALL_de~10_onze~11_mettre~21 158
999 COSIND_-0.03 158
999 COSGEN_-0.03 158
112 ESRank12 158
202 ESForwSacLong+3+8 158
999 WORDS_ballon~23 157
999 WORDFREQ_17.16 157
999 WORDSALL_joueurs~12_ballon~23 157
999 COSIND_0.01 157
999 COSGEN_0.01 157
113 ESRank13 157
202 ESForwSacLong+2+4 157
999 WORDS_sphérique~24 130
999 WORDFREQ_1.01 130
999 WORDSALL_stade~15_sphérique~24 130
999 COSIND_-0.07 130
999 COSGEN_-0.07 130
114 ESRank14 130
201 ESForwSacShort 130
999 WORDS_sphérique~24 155
999 WORDFREQ_1.01 155
999 WORDSALL_stade~15_sphérique~24 155
999 COSIND_-0.07 155
999 COSGEN_-0.07 155
115 ESRank15 155
203 ESBackSacRefixation 155
999 WORDS_football~30 124
999 WORDFREQ_6.28 124
999 WORDSALL_mettre~21_ballon~23_football~30 124
999 COSIND_0.00 124
999 COSGEN_0.00 124
116 ESRank16 124
202 ESForwSacLong+6+24 124
999 WORDS_doute~33 150
999 WORDFREQ_341.35 150
999 WORDSALL_sphérique~24_doute~33 150
999 COSIND_-0.00 150
999 COSGEN_-0.00 150
117 ESRank17 150
202 ESForwSacLong+3+10 150
999 WORDS_sphérique~24 126
999 WORDFREQ_1.01 126
999 WORDSALL_sphérique~24 126
999 COSIND_-0.07 126
999 COSGEN_-0.07 126
118 ESRank18 126
206 ESBackSacRegrLong-9-42 126
999 WORDS_but~27 249
999 WORDFREQ_51.89 249
999 WORDSALL_dans~25_but~27 249
999 COSIND_0.01 249
999 COSGEN_0.01 249
119 ESRank19 249
202 ESForwSacLong+3+9 249
999 WORDS_plus~37 139
999 WORDFREQ_5014.53 139
999 WORDSALL_adverse~28_plus~37 139
999 COSIND_0.01 139
999 COSGEN_0.01 139
120 ESRank20 139
202 ESForwSacLong+10+48 139
999 WORDS_médiatisé~38 101
999 WORDFREQ_0 101
999 WORDSALL_Le~29_football~30_plus~37_médiatisé~38 101
999 COSIND_0.02 101
999 COSGEN_0.02 101
201 ESForwSacShort 101
999 WORDS_doute~33 258
999 WORDFREQ_341.35 258
999 WORDSALL_est~31_doute~33 258
999 COSIND_-0.00 258
999 COSGEN_-0.00 258
206 ESBackSacRegrLong-5-18 258
200 ESRankN 258
199 ESRankNMinus1 101
198 ESRankNMinus2 139
197 ESRankNMinus3 249
196 ESRankNMinus4 126
195 ESRankNMinus5 150
194 ESRankNMinus6 124
193 ESRankNMinus7 155
192 ESRankNMinus8 130
191 ESRankNMinus9 157
190 ESRankNMinus10 158
