999 WORDS_L'indice~0 141
999 WORDFREQ_4.66 141
999 WORDSALL_L'indice~0 141
999 COSIND_0.90 141
999 COSGEN_0.90 141
101 ESRank1 141
999 WORDS_vedette~1 215
999 WORDFREQ_13.92 215
999 WORDSALL_vedette~1 215
999 COSIND_0.52 215
999 COSGEN_0.52 215
102 ESRank2 215
201 ESForwSacShort 215
999 WORDS_Bourse~4 158
999 WORDFREQ_11.22 158
999 WORDSALL_de~2_Bourse~4 158
999 COSIND_0.89 158
999 COSGEN_0.89 158
103 ESRank3 158
202 ESForwSacLong+3+7 158
999 WORDS_Londres~6 296
999 WORDFREQ_N/A 296
999 WORDSALL_de~5_Londres~6 296
999 COSIND_N/A 296
104 ESRank4 296
202 ESForwSacLong+2+4 296
999 WORDS_mardi~9 114
999 WORDFREQ_15.47 114
999 WORDSALL_clôturé~8_mardi~9 114
999 COSIND_0.14 114
999 COSGEN_0.14 114
105 ESRank5 114
202 ESForwSacLong+3+13 114
999 WORDS_clôturé~8 303
999 WORDFREQ_0.34 303
999 WORDSALL_clôturé~8 303
999 COSIND_0.85 303
999 COSGEN_0.85 303
106 ESRank6 303
205 ESBackSacRegrShort 303
999 WORDS_mardi~9 244
999 WORDFREQ_15.47 244
999 WORDSALL_clôturé~8_mardi~9 244
999 COSIND_0.14 244
999 COSGEN_0.14 244
107 ESRank7 244
201 ESForwSacShort 244
999 WORDS_clôturé~8 192
999 WORDFREQ_0.34 192
999 WORDSALL_clôturé~8 192
999 COSIND_0.85 192
999 COSGEN_0.85 192
108 ESRank8 192
205 ESBackSacRegrShort 192
999 WORDS_mardi~9 169
999 WORDFREQ_15.47 169
999 WORDSALL_mardi~9 169
999 COSIND_0.14 169
999 COSGEN_0.14 169
109 ESRank9 169
201 ESForwSacShort 169
999 WORDS_hausse~11 193
999 WORDFREQ_2.09 193
999 WORDSALL_en~10_hausse~11 193
999 COSIND_0.85 193
999 COSGEN_0.85 193
110 ESRank10 193
202 ESForwSacLong+2+4 193
200 ESRankN 193
199 ESRankNMinus1 169
198 ESRankNMinus2 192
197 ESRankNMinus3 244
196 ESRankNMinus4 303
195 ESRankNMinus5 114
194 ESRankNMinus6 296
193 ESRankNMinus7 158
192 ESRankNMinus8 215
191 ESRankNMinus9 141
