999 WORDS_L'indivision~0 130
999 WORDFREQ_0.07 130
999 WORDSALL_L'indivision~0 130
999 COSIND_0.05 130
999 COSGEN_0.05 130
101 ESRank1 130
999 WORDS_fléau~3 113
999 WORDFREQ_3.04 113
999 WORDSALL_est~1_fléau~3 113
999 COSIND_-0.05 113
999 COSGEN_-0.05 113
102 ESRank2 113
202 ESForwSacLong+3+8 113
999 WORDS_fléau~3 189
999 WORDFREQ_3.04 189
999 WORDSALL_un~2_fléau~3 189
999 COSIND_-0.05 189
999 COSGEN_-0.05 189
103 ESRank3 189
203 ESBackSacRefixation 189
999 WORDS_Corse~5 193
999 WORDFREQ_1.22 193
999 WORDSALL_en~4_Corse~5 193
999 COSIND_0.02 193
999 COSGEN_0.02 193
104 ESRank4 193
202 ESForwSacLong+2+4 193
999 WORDS_surtout~6 164
999 WORDFREQ_291.49 164
999 WORDSALL_surtout~6 164
999 COSIND_N/A 164
105 ESRank5 164
201 ESForwSacShort 164
999 WORDS_Corse~5 192
999 WORDFREQ_1.22 192
999 WORDSALL_en~4_Corse~5 192
999 COSIND_0.02 192
999 COSGEN_0.02 192
106 ESRank6 192
205 ESBackSacRegrShort 192
999 WORDS_Corse~5 149
999 WORDFREQ_1.22 149
999 WORDSALL_fléau~3_Corse~5 149
999 COSIND_0.02 149
999 COSGEN_0.02 149
107 ESRank7 149
203 ESBackSacRefixation 149
999 WORDS_surtout~6 128
999 WORDFREQ_291.49 128
999 WORDSALL_surtout~6 128
999 COSIND_N/A 128
108 ESRank8 128
201 ESForwSacShort 128
999 WORDS_terres~10 178
999 WORDFREQ_32.03 178
999 WORDSALL_des~9_terres~10 178
999 COSIND_0.17 178
999 COSGEN_0.17 178
109 ESRank9 178
202 ESForwSacLong+4+23 178
999 WORDS_empêche~12 113
999 WORDFREQ_41.15 113
999 WORDSALL_terres~10_empêche~12 113
999 COSIND_0.02 113
999 COSGEN_0.02 113
110 ESRank10 113
202 ESForwSacLong+2+6 113
999 WORDS_s'installer~17 259
999 WORDFREQ_29.73 259
999 WORDSALL_s'installer~17 259
999 COSIND_-0.03 259
999 COSGEN_-0.03 259
111 ESRank11 259
202 ESForwSacLong+5+28 259
999 WORDS_jeunes~14 172
999 WORDFREQ_136.55 172
999 WORDSALL_les~13_jeunes~14 172
999 COSIND_-0.03 172
999 COSGEN_-0.03 172
112 ESRank12 172
206 ESBackSacRegrLong-3-17 172
999 WORDS_faute~18 112
999 WORDFREQ_81.08 112
999 WORDSALL_faute~18 112
999 COSIND_-0.03 112
999 COSGEN_-0.03 112
113 ESRank13 112
202 ESForwSacLong+4+29 112
999 WORDS_savoir~20 126
999 WORDFREQ_250 126
999 WORDSALL_savoir~20 126
999 COSIND_0.02 126
999 COSGEN_0.02 126
114 ESRank14 126
202 ESForwSacLong+2+4 126
999 WORDS_racheter~23 163
999 WORDFREQ_6.08 163
999 WORDSALL_racheter~23 163
999 COSIND_-0.02 163
999 COSGEN_-0.02 163
115 ESRank15 163
202 ESForwSacLong+3+8 163
999 WORDS_terre~25 193
999 WORDFREQ_420.88 193
999 WORDSALL_la~24_terre~25 193
999 COSIND_0.17 193
999 COSGEN_0.17 193
116 ESRank16 193
202 ESForwSacLong+2+4 193
999 WORDS_terres~10 128
999 WORDFREQ_32.03 128
999 WORDSALL_des~9_terres~10 128
999 COSIND_0.17 128
999 COSGEN_0.17 128
117 ESRank17 128
206 ESBackSacRegrLong-15-89 128
999 WORDS_terres~10 99
999 WORDFREQ_32.03 99
999 WORDSALL_terres~10 99
999 COSIND_0.17 99
999 COSGEN_0.17 99
118 ESRank18 99
203 ESBackSacRefixation 99
999 WORDS_empêche~12 198
999 WORDFREQ_41.15 198
999 WORDSALL_Elle~11_empêche~12 198
999 COSIND_0.02 198
999 COSGEN_0.02 198
119 ESRank19 198
202 ESForwSacLong+2+6 198
999 WORDS_jeunes~14 189
999 WORDFREQ_136.55 189
999 WORDSALL_jeunes~14 189
999 COSIND_-0.03 189
999 COSGEN_-0.03 189
120 ESRank20 189
202 ESForwSacLong+2+5 189
999 WORDS_agriculteurs~15 183
999 WORDFREQ_1.08 183
999 WORDSALL_agriculteurs~15 183
999 COSIND_0.63 183
999 COSGEN_0.63 183
201 ESForwSacShort 183
999 WORDS_agriculteurs~15 126
999 WORDFREQ_1.08 126
999 WORDSALL_agriculteurs~15 126
999 COSIND_0.63 126
999 COSGEN_0.63 126
203 ESBackSacRefixation 126
999 WORDS_s'installer~17 156
999 WORDFREQ_29.73 156
999 WORDSALL_de~16_s'installer~17 156
999 COSIND_-0.03 156
999 COSGEN_-0.03 156
202 ESForwSacLong+2+4 156
999 WORDS_s'installer~17 139
999 WORDFREQ_29.73 139
999 WORDSALL_s'installer~17 139
999 COSIND_-0.03 139
999 COSGEN_-0.03 139
203 ESBackSacRefixation 139
999 WORDS_terres~10 141
999 WORDFREQ_32.03 141
999 WORDSALL_l'intérieur~8_terres~10 141
999 COSIND_0.17 141
999 COSGEN_0.17 141
206 ESBackSacRegrLong-7-42 141
999 WORDS_l'intérieur~8 192
999 WORDFREQ_133.51 192
999 WORDSALL_l'intérieur~8 192
999 COSIND_-0.03 192
999 COSGEN_-0.03 192
206 ESBackSacRegrLong-2-5 192
999 WORDS_terres~10 178
999 WORDFREQ_32.03 178
999 WORDSALL_des~9_terres~10 178
999 COSIND_0.17 178
999 COSGEN_0.17 178
202 ESForwSacLong+2+5 178
999 WORDS_terres~10 135
999 WORDFREQ_32.03 135
999 WORDSALL_des~9_terres~10 135
999 COSIND_0.17 135
999 COSGEN_0.17 135
203 ESBackSacRefixation 135
999 WORDS_l'intérieur~8 209
999 WORDFREQ_133.51 209
999 WORDSALL_dans~7_l'intérieur~8 209
999 COSIND_-0.03 209
999 COSGEN_-0.03 209
206 ESBackSacRegrLong-2-5 209
999 WORDS_Corse~5 175
999 WORDFREQ_1.22 175
999 WORDSALL_Corse~5 175
999 COSIND_0.02 175
999 COSGEN_0.02 175
206 ESBackSacRegrLong-3-14 175
999 WORDS_Corse~5 159
999 WORDFREQ_1.22 159
999 WORDSALL_en~4_Corse~5 159
999 COSIND_0.02 159
999 COSGEN_0.02 159
203 ESBackSacRefixation 159
200 ESRankN 159
199 ESRankNMinus1 175
198 ESRankNMinus2 209
197 ESRankNMinus3 135
196 ESRankNMinus4 178
195 ESRankNMinus5 192
194 ESRankNMinus6 141
193 ESRankNMinus7 139
192 ESRankNMinus8 156
191 ESRankNMinus9 126
190 ESRankNMinus10 183
