# 198 Fixation 1 (285,259.6): Les~0 États-Unis~1
# 173 Fixation 2 (424.2,242.4): États-Unis~1 ont~2
# 220 Fixation 3 (499.8,247.4): ont~2 profité~3
# 253 Fixation 4 (697.8,195.4):
# 157 Fixation 5 (333.7,335.8): spéciale~7
# 153 Fixation 6 (287.1,363.2): spéciale~7
# 124 Fixation 7 (413.8,353.4): de~8 l'ONU~9
# 177 Fixation 8 (303.3,425): l'Irak~13
# 157 Fixation 9 (264.1,429.8): l'Irak~13
# 183 Fixation 10 (409.9,428.8): pour~14 espionner~15
# 229 Fixation 11 (595.4,331.2): chargée~10 désarmer~12
# 119 Fixation 12 (621.9,321.4): de~11 désarmer~12
%%
# Les~0 Fixations= "1/"
# États-Unis~1 Fixations= "2/"
# ont~2 Fixations= "3/"
# profité~3 Fixations= "3/"
# de~4 Fixations= ""
# la~5 Fixations= ""
# commission~6 Fixations= ""
# spéciale~7 Fixations= "6/"
# de~8 Fixations= "7/"
# l'ONU~9 Fixations= "7/"
# chargée~10 Fixations= "11/"
# de~11 Fixations= "12/"
# désarmer~12 Fixations= "12/"
# l'Irak~13 Fixations= "9/"
# pour~14 Fixations= "10/"
# espionner~15 Fixations= "10/"
# Bagdad~16 Fixations= ""
# Les~17 Fixations= ""
# responsables~18 Fixations= ""
# américains~19 Fixations= ""
# admettent~20 Fixations= ""
# avoir~21 Fixations= ""
# profité~22 Fixations= ""
# des~23 Fixations= ""
# informations~24 Fixations= ""
# militaires~25 Fixations= ""
# pouvant~26 Fixations= ""
# aider~27 Fixations= ""
# à~28 Fixations= ""
# renverser~29 Fixations= ""
# le~30 Fixations= ""
# régime~31 Fixations= ""
%%
#  LES[1] ÉTATS-UNIS[2] ONT[3] PROFITé[3] de la commission SPéCIALE[6] DE[7] L'ONU[7] CHARGéE[11] DE[12] DéSARMER[12] L'IRAK[9] POUR[10] ESPIONNER[10] Bagdad Les responsables américains admettent avoir profité des informations militaires pouvant aider à renverser le régime
# s20 conflit_irak-f1 PercentageOfWordsProcessed= 0.40625 PercentageOfWordsReallyProcessed= 0.8125
