# 96 Fixation 1 (298.1,286): Comment~0
# 126 Fixation 2 (422.9,269.5): la~1 France~2
# 138 Fixation 3 (567.5,265.7): pourra-t-elle~3
# 146 Fixation 4 (683.9,268): se~4 passer~5
# 146 Fixation 5 (294.7,343.5): Comment~0 cigarette~8
# 125 Fixation 6 (375,347.7): la~1 France~2 cigarette~8
# 164 Fixation 7 (542.3,332.8): pourra-t-elle~3 L'interdiction~9
# 165 Fixation 8 (710.4,337.6): se~4 passer~5 fumer~11
%%
# Comment~0 Fixations= "5/"
# la~1 Fixations= "6/"
# France~2 Fixations= "6/"
# pourra-t-elle~3 Fixations= "7/"
# se~4 Fixations= "8/"
# passer~5 Fixations= "8/"
# de~6 Fixations= ""
# la~7 Fixations= ""
# cigarette~8 Fixations= "6/"
# L'interdiction~9 Fixations= "7/"
# de~10 Fixations= ""
# fumer~11 Fixations= "8/"
# dans~12 Fixations= ""
# les~13 Fixations= ""
# lieux~14 Fixations= ""
# publics~15 Fixations= ""
# est~16 Fixations= ""
# largement~17 Fixations= ""
# perçue~18 Fixations= ""
# par~19 Fixations= ""
# la~20 Fixations= ""
# presse~21 Fixations= ""
# étrangère~22 Fixations= ""
# comme~23 Fixations= ""
# une~24 Fixations= ""
# atteinte~25 Fixations= ""
# à~26 Fixations= ""
# la~27 Fixations= ""
# culture~28 Fixations= ""
# française~29 Fixations= ""
%%
#  COMMENT[5] LA[6] FRANCE[6] POURRA-T-ELLE[7] SE[8] PASSER[8] de la CIGARETTE[6] L'INTERDICTION[7] de FUMER[8] dans les lieux publics est largement perçue par la presse étrangère comme une atteinte à la culture française
# s19 prix_petrole-a1 PercentageOfWordsProcessed= 0.3 PercentageOfWordsReallyProcessed= 0.75
