# 108 Fixation 1 (275.3,279.3): En~0 Inde~1
# 132 Fixation 2 (329.2,285.8): Inde~1
# 224 Fixation 3 (391,282.9): l'épais~2
# 333 Fixation 4 (499.5,282.7): brouillard~3
# 130 Fixation 5 (289,379): le~6 nord~7
# 90 Fixation 6 (333.4,398.3): nord~7 s'ajoute~15
# 146 Fixation 7 (368.3,406.2): nord~7 pays~9 s'ajoute~15
# 108 Fixation 8 (468,411.5): pays~9 à~16 vague~18
# 121 Fixation 9 (538.2,411.7): depuis~10 plusieurs~11 vague~18
%%
# En~0 Fixations= "1/"
# Inde~1 Fixations= "2/"
# l'épais~2 Fixations= "3/"
# brouillard~3 Fixations= "4/"
# qui~4 Fixations= ""
# recouvre~5 Fixations= ""
# le~6 Fixations= "5/"
# nord~7 Fixations= "7/"
# du~8 Fixations= ""
# pays~9 Fixations= "8/"
# depuis~10 Fixations= "9/"
# plusieurs~11 Fixations= "9/"
# jours~12 Fixations= ""
# et~13 Fixations= ""
# qui~14 Fixations= ""
# s'ajoute~15 Fixations= "7/"
# à~16 Fixations= "8/"
# une~17 Fixations= ""
# vague~18 Fixations= "9/"
# de~19 Fixations= ""
# froid~20 Fixations= ""
# dans~21 Fixations= ""
# l'état~22 Fixations= ""
# du~23 Fixations= ""
# Rajasthan~24 Fixations= ""
# paralyse~25 Fixations= ""
# les~26 Fixations= ""
# transports~27 Fixations= ""
# aériens~28 Fixations= ""
%%
#  EN[1] INDE[2] L'éPAIS[3] BROUILLARD[4] qui recouvre LE[5] NORD[7] du PAYS[8] DEPUIS[9] PLUSIEURS[9] jours et qui S'AJOUTE[7] à[8] une VAGUE[9] de froid dans l'état du Rajasthan paralyse les transports aériens
# s02 syndicat_agricole-a2 PercentageOfWordsProcessed= 0.413793103448276 PercentageOfWordsReallyProcessed= 0.631578947368421
