# 127 Fixation 1 (270.3,294.5): Après~0
# 146 Fixation 2 (352.5,290.4): Après~0 avoir~1
# 154 Fixation 3 (442.6,291.1): rappelé~2
# 92 Fixation 4 (493.1,291.7): rappelé~2
# 157 Fixation 5 (594.7,287.2): que~3 gouvernements~5
# 172 Fixation 6 (660.3,294.8): gouvernements~5
# 174 Fixation 7 (269.8,336.1): successifs~6
# 582 Fixation 8 (320.9,342.5): successifs~6
# 154 Fixation 9 (404.3,342.6): et~7 corps~9
# 199 Fixation 10 (502.6,348.4): le~8 corps~9
# 200 Fixation 11 (586.5,353.5): enseignant~10
# 266 Fixation 12 (701.3,363.3): ont~11
# 81 Fixation 13 (316.4,384): répondre~13
# 173 Fixation 14 (250.1,400.4): répondre~13
# 218 Fixation 15 (391.4,390.5): au~14 défi~15
# 85 Fixation 16 (462.5,401.7): défi~15
# 394 Fixation 17 (520.4,404.6): démographique~16
# 92 Fixation 18 (632.6,411.4): démographique~16
# 199 Fixation 19 (714.6,417.2): le~17 ministre~18
# 140 Fixation 20 (256.1,467.3): a~19
# 135 Fixation 21 (303.6,456.2): a~19 rappelé~20
# 154 Fixation 22 (431.1,450.6): que~21 l'effort~22
# 112 Fixation 23 (488.6,456.7): l'effort~22
# 164 Fixation 24 (587.9,464.7): devait~23
# 85 Fixation 25 (571.1,465.8): devait~23
# 192 Fixation 26 (691.3,465.4): à~24 présent~25
# 176 Fixation 27 (264,519.3): garantir~26
# 114 Fixation 28 (303.4,512.7): garantir~26
# 232 Fixation 29 (420.3,520.6): la~27 qualité~28
# 154 Fixation 30 (466.4,519.4): qualité~28
%%
# Après~0 Fixations= "2/"
# avoir~1 Fixations= "2/"
# rappelé~2 Fixations= "4/"
# que~3 Fixations= "5/"
# les~4 Fixations= ""
# gouvernements~5 Fixations= "6/"
# successifs~6 Fixations= "8/"
# et~7 Fixations= "9/"
# le~8 Fixations= "10/"
# corps~9 Fixations= "10/"
# enseignant~10 Fixations= "11/"
# ont~11 Fixations= "12/"
# su~12 Fixations= ""
# répondre~13 Fixations= "14/"
# au~14 Fixations= "15/"
# défi~15 Fixations= "16/"
# démographique~16 Fixations= "18/"
# le~17 Fixations= "19/"
# ministre~18 Fixations= "19/"
# a~19 Fixations= "21/"
# rappelé~20 Fixations= "21/"
# que~21 Fixations= "22/"
# l'effort~22 Fixations= "23/"
# devait~23 Fixations= "25/"
# à~24 Fixations= "26/"
# présent~25 Fixations= "26/"
# garantir~26 Fixations= "28/"
# la~27 Fixations= "29/"
# qualité~28 Fixations= "30/"
# pour~29 Fixations= ""
# tous~30 Fixations= ""
%%
#  APRèS[2] AVOIR[2] RAPPELé[4] QUE[5] les GOUVERNEMENTS[6] SUCCESSIFS[8] ET[9] LE[10] CORPS[10] ENSEIGNANT[11] ONT[12] su RéPONDRE[14] AU[15] DéFI[16] DéMOGRAPHIQUE[18] LE[19] MINISTRE[19] A[21] RAPPELé[21] QUE[22] L'EFFORT[23] DEVAIT[25] à[26] PRéSENT[26] GARANTIR[28] LA[29] QUALITé[30] pour tous
# s06 reforme_enseignement-m2 PercentageOfWordsProcessed= 0.870967741935484 PercentageOfWordsReallyProcessed= 0.931034482758621
