# 177 Fixation 1 (271.9,258.2): Les~0 labels~1
# 167 Fixation 2 (413.2,257.5): labels~1 alertent~2
# 135 Fixation 3 (575.9,340.3): le~3 public~4
# 230 Fixation 4 (547.1,367.2): plates-formes~10
# 262 Fixation 5 (423.8,357.7): les~9 plates-formes~10
# 166 Fixation 6 (654,266.4): public~4
# 244 Fixation 7 (268.4,343.5): Les~0 labels~1 refrain~8
# 200 Fixation 8 (312.5,429.3): téléchargement~12
# 188 Fixation 9 (464.8,409.4): plates-formes~10 illégales~13
# 152 Fixation 10 (622.8,413.1): tuent~14
# 237 Fixation 11 (296.8,497.5): musicale~16
# 183 Fixation 12 (437.1,435): illégales~13
# 113 Fixation 13 (530.8,458.1): illégales~13 temps~19
# 137 Fixation 14 (648.3,421.2): tuent~14 l'industrie~15
%%
# Les~0 Fixations= "7/"
# labels~1 Fixations= "7/"
# alertent~2 Fixations= "2/"
# le~3 Fixations= "3/"
# public~4 Fixations= "6/"
# avec~5 Fixations= ""
# le~6 Fixations= ""
# même~7 Fixations= ""
# refrain~8 Fixations= "7/"
# les~9 Fixations= "5/"
# plates-formes~10 Fixations= "9/"
# de~11 Fixations= ""
# téléchargement~12 Fixations= "8/"
# illégales~13 Fixations= "13/"
# tuent~14 Fixations= "14/"
# l'industrie~15 Fixations= "14/"
# musicale~16 Fixations= "11/"
# Pendant~17 Fixations= ""
# ce~18 Fixations= ""
# temps~19 Fixations= "13/"
# les~20 Fixations= ""
# marchands~21 Fixations= ""
# de~22 Fixations= ""
# disques~23 Fixations= ""
# ont~24 Fixations= ""
# le~25 Fixations= ""
# moral~26 Fixations= ""
# en~27 Fixations= ""
# berne~28 Fixations= ""
%%
#  LES[7] LABELS[7] ALERTENT[2] LE[3] PUBLIC[6] avec le même REFRAIN[7] LES[5] PLATES-FORMES[9] de TéLéCHARGEMENT[8] ILLéGALES[13] TUENT[14] L'INDUSTRIE[14] MUSICALE[11] Pendant ce TEMPS[13] les marchands de disques ont le moral en berne
# s21 reforme_enseignement-a2 PercentageOfWordsProcessed= 0.482758620689655 PercentageOfWordsReallyProcessed= 0.7
