999 WORDS_catalogue~1 212
999 WORDFREQ_0.2 212
999 WORDSALL_Le~0_catalogue~1 212
999 COSIND_-0.01 212
999 COSGEN_-0.01 212
101 ESRank1 212
999 WORDS_principes~3 243
999 WORDFREQ_16.69 243
999 WORDSALL_des~2_principes~3 243
999 COSIND_0.12 243
999 COSGEN_0.12 243
102 ESRank2 243
202 ESForwSacLong+2+5 243
999 WORDS_retour~5 244
999 WORDFREQ_153.31 244
999 WORDSALL_du~4_retour~5 244
999 COSIND_0.03 244
999 COSGEN_0.03 244
103 ESRank3 244
202 ESForwSacLong+2+4 244
999 WORDS_à~8 212
999 WORDFREQ_19209.05 212
999 WORDSALL_calme~7_à~8 212
999 COSIND_N/A 212
104 ESRank4 212
202 ESForwSacLong+3+10 212
999 WORDS_à~8 107
999 WORDFREQ_19209.05 107
999 WORDSALL_calme~7_à~8 107
999 COSIND_N/A 107
105 ESRank5 107
203 ESBackSacRefixation 107
999 WORDS_calme~7 199
999 WORDFREQ_52.03 199
999 WORDSALL_calme~7 199
999 COSIND_-0.04 199
999 COSGEN_-0.04 199
106 ESRank6 199
205 ESBackSacRegrShort 199
999 WORDS_établi~11 445
999 WORDFREQ_4.73 445
999 WORDSALL_frontière~10_établi~11 445
999 COSIND_-0.09 445
999 COSGEN_-0.09 445
107 ESRank7 445
202 ESForwSacLong+4+18 445
999 WORDS_ministres~14 191
999 WORDFREQ_20.14 191
999 WORDSALL_ministres~14 191
999 COSIND_0.03 191
999 COSGEN_0.03 191
108 ESRank8 191
202 ESForwSacLong+3+9 191
999 WORDS_reprend~15 172
999 WORDFREQ_31.35 172
999 WORDSALL_reprend~15 172
999 COSIND_-0.07 172
999 COSGEN_-0.07 172
109 ESRank9 172
201 ESForwSacShort 172
999 WORDS_l'essentiel~16 172
999 WORDFREQ_28.78 172
999 WORDSALL_l'essentiel~16 172
999 COSIND_-0.02 172
999 COSGEN_-0.02 172
110 ESRank10 172
201 ESForwSacShort 172
999 WORDS_conditions~19 218
999 WORDFREQ_45.81 218
999 WORDSALL_conditions~19 218
999 COSIND_0.03 218
999 COSGEN_0.03 218
111 ESRank11 218
202 ESForwSacLong+3+10 218
999 WORDS_posées~20 207
999 WORDFREQ_1.89 207
999 WORDSALL_conditions~19_posées~20 207
999 COSIND_0.00 207
999 COSGEN_0.00 207
112 ESRank12 207
201 ESForwSacShort 207
999 WORDS_gouvernements~23 204
999 WORDFREQ_12.3 204
999 WORDSALL_les~22_gouvernements~23 204
999 COSIND_-0.01 204
999 COSGEN_-0.01 204
113 ESRank13 204
202 ESForwSacLong+3+9 204
999 WORDS_occidentaux~24 208
999 WORDFREQ_1.62 208
999 WORDSALL_occidentaux~24 208
999 COSIND_0.06 208
999 COSGEN_0.06 208
114 ESRank14 208
201 ESForwSacShort 208
999 WORDS_arrêt~27 216
999 WORDFREQ_46.82 216
999 WORDSALL_un~26_arrêt~27 216
999 COSIND_-0.06 216
999 COSGEN_-0.06 216
115 ESRank15 216
202 ESForwSacLong+3+9 216
999 WORDS_frappes~29 233
999 WORDFREQ_0.61 233
999 WORDSALL_des~28_frappes~29 233
999 COSIND_0.01 233
999 COSGEN_0.01 233
116 ESRank16 233
202 ESForwSacLong+2+5 233
200 ESRankN 233
199 ESRankNMinus1 216
198 ESRankNMinus2 208
197 ESRankNMinus3 204
196 ESRankNMinus4 207
195 ESRankNMinus5 218
194 ESRankNMinus6 172
193 ESRankNMinus7 172
192 ESRankNMinus8 191
191 ESRankNMinus9 445
190 ESRankNMinus10 199
