999 WORDS_Laure~0 170
999 WORDFREQ_N/A 170
999 WORDSALL_Laure~0 170
999 COSIND_N/A 170
101 ESRank1 170
999 WORDS_Manaudou~1 276
999 WORDFREQ_N/A 276
999 WORDSALL_Laure~0_Manaudou~1 276
999 COSIND_N/A 276
102 ESRank2 276
201 ESForwSacShort 276
999 WORDS_Manaudou~1 225
999 WORDFREQ_N/A 225
999 WORDSALL_Manaudou~1 225
999 COSIND_N/A 225
103 ESRank3 225
203 ESBackSacRefixation 225
999 WORDS_remporté~3 255
999 WORDFREQ_2.84 255
999 WORDSALL_a~2_remporté~3 255
999 COSIND_-0.06 255
999 COSGEN_-0.06 255
104 ESRank4 255
202 ESForwSacLong+2+3 255
999 WORDS_remporté~3 82
999 WORDFREQ_2.84 82
999 WORDSALL_remporté~3 82
999 COSIND_-0.06 82
999 COSGEN_-0.06 82
105 ESRank5 82
203 ESBackSacRefixation 82
999 WORDS_médaille~5 244
999 WORDFREQ_9.53 244
999 WORDSALL_la~4_médaille~5 244
999 COSIND_-0.03 244
999 COSGEN_-0.03 244
106 ESRank6 244
202 ESForwSacLong+2+4 244
999 WORDS_d'argent~6 288
999 WORDFREQ_194.32 288
999 WORDSALL_Laure~0_d'argent~6 288
999 COSIND_-0.10 288
999 COSGEN_-0.10 288
107 ESRank7 288
201 ESForwSacShort 288
999 WORDS_m~9 174
999 WORDFREQ_2.09 174
999 WORDSALL_Manaudou~1_a~2_200~8_m~9 174
999 COSIND_N/A 174
108 ESRank8 174
202 ESForwSacLong+3+9 174
999 WORDS_libre~11 164
999 WORDFREQ_130.14 164
999 WORDSALL_remporté~3_nage~10_libre~11 164
999 COSIND_0.01 164
999 COSGEN_0.01 164
109 ESRank9 164
202 ESForwSacLong+2+6 164
999 WORDS_libre~11 125
999 WORDFREQ_130.14 125
999 WORDSALL_libre~11 125
999 COSIND_0.01 125
999 COSGEN_0.01 125
110 ESRank10 125
203 ESBackSacRefixation 125
999 WORDS_championnats~13 293
999 WORDFREQ_0.41 293
999 WORDSALL_d'argent~6_championnats~13 293
999 COSIND_-0.01 293
999 COSGEN_-0.01 293
111 ESRank11 293
202 ESForwSacLong+2+5 293
200 ESRankN 293
199 ESRankNMinus1 125
198 ESRankNMinus2 164
197 ESRankNMinus3 174
196 ESRankNMinus4 288
195 ESRankNMinus5 244
194 ESRankNMinus6 82
193 ESRankNMinus7 255
192 ESRankNMinus8 225
191 ESRankNMinus9 276
190 ESRankNMinus10 170
