# 187 Fixation 1 (265.9,221.9): Le~0 président~1
# 158 Fixation 2 (473.9,274.9): de~2 l'APM~3
# 194 Fixation 3 (567.7,278.5): a~4 vilipendé~5
# 146 Fixation 4 (353.3,347.3): réforme~7
# 179 Fixation 5 (285,368.4): réforme~7
# 178 Fixation 6 (444.4,336.4): la~9 ministre~10
# 252 Fixation 7 (616.5,364.4): de~11 justice~13
# 108 Fixation 8 (707.6,338.7): justice~13
# 267 Fixation 9 (313.1,404.8): il~15 a~16
# 173 Fixation 10 (465,421.3): mené~18
# 171 Fixation 11 (548.4,425.9): la~19 charge~20
# 137 Fixation 12 (658.8,429.4): contre~21
# 138 Fixation 13 (320.7,474.9): élus~23 accusés~24
# 139 Fixation 14 (270.1,475.3): élus~23
# 220 Fixation 15 (487.1,464.8): de~25 dresser~26
# 185 Fixation 16 (629.8,476.7): le~27 procès~28
# 180 Fixation 17 (320.4,527): magistrature~31
# 205 Fixation 18 (271.6,535.7): magistrature~31
# 226 Fixation 19 (622.2,478.6): le~27 procès~28
%%
# Le~0 Fixations= "1/"
# président~1 Fixations= "1/"
# de~2 Fixations= "2/"
# l'APM~3 Fixations= "2/"
# a~4 Fixations= "3/"
# vilipendé~5 Fixations= "3/"
# la~6 Fixations= ""
# réforme~7 Fixations= "5/"
# de~8 Fixations= ""
# la~9 Fixations= "6/"
# ministre~10 Fixations= "6/"
# de~11 Fixations= "7/"
# la~12 Fixations= ""
# justice~13 Fixations= "8/"
# mais~14 Fixations= ""
# il~15 Fixations= "9/"
# a~16 Fixations= "9/"
# surtout~17 Fixations= ""
# mené~18 Fixations= "10/"
# la~19 Fixations= "11/"
# charge~20 Fixations= "11/"
# contre~21 Fixations= "12/"
# les~22 Fixations= ""
# élus~23 Fixations= "14/"
# accusés~24 Fixations= "13/"
# de~25 Fixations= "15/"
# dresser~26 Fixations= "15/"
# le~27 Fixations= "19/"
# procès~28 Fixations= "19/"
# de~29 Fixations= ""
# la~30 Fixations= ""
# magistrature~31 Fixations= "18/"
%%
#  LE[1] PRéSIDENT[1] DE[2] L'APM[2] A[3] VILIPENDé[3] la RéFORME[5] de LA[6] MINISTRE[6] DE[7] la JUSTICE[8] mais IL[9] A[9] surtout MENé[10] LA[11] CHARGE[11] CONTRE[12] les éLUS[14] ACCUSéS[13] DE[15] DRESSER[15] LE[19] PROCèS[19] de la MAGISTRATURE[18]
# s21 reforme_justice-f1 PercentageOfWordsProcessed= 0.75 PercentageOfWordsReallyProcessed= 0.75
