999 WORDS_groupe~1 123
999 WORDFREQ_85.88 123
999 WORDSALL_Un~0_groupe~1 123
999 COSIND_-0.00 123
999 COSGEN_-0.00 123
101 ESRank1 123
999 WORDS_d'ingénieurs~2 164
999 WORDFREQ_3.24 164
999 WORDSALL_d'ingénieurs~2 164
999 COSIND_0.01 164
999 COSGEN_0.01 164
102 ESRank2 164
201 ESForwSacShort 164
999 WORDS_météorologistes~3 157
999 WORDFREQ_N/A 157
999 WORDSALL_météorologistes~3 157
999 COSIND_N/A 157
103 ESRank3 157
201 ESForwSacShort 157
999 WORDS_météorologistes~3 109
999 WORDFREQ_N/A 109
999 WORDSALL_météorologistes~3 109
999 COSIND_N/A 109
104 ESRank4 109
203 ESBackSacRefixation 109
999 WORDS_obtenu~5 154
999 WORDFREQ_14.73 154
999 WORDSALL_obtenu~5 154
999 COSIND_-0.05 154
999 COSGEN_-0.05 154
105 ESRank5 154
202 ESForwSacLong+2+3 154
999 WORDS_prix~7 136
999 WORDFREQ_107.5 136
999 WORDSALL_le~6_prix~7 136
999 COSIND_-0.00 136
999 COSGEN_-0.00 136
106 ESRank6 136
202 ESForwSacLong+2+4 136
999 WORDS_Nobel~8 187
999 WORDFREQ_N/A 187
999 WORDSALL_Nobel~8 187
999 COSIND_N/A 187
107 ESRank7 187
201 ESForwSacShort 187
999 WORDS_évènements~17 151
999 WORDFREQ_0 151
999 WORDSALL_des~16_évènements~17 151
999 COSIND_N/A 151
108 ESRank8 151
202 ESForwSacLong+9+48 151
999 WORDS_terme~21 166
999 WORDFREQ_34.86 166
999 WORDSALL_long~20_terme~21 166
999 COSIND_0.01 166
999 COSGEN_0.01 166
109 ESRank9 166
202 ESForwSacLong+4+21 166
999 WORDS_effets~24 150
999 WORDFREQ_19.19 150
999 WORDSALL_et~22_effets~24 150
999 COSIND_0.29 150
999 COSGEN_0.29 150
110 ESRank10 150
202 ESForwSacLong+3+8 150
999 WORDS_effets~24 90
999 WORDFREQ_19.19 90
999 WORDSALL_aux~23_effets~24 90
999 COSIND_0.29 90
999 COSGEN_0.29 90
111 ESRank11 90
203 ESBackSacRefixation 90
999 WORDS_pollution~27 190
999 WORDFREQ_1.15 190
999 WORDSALL_pollution~27 190
999 COSIND_0.50 190
999 COSGEN_0.50 190
112 ESRank12 190
202 ESForwSacLong+3+7 190
200 ESRankN 190
199 ESRankNMinus1 90
198 ESRankNMinus2 150
197 ESRankNMinus3 166
196 ESRankNMinus4 151
195 ESRankNMinus5 187
194 ESRankNMinus6 136
193 ESRankNMinus7 154
192 ESRankNMinus8 109
191 ESRankNMinus9 157
190 ESRankNMinus10 164
