999 WORDS_grève~1 125
999 WORDFREQ_22.36 125
999 WORDSALL_Cette~0_grève~1 125
999 COSIND_1.00 125
999 COSGEN_1.00 125
101 ESRank1 125
999 WORDS_grève~1 158
999 WORDFREQ_22.36 158
999 WORDSALL_Cette~0_grève~1 158
999 COSIND_1.00 158
999 COSGEN_1.00 158
102 ESRank2 158
203 ESBackSacRefixation 158
999 WORDS_et~2 238
999 WORDFREQ_20879.73 238
999 WORDSALL_et~2 238
999 COSIND_N/A 238
103 ESRank3 238
201 ESForwSacShort 238
999 WORDS_manifestation~4 114
999 WORDFREQ_9.8 114
999 WORDSALL_cette~3_manifestation~4 114
999 COSIND_0.24 114
999 COSGEN_0.24 114
104 ESRank4 114
202 ESForwSacLong+2+7 114
999 WORDS_manifestation~4 104
999 WORDFREQ_9.8 104
999 WORDSALL_manifestation~4 104
999 COSIND_0.24 104
999 COSGEN_0.24 104
105 ESRank5 104
203 ESBackSacRefixation 104
999 WORDS_affichaient~5 273
999 WORDFREQ_1.35 273
999 WORDSALL_affichaient~5 273
999 COSIND_0.07 273
999 COSGEN_0.07 273
106 ESRank6 273
201 ESForwSacShort 273
999 WORDS_positions~7 237
999 WORDFREQ_9.53 237
999 WORDSALL_des~6_positions~7 237
999 COSIND_-0.03 237
999 COSGEN_-0.03 237
107 ESRank7 237
202 ESForwSacLong+2+5 237
999 WORDS_objectifs~10 162
999 WORDFREQ_3.24 162
999 WORDSALL_et~8_objectifs~10 162
999 COSIND_-0.07 162
999 COSGEN_-0.07 162
108 ESRank8 162
202 ESForwSacLong+3+8 162
999 WORDS_objectifs~10 95
999 WORDFREQ_3.24 95
999 WORDSALL_des~9_objectifs~10 95
999 COSIND_-0.07 95
999 COSGEN_-0.07 95
109 ESRank9 95
203 ESBackSacRefixation 95
999 WORDS_contradictoires~11 196
999 WORDFREQ_6.62 196
999 WORDSALL_contradictoires~11 196
999 COSIND_-0.04 196
999 COSGEN_-0.04 196
110 ESRank10 196
201 ESForwSacShort 196
999 WORDS_contradictoires~11 250
999 WORDFREQ_6.62 250
999 WORDSALL_contradictoires~11 250
999 COSIND_-0.04 250
999 COSGEN_-0.04 250
111 ESRank11 250
203 ESBackSacRefixation 250
999 WORDS_direction~13 356
999 WORDFREQ_103.04 356
999 WORDSALL_direction~13 356
999 COSIND_0.55 356
999 COSGEN_0.55 356
112 ESRank12 356
202 ESForwSacLong+2+4 356
999 WORDS_croyait~14 119
999 WORDFREQ_73.24 119
999 WORDSALL_croyait~14 119
999 COSIND_0.01 119
999 COSGEN_0.01 119
113 ESRank13 119
201 ESForwSacShort 119
999 WORDS_mouvement~17 194
999 WORDFREQ_134.8 194
999 WORDSALL_mouvement~17 194
999 COSIND_0.38 194
999 COSGEN_0.38 194
114 ESRank14 194
202 ESForwSacLong+3+8 194
999 WORDS_mouvement~17 246
999 WORDFREQ_134.8 246
999 WORDSALL_mouvement~17 246
999 COSIND_0.38 246
999 COSGEN_0.38 246
115 ESRank15 246
203 ESBackSacRefixation 246
999 WORDS_pourrir~19 193
999 WORDFREQ_5.95 193
999 WORDSALL_allait~18_pourrir~19 193
999 COSIND_-0.00 193
999 COSGEN_-0.00 193
116 ESRank16 193
202 ESForwSacLong+2+8 193
999 WORDS_a~21 217
999 WORDFREQ_1669.39 217
999 WORDSALL_Elle~20_a~21 217
999 COSIND_N/A 217
117 ESRank17 217
202 ESForwSacLong+2+6 217
999 WORDS_a~21 125
999 WORDFREQ_1669.39 125
999 WORDSALL_Elle~20_a~21 125
999 COSIND_N/A 125
118 ESRank18 125
203 ESBackSacRefixation 125
999 WORDS_spéculer~25 309
999 WORDFREQ_0.47 309
999 WORDSALL_spéculer~25 309
999 COSIND_-0.03 309
999 COSGEN_-0.03 309
119 ESRank19 309
202 ESForwSacLong+4+12 309
999 WORDS_recul~28 299
999 WORDFREQ_14.73 299
999 WORDSALL_un~27_recul~28 299
999 COSIND_-0.04 299
999 COSGEN_-0.04 299
120 ESRank20 299
202 ESForwSacLong+3+8 299
999 WORDS_salariés~30 234
999 WORDFREQ_0.2 234
999 WORDSALL_des~29_salariés~30 234
999 COSIND_0.12 234
999 COSGEN_0.12 234
202 ESForwSacLong+2+5 234
200 ESRankN 234
199 ESRankNMinus1 299
198 ESRankNMinus2 309
197 ESRankNMinus3 125
196 ESRankNMinus4 217
195 ESRankNMinus5 193
194 ESRankNMinus6 246
193 ESRankNMinus7 194
192 ESRankNMinus8 119
191 ESRankNMinus9 356
190 ESRankNMinus10 250
