# 124 Fixation 1 (363.8,272.8): jours~1
# 187 Fixation 2 (468.9,301.5): de~2 grains~3
# 141 Fixation 3 (599.6,299): sont~4 venus~5
# 138 Fixation 4 (698.5,280.3): venus~5 clore~6
# 180 Fixation 5 (309.5,329.3): Quatre~0 traversée~8
# 141 Fixation 6 (294.5,327.3): Quatre~0 traversée~8
# 105 Fixation 7 (458.7,323.2): de~2 grains~3 Pacifique~10
# 162 Fixation 8 (609.6,355.2): L'eau~11 a~12
# 108 Fixation 9 (652.9,362.7): L'eau~11 a~12 gagné~13
# 227 Fixation 10 (309.4,403.7): traversée~8 bagarre~15
# 210 Fixation 11 (446.6,385.3): du~9 Pacifique~10 était~18
# 111 Fixation 12 (557.7,402.5): Pacifique~10 L'eau~11 trempé~19
# 181 Fixation 13 (570.5,435.5): trempé~19
# 96 Fixation 14 (625.5,456): trempé~19 à~20 idéal~27
%%
# Quatre~0 Fixations= "6/"
# jours~1 Fixations= "1/"
# de~2 Fixations= "7/"
# grains~3 Fixations= "7/"
# sont~4 Fixations= "3/"
# venus~5 Fixations= "4/"
# clore~6 Fixations= "4/"
# sa~7 Fixations= ""
# traversée~8 Fixations= "10/"
# du~9 Fixations= "11/"
# Pacifique~10 Fixations= "12/"
# L'eau~11 Fixations= "12/"
# a~12 Fixations= "9/"
# gagné~13 Fixations= "9/"
# la~14 Fixations= ""
# bagarre~15 Fixations= "10/"
# et~16 Fixations= ""
# tout~17 Fixations= ""
# était~18 Fixations= "11/"
# trempé~19 Fixations= "14/"
# à~20 Fixations= "14/"
# bord~21 Fixations= ""
# Le~22 Fixations= ""
# navigateur~23 Fixations= ""
# attend~24 Fixations= ""
# le~25 Fixations= ""
# moment~26 Fixations= ""
# idéal~27 Fixations= "14/"
# pour~28 Fixations= ""
# aller~29 Fixations= ""
# se~30 Fixations= ""
# reposer~31 Fixations= ""
%%
#  QUATRE[6] JOURS[1] DE[7] GRAINS[7] SONT[3] VENUS[4] CLORE[4] sa TRAVERSéE[10] DU[11] PACIFIQUE[12] L'EAU[12] A[9] GAGNé[9] la BAGARRE[10] et tout éTAIT[11] TREMPé[14] à[14] bord Le navigateur attend le moment IDéAL[14] pour aller se reposer
# s07 croissance_economie-a2 PercentageOfWordsProcessed= 0.5625 PercentageOfWordsReallyProcessed= 0.642857142857143
