999 WORDS_information~1 151
999 WORDFREQ_16.22 151
999 WORDSALL_Une~0_information~1 151
999 COSIND_-0.06 151
999 COSGEN_-0.06 151
101 ESRank1 151
999 WORDS_information~1 139
999 WORDFREQ_16.22 139
999 WORDSALL_Une~0_information~1 139
999 COSIND_-0.06 139
999 COSGEN_-0.06 139
102 ESRank2 139
203 ESBackSacRefixation 139
999 WORDS_judiciaire~2 217
999 WORDFREQ_4.26 217
999 WORDSALL_judiciaire~2 217
999 COSIND_0.02 217
999 COSGEN_0.02 217
103 ESRank3 217
201 ESForwSacShort 217
999 WORDS_information~1 181
999 WORDFREQ_16.22 181
999 WORDSALL_information~1 181
999 COSIND_-0.06 181
999 COSGEN_-0.06 181
104 ESRank4 181
205 ESBackSacRegrShort 181
999 WORDS_blessures~4 189
999 WORDFREQ_13.18 189
999 WORDSALL_pour~3_blessures~4 189
999 COSIND_-0.03 189
999 COSGEN_-0.03 189
105 ESRank5 189
202 ESForwSacLong+3+17 189
999 WORDS_involontaires~5 341
999 WORDFREQ_1.01 341
999 WORDSALL_Une~0_information~1_involontaires~5 341
999 COSIND_-0.02 341
999 COSGEN_-0.02 341
106 ESRank6 341
201 ESForwSacShort 341
999 WORDS_involontaires~5 229
999 WORDFREQ_1.01 229
999 WORDSALL_Une~0_information~1_involontaires~5 229
999 COSIND_-0.02 229
999 COSGEN_-0.02 229
107 ESRank7 229
203 ESBackSacRefixation 229
999 WORDS_commises~6 139
999 WORDFREQ_2.57 139
999 WORDSALL_judiciaire~2_commises~6 139
999 COSIND_0.02 139
999 COSGEN_0.02 139
108 ESRank8 139
201 ESForwSacShort 139
999 WORDS_négligences~8 170
999 WORDFREQ_0.88 170
999 WORDSALL_négligences~8 170
999 COSIND_-0.00 170
999 COSGEN_-0.00 170
109 ESRank9 170
202 ESForwSacLong+2+5 170
999 WORDS_ouverte~11 208
999 WORDFREQ_27.97 208
999 WORDSALL_ouverte~11 208
999 COSIND_N/A 208
110 ESRank10 208
202 ESForwSacLong+3+9 208
999 WORDS_chute~14 150
999 WORDFREQ_35.27 150
999 WORDSALL_commises~6_chute~14 150
999 COSIND_-0.04 150
999 COSGEN_-0.04 150
111 ESRank11 150
202 ESForwSacLong+3+11 150
200 ESRankN 150
199 ESRankNMinus1 208
198 ESRankNMinus2 170
197 ESRankNMinus3 139
196 ESRankNMinus4 229
195 ESRankNMinus5 341
194 ESRankNMinus6 189
193 ESRankNMinus7 181
192 ESRankNMinus8 217
191 ESRankNMinus9 139
190 ESRankNMinus10 151
