999 WORDS_badminton~1 194
999 WORDFREQ_0.2 194
999 WORDSALL_badminton~1 194
999 COSIND_-0.05 194
999 COSGEN_-0.05 194
101 ESRank1 194
999 WORDS_badminton~1 245
999 WORDFREQ_0.2 245
999 WORDSALL_Le~0_badminton~1 245
999 COSIND_-0.05 245
999 COSGEN_-0.05 245
102 ESRank2 245
203 ESBackSacRefixation 245
999 WORDS_badminton~1 109
999 WORDFREQ_0.2 109
999 WORDSALL_Le~0_badminton~1 109
999 COSIND_-0.05 109
999 COSGEN_-0.05 109
103 ESRank3 109
203 ESBackSacRefixation 109
999 WORDS_nécessite~2 264
999 WORDFREQ_1.08 264
999 WORDSALL_nécessite~2 264
999 COSIND_0.01 264
999 COSGEN_0.01 264
104 ESRank4 264
201 ESForwSacShort 264
999 WORDS_nécessite~2 196
999 WORDFREQ_1.08 196
999 WORDSALL_badminton~1_nécessite~2 196
999 COSIND_0.01 196
999 COSGEN_0.01 196
105 ESRank5 196
203 ESBackSacRefixation 196
999 WORDS_nombreuses~4 95
999 WORDFREQ_17.91 95
999 WORDSALL_de~3_nombreuses~4 95
999 COSIND_0.05 95
999 COSGEN_0.05 95
106 ESRank6 95
202 ESForwSacLong+2+4 95
999 WORDS_nécessite~2 163
999 WORDFREQ_1.08 163
999 WORDSALL_nécessite~2 163
999 COSIND_0.01 163
999 COSGEN_0.01 163
107 ESRank7 163
206 ESBackSacRegrLong-2-4 163
999 WORDS_nécessite~2 360
999 WORDFREQ_1.08 360
999 WORDSALL_badminton~1_nécessite~2 360
999 COSIND_0.01 360
999 COSGEN_0.01 360
108 ESRank8 360
203 ESBackSacRefixation 360
999 WORDS_nécessite~2 177
999 WORDFREQ_1.08 177
999 WORDSALL_nécessite~2 177
999 COSIND_0.01 177
999 COSGEN_0.01 177
109 ESRank9 177
203 ESBackSacRefixation 177
999 WORDS_nombreuses~4 193
999 WORDFREQ_17.91 193
999 WORDSALL_nécessite~2_nombreuses~4 193
999 COSIND_0.05 193
999 COSGEN_0.05 193
110 ESRank10 193
202 ESForwSacLong+2+4 193
999 WORDS_nombreuses~4 134
999 WORDFREQ_17.91 134
999 WORDSALL_de~3_nombreuses~4 134
999 COSIND_0.05 134
999 COSGEN_0.05 134
111 ESRank11 134
203 ESBackSacRefixation 134
999 WORDS_nombreuses~4 153
999 WORDFREQ_17.91 153
999 WORDSALL_nombreuses~4 153
999 COSIND_0.05 153
999 COSGEN_0.05 153
112 ESRank12 153
203 ESBackSacRefixation 153
999 WORDS_heures~5 304
999 WORDFREQ_484.19 304
999 WORDSALL_nombreuses~4_heures~5 304
999 COSIND_-0.06 304
999 COSGEN_-0.06 304
113 ESRank13 304
201 ESForwSacShort 304
999 WORDS_d'entraînement~6 533
999 WORDFREQ_7.91 533
999 WORDSALL_Le~0_badminton~1_d'entraînement~6 533
999 COSIND_-0.06 533
999 COSGEN_-0.06 533
114 ESRank14 533
201 ESForwSacShort 533
999 WORDS_d'entraînement~6 261
999 WORDFREQ_7.91 261
999 WORDSALL_d'entraînement~6 261
999 COSIND_-0.06 261
999 COSGEN_-0.06 261
115 ESRank15 261
203 ESBackSacRefixation 261
999 WORDS_semaine~8 125
999 WORDFREQ_111.89 125
999 WORDSALL_par~7_semaine~8 125
999 COSIND_-0.06 125
999 COSGEN_-0.06 125
116 ESRank16 125
202 ESForwSacLong+2+5 125
999 WORDS_difficile~16 261
999 WORDFREQ_100.74 261
999 WORDSALL_est~15_difficile~16 261
999 COSIND_0.10 261
999 COSGEN_0.10 261
117 ESRank17 261
202 ESForwSacLong+8+34 261
999 WORDS_compétition~22 246
999 WORDFREQ_3.85 246
999 WORDSALL_compétition~22 246
999 COSIND_-0.07 246
999 COSGEN_-0.07 246
118 ESRank18 246
202 ESForwSacLong+6+28 246
999 WORDS_jamais~26 127
999 WORDFREQ_1122.97 127
999 WORDSALL_compétition~22_jamais~26 127
999 COSIND_N/A 127
119 ESRank19 127
202 ESForwSacLong+4+31 127
999 WORDS_badminton~1 222
999 WORDFREQ_0.2 222
999 WORDSALL_badminton~1 222
999 COSIND_-0.05 222
999 COSGEN_-0.05 222
120 ESRank20 222
206 ESBackSacRegrLong-25-174 222
200 ESRankN 222
199 ESRankNMinus1 127
198 ESRankNMinus2 246
197 ESRankNMinus3 261
196 ESRankNMinus4 125
195 ESRankNMinus5 261
194 ESRankNMinus6 533
193 ESRankNMinus7 304
192 ESRankNMinus8 153
191 ESRankNMinus9 134
190 ESRankNMinus10 193
