# 86 Fixation 1 (231.4,288.1): Une~0 quarantaine~1
# 126 Fixation 2 (283.8,298): Une~0 quarantaine~1
# 137 Fixation 3 (321.3,294.2): Une~0 quarantaine~1
# 185 Fixation 4 (391.4,290): quarantaine~1
# 136 Fixation 5 (365.2,291.4): quarantaine~1
# 186 Fixation 6 (476.6,285.7): de~2 véhicules~3
# 123 Fixation 7 (517.2,284.1): de~2 véhicules~3
# 291 Fixation 8 (654.4,286.1): ont~4 été~5
# 380 Fixation 9 (300.6,344.2): incendiés~6
# 222 Fixation 10 (449.2,346.9): par~7 jeunes~9
# 214 Fixation 11 (507.6,347): des~8 jeunes~9
# 339 Fixation 12 (598,347.1): mineurs~10
# 216 Fixation 13 (686.3,351.5): mineurs~10
# 127 Fixation 14 (738.7,354.8): dans~11
%%
# Une~0 Fixations= "3/"
# quarantaine~1 Fixations= "5/"
# de~2 Fixations= "7/"
# véhicules~3 Fixations= "7/"
# ont~4 Fixations= "8/"
# été~5 Fixations= "8/"
# incendiés~6 Fixations= "9/"
# par~7 Fixations= "10/"
# des~8 Fixations= "11/"
# jeunes~9 Fixations= "11/"
# mineurs~10 Fixations= "13/"
# dans~11 Fixations= "14/"
# les~12 Fixations= ""
# banlieues~13 Fixations= ""
# de~14 Fixations= ""
# Strasbourg~15 Fixations= ""
# pendant~16 Fixations= ""
# la~17 Fixations= ""
# nuit~18 Fixations= ""
# de~19 Fixations= ""
# la~20 Fixations= ""
# Saint-Sylvestre~21 Fixations= ""
# Des~22 Fixations= ""
# affrontements~23 Fixations= ""
# avec~24 Fixations= ""
# les~25 Fixations= ""
# forces~26 Fixations= ""
# de~27 Fixations= ""
# police~28 Fixations= ""
# ont~29 Fixations= ""
# également~30 Fixations= ""
# eu~31 Fixations= ""
# lieu~32 Fixations= ""
%%
#  UNE[3] QUARANTAINE[5] DE[7] VéHICULES[7] ONT[8] éTé[8] INCENDIéS[9] PAR[10] DES[11] JEUNES[11] MINEURS[13] DANS[14] les banlieues de Strasbourg pendant la nuit de la Saint-Sylvestre Des affrontements avec les forces de police ont également eu lieu
# s13 delinquance_juvenile-f1 PercentageOfWordsProcessed= 0.363636363636364 PercentageOfWordsReallyProcessed= 1
