999 WORDS_musée~1 179
999 WORDFREQ_21.55 179
999 WORDSALL_Le~0_musée~1 179
999 COSIND_0.86 179
999 COSGEN_0.86 179
101 ESRank1 179
999 WORDS_musée~1 178
999 WORDFREQ_21.55 178
999 WORDSALL_Le~0_musée~1 178
999 COSIND_0.86 178
999 COSGEN_0.86 178
102 ESRank2 178
203 ESBackSacRefixation 178
999 WORDS_d'art~2 144
999 WORDFREQ_81.49 144
999 WORDSALL_d'art~2 144
999 COSIND_1.00 144
999 COSGEN_1.00 144
103 ESRank3 144
201 ESForwSacShort 144
999 WORDS_moderne~3 144
999 WORDFREQ_24.46 144
999 WORDSALL_d'art~2_moderne~3 144
999 COSIND_0.59 144
999 COSGEN_0.59 144
104 ESRank4 144
201 ESForwSacShort 144
999 WORDS_ 202
999 WORDFREQ_ 202
999 WORDSALL_ 202
105 ESRank5 202
999 WORDS_ 142
999 WORDFREQ_ 142
999 WORDSALL_ 142
106 ESRank6 142
999 WORDS_présente~9 243
999 WORDFREQ_27.5 243
999 WORDSALL_présente~9 243
999 COSIND_-0.02 243
999 COSGEN_-0.02 243
107 ESRank7 243
999 WORDS_jusqu'au~10 164
999 WORDFREQ_N/A 164
999 WORDSALL_jusqu'au~10 164
999 COSIND_N/A 164
108 ESRank8 164
201 ESForwSacShort 164
999 WORDS_18~11 174
999 WORDFREQ_N/A 174
999 WORDSALL_18~11 174
999 COSIND_N/A 174
109 ESRank9 174
201 ESForwSacShort 174
999 WORDS_ville~6 334
999 WORDFREQ_311.69 334
999 WORDSALL_la~5_ville~6 334
999 COSIND_0.02 334
999 COSGEN_0.02 334
110 ESRank10 334
206 ESBackSacRegrLong-5-29 334
999 WORDS_avril~12 110
999 WORDFREQ_32.03 110
999 WORDSALL_avril~12 110
999 COSIND_-0.01 110
999 COSGEN_-0.01 110
111 ESRank11 110
202 ESForwSacLong+6+32 110
999 WORDS_peintures~14 254
999 WORDFREQ_8.24 254
999 WORDSALL_peintures~14 254
999 COSIND_0.76 254
999 COSGEN_0.76 254
112 ESRank12 254
202 ESForwSacLong+2+15 254
999 WORDS_Mark~16 200
999 WORDFREQ_0.61 200
999 WORDSALL_de~15_Mark~16 200
999 COSIND_0.01 200
999 COSGEN_0.01 200
113 ESRank13 200
202 ESForwSacLong+2+4 200
999 WORDS_Rothko~17 160
999 WORDFREQ_N/A 160
999 WORDSALL_Mark~16_Rothko~17 160
999 COSIND_N/A 160
114 ESRank14 160
201 ESForwSacShort 160
999 WORDS_grands~20 223
999 WORDFREQ_201.55 223
999 WORDSALL_un~18_grands~20 223
999 COSIND_-0.00 223
999 COSGEN_-0.00 223
115 ESRank15 223
202 ESForwSacLong+3+8 223
999 WORDS_Rothko~17 122
999 WORDFREQ_N/A 122
999 WORDSALL_Rothko~17 122
999 COSIND_N/A 122
116 ESRank16 122
206 ESBackSacRegrLong-3-8 122
999 WORDS_classiques~21 242
999 WORDFREQ_2.57 242
999 WORDSALL_classiques~21 242
999 COSIND_0.07 242
999 COSGEN_0.07 242
117 ESRank17 242
202 ESForwSacLong+4+15 242
999 WORDS_peinture~24 237
999 WORDFREQ_59.39 237
999 WORDSALL_de~22_peinture~24 237
999 COSIND_0.76 237
999 COSGEN_0.76 237
118 ESRank18 237
202 ESForwSacLong+3+7 237
999 WORDS_peinture~24 133
999 WORDFREQ_59.39 133
999 WORDSALL_la~23_peinture~24 133
999 COSIND_0.76 133
999 COSGEN_0.76 133
119 ESRank19 133
203 ESBackSacRefixation 133
999 WORDS_abstraite~25 258
999 WORDFREQ_4.8 258
999 WORDSALL_abstraite~25 258
999 COSIND_0.41 258
999 COSGEN_0.41 258
120 ESRank20 258
201 ESForwSacShort 258
999 WORDS_l'après-guerre~27 144
999 WORDFREQ_3.24 144
999 WORDSALL_l'après-guerre~27 144
999 COSIND_N/A 144
202 ESForwSacLong+2+4 144
999 WORDS_l'après-guerre~27 245
999 WORDFREQ_3.24 245
999 WORDSALL_l'après-guerre~27 245
999 COSIND_N/A 245
203 ESBackSacRefixation 245
999 WORDS_Etats-unis~29 357
999 WORDFREQ_N/A 357
999 WORDSALL_aux~28_Etats-unis~29 357
999 COSIND_N/A 357
202 ESForwSacLong+2+5 357
999 WORDS_l'après-guerre~27 201
999 WORDFREQ_3.24 201
999 WORDSALL_l'après-guerre~27 201
999 COSIND_N/A 201
206 ESBackSacRegrLong-2-5 201
999 WORDS_l'après-guerre~27 651
999 WORDFREQ_3.24 651
999 WORDSALL_l'après-guerre~27 651
999 COSIND_N/A 651
203 ESBackSacRefixation 651
999 WORDS_l'après-guerre~27 122
999 WORDFREQ_3.24 122
999 WORDSALL_l'après-guerre~27 122
999 COSIND_N/A 122
203 ESBackSacRefixation 122
200 ESRankN 122
199 ESRankNMinus1 651
198 ESRankNMinus2 201
197 ESRankNMinus3 357
196 ESRankNMinus4 245
195 ESRankNMinus5 144
194 ESRankNMinus6 258
193 ESRankNMinus7 133
192 ESRankNMinus8 237
191 ESRankNMinus9 242
190 ESRankNMinus10 122
