# 125 Fixation 1 (293.5,267.5): Une~0 information~1
# 142 Fixation 2 (355.6,265.7): information~1
# 267 Fixation 3 (490.5,271.3): judiciaire~2
# 227 Fixation 4 (645,290.3): pour~3 blessures~4 négligences~8
# 183 Fixation 5 (335.5,357.9): involontaires~5
# 160 Fixation 6 (295.8,354.7): involontaires~5
# 231 Fixation 7 (493,344.9): judiciaire~2 commises~6
%%
# Une~0 Fixations= "1/"
# information~1 Fixations= "2/"
# judiciaire~2 Fixations= "7/"
# pour~3 Fixations= "4/"
# blessures~4 Fixations= "4/"
# involontaires~5 Fixations= "6/"
# commises~6 Fixations= "7/"
# par~7 Fixations= ""
# négligences~8 Fixations= "4/"
# a~9 Fixations= ""
# été~10 Fixations= ""
# ouverte~11 Fixations= ""
# après~12 Fixations= ""
# la~13 Fixations= ""
# chute~14 Fixations= ""
# d'un~15 Fixations= ""
# enfant~16 Fixations= ""
# de~17 Fixations= ""
# six~18 Fixations= ""
# ans~19 Fixations= ""
# tombé~20 Fixations= ""
# d'un~21 Fixations= ""
# wagon~22 Fixations= ""
# non~23 Fixations= ""
# équipé~24 Fixations= ""
# de~25 Fixations= ""
# fermetures~26 Fixations= ""
# de~27 Fixations= ""
# sécurité~28 Fixations= ""
# du~29 Fixations= ""
# train~30 Fixations= ""
# Toulouse-Paris~31 Fixations= ""
%%
#  UNE[1] INFORMATION[2] JUDICIAIRE[7] POUR[4] BLESSURES[4] INVOLONTAIRES[6] COMMISES[7] par NéGLIGENCES[4] a été ouverte après la chute d'un enfant de six ans tombé d'un wagon non équipé de fermetures de sécurité du train Toulouse-Paris
# s01 art_contemporain-a2 PercentageOfWordsProcessed= 0.25 PercentageOfWordsReallyProcessed= 0.888888888888889
