999 WORDS_connaissance~2 207
999 WORDFREQ_55.81 207
999 WORDSALL_connaissance~2 207
999 COSIND_0.12 207
999 COSGEN_0.12 207
101 ESRank1 207
999 WORDS_fonctionnement~4 81
999 WORDFREQ_6.01 81
999 WORDSALL_du~3_fonctionnement~4 81
999 COSIND_0.02 81
999 COSGEN_0.02 81
102 ESRank2 81
202 ESForwSacLong+2+4 81
999 WORDS_fonctionnement~4 210
999 WORDFREQ_6.01 210
999 WORDSALL_fonctionnement~4 210
999 COSIND_0.02 210
999 COSGEN_0.02 210
103 ESRank3 210
203 ESBackSacRefixation 210
999 WORDS_fonctionnement~4 118
999 WORDFREQ_6.01 118
999 WORDSALL_fonctionnement~4 118
999 COSIND_0.02 118
999 COSGEN_0.02 118
104 ESRank4 118
203 ESBackSacRefixation 118
999 WORDS_l'ordinateur~6 233
999 WORDFREQ_2.3 233
999 WORDSALL_l'ordinateur~6 233
999 COSIND_0.28 233
999 COSGEN_0.28 233
105 ESRank5 233
202 ESForwSacLong+2+4 233
999 WORDS_d'Internet~8 155
999 WORDFREQ_0 155
999 WORDSALL_et~7_d'Internet~8 155
999 COSIND_N/A 155
106 ESRank6 155
202 ESForwSacLong+2+4 155
999 WORDS_d'Internet~8 159
999 WORDFREQ_0 159
999 WORDSALL_d'Internet~8 159
999 COSIND_N/A 159
107 ESRank7 159
203 ESBackSacRefixation 159
200 ESRankN 159
199 ESRankNMinus1 155
198 ESRankNMinus2 233
197 ESRankNMinus3 118
196 ESRankNMinus4 210
195 ESRankNMinus5 81
194 ESRankNMinus6 207
