# 140 Fixation 1 (251.9,285.7): Plusieurs~0
# 120 Fixation 2 (380.2,290.7): Plusieurs~0 points~1
# 166 Fixation 3 (490.2,292): points~1 contamination~3
# 291 Fixation 4 (534.8,291.5): de~2 contamination~3
# 144 Fixation 5 (281,356.8): radioactive~4
# 185 Fixation 6 (287.5,354.6): radioactive~4
# 184 Fixation 7 (467.5,351): ont~5 été~6
# 189 Fixation 8 (516.9,351.8): été~6 détectés~7
# 267 Fixation 9 (531.4,343): été~6 détectés~7
# 213 Fixation 10 (659.6,346): dans~8 wagon~10
# 124 Fixation 11 (697,348.4): dans~8 wagon~10
# 249 Fixation 12 (316.1,411.4): transportant~11
%%
# Plusieurs~0 Fixations= "2/"
# points~1 Fixations= "3/"
# de~2 Fixations= "4/"
# contamination~3 Fixations= "4/"
# radioactive~4 Fixations= "6/"
# ont~5 Fixations= "7/"
# été~6 Fixations= "9/"
# détectés~7 Fixations= "9/"
# dans~8 Fixations= "11/"
# un~9 Fixations= ""
# wagon~10 Fixations= "11/"
# transportant~11 Fixations= "12/"
# du~12 Fixations= ""
# combustible~13 Fixations= ""
# nucléaire~14 Fixations= ""
# usé~15 Fixations= ""
# provenant~16 Fixations= ""
# de~17 Fixations= ""
# la~18 Fixations= ""
# centrale~19 Fixations= ""
# de~20 Fixations= ""
# Bugey~21 Fixations= ""
# a~22 Fixations= ""
# indiqué~23 Fixations= ""
# EDF~24 Fixations= ""
%%
#  PLUSIEURS[2] POINTS[3] DE[4] CONTAMINATION[4] RADIOACTIVE[6] ONT[7] éTé[9] DéTECTéS[9] DANS[11] un WAGON[11] TRANSPORTANT[12] du combustible nucléaire usé provenant de la centrale de Bugey a indiqué EDF
# s18 dechets_nucleaires-f2 PercentageOfWordsProcessed= 0.44 PercentageOfWordsReallyProcessed= 0.916666666666667
