999 WORDS_États-Unis~1 146
999 WORDFREQ_N/A 146
999 WORDSALL_Les~0_États-Unis~1 146
999 COSIND_N/A 146
101 ESRank1 146
999 WORDS_ont~2 127
999 WORDFREQ_553.31 127
999 WORDSALL_États-Unis~1_ont~2 127
999 COSIND_-0.02 127
999 COSGEN_-0.02 127
102 ESRank2 127
201 ESForwSacShort 127
999 WORDS_profité~3 175
999 WORDFREQ_12.16 175
999 WORDSALL_ont~2_profité~3 175
999 COSIND_-0.07 175
999 COSGEN_-0.07 175
103 ESRank3 175
201 ESForwSacShort 175
999 WORDS_commission~6 237
999 WORDFREQ_10.81 237
999 WORDSALL_de~4_commission~6 237
999 COSIND_-0.00 237
999 COSGEN_-0.00 237
104 ESRank4 237
202 ESForwSacLong+3+7 237
999 WORDS_spéciale~7 183
999 WORDFREQ_7.09 183
999 WORDSALL_spéciale~7 183
999 COSIND_-0.06 183
999 COSGEN_-0.06 183
105 ESRank5 183
201 ESForwSacShort 183
999 WORDS_l'ONU~9 168
999 WORDFREQ_N/A 168
999 WORDSALL_de~8_l'ONU~9 168
999 COSIND_N/A 168
106 ESRank6 168
202 ESForwSacLong+2+4 168
999 WORDS_chargée~10 172
999 WORDFREQ_1.69 172
999 WORDSALL_chargée~10 172
999 COSIND_-0.01 172
999 COSGEN_-0.01 172
107 ESRank7 172
201 ESForwSacShort 172
999 WORDS_désarmer~12 153
999 WORDFREQ_1.96 153
999 WORDSALL_de~11_désarmer~12 153
999 COSIND_-0.04 153
999 COSGEN_-0.04 153
108 ESRank8 153
202 ESForwSacLong+2+4 153
999 WORDS_l'Irak~13 164
999 WORDFREQ_N/A 164
999 WORDSALL_l'Irak~13 164
999 COSIND_N/A 164
109 ESRank9 164
201 ESForwSacShort 164
999 WORDS_espionner~15 124
999 WORDFREQ_2.03 124
999 WORDSALL_pour~14_espionner~15 124
999 COSIND_-0.04 124
999 COSGEN_-0.04 124
110 ESRank10 124
202 ESForwSacLong+2+6 124
999 WORDS_espionner~15 115
999 WORDFREQ_2.03 115
999 WORDSALL_espionner~15 115
999 COSIND_-0.04 115
999 COSGEN_-0.04 115
111 ESRank11 115
203 ESBackSacRefixation 115
999 WORDS_Bagdad~16 181
999 WORDFREQ_N/A 181
999 WORDSALL_espionner~15_Bagdad~16 181
999 COSIND_N/A 181
112 ESRank12 181
201 ESForwSacShort 181
999 WORDS_Bagdad~16 245
999 WORDFREQ_N/A 245
999 WORDSALL_Bagdad~16 245
999 COSIND_N/A 245
113 ESRank13 245
203 ESBackSacRefixation 245
999 WORDS_régime~31 154
999 WORDFREQ_36.69 154
999 WORDSALL_renverser~29_régime~31 154
999 COSIND_-0.06 154
999 COSGEN_-0.06 154
114 ESRank14 154
202 ESForwSacLong+15+113 154
999 WORDS_régime~31 134
999 WORDFREQ_36.69 134
999 WORDSALL_le~30_régime~31 134
999 COSIND_-0.06 134
999 COSGEN_-0.06 134
115 ESRank15 134
203 ESBackSacRefixation 134
200 ESRankN 134
199 ESRankNMinus1 154
198 ESRankNMinus2 245
197 ESRankNMinus3 181
196 ESRankNMinus4 115
195 ESRankNMinus5 124
194 ESRankNMinus6 164
193 ESRankNMinus7 153
192 ESRankNMinus8 172
191 ESRankNMinus9 168
190 ESRankNMinus10 183
