999 WORDS_producteurs~1 119
999 WORDFREQ_2.03 119
999 WORDSALL_Les~0_producteurs~1 119
999 COSIND_0.32 119
999 COSGEN_0.32 119
101 ESRank1 119
999 WORDS_fruits~3 179
999 WORDFREQ_42.09 179
999 WORDSALL_de~2_fruits~3 179
999 COSIND_0.34 179
999 COSGEN_0.34 179
102 ESRank2 179
202 ESForwSacLong+2+4 179
999 WORDS_légumes~5 113
999 WORDFREQ_21.35 113
999 WORDSALL_et~4_légumes~5 113
999 COSIND_0.43 113
999 COSGEN_0.43 113
103 ESRank3 113
202 ESForwSacLong+2+4 113
999 WORDS_affiliés~7 201
999 WORDFREQ_0.07 201
999 WORDSALL_surtout~6_affiliés~7 201
999 COSIND_-0.05 201
999 COSGEN_-0.05 201
104 ESRank4 201
202 ESForwSacLong+2+9 201
999 WORDS_puissante~10 190
999 WORDFREQ_14.26 190
999 WORDSALL_à~8_puissante~10 190
999 COSIND_0.28 190
999 COSGEN_0.28 190
105 ESRank5 190
202 ESForwSacLong+3+7 190
999 WORDS_Fédération~11 100
999 WORDFREQ_2.23 100
999 WORDSALL_puissante~10_Fédération~11 100
999 COSIND_0.39 100
999 COSGEN_0.39 100
106 ESRank6 100
201 ESForwSacShort 100
999 WORDS_Nationale~12 193
999 WORDFREQ_48.18 193
999 WORDSALL_Nationale~12 193
999 COSIND_0.07 193
999 COSGEN_0.07 193
107 ESRank7 193
201 ESForwSacShort 193
999 WORDS_ont~17 173
999 WORDFREQ_240.61 173
999 WORDSALL_ont~17 173
999 COSIND_0.04 173
999 COSGEN_0.04 173
108 ESRank8 173
202 ESForwSacLong+5+39 173
999 WORDS_grandes~19 107
999 WORDFREQ_126.49 107
999 WORDSALL_grandes~19 107
999 COSIND_0.00 107
999 COSGEN_0.00 107
109 ESRank9 107
202 ESForwSacLong+2+5 107
999 WORDS_Syndicats~14 221
999 WORDFREQ_3.24 221
999 WORDSALL_des~13_Syndicats~14 221
999 COSIND_0.86 221
999 COSGEN_0.86 221
110 ESRank10 221
206 ESBackSacRegrLong-5-33 221
999 WORDS_d'Exploitants~15 122
999 WORDFREQ_0.34 122
999 WORDSALL_d'Exploitants~15 122
999 COSIND_0.76 122
999 COSGEN_0.76 122
111 ESRank11 122
201 ESForwSacShort 122
999 WORDS_Agricoles~16 171
999 WORDFREQ_3.04 171
999 WORDSALL_Agricoles~16 171
999 COSIND_0.70 171
999 COSGEN_0.70 171
112 ESRank12 171
201 ESForwSacShort 171
999 WORDS_Nationale~12 207
999 WORDFREQ_48.18 207
999 WORDSALL_Nationale~12 207
999 COSIND_0.07 207
999 COSGEN_0.07 207
113 ESRank13 207
206 ESBackSacRegrLong-4-29 207
200 ESRankN 207
199 ESRankNMinus1 171
198 ESRankNMinus2 122
197 ESRankNMinus3 221
196 ESRankNMinus4 107
195 ESRankNMinus5 173
194 ESRankNMinus6 193
193 ESRankNMinus7 100
192 ESRankNMinus8 190
191 ESRankNMinus9 201
190 ESRankNMinus10 113
