999 WORDS_Louis~2 166
999 WORDFREQ_5.07 166
999 WORDSALL_Louis~2 166
999 COSIND_0.08 166
999 COSGEN_0.08 166
101 ESRank1 166
999 WORDS_Louis~2 216
999 WORDFREQ_5.07 216
999 WORDSALL_de~1_Louis~2 216
999 COSIND_0.08 216
999 COSGEN_0.08 216
102 ESRank2 216
203 ESBackSacRefixation 216
999 WORDS_premier~5 206
999 WORDFREQ_237.91 206
999 WORDSALL_le~4_premier~5 206
999 COSIND_-0.00 206
999 COSGEN_-0.00 206
103 ESRank3 206
202 ESForwSacLong+3+13 206
999 WORDS_aviateur~6 133
999 WORDFREQ_4.05 133
999 WORDSALL_aviateur~6 133
999 COSIND_0.25 133
999 COSGEN_0.25 133
104 ESRank4 133
201 ESForwSacShort 133
999 WORDS_à~7 81
999 WORDFREQ_19209.05 81
999 WORDSALL_aviateur~6_à~7 81
999 COSIND_N/A 81
105 ESRank5 81
201 ESForwSacShort 81
999 WORDS_avoir~8 199
999 WORDFREQ_649.26 199
999 WORDSALL_à~7_avoir~8 199
999 COSIND_-0.09 199
999 COSGEN_-0.09 199
106 ESRank6 199
201 ESForwSacShort 199
999 WORDS_traversé~9 159
999 WORDFREQ_29.93 159
999 WORDSALL_traversé~9 159
999 COSIND_-0.05 159
999 COSGEN_-0.05 159
107 ESRank7 159
201 ESForwSacShort 159
999 WORDS_manche~11 194
999 WORDFREQ_35.41 194
999 WORDSALL_la~10_manche~11 194
999 COSIND_0.10 194
999 COSGEN_0.10 194
108 ESRank8 194
202 ESForwSacLong+2+4 194
999 WORDS_à~7 99
999 WORDFREQ_19209.05 99
999 WORDSALL_aviateur~6_à~7 99
999 COSIND_N/A 99
109 ESRank9 99
206 ESBackSacRegrLong-4-20 99
999 WORDS_avion~13 164
999 WORDFREQ_46.82 164
999 WORDSALL_avion~13 164
999 COSIND_0.34 164
999 COSGEN_0.34 164
110 ESRank10 164
202 ESForwSacLong+6+30 164
999 WORDS_été~17 119
999 WORDFREQ_40.2 119
999 WORDSALL_1909~15_a~16_été~17 119
999 COSIND_-0.06 119
999 COSGEN_-0.06 119
111 ESRank11 119
202 ESForwSacLong+4+11 119
999 WORDS_reproduit~18 132
999 WORDFREQ_3.11 132
999 WORDSALL_été~17_reproduit~18 132
999 COSIND_0.09 132
999 COSGEN_0.09 132
112 ESRank12 132
201 ESForwSacShort 132
999 WORDS_reproduit~18 132
999 WORDFREQ_3.11 132
999 WORDSALL_reproduit~18 132
999 COSIND_0.09 132
999 COSGEN_0.09 132
113 ESRank13 132
203 ESBackSacRefixation 132
999 WORDS_dimanche~19 286
999 WORDFREQ_87.84 286
999 WORDSALL_dimanche~19 286
999 COSIND_0.03 286
999 COSGEN_0.03 286
114 ESRank14 286
201 ESForwSacShort 286
999 WORDS_juillet~21 194
999 WORDFREQ_47.57 194
999 WORDSALL_juillet~21 194
999 COSIND_-0.03 194
999 COSGEN_-0.03 194
115 ESRank15 194
202 ESForwSacLong+2+4 194
999 WORDS_jour~24 202
999 WORDFREQ_826.35 202
999 WORDSALL_ans~23_jour~24 202
999 COSIND_-0.03 202
999 COSGEN_-0.03 202
116 ESRank16 202
202 ESForwSacLong+3+8 202
999 WORDS_jour~26 166
999 WORDFREQ_826.35 166
999 WORDSALL_jour~26 166
999 COSIND_-0.03 166
999 COSGEN_-0.03 166
117 ESRank17 166
202 ESForwSacLong+2+6 166
999 WORDS_aprés~27 164
999 WORDFREQ_N/A 164
999 WORDSALL_jour~26_aprés~27 164
999 COSIND_N/A 164
118 ESRank18 164
201 ESForwSacShort 164
999 WORDS_aprés~27 105
999 WORDFREQ_N/A 105
999 WORDSALL_aprés~27 105
999 COSIND_N/A 105
119 ESRank19 105
203 ESBackSacRefixation 105
999 WORDS_pilote~30 252
999 WORDFREQ_5.61 252
999 WORDSALL_un~29_pilote~30 252
999 COSIND_0.27 252
999 COSGEN_0.27 252
120 ESRank20 252
202 ESForwSacLong+3+8 252
999 WORDS_ligne~32 234
999 WORDFREQ_101.01 234
999 WORDSALL_de~31_ligne~32 234
999 COSIND_-0.06 234
999 COSGEN_-0.06 234
202 ESForwSacLong+2+4 234
999 WORDS_suédois~33 306
999 WORDFREQ_2.97 306
999 WORDSALL_suédois~33 306
999 COSIND_0.27 306
999 COSGEN_0.27 306
201 ESForwSacShort 306
200 ESRankN 306
199 ESRankNMinus1 234
198 ESRankNMinus2 252
197 ESRankNMinus3 105
196 ESRankNMinus4 164
195 ESRankNMinus5 166
194 ESRankNMinus6 202
193 ESRankNMinus7 194
192 ESRankNMinus8 286
191 ESRankNMinus9 132
190 ESRankNMinus10 132
