# 127 Fixation 1 (233.9,283.7): Les~0 galeries~1
# 163 Fixation 2 (295.1,276.7): Les~0 galeries~1
# 152 Fixation 3 (325.5,277.1): Les~0 galeries~1
# 300 Fixation 4 (430.8,271.7): galeries~1 d'anatomie~2
# 234 Fixation 5 (576.3,285.2): comparée~3
# 223 Fixation 6 (676.4,287.8): comparée~3
# 221 Fixation 7 (255,333.4): paléontologie~6
# 168 Fixation 8 (293.2,338.1): paléontologie~6
# 154 Fixation 9 (343,341.5): paléontologie~6
# 347 Fixation 10 (466,339.4): du~7 musée~8
# 157 Fixation 11 (561.5,346.3): musée~8 national~9
# 233 Fixation 12 (687.9,356.9): d'histoire~10
# 106 Fixation 13 (273.1,399.5): naturelle~11
# 157 Fixation 14 (306.8,396.3): naturelle~11
# 139 Fixation 15 (376.2,393.4): naturelle~11 sont~12
# 174 Fixation 16 (482.8,400.7): de~13 nouveau~14
# 285 Fixation 17 (606,409.7): ouvertes~15
# 241 Fixation 18 (262,451.3): public~17
# 183 Fixation 19 (337.5,447.9): public~17
# 216 Fixation 20 (477.7,458.5): le~19 18~20
# 161 Fixation 21 (617.3,471.6): décembre~21 après~22
# 218 Fixation 22 (688.3,475.7): après~22
# 178 Fixation 23 (291.6,525.6): mois~24
# 562 Fixation 24 (221.4,516.5): mois~24
%%
# Les~0 Fixations= "3/"
# galeries~1 Fixations= "4/"
# d'anatomie~2 Fixations= "4/"
# comparée~3 Fixations= "6/"
# et~4 Fixations= ""
# de~5 Fixations= ""
# paléontologie~6 Fixations= "9/"
# du~7 Fixations= "10/"
# musée~8 Fixations= "11/"
# national~9 Fixations= "11/"
# d'histoire~10 Fixations= "12/"
# naturelle~11 Fixations= "15/"
# sont~12 Fixations= "15/"
# de~13 Fixations= "16/"
# nouveau~14 Fixations= "16/"
# ouvertes~15 Fixations= "17/"
# au~16 Fixations= ""
# public~17 Fixations= "19/"
# depuis~18 Fixations= ""
# le~19 Fixations= "20/"
# 18~20 Fixations= "20/"
# décembre~21 Fixations= "21/"
# après~22 Fixations= "22/"
# trois~23 Fixations= ""
# mois~24 Fixations= "24/"
# de~25 Fixations= ""
# travaux~26 Fixations= ""
%%
#  LES[3] GALERIES[4] D'ANATOMIE[4] COMPARéE[6] et de PALéONTOLOGIE[9] DU[10] MUSéE[11] NATIONAL[11] D'HISTOIRE[12] NATURELLE[15] SONT[15] DE[16] NOUVEAU[16] OUVERTES[17] au PUBLIC[19] depuis LE[20] 18[20] DéCEMBRE[21] APRèS[22] trois MOIS[24] de travaux
# s06 art_contemporain-m2 PercentageOfWordsProcessed= 0.740740740740741 PercentageOfWordsReallyProcessed= 0.8
