999 WORDS_détresse~1 156
999 WORDFREQ_18.38 156
999 WORDSALL_La~0_détresse~1 156
999 COSIND_0.29 156
999 COSGEN_0.29 156
101 ESRank1 156
999 WORDS_détresse~1 261
999 WORDFREQ_18.38 261
999 WORDSALL_La~0_détresse~1 261
999 COSIND_0.29 261
999 COSGEN_0.29 261
102 ESRank2 261
203 ESBackSacRefixation 261
999 WORDS_souffrance~4 114
999 WORDFREQ_33.58 114
999 WORDSALL_et~2_souffrance~4 114
999 COSIND_0.17 114
999 COSGEN_0.17 114
103 ESRank3 114
202 ESForwSacLong+3+7 114
999 WORDS_souffrance~4 257
999 WORDFREQ_33.58 257
999 WORDSALL_et~2_souffrance~4 257
999 COSIND_0.17 257
999 COSGEN_0.17 257
104 ESRank4 257
203 ESBackSacRefixation 257
999 WORDS_souffrance~4 229
999 WORDFREQ_33.58 229
999 WORDSALL_la~3_souffrance~4 229
999 COSIND_0.17 229
999 COSGEN_0.17 229
105 ESRank5 229
203 ESBackSacRefixation 229
999 WORDS_détresse~1 329
999 WORDFREQ_18.38 329
999 WORDSALL_La~0_détresse~1 329
999 COSIND_0.29 329
999 COSGEN_0.29 329
106 ESRank6 329
206 ESBackSacRegrLong-3-7 329
999 WORDS_détresse~1 254
999 WORDFREQ_18.38 254
999 WORDSALL_détresse~1 254
999 COSIND_0.29 254
999 COSGEN_0.29 254
107 ESRank7 254
203 ESBackSacRefixation 254
999 WORDS_souffrance~4 344
999 WORDFREQ_33.58 344
999 WORDSALL_la~3_souffrance~4 344
999 COSIND_0.17 344
999 COSGEN_0.17 344
108 ESRank8 344
202 ESForwSacLong+3+7 344
999 WORDS_réfugiés~6 208
999 WORDFREQ_8.18 208
999 WORDSALL_des~5_réfugiés~6 208
999 COSIND_0.12 208
999 COSGEN_0.12 208
109 ESRank9 208
202 ESForwSacLong+2+5 208
999 WORDS_réfugiés~6 122
999 WORDFREQ_8.18 122
999 WORDSALL_des~5_réfugiés~6 122
999 COSIND_0.12 122
999 COSGEN_0.12 122
110 ESRank10 122
203 ESBackSacRefixation 122
999 WORDS_largement~7 83
999 WORDFREQ_26.76 83
999 WORDSALL_largement~7 83
999 COSIND_0.09 83
999 COSGEN_0.09 83
111 ESRank11 83
201 ESForwSacShort 83
999 WORDS_largement~7 275
999 WORDFREQ_26.76 275
999 WORDSALL_largement~7 275
999 COSIND_0.09 275
999 COSGEN_0.09 275
112 ESRank12 275
203 ESBackSacRefixation 275
999 WORDS_médiatisées~8 214
999 WORDFREQ_0 214
999 WORDSALL_médiatisées~8 214
999 COSIND_0.12 214
999 COSGEN_0.12 214
113 ESRank13 214
201 ESForwSacShort 214
999 WORDS_médiatisées~8 182
999 WORDFREQ_0 182
999 WORDSALL_médiatisées~8 182
999 COSIND_0.12 182
999 COSGEN_0.12 182
114 ESRank14 182
203 ESBackSacRefixation 182
999 WORDS_suscitent~9 208
999 WORDFREQ_1.01 208
999 WORDSALL_suscitent~9 208
999 COSIND_0.02 208
999 COSGEN_0.02 208
115 ESRank15 208
201 ESForwSacShort 208
999 WORDS_suscitent~9 239
999 WORDFREQ_1.01 239
999 WORDSALL_suscitent~9 239
999 COSIND_0.02 239
999 COSGEN_0.02 239
116 ESRank16 239
203 ESBackSacRefixation 239
999 WORDS_d'immenses~10 193
999 WORDFREQ_22.91 193
999 WORDSALL_d'immenses~10 193
999 COSIND_-0.01 193
999 COSGEN_-0.01 193
117 ESRank17 193
201 ESForwSacShort 193
999 WORDS_d'immenses~10 81
999 WORDFREQ_22.91 81
999 WORDSALL_suscitent~9_d'immenses~10 81
999 COSIND_-0.01 81
999 COSGEN_-0.01 81
118 ESRank18 81
203 ESBackSacRefixation 81
999 WORDS_élans~11 243
999 WORDFREQ_7.16 243
999 WORDSALL_élans~11 243
999 COSIND_0.14 243
999 COSGEN_0.14 243
119 ESRank19 243
201 ESForwSacShort 243
999 WORDS_humanitaire~17 271
999 WORDFREQ_1.22 271
999 WORDSALL_humanitaire~17 271
999 COSIND_1.00 271
999 COSGEN_1.00 271
120 ESRank20 271
202 ESForwSacLong+6+37 271
999 WORDS_constitués~18 239
999 WORDFREQ_0.47 239
999 WORDSALL_constitués~18 239
999 COSIND_0.05 239
999 COSGEN_0.05 239
201 ESForwSacShort 239
999 WORDS_constitués~18 175
999 WORDFREQ_0.47 175
999 WORDSALL_constitués~18 175
999 COSIND_0.05 175
999 COSGEN_0.05 175
203 ESBackSacRefixation 175
999 WORDS_bénévoles~21 207
999 WORDFREQ_0.14 207
999 WORDSALL_par~19_bénévoles~21 207
999 COSIND_0.18 207
999 COSGEN_0.18 207
202 ESForwSacLong+3+9 207
999 WORDS_bénévoles~21 347
999 WORDFREQ_0.14 347
999 WORDSALL_des~20_bénévoles~21 347
999 COSIND_0.18 347
999 COSGEN_0.18 347
203 ESBackSacRefixation 347
999 WORDS_bénévoles~21 152
999 WORDFREQ_0.14 152
999 WORDSALL_bénévoles~21 152
999 COSIND_0.18 152
999 COSGEN_0.18 152
203 ESBackSacRefixation 152
200 ESRankN 152
199 ESRankNMinus1 347
198 ESRankNMinus2 207
197 ESRankNMinus3 175
196 ESRankNMinus4 239
195 ESRankNMinus5 271
194 ESRankNMinus6 243
193 ESRankNMinus7 81
192 ESRankNMinus8 193
191 ESRankNMinus9 239
190 ESRankNMinus10 208
