999 WORDS_Mentir~0 130
999 WORDFREQ_15.2 130
999 WORDSALL_Mentir~0 130
999 COSIND_0.01 130
999 COSGEN_0.01 130
101 ESRank1 130
999 WORDS_serment~2 101
999 WORDFREQ_8.85 101
999 WORDSALL_sous~1_serment~2 101
999 COSIND_0.23 101
999 COSGEN_0.23 101
102 ESRank2 101
202 ESForwSacLong+2+6 101
999 WORDS_serment~2 103
999 WORDFREQ_8.85 103
999 WORDSALL_serment~2 103
999 COSIND_0.23 103
999 COSGEN_0.23 103
103 ESRank3 103
203 ESBackSacRefixation 103
999 WORDS_insulte~5 130
999 WORDFREQ_6.96 130
999 WORDSALL_c'est~3_insulte~5 130
999 COSIND_-0.04 130
999 COSGEN_-0.04 130
104 ESRank4 130
202 ESForwSacLong+3+11 130
999 WORDS_insulte~5 109
999 WORDFREQ_6.96 109
999 WORDSALL_c'est~3_insulte~5 109
999 COSIND_-0.04 109
999 COSGEN_-0.04 109
105 ESRank5 109
203 ESBackSacRefixation 109
999 WORDS_insulte~5 132
999 WORDFREQ_6.96 132
999 WORDSALL_une~4_insulte~5 132
999 COSIND_-0.04 132
999 COSGEN_-0.04 132
106 ESRank6 132
203 ESBackSacRefixation 132
999 WORDS_à~6 120
999 WORDFREQ_19209.05 120
999 WORDSALL_insulte~5_à~6 120
999 COSIND_N/A 120
107 ESRank7 120
201 ESForwSacShort 120
999 WORDS_Faire~9 108
999 WORDFREQ_1555.14 108
999 WORDSALL_liberté~8_Faire~9 108
999 COSIND_0.03 108
999 COSGEN_0.03 108
108 ESRank8 108
202 ESForwSacLong+3+13 108
999 WORDS_liberté~8 156
999 WORDFREQ_93.31 156
999 WORDSALL_liberté~8 156
999 COSIND_-0.05 156
999 COSGEN_-0.05 156
109 ESRank9 156
205 ESBackSacRegrShort 156
999 WORDS_Faire~9 151
999 WORDFREQ_1555.14 151
999 WORDSALL_Faire~9 151
999 COSIND_0.03 151
999 COSGEN_0.03 151
110 ESRank10 151
201 ESForwSacShort 151
999 WORDS_obstruction~10 138
999 WORDFREQ_0.47 138
999 WORDSALL_obstruction~10 138
999 COSIND_0.32 138
999 COSGEN_0.32 138
111 ESRank11 138
201 ESForwSacShort 138
999 WORDS_justice~13 182
999 WORDFREQ_46.22 182
999 WORDSALL_à~11_justice~13 182
999 COSIND_0.81 182
999 COSGEN_0.81 182
112 ESRank12 182
202 ESForwSacLong+3+7 182
999 WORDS_loi~17 152
999 WORDFREQ_44.46 152
999 WORDSALL_bafouer~15_loi~17 152
999 COSIND_-0.06 152
999 COSGEN_-0.06 152
113 ESRank13 152
202 ESForwSacLong+4+18 152
999 WORDS_bafouer~15 159
999 WORDFREQ_0.68 159
999 WORDSALL_c'est~14_bafouer~15 159
999 COSIND_0.13 159
999 COSGEN_0.13 159
114 ESRank14 159
206 ESBackSacRegrLong-2-4 159
999 WORDS_bafouer~15 170
999 WORDFREQ_0.68 170
999 WORDSALL_bafouer~15 170
999 COSIND_0.13 170
999 COSGEN_0.13 170
115 ESRank15 170
203 ESBackSacRefixation 170
999 WORDS_loi~17 130
999 WORDFREQ_44.46 130
999 WORDSALL_la~16_loi~17 130
999 COSIND_-0.06 130
999 COSGEN_-0.06 130
116 ESRank16 130
202 ESForwSacLong+2+4 130
999 WORDS_a~20 178
999 WORDFREQ_1669.39 178
999 WORDSALL_y~19_a~20 178
999 COSIND_N/A 178
117 ESRank17 178
202 ESForwSacLong+3+6 178
999 WORDS_gens~22 128
999 WORDFREQ_409.39 128
999 WORDSALL_des~21_gens~22 128
999 COSIND_-0.01 128
999 COSGEN_-0.01 128
118 ESRank18 128
202 ESForwSacLong+2+5 128
999 WORDS_bafouer~15 106
999 WORDFREQ_0.68 106
999 WORDSALL_bafouer~15 106
999 COSIND_0.13 106
999 COSGEN_0.13 106
119 ESRank19 106
206 ESBackSacRegrLong-7-19 106
999 WORDS_bafouer~15 186
999 WORDFREQ_0.68 186
999 WORDSALL_c'est~14_bafouer~15 186
999 COSIND_0.13 186
999 COSGEN_0.13 186
120 ESRank20 186
203 ESBackSacRefixation 186
999 WORDS_crimes~28 188
999 WORDFREQ_15.74 188
999 WORDSALL_de~26_crimes~28 188
999 COSIND_0.17 188
999 COSGEN_0.17 188
202 ESForwSacLong+13+47 188
999 WORDS_crimes~28 170
999 WORDFREQ_15.74 170
999 WORDSALL_tels~27_crimes~28 170
999 COSIND_0.17 170
999 COSGEN_0.17 170
203 ESBackSacRefixation 170
200 ESRankN 170
199 ESRankNMinus1 188
198 ESRankNMinus2 186
197 ESRankNMinus3 106
196 ESRankNMinus4 128
195 ESRankNMinus5 178
194 ESRankNMinus6 130
193 ESRankNMinus7 170
192 ESRankNMinus8 159
191 ESRankNMinus9 152
190 ESRankNMinus10 182
