# 300 Fixation 1 (301.4,273.7): Le~0 revenu~1
# 179 Fixation 2 (367.5,272.2): revenu~1 moyen~2
# 170 Fixation 3 (425.4,261.3): moyen~2
# 459 Fixation 4 (356.9,253.8): revenu~1 moyen~2
# 315 Fixation 5 (324.5,238): Le~0 revenu~1
# 239 Fixation 6 (375.1,290.1): revenu~1 moyen~2
# 351 Fixation 7 (429.5,291.4): moyen~2
# 323 Fixation 8 (563.5,282.4): imposable~3
# 161 Fixation 9 (670.4,260.8): foyer~5
# 113 Fixation 10 (547.5,294.8): imposable~3
# 205 Fixation 11 (309.6,345.3): est~7 plus~9
# 230 Fixation 12 (251.3,334.7): est~7 plus~9
# 276 Fixation 13 (363.5,343.2): le~8 plus~9
# 434 Fixation 14 (485.2,389.9): Riches-pauvres~15
# 212 Fixation 15 (568.4,404): Riches-pauvres~15
# 161 Fixation 16 (632.4,424.8): Riches-pauvres~15
# 201 Fixation 17 (304.2,447.5): n'échappe~17
# 247 Fixation 18 (332.3,524.3): qui~23 embrase~24
%%
# Le~0 Fixations= "5/"
# revenu~1 Fixations= "6/"
# moyen~2 Fixations= "7/"
# imposable~3 Fixations= "10/"
# par~4 Fixations= ""
# foyer~5 Fixations= "9/"
# fiscal~6 Fixations= ""
# est~7 Fixations= "12/"
# le~8 Fixations= "13/"
# plus~9 Fixations= "13/"
# faible~10 Fixations= ""
# des~11 Fixations= ""
# communes~12 Fixations= ""
# de~13 Fixations= ""
# l'agglomération~14 Fixations= ""
# Riches-pauvres~15 Fixations= "16/"
# on~16 Fixations= ""
# n'échappe~17 Fixations= "17/"
# pas~18 Fixations= ""
# au~19 Fixations= ""
# face-à-face~20 Fixations= ""
# C'est~21 Fixations= ""
# celui~22 Fixations= ""
# qui~23 Fixations= "18/"
# embrase~24 Fixations= "18/"
# la~25 Fixations= ""
# plupart~26 Fixations= ""
# des~27 Fixations= ""
# convulsions~28 Fixations= ""
# de~29 Fixations= ""
# l'histoire~30 Fixations= ""
%%
#  LE[5] REVENU[6] MOYEN[7] IMPOSABLE[10] par FOYER[9] fiscal EST[12] LE[13] PLUS[13] faible des communes de l'agglomération RICHES-PAUVRES[16] on N'éCHAPPE[17] pas au face-à-face C'est celui QUI[18] EMBRASE[18] la plupart des convulsions de l'histoire
# s14 rehabilitation_logement-m1 PercentageOfWordsProcessed= 0.387096774193548 PercentageOfWordsReallyProcessed= 0.48
