# 185 Fixation 1 (342.7,252.8): voiture~1
# 216 Fixation 2 (478.7,270.3): la~3 présidente~4
# 192 Fixation 3 (629.2,279.9): de~5 cour~7
# 300 Fixation 4 (456.7,349.5): de~9 Haute-Corse~10
# 243 Fixation 5 (572.5,431.6): à~19 dimanche~20
%%
# La~0 Fixations= ""
# voiture~1 Fixations= "1/"
# de~2 Fixations= ""
# la~3 Fixations= "2/"
# présidente~4 Fixations= "2/"
# de~5 Fixations= "3/"
# la~6 Fixations= ""
# cour~7 Fixations= "3/"
# d'assises~8 Fixations= ""
# de~9 Fixations= "4/"
# Haute-Corse~10 Fixations= "4/"
# a~11 Fixations= ""
# été~12 Fixations= ""
# incendiée~13 Fixations= ""
# dans~14 Fixations= ""
# la~15 Fixations= ""
# nuit~16 Fixations= ""
# de~17 Fixations= ""
# samedi~18 Fixations= ""
# à~19 Fixations= "5/"
# dimanche~20 Fixations= "5/"
# à~21 Fixations= ""
# Bastia~22 Fixations= ""
# Selon~23 Fixations= ""
# les~24 Fixations= ""
# enquêteurs~25 Fixations= ""
# il~26 Fixations= ""
# s'agirait~27 Fixations= ""
# d'un~28 Fixations= ""
# acte~29 Fixations= ""
# criminel~30 Fixations= ""
%%
#  La VOITURE[1] de LA[2] PRéSIDENTE[2] DE[3] la COUR[3] d'assises DE[4] HAUTE-CORSE[4] a été incendiée dans la nuit de samedi à[5] DIMANCHE[5] à Bastia Selon les enquêteurs il s'agirait d'un acte criminel
# s18 prix_litteraire-a2 PercentageOfWordsProcessed= 0.290322580645161 PercentageOfWordsReallyProcessed= 0.428571428571429
