# 87 Fixation 1 (284.9,286.5): Quatre~0
# 132 Fixation 2 (394.3,269.1): jours~1
# 158 Fixation 3 (502.3,261.3): grains~3
# 232 Fixation 4 (619.5,267): sont~4 venus~5
# 97 Fixation 5 (688.2,271.7): venus~5 clore~6
# 251 Fixation 6 (474.2,261.3): de~2 grains~3
# 132 Fixation 7 (631.3,268.3): sont~4 venus~5
# 100 Fixation 8 (721,272.8): clore~6
# 114 Fixation 9 (357.8,341.6): Quatre~0 jours~1 traversée~8
# 156 Fixation 10 (286.5,344.5): Quatre~0 traversée~8
# 129 Fixation 11 (454.2,338.8): de~2 grains~3 Pacifique~10
# 189 Fixation 12 (629.5,332.6): sont~4 venus~5 L'eau~11 a~12
# 164 Fixation 13 (306.2,414.3): bagarre~15
# 155 Fixation 14 (277.6,420.7): bagarre~15
# 164 Fixation 15 (437.6,416.8): tout~17 était~18
# 118 Fixation 16 (504.8,420.9): était~18
# 186 Fixation 17 (601,419.5): trempé~19 à~20
# 110 Fixation 18 (672.3,415.3): à~20 bord~21
# 179 Fixation 19 (338.2,480.7): navigateur~23
# 156 Fixation 20 (505.4,478.1): le~25 moment~26
%%
# Quatre~0 Fixations= "10/"
# jours~1 Fixations= "9/"
# de~2 Fixations= "11/"
# grains~3 Fixations= "11/"
# sont~4 Fixations= "12/"
# venus~5 Fixations= "12/"
# clore~6 Fixations= "8/"
# sa~7 Fixations= ""
# traversée~8 Fixations= "10/"
# du~9 Fixations= ""
# Pacifique~10 Fixations= "11/"
# L'eau~11 Fixations= "12/"
# a~12 Fixations= "12/"
# gagné~13 Fixations= ""
# la~14 Fixations= ""
# bagarre~15 Fixations= "14/"
# et~16 Fixations= ""
# tout~17 Fixations= "15/"
# était~18 Fixations= "16/"
# trempé~19 Fixations= "17/"
# à~20 Fixations= "18/"
# bord~21 Fixations= "18/"
# Le~22 Fixations= ""
# navigateur~23 Fixations= "19/"
# attend~24 Fixations= ""
# le~25 Fixations= "20/"
# moment~26 Fixations= "20/"
# idéal~27 Fixations= ""
# pour~28 Fixations= ""
# aller~29 Fixations= ""
# se~30 Fixations= ""
# reposer~31 Fixations= ""
%%
#  QUATRE[10] JOURS[9] DE[11] GRAINS[11] SONT[12] VENUS[12] CLORE[8] sa TRAVERSéE[10] du PACIFIQUE[11] L'EAU[12] A[12] gagné la BAGARRE[14] et TOUT[15] éTAIT[16] TREMPé[17] à[18] BORD[18] Le NAVIGATEUR[19] attend LE[20] MOMENT[20] idéal pour aller se reposer
# s19 croissance_economie-a2 PercentageOfWordsProcessed= 0.625 PercentageOfWordsReallyProcessed= 0.740740740740741
