999 WORDS_Chine~1 132
999 WORDFREQ_0.54 132
999 WORDSALL_La~0_Chine~1 132
999 COSIND_0.08 132
999 COSGEN_0.08 132
101 ESRank1 132
999 WORDS_souhaite~2 185
999 WORDFREQ_17.3 185
999 WORDSALL_souhaite~2 185
999 COSIND_-0.01 185
999 COSGEN_-0.01 185
102 ESRank2 185
201 ESForwSacShort 185
999 WORDS_l'usage~4 160
999 WORDFREQ_42.3 160
999 WORDSALL_généraliser~3_l'usage~4 160
999 COSIND_0.12 160
999 COSGEN_0.12 160
103 ESRank3 160
202 ESForwSacLong+2+15 160
999 WORDS_l'usage~4 97
999 WORDFREQ_42.3 97
999 WORDSALL_l'usage~4 97
999 COSIND_0.12 97
999 COSGEN_0.12 97
104 ESRank4 97
203 ESBackSacRefixation 97
999 WORDS_l'injection~6 170
999 WORDFREQ_0.95 170
999 WORDSALL_La~0_Chine~1_l'injection~6 170
999 COSIND_0.10 170
999 COSGEN_0.10 170
105 ESRank5 170
202 ESForwSacLong+2+4 170
999 WORDS_mortelle~7 151
999 WORDFREQ_6.69 151
999 WORDSALL_souhaite~2_mortelle~7 151
999 COSIND_-0.01 151
999 COSGEN_-0.01 151
106 ESRank6 151
201 ESForwSacShort 151
999 WORDS_peines~10 209
999 WORDFREQ_11.28 209
999 WORDSALL_généraliser~3_peines~10 209
999 COSIND_-0.06 209
999 COSGEN_-0.06 209
107 ESRank7 209
202 ESForwSacLong+3+10 209
999 WORDS_capitales~11 173
999 WORDFREQ_1.69 173
999 WORDSALL_l'injection~6_capitales~11 173
999 COSIND_-0.04 173
999 COSGEN_-0.04 173
108 ESRank8 173
201 ESForwSacShort 173
999 WORDS_détriment~13 167
999 WORDFREQ_2.97 167
999 WORDSALL_mortelle~7_détriment~13 167
999 COSIND_0.08 167
999 COSGEN_0.08 167
109 ESRank9 167
202 ESForwSacLong+2+4 167
999 WORDS_l'exécution~15 158
999 WORDFREQ_20.68 158
999 WORDSALL_les~9_peines~10_l'exécution~15 158
999 COSIND_-0.10 158
999 COSGEN_-0.10 158
110 ESRank10 158
202 ESForwSacLong+2+4 158
999 WORDS_toutes~24 152
999 WORDFREQ_24.19 152
999 WORDSALL_balle~17_toutes~24 152
999 COSIND_0.04 152
999 COSGEN_0.04 152
111 ESRank11 152
202 ESForwSacLong+9+52 152
200 ESRankN 152
199 ESRankNMinus1 158
198 ESRankNMinus2 167
197 ESRankNMinus3 173
196 ESRankNMinus4 209
195 ESRankNMinus5 151
194 ESRankNMinus6 170
193 ESRankNMinus7 97
192 ESRankNMinus8 160
191 ESRankNMinus9 185
190 ESRankNMinus10 132
