999 WORDS_limogeage~2 157
999 WORDFREQ_0.07 157
999 WORDSALL_le~1_limogeage~2 157
999 COSIND_0.22 157
999 COSGEN_0.22 157
101 ESRank1 157
999 WORDS_limogeage~2 176
999 WORDFREQ_0.07 176
999 WORDSALL_le~1_limogeage~2 176
999 COSIND_0.22 176
999 COSGEN_0.22 176
102 ESRank2 176
203 ESBackSacRefixation 176
999 WORDS_surprise~3 83
999 WORDFREQ_6.89 83
999 WORDSALL_surprise~3 83
999 COSIND_0.10 83
999 COSGEN_0.10 83
103 ESRank3 83
201 ESForwSacShort 83
999 WORDS_limogeage~2 180
999 WORDFREQ_0.07 180
999 WORDSALL_le~1_limogeage~2 180
999 COSIND_0.22 180
999 COSGEN_0.22 180
104 ESRank4 180
205 ESBackSacRegrShort 180
999 WORDS_limogeage~2 178
999 WORDFREQ_0.07 178
999 WORDSALL_limogeage~2 178
999 COSIND_0.22 178
999 COSGEN_0.22 178
105 ESRank5 178
203 ESBackSacRefixation 178
999 WORDS_surprise~3 147
999 WORDFREQ_6.89 147
999 WORDSALL_limogeage~2_surprise~3 147
999 COSIND_0.10 147
999 COSGEN_0.10 147
106 ESRank6 147
201 ESForwSacShort 147
999 WORDS_surprise~3 136
999 WORDFREQ_6.89 136
999 WORDSALL_surprise~3 136
999 COSIND_0.10 136
999 COSGEN_0.10 136
107 ESRank7 136
203 ESBackSacRefixation 136
999 WORDS_précédent~5 347
999 WORDFREQ_6.15 347
999 WORDSALL_du~4_précédent~5 347
999 COSIND_-0.00 347
999 COSGEN_-0.00 347
108 ESRank8 347
202 ESForwSacLong+2+4 347
999 WORDS_gouvernement~8 209
999 WORDFREQ_119.73 209
999 WORDSALL_chef~6_gouvernement~8 209
999 COSIND_0.05 209
999 COSGEN_0.05 209
109 ESRank9 209
202 ESForwSacLong+3+9 209
999 WORDS_chef~6 170
999 WORDFREQ_172.57 170
999 WORDSALL_chef~6 170
999 COSIND_1.00 170
999 COSGEN_1.00 170
110 ESRank10 170
206 ESBackSacRegrLong-2-4 170
999 WORDS_précédent~5 125
999 WORDFREQ_6.15 125
999 WORDSALL_du~4_précédent~5 125
999 COSIND_-0.00 125
999 COSGEN_-0.00 125
111 ESRank11 125
205 ESBackSacRegrShort 125
999 WORDS_gouvernement~8 179
999 WORDFREQ_119.73 179
999 WORDSALL_gouvernement~8 179
999 COSIND_0.05 179
999 COSGEN_0.05 179
112 ESRank12 179
202 ESForwSacLong+3+9 179
999 WORDS_chef~6 200
999 WORDFREQ_172.57 200
999 WORDSALL_chef~6 200
999 COSIND_1.00 200
999 COSGEN_1.00 200
113 ESRank13 200
206 ESBackSacRegrLong-2-4 200
999 WORDS_russe~9 270
999 WORDFREQ_35.34 270
999 WORDSALL_gouvernement~8_russe~9 270
999 COSIND_0.01 270
999 COSGEN_0.01 270
114 ESRank14 270
202 ESForwSacLong+3+17 270
999 WORDS_précédent~5 179
999 WORDFREQ_6.15 179
999 WORDSALL_du~4_précédent~5 179
999 COSIND_-0.00 179
999 COSGEN_-0.00 179
115 ESRank15 179
206 ESBackSacRegrLong-4-22 179
999 WORDS_précédent~5 128
999 WORDFREQ_6.15 128
999 WORDSALL_du~4_précédent~5 128
999 COSIND_-0.00 128
999 COSGEN_-0.00 128
116 ESRank16 128
203 ESBackSacRefixation 128
999 WORDS_chef~6 186
999 WORDFREQ_172.57 186
999 WORDSALL_chef~6 186
999 COSIND_1.00 186
999 COSGEN_1.00 186
117 ESRank17 186
201 ESForwSacShort 186
999 WORDS_après~10 178
999 WORDFREQ_821.55 178
999 WORDSALL_russe~9_après~10 178
999 COSIND_0.02 178
999 COSGEN_0.02 178
118 ESRank18 178
202 ESForwSacLong+4+23 178
999 WORDS_cinq~11 294
999 WORDFREQ_220.61 294
999 WORDSALL_après~10_cinq~11 294
999 COSIND_0.01 294
999 COSGEN_0.01 294
119 ESRank19 294
201 ESForwSacShort 294
999 WORDS_russe~9 188
999 WORDFREQ_35.34 188
999 WORDSALL_russe~9 188
999 COSIND_0.01 188
999 COSGEN_0.01 188
120 ESRank20 188
206 ESBackSacRegrLong-2-8 188
999 WORDS_cinq~11 144
999 WORDFREQ_220.61 144
999 WORDSALL_après~10_cinq~11 144
999 COSIND_0.01 144
999 COSGEN_0.01 144
202 ESForwSacLong+2+8 144
999 WORDS_stabilité~14 345
999 WORDFREQ_3.18 345
999 WORDSALL_stabilité~14 345
999 COSIND_0.00 345
999 COSGEN_0.00 345
202 ESForwSacLong+3+8 345
999 WORDS_président~16 180
999 WORDFREQ_76.22 180
999 WORDSALL_le~15_président~16 180
999 COSIND_-0.00 180
999 COSGEN_-0.00 180
202 ESForwSacLong+2+4 180
999 WORDS_tente~17 197
999 WORDFREQ_13.04 197
999 WORDSALL_tente~17 197
999 COSIND_0.01 197
999 COSGEN_0.01 197
201 ESForwSacShort 197
999 WORDS_succès~19 245
999 WORDFREQ_53.72 245
999 WORDSALL_succès~19 245
999 COSIND_-0.04 245
999 COSGEN_-0.04 245
202 ESForwSacLong+2+6 245
999 WORDS_succession~23 289
999 WORDFREQ_11.01 289
999 WORDSALL_sa~22_succession~23 289
999 COSIND_-0.03 289
999 COSGEN_-0.03 289
202 ESForwSacLong+4+18 289
999 WORDS_maîtriser~21 165
999 WORDFREQ_8.24 165
999 WORDSALL_de~20_maîtriser~21 165
999 COSIND_0.10 165
999 COSGEN_0.10 165
206 ESBackSacRegrLong-2-4 165
999 WORDS_tente~17 122
999 WORDFREQ_13.04 122
999 WORDSALL_tente~17 122
999 COSIND_0.01 122
999 COSGEN_0.01 122
206 ESBackSacRegrLong-4-17 122
999 WORDS_maîtriser~21 143
999 WORDFREQ_8.24 143
999 WORDSALL_de~20_maîtriser~21 143
999 COSIND_0.10 143
999 COSGEN_0.10 143
202 ESForwSacLong+4+17 143
999 WORDS_succession~23 140
999 WORDFREQ_11.01 140
999 WORDSALL_succession~23 140
999 COSIND_-0.03 140
999 COSGEN_-0.03 140
202 ESForwSacLong+2+4 140
999 WORDS_prétendants~25 291
999 WORDFREQ_1.15 291
999 WORDSALL_prétendants~25 291
999 COSIND_0.04 291
999 COSGEN_0.04 291
202 ESForwSacLong+2+5 291
999 WORDS_nombreux~27 166
999 WORDFREQ_37.03 166
999 WORDSALL_sont~26_nombreux~27 166
999 COSIND_-0.00 166
999 COSGEN_-0.00 166
202 ESForwSacLong+2+6 166
999 WORDS_prétendants~25 385
999 WORDFREQ_1.15 385
999 WORDSALL_prétendants~25 385
999 COSIND_0.04 385
999 COSGEN_0.04 385
206 ESBackSacRegrLong-2-6 385
999 WORDS_sont~26 161
999 WORDFREQ_713.18 161
999 WORDSALL_sont~26 161
999 COSIND_0.02 161
999 COSGEN_0.02 161
201 ESForwSacShort 161
999 WORDS_limogeage~2 182
999 WORDFREQ_0.07 182
999 WORDSALL_Depuis~0_limogeage~2 182
999 COSIND_0.22 182
999 COSGEN_0.22 182
206 ESBackSacRegrLong-24-160 182
999 WORDS_limogeage~2 104
999 WORDFREQ_0.07 104
999 WORDSALL_Depuis~0_limogeage~2 104
999 COSIND_0.22 104
999 COSGEN_0.22 104
203 ESBackSacRefixation 104
999 WORDS_limogeage~2 232
999 WORDFREQ_0.07 232
999 WORDSALL_limogeage~2 232
999 COSIND_0.22 232
999 COSGEN_0.22 232
203 ESBackSacRefixation 232
999 WORDS_limogeage~2 421
999 WORDFREQ_0.07 421
999 WORDSALL_le~1_limogeage~2 421
999 COSIND_0.22 421
999 COSGEN_0.22 421
203 ESBackSacRefixation 421
999 WORDS_surprise~3 216
999 WORDFREQ_6.89 216
999 WORDSALL_surprise~3 216
999 COSIND_0.10 216
999 COSGEN_0.10 216
201 ESForwSacShort 216
999 WORDS_précédent~5 213
999 WORDFREQ_6.15 213
999 WORDSALL_du~4_précédent~5 213
999 COSIND_-0.00 213
999 COSGEN_-0.00 213
202 ESForwSacLong+2+4 213
200 ESRankN 213
199 ESRankNMinus1 216
198 ESRankNMinus2 421
197 ESRankNMinus3 232
196 ESRankNMinus4 104
195 ESRankNMinus5 182
194 ESRankNMinus6 161
193 ESRankNMinus7 385
192 ESRankNMinus8 166
191 ESRankNMinus9 291
190 ESRankNMinus10 140
