999 WORDS_premier~6 113
999 WORDFREQ_237.91 113
999 WORDSALL_Les~0_laboratoires~1_premier~6 113
999 COSIND_0.09 113
999 COSGEN_0.09 113
101 ESRank1 113
999 WORDS_laboratoires~1 218
999 WORDFREQ_1.08 218
999 WORDSALL_Les~0_laboratoires~1 218
999 COSIND_-0.00 218
999 COSGEN_-0.00 218
102 ESRank2 218
206 ESBackSacRegrLong-5-27 218
999 WORDS_ont~2 201
999 WORDFREQ_553.31 201
999 WORDSALL_ont~2 201
999 COSIND_-0.02 201
999 COSGEN_-0.02 201
103 ESRank3 201
201 ESForwSacShort 201
999 WORDS_existence~10 97
999 WORDFREQ_93.85 97
999 WORDSALL_ont~2_existence~10 97
999 COSIND_0.02 97
999 COSGEN_0.02 97
104 ESRank4 97
202 ESForwSacLong+8+45 97
999 WORDS_réalisé~4 209
999 WORDFREQ_6.22 209
999 WORDSALL_réalisé~4 209
999 COSIND_0.02 209
999 COSGEN_0.02 209
105 ESRank5 209
206 ESBackSacRegrLong-6-29 209
999 WORDS_réalisé~4 128
999 WORDFREQ_6.22 128
999 WORDSALL_ainsi~3_réalisé~4 128
999 COSIND_0.02 128
999 COSGEN_0.02 128
106 ESRank6 128
203 ESBackSacRefixation 128
999 WORDS_qu'au~5 101
999 WORDFREQ_N/A 101
999 WORDSALL_réalisé~4_qu'au~5 101
999 COSIND_N/A 101
107 ESRank7 101
201 ESForwSacShort 101
999 WORDS_premier~6 152
999 WORDFREQ_237.91 152
999 WORDSALL_premier~6 152
999 COSIND_0.09 152
999 COSGEN_0.09 152
108 ESRank8 152
201 ESForwSacShort 152
999 WORDS_premier~6 133
999 WORDFREQ_237.91 133
999 WORDSALL_premier~6 133
999 COSIND_0.09 133
999 COSGEN_0.09 133
109 ESRank9 133
203 ESBackSacRefixation 133
999 WORDS_coup~7 162
999 WORDFREQ_641.55 162
999 WORDSALL_laboratoires~1_coup~7 162
999 COSIND_-0.00 162
999 COSGEN_-0.00 162
110 ESRank10 162
201 ESForwSacShort 162
999 WORDS_existence~10 153
999 WORDFREQ_93.85 153
999 WORDSALL_leur~9_existence~10 153
999 COSIND_0.02 153
999 COSGEN_0.02 153
111 ESRank11 153
202 ESForwSacLong+3+10 153
999 WORDS_existence~10 227
999 WORDFREQ_93.85 227
999 WORDSALL_leur~9_existence~10 227
999 COSIND_0.02 227
999 COSGEN_0.02 227
112 ESRank12 227
203 ESBackSacRefixation 227
999 WORDS_même~11 182
999 WORDFREQ_705.81 182
999 WORDSALL_même~11 182
999 COSIND_N/A 182
113 ESRank13 182
201 ESForwSacShort 182
999 WORDS_était~12 95
999 WORDFREQ_3688.99 95
999 WORDSALL_même~11_était~12 95
999 COSIND_0.01 95
999 COSGEN_0.01 95
114 ESRank14 95
201 ESForwSacShort 95
999 WORDS_menacée~13 192
999 WORDFREQ_2.23 192
999 WORDSALL_premier~6_menacée~13 192
999 COSIND_0.16 192
999 COSGEN_0.16 192
115 ESRank15 192
201 ESForwSacShort 192
999 WORDS_menacée~13 157
999 WORDFREQ_2.23 157
999 WORDSALL_premier~6_menacée~13 157
999 COSIND_0.16 157
999 COSGEN_0.16 157
116 ESRank16 157
203 ESBackSacRefixation 157
999 WORDS_médicaments~15 320
999 WORDFREQ_8.45 320
999 WORDSALL_coup~7_dur~8_médicaments~15 320
999 COSIND_-0.12 320
999 COSGEN_-0.12 320
117 ESRank17 320
202 ESForwSacLong+2+5 320
999 WORDS_nouveaux~16 207
999 WORDFREQ_47.3 207
999 WORDSALL_existence~10_nouveaux~16 207
999 COSIND_0.03 207
999 COSGEN_0.03 207
118 ESRank18 207
201 ESForwSacShort 207
999 WORDS_n'étaient~17 283
999 WORDFREQ_534.19 283
999 WORDSALL_n'étaient~17 283
999 COSIND_0.01 283
999 COSGEN_0.01 283
119 ESRank19 283
201 ESForwSacShort 283
999 WORDS_n'étaient~17 215
999 WORDFREQ_534.19 215
999 WORDSALL_n'étaient~17 215
999 COSIND_0.01 215
999 COSGEN_0.01 215
120 ESRank20 215
203 ESBackSacRefixation 215
999 WORDS_médicaments~15 127
999 WORDFREQ_8.45 127
999 WORDSALL_médicaments~15 127
999 COSIND_-0.12 127
999 COSGEN_-0.12 127
206 ESBackSacRegrLong-2-10 127
999 WORDS_nombreux~20 126
999 WORDFREQ_37.03 126
999 WORDSALL_médicaments~15_nombreux~20 126
999 COSIND_0.04 126
999 COSGEN_0.04 126
202 ESForwSacLong+5+32 126
999 WORDS_nombreux~20 113
999 WORDFREQ_37.03 113
999 WORDSALL_menacée~13_nombreux~20 113
999 COSIND_0.04 113
999 COSGEN_0.04 113
203 ESBackSacRefixation 113
999 WORDS_plus~18 176
999 WORDFREQ_5014.53 176
999 WORDSALL_menacée~13_plus~18 176
999 COSIND_0.01 176
999 COSGEN_0.01 176
206 ESBackSacRegrLong-2-7 176
999 WORDS_compenser~22 244
999 WORDFREQ_3.99 244
999 WORDSALL_nouveaux~16_compenser~22 244
999 COSIND_0.03 244
999 COSGEN_0.03 244
202 ESForwSacLong+4+21 244
999 WORDS_compenser~22 135
999 WORDFREQ_3.99 135
999 WORDSALL_nouveaux~16_compenser~22 135
999 COSIND_0.03 135
999 COSGEN_0.03 135
203 ESBackSacRefixation 135
999 WORDS_chute~24 157
999 WORDFREQ_35.27 157
999 WORDSALL_la~23_chute~24 157
999 COSIND_-0.04 157
999 COSGEN_-0.04 157
202 ESForwSacLong+2+4 157
999 WORDS_public~31 256
999 WORDFREQ_18.04 256
999 WORDSALL_domaine~30_public~31 256
999 COSIND_0.03 256
999 COSGEN_0.03 256
202 ESForwSacLong+7+34 256
200 ESRankN 256
199 ESRankNMinus1 157
198 ESRankNMinus2 135
197 ESRankNMinus3 244
196 ESRankNMinus4 176
195 ESRankNMinus5 113
194 ESRankNMinus6 126
193 ESRankNMinus7 127
192 ESRankNMinus8 215
191 ESRankNMinus9 283
190 ESRankNMinus10 207
