999 WORDS_Comme~0 154
999 WORDFREQ_365.68 154
999 WORDSALL_Comme~0 154
999 COSIND_N/A 154
101 ESRank1 154
999 WORDS_écho~2 247
999 WORDFREQ_32.5 247
999 WORDSALL_en~1_écho~2 247
999 COSIND_0.01 247
999 COSGEN_0.01 247
102 ESRank2 247
202 ESForwSacLong+2+4 247
999 WORDS_à~3 190
999 WORDFREQ_19209.05 190
999 WORDSALL_à~3 190
999 COSIND_N/A 190
103 ESRank3 190
201 ESForwSacShort 190
999 WORDS_retrouvée~6 273
999 WORDFREQ_15.2 273
999 WORDSALL_assurance~5_retrouvée~6 273
999 COSIND_-0.08 273
999 COSGEN_-0.08 273
104 ESRank4 273
202 ESForwSacLong+3+17 273
999 WORDS_commission~14 221
999 WORDFREQ_10.81 221
999 WORDSALL_la~13_commission~14 221
999 COSIND_-0.00 221
999 COSGEN_-0.00 221
105 ESRank5 221
202 ESForwSacLong+8+31 221
999 WORDS_fin~9 124
999 WORDFREQ_303.31 124
999 WORDSALL_fin~9 124
999 COSIND_0.06 124
999 COSGEN_0.06 124
106 ESRank6 124
206 ESBackSacRegrLong-5-17 124
999 WORDS_fin~9 286
999 WORDFREQ_303.31 286
999 WORDSALL_depuis~7_fin~9 286
999 COSIND_0.06 286
999 COSGEN_0.06 286
107 ESRank7 286
203 ESBackSacRefixation 286
999 WORDS_affaires~16 134
999 WORDFREQ_102.84 134
999 WORDSALL_des~15_affaires~16 134
999 COSIND_0.05 134
999 COSGEN_0.05 134
108 ESRank8 134
202 ESForwSacLong+7+32 134
999 WORDS_étrangères~17 171
999 WORDFREQ_16.82 171
999 WORDSALL_étrangères~17 171
999 COSIND_-0.01 171
999 COSGEN_-0.01 171
109 ESRank9 171
201 ESForwSacShort 171
999 WORDS_Sénat~19 171
999 WORDFREQ_1.82 171
999 WORDSALL_du~18_Sénat~19 171
999 COSIND_-0.01 171
999 COSGEN_-0.01 171
110 ESRank10 171
202 ESForwSacLong+2+4 171
999 WORDS_fixé~21 130
999 WORDFREQ_25.14 130
999 WORDSALL_Sénat~19_a~20_fixé~21 130
999 COSIND_-0.11 130
999 COSGEN_-0.11 130
111 ESRank11 130
202 ESForwSacLong+2+3 130
999 WORDS_début~26 294
999 WORDFREQ_128.51 294
999 WORDSALL_début~26 294
999 COSIND_0.17 294
999 COSGEN_0.17 294
112 ESRank12 294
202 ESForwSacLong+5+18 294
999 WORDS_était~33 209
999 WORDFREQ_3688.99 209
999 WORDSALL_qui~32_était~33 209
999 COSIND_0.01 209
999 COSGEN_0.01 209
113 ESRank13 209
202 ESForwSacLong+7+36 209
999 WORDS_bloquée~34 168
999 WORDFREQ_1.15 168
999 WORDSALL_bloquée~34 168
999 COSIND_0.03 168
999 COSGEN_0.03 168
114 ESRank14 168
201 ESForwSacShort 168
999 WORDS_mois~37 198
999 WORDFREQ_304.86 198
999 WORDSALL_mois~37 198
999 COSIND_0.07 198
999 COSGEN_0.07 198
115 ESRank15 198
202 ESForwSacLong+3+12 198
999 WORDS_bloquée~34 146
999 WORDFREQ_1.15 146
999 WORDSALL_était~33_bloquée~34 146
999 COSIND_0.03 146
999 COSGEN_0.03 146
116 ESRank16 146
206 ESBackSacRegrLong-3-12 146
999 WORDS_était~33 144
999 WORDFREQ_3688.99 144
999 WORDSALL_qui~32_était~33 144
999 COSIND_0.01 144
999 COSGEN_0.01 144
117 ESRank17 144
205 ESBackSacRegrShort 144
999 WORDS_nomination~31 304
999 WORDFREQ_2.77 304
999 WORDSALL_nomination~31 304
999 COSIND_0.06 304
999 COSGEN_0.06 304
118 ESRank18 304
206 ESBackSacRegrLong-2-5 304
200 ESRankN 304
199 ESRankNMinus1 144
198 ESRankNMinus2 146
197 ESRankNMinus3 198
196 ESRankNMinus4 168
195 ESRankNMinus5 209
194 ESRankNMinus6 294
193 ESRankNMinus7 130
192 ESRankNMinus8 171
191 ESRankNMinus9 171
190 ESRankNMinus10 134
