999 WORDS_révision~1 140
999 WORDFREQ_3.11 140
999 WORDSALL_La~0_révision~1 140
999 COSIND_-0.01 140
999 COSGEN_-0.01 140
101 ESRank1 140
999 WORDS_Commission~4 143
999 WORDFREQ_10.81 143
999 WORDSALL_Commission~4 143
999 COSIND_-0.01 143
999 COSGEN_-0.01 143
102 ESRank2 143
202 ESForwSacLong+3+8 143
999 WORDS_Commission~4 214
999 WORDFREQ_10.81 214
999 WORDSALL_par~2_Commission~4 214
999 COSIND_-0.01 214
999 COSGEN_-0.01 214
103 ESRank3 214
203 ESBackSacRefixation 214
999 WORDS_révision~1 92
999 WORDFREQ_3.11 92
999 WORDSALL_La~0_révision~1 92
999 COSIND_-0.01 92
999 COSGEN_-0.01 92
104 ESRank4 92
206 ESBackSacRegrLong-3-8 92
999 WORDS_Commission~4 88
999 WORDFREQ_10.81 88
999 WORDSALL_par~2_Commission~4 88
999 COSIND_-0.01 88
999 COSGEN_-0.01 88
105 ESRank5 88
202 ESForwSacLong+3+8 88
999 WORDS_révision~1 208
999 WORDFREQ_3.11 208
999 WORDSALL_La~0_révision~1 208
999 COSIND_-0.01 208
999 COSGEN_-0.01 208
106 ESRank6 208
206 ESBackSacRegrLong-3-8 208
999 WORDS_Commission~4 132
999 WORDFREQ_10.81 132
999 WORDSALL_Commission~4 132
999 COSIND_-0.01 132
999 COSGEN_-0.01 132
107 ESRank7 132
202 ESForwSacLong+3+8 132
999 WORDS_révision~1 197
999 WORDFREQ_3.11 197
999 WORDSALL_La~0_révision~1 197
999 COSIND_-0.01 197
999 COSGEN_-0.01 197
108 ESRank8 197
206 ESBackSacRegrLong-3-8 197
999 WORDS_Commission~4 110
999 WORDFREQ_10.81 110
999 WORDSALL_par~2_Commission~4 110
999 COSIND_-0.01 110
999 COSGEN_-0.01 110
109 ESRank9 110
202 ESForwSacLong+3+8 110
999 WORDS_Commission~4 285
999 WORDFREQ_10.81 285
999 WORDSALL_Commission~4 285
999 COSIND_-0.01 285
999 COSGEN_-0.01 285
110 ESRank10 285
203 ESBackSacRefixation 285
999 WORDS_des~5 140
999 WORDFREQ_10624.93 140
999 WORDSALL_des~5 140
999 COSIND_N/A 140
111 ESRank11 140
201 ESForwSacShort 140
999 WORDS_prévisions~6 183
999 WORDFREQ_3.45 183
999 WORDSALL_prévisions~6 183
999 COSIND_-0.04 183
999 COSGEN_-0.04 183
112 ESRank12 183
201 ESForwSacShort 183
999 WORDS_prévisions~6 100
999 WORDFREQ_3.45 100
999 WORDSALL_prévisions~6 100
999 COSIND_-0.04 100
999 COSGEN_-0.04 100
113 ESRank13 100
203 ESBackSacRefixation 100
999 WORDS_l'année~8 114
999 WORDFREQ_128.99 114
999 WORDSALL_pour~7_l'année~8 114
999 COSIND_0.00 114
999 COSGEN_0.00 114
114 ESRank14 114
202 ESForwSacLong+2+6 114
999 WORDS_prévisions~6 234
999 WORDFREQ_3.45 234
999 WORDSALL_prévisions~6 234
999 COSIND_-0.04 234
999 COSGEN_-0.04 234
115 ESRank15 234
206 ESBackSacRegrLong-2-6 234
999 WORDS_prévisions~6 194
999 WORDFREQ_3.45 194
999 WORDSALL_prévisions~6 194
999 COSIND_-0.04 194
999 COSGEN_-0.04 194
116 ESRank16 194
203 ESBackSacRefixation 194
999 WORDS_l'année~8 118
999 WORDFREQ_128.99 118
999 WORDSALL_pour~7_l'année~8 118
999 COSIND_0.00 118
999 COSGEN_0.00 118
117 ESRank17 118
202 ESForwSacLong+2+6 118
999 WORDS_prévisions~6 225
999 WORDFREQ_3.45 225
999 WORDSALL_prévisions~6 225
999 COSIND_-0.04 225
999 COSGEN_-0.04 225
118 ESRank18 225
206 ESBackSacRegrLong-2-6 225
999 WORDS_l'année~8 117
999 WORDFREQ_128.99 117
999 WORDSALL_pour~7_l'année~8 117
999 COSIND_0.00 117
999 COSGEN_0.00 117
119 ESRank19 117
202 ESForwSacLong+2+6 117
999 WORDS_qu'il~13 293
999 WORDFREQ_N/A 293
999 WORDSALL_cas~12_qu'il~13 293
999 COSIND_N/A 293
120 ESRank20 293
202 ESForwSacLong+5+22 293
999 WORDS_bien~16 197
999 WORDFREQ_2535.14 197
999 WORDSALL_y~14_a~15_bien~16 197
999 COSIND_-0.02 197
999 COSGEN_-0.02 197
202 ESForwSacLong+3+5 197
999 WORDS_problème~18 169
999 WORDFREQ_55.2 169
999 WORDSALL_un~17_problème~18 169
999 COSIND_0.02 169
999 COSGEN_0.02 169
202 ESForwSacLong+2+4 169
999 WORDS_problème~18 121
999 WORDFREQ_55.2 121
999 WORDSALL_problème~18 121
999 COSIND_0.02 121
999 COSGEN_0.02 121
203 ESBackSacRefixation 121
999 WORDS_Cette~19 117
999 WORDFREQ_2320.68 117
999 WORDSALL_Cette~19 117
999 COSIND_N/A 117
201 ESForwSacShort 117
999 WORDS_année~20 227
999 WORDFREQ_128.99 227
999 WORDSALL_année~20 227
999 COSIND_0.00 227
999 COSGEN_0.00 227
201 ESForwSacShort 227
999 WORDS_croissance~22 155
999 WORDFREQ_3.92 155
999 WORDSALL_la~21_croissance~22 155
999 COSIND_-0.06 155
999 COSGEN_-0.06 155
202 ESForwSacLong+2+4 155
999 WORDS_croissance~22 271
999 WORDFREQ_3.92 271
999 WORDSALL_croissance~22 271
999 COSIND_-0.06 271
999 COSGEN_-0.06 271
203 ESBackSacRefixation 271
999 WORDS_zone~25 265
999 WORDFREQ_34.39 265
999 WORDSALL_la~24_zone~25 265
999 COSIND_-0.00 265
999 COSGEN_-0.00 265
202 ESForwSacLong+3+7 265
999 WORDS_année~20 158
999 WORDFREQ_128.99 158
999 WORDSALL_année~20 158
999 COSIND_0.00 158
999 COSGEN_0.00 158
206 ESBackSacRegrLong-5-21 158
999 WORDS_croissance~22 84
999 WORDFREQ_3.92 84
999 WORDSALL_croissance~22 84
999 COSIND_-0.06 84
999 COSGEN_-0.06 84
202 ESForwSacLong+2+4 84
999 WORDS_l'année~8 192
999 WORDFREQ_128.99 192
999 WORDSALL_l'année~8 192
999 COSIND_0.00 192
999 COSGEN_0.00 192
206 ESBackSacRegrLong-14-66 192
999 WORDS_confirme~9 154
999 WORDFREQ_3.92 154
999 WORDSALL_confirme~9 154
999 COSIND_-0.04 154
999 COSGEN_-0.04 154
201 ESForwSacShort 154
999 WORDS_qu'il~13 266
999 WORDFREQ_N/A 266
999 WORDSALL_qu'il~13 266
999 COSIND_N/A 266
202 ESForwSacLong+4+13 266
999 WORDS_bien~16 145
999 WORDFREQ_2535.14 145
999 WORDSALL_y~14_a~15_bien~16 145
999 COSIND_-0.02 145
999 COSGEN_-0.02 145
202 ESForwSacLong+3+5 145
999 WORDS_problème~18 168
999 WORDFREQ_55.2 168
999 WORDSALL_problème~18 168
999 COSIND_0.02 168
999 COSGEN_0.02 168
202 ESForwSacLong+2+4 168
999 WORDS_Cette~19 88
999 WORDFREQ_2320.68 88
999 WORDSALL_Cette~19 88
999 COSIND_N/A 88
201 ESForwSacShort 88
999 WORDS_année~20 226
999 WORDFREQ_128.99 226
999 WORDSALL_année~20 226
999 COSIND_0.00 226
999 COSGEN_0.00 226
201 ESForwSacShort 226
999 WORDS_croissance~22 192
999 WORDFREQ_3.92 192
999 WORDSALL_croissance~22 192
999 COSIND_-0.06 192
999 COSGEN_-0.06 192
202 ESForwSacLong+2+4 192
999 WORDS_euro~26 177
999 WORDFREQ_0 177
999 WORDSALL_zone~25_euro~26 177
999 COSIND_N/A 177
202 ESForwSacLong+4+12 177
999 WORDS_année~20 197
999 WORDFREQ_128.99 197
999 WORDSALL_année~20 197
999 COSIND_0.00 197
999 COSGEN_0.00 197
206 ESBackSacRegrLong-6-26 197
200 ESRankN 197
199 ESRankNMinus1 177
198 ESRankNMinus2 192
197 ESRankNMinus3 226
196 ESRankNMinus4 88
195 ESRankNMinus5 168
194 ESRankNMinus6 145
193 ESRankNMinus7 266
192 ESRankNMinus8 154
191 ESRankNMinus9 192
190 ESRankNMinus10 84
