999 WORDS_économie~1 156
999 WORDFREQ_15.74 156
999 WORDSALL_Une~0_économie~1 156
999 COSIND_0.88 156
999 COSGEN_0.88 156
101 ESRank1 156
999 WORDS_économie~1 125
999 WORDFREQ_15.74 125
999 WORDSALL_Une~0_économie~1 125
999 COSIND_0.88 125
999 COSGEN_0.88 125
102 ESRank2 125
203 ESBackSacRefixation 125
999 WORDS_New~2 240
999 WORDFREQ_3.51 240
999 WORDSALL_New~2 240
999 COSIND_N/A 240
103 ESRank3 240
201 ESForwSacShort 240
999 WORDS_Age~3 229
999 WORDFREQ_0.47 229
999 WORDSALL_New~2_Age~3 229
999 COSIND_0.02 229
999 COSGEN_0.02 229
104 ESRank4 229
201 ESForwSacShort 229
999 WORDS_économie~6 209
999 WORDFREQ_15.74 209
999 WORDSALL_est~4_économie~6 209
999 COSIND_0.88 209
999 COSGEN_0.88 209
105 ESRank5 209
202 ESForwSacLong+3+9 209
999 WORDS_économie~6 178
999 WORDFREQ_15.74 178
999 WORDSALL_une~5_économie~6 178
999 COSIND_0.88 178
999 COSGEN_0.88 178
106 ESRank6 178
203 ESBackSacRefixation 178
999 WORDS_dans~7 150
999 WORDFREQ_8296.08 150
999 WORDSALL_dans~7 150
999 COSIND_N/A 150
107 ESRank7 150
201 ESForwSacShort 150
999 WORDS_laquelle~8 210
999 WORDFREQ_182.36 210
999 WORDSALL_laquelle~8 210
999 COSIND_N/A 210
108 ESRank8 210
201 ESForwSacShort 210
999 WORDS_laquelle~8 110
999 WORDFREQ_182.36 110
999 WORDSALL_laquelle~8 110
999 COSIND_N/A 110
109 ESRank9 110
203 ESBackSacRefixation 110
999 WORDS_croissance~10 270
999 WORDFREQ_3.92 270
999 WORDSALL_la~9_croissance~10 270
999 COSIND_0.79 270
999 COSGEN_0.79 270
110 ESRank10 270
202 ESForwSacLong+2+4 270
999 WORDS_l'efficacité~12 161
999 WORDFREQ_8.51 161
999 WORDSALL_de~11_l'efficacité~12 161
999 COSIND_0.04 161
999 COSGEN_0.04 161
111 ESRank11 161
202 ESForwSacLong+2+4 161
999 WORDS_l'efficacité~12 257
999 WORDFREQ_8.51 257
999 WORDSALL_de~11_l'efficacité~12 257
999 COSIND_0.04 257
999 COSGEN_0.04 257
112 ESRank12 257
203 ESBackSacRefixation 257
999 WORDS_l'efficacité~12 197
999 WORDFREQ_8.51 197
999 WORDSALL_l'efficacité~12 197
999 COSIND_0.04 197
999 COSGEN_0.04 197
113 ESRank13 197
203 ESBackSacRefixation 197
999 WORDS_avec~13 125
999 WORDFREQ_4000.41 125
999 WORDSALL_avec~13 125
999 COSIND_N/A 125
114 ESRank14 125
201 ESForwSacShort 125
999 WORDS_laquelle~14 156
999 WORDFREQ_182.36 156
999 WORDSALL_laquelle~14 156
999 COSIND_N/A 156
115 ESRank15 156
201 ESForwSacShort 156
999 WORDS_laquelle~14 99
999 WORDFREQ_182.36 99
999 WORDSALL_laquelle~14 99
999 COSIND_N/A 99
116 ESRank16 99
203 ESBackSacRefixation 99
999 WORDS_utilisons~16 145
999 WORDFREQ_0.07 145
999 WORDSALL_nous~15_utilisons~16 145
999 COSIND_-0.01 145
999 COSGEN_-0.01 145
117 ESRank17 145
202 ESForwSacLong+2+6 145
999 WORDS_utilisons~16 134
999 WORDFREQ_0.07 134
999 WORDSALL_nous~15_utilisons~16 134
999 COSIND_-0.01 134
999 COSGEN_-0.01 134
118 ESRank18 134
203 ESBackSacRefixation 134
999 WORDS_ressources~18 387
999 WORDFREQ_16.55 387
999 WORDSALL_les~17_ressources~18 387
999 COSIND_0.04 387
999 COSGEN_0.04 387
119 ESRank19 387
202 ESForwSacLong+2+5 387
999 WORDS_productives~19 145
999 WORDFREQ_0.14 145
999 WORDSALL_productives~19 145
999 COSIND_0.31 145
999 COSGEN_0.31 145
120 ESRank20 145
201 ESForwSacShort 145
999 WORDS_productives~19 218
999 WORDFREQ_0.14 218
999 WORDSALL_productives~19 218
999 COSIND_0.31 218
999 COSGEN_0.31 218
203 ESBackSacRefixation 218
999 WORDS_trouve~21 245
999 WORDFREQ_163.78 245
999 WORDSALL_se~20_trouve~21 245
999 COSIND_0.00 245
999 COSGEN_0.00 245
202 ESForwSacLong+2+4 245
999 WORDS_durablement~22 203
999 WORDFREQ_0.74 203
999 WORDSALL_durablement~22 203
999 COSIND_0.33 203
999 COSGEN_0.33 203
201 ESForwSacShort 203
999 WORDS_accélérée~23 227
999 WORDFREQ_2.23 227
999 WORDSALL_accélérée~23 227
999 COSIND_0.32 227
999 COSGEN_0.32 227
201 ESForwSacShort 227
999 WORDS_accélérée~23 202
999 WORDFREQ_2.23 202
999 WORDSALL_accélérée~23 202
999 COSIND_0.32 202
999 COSGEN_0.32 202
203 ESBackSacRefixation 202
200 ESRankN 202
199 ESRankNMinus1 227
198 ESRankNMinus2 203
197 ESRankNMinus3 245
196 ESRankNMinus4 218
195 ESRankNMinus5 145
194 ESRankNMinus6 387
193 ESRankNMinus7 134
192 ESRankNMinus8 145
191 ESRankNMinus9 99
190 ESRankNMinus10 156
