999 WORDS_monocoque~1 237
999 WORDFREQ_0 237
999 WORDSALL_monocoque~1 237
999 COSIND_0.70 237
999 COSGEN_0.70 237
101 ESRank1 237
999 WORDS_Gartmore~2 185
999 WORDFREQ_N/A 185
999 WORDSALL_Gartmore~2 185
999 COSIND_N/A 185
102 ESRank2 185
201 ESForwSacShort 185
999 WORDS_monocoque~1 242
999 WORDFREQ_0 242
999 WORDSALL_Le~0_monocoque~1 242
999 COSIND_0.70 242
999 COSGEN_0.70 242
103 ESRank3 242
205 ESBackSacRegrShort 242
999 WORDS_monocoque~1 195
999 WORDFREQ_0 195
999 WORDSALL_Le~0_monocoque~1 195
999 COSIND_0.70 195
999 COSGEN_0.70 195
104 ESRank4 195
203 ESBackSacRefixation 195
999 WORDS_Gartmore~2 355
999 WORDFREQ_N/A 355
999 WORDSALL_Gartmore~2 355
999 COSIND_N/A 355
105 ESRank5 355
201 ESForwSacShort 355
999 WORDS_Gartmore~2 160
999 WORDFREQ_N/A 160
999 WORDSALL_monocoque~1_Gartmore~2 160
999 COSIND_N/A 160
106 ESRank6 160
203 ESBackSacRefixation 160
999 WORDS_Britannique~4 255
999 WORDFREQ_0.88 255
999 WORDSALL_du~3_Britannique~4 255
999 COSIND_-0.01 255
999 COSGEN_-0.01 255
107 ESRank7 255
202 ESForwSacLong+2+4 255
999 WORDS_Britannique~4 323
999 WORDFREQ_0.88 323
999 WORDSALL_du~3_Britannique~4 323
999 COSIND_-0.01 323
999 COSGEN_-0.01 323
108 ESRank8 323
203 ESBackSacRefixation 323
999 WORDS_a~5 137
999 WORDFREQ_2926.69 137
999 WORDSALL_Britannique~4_a~5 137
999 COSIND_N/A 137
109 ESRank9 137
201 ESForwSacShort 137
999 WORDS_démâté~6 168
999 WORDFREQ_0.07 168
999 WORDSALL_démâté~6 168
999 COSIND_0.69 168
999 COSGEN_0.69 168
110 ESRank10 168
201 ESForwSacShort 168
999 WORDS_démâté~6 169
999 WORDFREQ_0.07 169
999 WORDSALL_démâté~6 169
999 COSIND_0.69 169
999 COSGEN_0.69 169
111 ESRank11 169
203 ESBackSacRefixation 169
999 WORDS_troisième~9 185
999 WORDFREQ_57.23 185
999 WORDSALL_dans~7_troisième~9 185
999 COSIND_0.32 185
999 COSGEN_0.32 185
112 ESRank12 185
202 ESForwSacLong+3+9 185
999 WORDS_troisième~9 140
999 WORDFREQ_57.23 140
999 WORDSALL_la~8_troisième~9 140
999 COSIND_0.32 140
999 COSGEN_0.32 140
113 ESRank13 140
203 ESBackSacRefixation 140
999 WORDS_étape~10 136
999 WORDFREQ_14.46 136
999 WORDSALL_troisième~9_étape~10 136
999 COSIND_0.74 136
999 COSGEN_0.74 136
114 ESRank14 136
201 ESForwSacShort 136
999 WORDS_troisième~9 179
999 WORDFREQ_57.23 179
999 WORDSALL_dans~7_troisième~9 179
999 COSIND_0.32 179
999 COSGEN_0.32 179
115 ESRank15 179
205 ESBackSacRegrShort 179
999 WORDS_troisième~9 208
999 WORDFREQ_57.23 208
999 WORDSALL_la~8_troisième~9 208
999 COSIND_0.32 208
999 COSGEN_0.32 208
116 ESRank16 208
203 ESBackSacRefixation 208
999 WORDS_démâté~6 293
999 WORDFREQ_0.07 293
999 WORDSALL_démâté~6 293
999 COSIND_0.69 293
999 COSGEN_0.69 293
117 ESRank17 293
206 ESBackSacRegrLong-3-9 293
999 WORDS_troisième~9 460
999 WORDFREQ_57.23 460
999 WORDSALL_la~8_troisième~9 460
999 COSIND_0.32 460
999 COSGEN_0.32 460
118 ESRank18 460
202 ESForwSacLong+3+9 460
999 WORDS_troisième~9 179
999 WORDFREQ_57.23 179
999 WORDSALL_troisième~9 179
999 COSIND_0.32 179
999 COSGEN_0.32 179
119 ESRank19 179
203 ESBackSacRefixation 179
999 WORDS_étape~10 182
999 WORDFREQ_14.46 182
999 WORDSALL_troisième~9_étape~10 182
999 COSIND_0.74 182
999 COSGEN_0.74 182
120 ESRank20 182
201 ESForwSacShort 182
999 WORDS_l'Around~12 147
999 WORDFREQ_N/A 147
999 WORDSALL_de~11_l'Around~12 147
999 COSIND_N/A 147
202 ESForwSacLong+2+4 147
999 WORDS_l'Around~12 95
999 WORDFREQ_N/A 95
999 WORDSALL_de~11_l'Around~12 95
999 COSIND_N/A 95
203 ESBackSacRefixation 95
999 WORDS_l'Around~12 101
999 WORDFREQ_N/A 101
999 WORDSALL_de~11_l'Around~12 101
999 COSIND_N/A 101
203 ESBackSacRefixation 101
999 WORDS_Alone~13 218
999 WORDFREQ_N/A 218
999 WORDSALL_Alone~13 218
999 COSIND_N/A 218
201 ESForwSacShort 218
999 WORDS_Alone~13 156
999 WORDFREQ_N/A 156
999 WORDSALL_Alone~13 156
999 COSIND_N/A 156
203 ESBackSacRefixation 156
999 WORDS_tour~14 175
999 WORDFREQ_280.27 175
999 WORDSALL_tour~14 175
999 COSIND_0.50 175
999 COSGEN_0.50 175
201 ESForwSacShort 175
999 WORDS_monde~16 161
999 WORDFREQ_732.43 161
999 WORDSALL_du~15_monde~16 161
999 COSIND_0.11 161
999 COSGEN_0.11 161
202 ESForwSacLong+2+4 161
999 WORDS_voile~19 369
999 WORDFREQ_30.27 369
999 WORDSALL_à~17_voile~19 369
999 COSIND_0.45 369
999 COSGEN_0.45 369
202 ESForwSacLong+3+7 369
999 WORDS_solitaire~21 187
999 WORDFREQ_6.08 187
999 WORDSALL_solitaire~21 187
999 COSIND_0.57 187
999 COSGEN_0.57 187
202 ESForwSacLong+2+4 187
999 WORDS_solitaire~21 87
999 WORDFREQ_6.08 87
999 WORDSALL_solitaire~21 87
999 COSIND_0.57 87
999 COSGEN_0.57 87
203 ESBackSacRefixation 87
999 WORDS_escales~23 366
999 WORDFREQ_1.76 366
999 WORDSALL_avec~22_escales~23 366
999 COSIND_0.49 366
999 COSGEN_0.49 366
202 ESForwSacLong+2+6 366
999 WORDS_Auckland~25 167
999 WORDFREQ_N/A 167
999 WORDSALL_entre~24_Auckland~25 167
999 COSIND_N/A 167
202 ESForwSacLong+2+7 167
999 WORDS_Auckland~25 339
999 WORDFREQ_N/A 339
999 WORDSALL_entre~24_Auckland~25 339
999 COSIND_N/A 339
203 ESBackSacRefixation 339
999 WORDS_Auckland~25 118
999 WORDFREQ_N/A 118
999 WORDSALL_Auckland~25 118
999 COSIND_N/A 118
203 ESBackSacRefixation 118
999 WORDS_del~28 217
999 WORDFREQ_N/A 217
999 WORDSALL_Punta~27_del~28 217
999 COSIND_N/A 217
202 ESForwSacLong+3+10 217
999 WORDS_Punta~27 171
999 WORDFREQ_N/A 171
999 WORDSALL_Punta~27 171
999 COSIND_N/A 171
205 ESBackSacRegrShort 171
999 WORDS_del~28 148
999 WORDFREQ_N/A 148
999 WORDSALL_Punta~27_del~28 148
999 COSIND_N/A 148
201 ESForwSacShort 148
999 WORDS_monde~16 177
999 WORDFREQ_732.43 177
999 WORDSALL_du~15_monde~16 177
999 COSIND_0.11 177
999 COSGEN_0.11 177
206 ESBackSacRegrLong-12-63 177
999 WORDS_monde~16 191
999 WORDFREQ_732.43 191
999 WORDSALL_du~15_monde~16 191
999 COSIND_0.11 191
999 COSGEN_0.11 191
203 ESBackSacRefixation 191
999 WORDS_voile~19 247
999 WORDFREQ_30.27 247
999 WORDSALL_à~17_voile~19 247
999 COSIND_0.45 247
999 COSGEN_0.45 247
202 ESForwSacLong+3+7 247
200 ESRankN 247
199 ESRankNMinus1 191
198 ESRankNMinus2 177
197 ESRankNMinus3 148
196 ESRankNMinus4 171
195 ESRankNMinus5 217
194 ESRankNMinus6 118
193 ESRankNMinus7 339
192 ESRankNMinus8 167
191 ESRankNMinus9 366
190 ESRankNMinus10 87
