999 WORDS_semble~1 160
999 WORDFREQ_154.19 160
999 WORDSALL_Il~0_semble~1 160
999 COSIND_0.05 160
999 COSGEN_0.05 160
101 ESRank1 160
999 WORDS_l'instar~4 153
999 WORDFREQ_N/A 153
999 WORDSALL_à~3_l'instar~4 153
999 COSIND_N/A 153
102 ESRank2 153
202 ESForwSacLong+3+8 153
999 WORDS_l'instar~4 154
999 WORDFREQ_N/A 154
999 WORDSALL_l'instar~4 154
999 COSIND_N/A 154
103 ESRank3 154
203 ESBackSacRefixation 154
999 WORDS_Anglais~6 234
999 WORDFREQ_69.46 234
999 WORDSALL_des~5_Anglais~6 234
999 COSIND_0.11 234
999 COSGEN_0.11 234
104 ESRank4 234
202 ESForwSacLong+2+5 234
999 WORDS_Anglais~6 146
999 WORDFREQ_69.46 146
999 WORDSALL_des~5_Anglais~6 146
999 COSIND_0.11 146
999 COSGEN_0.11 146
105 ESRank5 146
203 ESBackSacRefixation 146
999 WORDS_Anglais~6 147
999 WORDFREQ_69.46 147
999 WORDSALL_Anglais~6 147
999 COSIND_0.11 147
999 COSGEN_0.11 147
106 ESRank6 147
203 ESBackSacRefixation 147
999 WORDS_soient~9 159
999 WORDFREQ_21.89 159
999 WORDSALL_Gallois~8_soient~9 159
999 COSIND_0.12 159
999 COSGEN_0.12 159
107 ESRank7 159
202 ESForwSacLong+3+13 159
999 WORDS_Gallois~8 176
999 WORDFREQ_0 176
999 WORDSALL_Gallois~8 176
999 COSIND_0.45 176
999 COSGEN_0.45 176
108 ESRank8 176
205 ESBackSacRegrShort 176
999 WORDS_soient~9 151
999 WORDFREQ_21.89 151
999 WORDSALL_soient~9 151
999 COSIND_0.12 151
999 COSGEN_0.12 151
109 ESRank9 151
201 ESForwSacShort 151
999 WORDS_parvenus~10 203
999 WORDFREQ_5.2 203
999 WORDSALL_parvenus~10 203
999 COSIND_0.06 203
999 COSGEN_0.06 203
110 ESRank10 203
201 ESForwSacShort 203
999 WORDS_assimiler~12 247
999 WORDFREQ_3.04 247
999 WORDSALL_à~11_assimiler~12 247
999 COSIND_-0.01 247
999 COSGEN_-0.01 247
111 ESRank11 247
202 ESForwSacLong+2+4 247
999 WORDS_assimiler~12 93
999 WORDFREQ_3.04 93
999 WORDSALL_à~11_assimiler~12 93
999 COSIND_-0.01 93
999 COSGEN_-0.01 93
112 ESRank12 93
203 ESBackSacRefixation 93
999 WORDS_assimiler~12 162
999 WORDFREQ_3.04 162
999 WORDSALL_assimiler~12 162
999 COSIND_-0.01 162
999 COSGEN_-0.01 162
113 ESRank13 162
203 ESBackSacRefixation 162
999 WORDS_éléments~14 160
999 WORDFREQ_46.89 160
999 WORDSALL_éléments~14 160
999 COSIND_0.00 160
999 COSGEN_0.00 160
114 ESRank14 160
202 ESForwSacLong+2+5 160
999 WORDS_éléments~14 116
999 WORDFREQ_46.89 116
999 WORDSALL_éléments~14 116
999 COSIND_0.00 116
999 COSGEN_0.00 116
115 ESRank15 116
203 ESBackSacRefixation 116
999 WORDS_ont~16 154
999 WORDFREQ_553.31 154
999 WORDSALL_qui~15_ont~16 154
999 COSIND_0.14 154
999 COSGEN_0.14 154
116 ESRank16 154
202 ESForwSacLong+2+5 154
999 WORDS_permis~17 152
999 WORDFREQ_35.54 152
999 WORDSALL_ont~16_permis~17 152
999 COSIND_0.17 152
999 COSGEN_0.17 152
117 ESRank17 152
201 ESForwSacShort 152
999 WORDS_l'hémisphère~19 180
999 WORDFREQ_0.88 180
999 WORDSALL_l'hémisphère~19 180
999 COSIND_0.16 180
999 COSGEN_0.16 180
118 ESRank18 180
202 ESForwSacLong+2+4 180
999 WORDS_l'hémisphère~19 172
999 WORDFREQ_0.88 172
999 WORDSALL_à~18_l'hémisphère~19 172
999 COSIND_0.16 172
999 COSGEN_0.16 172
119 ESRank19 172
203 ESBackSacRefixation 172
999 WORDS_Sud~20 154
999 WORDFREQ_6.62 154
999 WORDSALL_l'hémisphère~19_Sud~20 154
999 COSIND_0.05 154
999 COSGEN_0.05 154
120 ESRank20 154
201 ESForwSacShort 154
999 WORDS_rugby~24 235
999 WORDFREQ_3.11 235
999 WORDSALL_le~23_rugby~24 235
999 COSIND_0.13 235
999 COSGEN_0.13 235
202 ESForwSacLong+4+15 235
999 WORDS_dominer~22 144
999 WORDFREQ_10.34 144
999 WORDSALL_dominer~22 144
999 COSIND_0.35 144
999 COSGEN_0.35 144
206 ESBackSacRegrLong-2-4 144
999 WORDS_dominer~22 206
999 WORDFREQ_10.34 206
999 WORDSALL_de~21_dominer~22 206
999 COSIND_0.35 206
999 COSGEN_0.35 206
203 ESBackSacRefixation 206
999 WORDS_rugby~24 150
999 WORDFREQ_3.11 150
999 WORDSALL_rugby~24 150
999 COSIND_0.13 150
999 COSGEN_0.13 150
202 ESForwSacLong+2+4 150
999 WORDS_mondial~25 131
999 WORDFREQ_2.5 131
999 WORDSALL_mondial~25 131
999 COSIND_0.14 131
999 COSGEN_0.14 131
201 ESForwSacShort 131
999 WORDS_depuis~26 288
999 WORDFREQ_114.05 288
999 WORDSALL_depuis~26 288
999 COSIND_N/A 288
201 ESForwSacShort 288
999 WORDS_quelques~27 164
999 WORDFREQ_732.57 164
999 WORDSALL_quelques~27 164
999 COSIND_N/A 164
201 ESForwSacShort 164
200 ESRankN 164
199 ESRankNMinus1 288
198 ESRankNMinus2 131
197 ESRankNMinus3 150
196 ESRankNMinus4 206
195 ESRankNMinus5 144
194 ESRankNMinus6 235
193 ESRankNMinus7 154
192 ESRankNMinus8 172
191 ESRankNMinus9 180
190 ESRankNMinus10 152
