999 WORDS_américain~2 185
999 WORDFREQ_25.95 185
999 WORDSALL_américain~2 185
999 COSIND_-0.00 185
999 COSGEN_-0.00 185
101 ESRank1 185
999 WORDS_sport~5 202
999 WORDFREQ_15.54 202
999 WORDSALL_est~3_sport~5 202
999 COSIND_0.01 202
999 COSGEN_0.01 202
102 ESRank2 202
202 ESForwSacLong+3+8 202
999 WORDS_collectif~6 225
999 WORDFREQ_4.73 225
999 WORDSALL_Le~0_football~1_collectif~6 225
999 COSIND_0.04 225
999 COSGEN_0.04 225
103 ESRank3 225
201 ESForwSacShort 225
999 WORDS_connu~7 134
999 WORDFREQ_16.01 134
999 WORDSALL_football~1_américain~2_connu~7 134
999 COSIND_0.16 134
999 COSGEN_0.16 134
104 ESRank4 134
201 ESForwSacShort 134
999 WORDS_mélanger~9 199
999 WORDFREQ_3.18 199
999 WORDSALL_américain~2_mélanger~9 199
999 COSIND_-0.06 199
999 COSGEN_-0.06 199
105 ESRank5 199
202 ESForwSacLong+2+6 199
200 ESRankN 199
199 ESRankNMinus1 134
198 ESRankNMinus2 225
197 ESRankNMinus3 202
196 ESRankNMinus4 185
