999 WORDS_L'espace~0 178
999 WORDFREQ_78.58 178
999 WORDSALL_L'espace~0 178
999 COSIND_0.33 178
999 COSGEN_0.33 178
101 ESRank1 178
999 WORDS_L'espace~0 114
999 WORDFREQ_78.58 114
999 WORDSALL_L'espace~0 114
999 COSIND_0.33 114
999 COSGEN_0.33 114
102 ESRank2 114
203 ESBackSacRefixation 114
999 WORDS_évoluent~3 193
999 WORDFREQ_0.81 193
999 WORDSALL_dans~1_évoluent~3 193
999 COSIND_0.04 193
999 COSGEN_0.04 193
103 ESRank3 193
202 ESForwSacLong+3+13 193
999 WORDS_L'espace~0 153
999 WORDFREQ_78.58 153
999 WORDSALL_L'espace~0 153
999 COSIND_0.33 153
999 COSGEN_0.33 153
104 ESRank4 153
206 ESBackSacRegrLong-3-13 153
999 WORDS_L'espace~0 83
999 WORDFREQ_78.58 83
999 WORDSALL_L'espace~0 83
999 COSIND_0.33 83
999 COSGEN_0.33 83
105 ESRank5 83
203 ESBackSacRefixation 83
999 WORDS_évoluent~3 133
999 WORDFREQ_0.81 133
999 WORDSALL_lequel~2_évoluent~3 133
999 COSIND_0.04 133
999 COSGEN_0.04 133
106 ESRank6 133
202 ESForwSacLong+3+13 133
999 WORDS_évoluent~3 128
999 WORDFREQ_0.81 128
999 WORDSALL_lequel~2_évoluent~3 128
999 COSIND_0.04 128
999 COSGEN_0.04 128
107 ESRank7 128
203 ESBackSacRefixation 128
999 WORDS_évoluent~3 114
999 WORDFREQ_0.81 114
999 WORDSALL_évoluent~3 114
999 COSIND_0.04 114
999 COSGEN_0.04 114
108 ESRank8 114
203 ESBackSacRefixation 114
999 WORDS_satellites~5 206
999 WORDFREQ_1.15 206
999 WORDSALL_satellites~5 206
999 COSIND_0.59 206
999 COSGEN_0.59 206
109 ESRank9 206
202 ESForwSacLong+2+5 206
999 WORDS_autour~6 175
999 WORDFREQ_361.55 175
999 WORDSALL_autour~6 175
999 COSIND_0.09 175
999 COSGEN_0.09 175
110 ESRank10 175
201 ESForwSacShort 175
999 WORDS_planète~9 169
999 WORDFREQ_19.86 169
999 WORDSALL_de~7_planète~9 169
999 COSIND_0.38 169
999 COSGEN_0.38 169
111 ESRank11 169
202 ESForwSacLong+3+10 169
999 WORDS_planète~9 153
999 WORDFREQ_19.86 153
999 WORDSALL_planète~9 153
999 COSIND_0.38 153
999 COSGEN_0.38 153
112 ESRank12 153
203 ESBackSacRefixation 153
999 WORDS_planète~9 109
999 WORDFREQ_19.86 109
999 WORDSALL_planète~9 109
999 COSIND_0.38 109
999 COSGEN_0.38 109
113 ESRank13 109
203 ESBackSacRefixation 109
999 WORDS_jonché~11 162
999 WORDFREQ_0.07 162
999 WORDSALL_jonché~11 162
999 COSIND_0.16 162
999 COSGEN_0.16 162
114 ESRank14 162
202 ESForwSacLong+2+5 162
999 WORDS_milliers~13 194
999 WORDFREQ_40.07 194
999 WORDSALL_de~12_milliers~13 194
999 COSIND_0.01 194
999 COSGEN_0.01 194
115 ESRank15 194
202 ESForwSacLong+2+4 194
999 WORDS_débris~15 174
999 WORDFREQ_13.85 174
999 WORDSALL_de~14_débris~15 174
999 COSIND_0.42 174
999 COSGEN_0.42 174
116 ESRank16 174
202 ESForwSacLong+2+4 174
999 WORDS_toutes~17 195
999 WORDFREQ_50.47 195
999 WORDSALL_débris~15_toutes~17 195
999 COSIND_-0.05 195
999 COSGEN_-0.05 195
117 ESRank17 195
202 ESForwSacLong+2+4 195
999 WORDS_sortes~18 140
999 WORDFREQ_33.78 140
999 WORDSALL_sortes~18 140
999 COSIND_0.01 140
999 COSGEN_0.01 140
118 ESRank18 140
201 ESForwSacShort 140
999 WORDS_sortes~18 172
999 WORDFREQ_33.78 172
999 WORDSALL_sortes~18 172
999 COSIND_0.01 172
999 COSGEN_0.01 172
119 ESRank19 172
203 ESBackSacRefixation 172
999 WORDS_inquiètent~20 190
999 WORDFREQ_1.01 190
999 WORDSALL_inquiètent~20 190
999 COSIND_0.06 190
999 COSGEN_0.06 190
120 ESRank20 190
202 ESForwSacLong+2+5 190
999 WORDS_professionnels~22 186
999 WORDFREQ_3.24 186
999 WORDSALL_les~21_professionnels~22 186
999 COSIND_-0.01 186
999 COSGEN_-0.01 186
202 ESForwSacLong+2+5 186
999 WORDS_professionnels~22 96
999 WORDFREQ_3.24 96
999 WORDSALL_professionnels~22 96
999 COSIND_-0.01 96
999 COSGEN_-0.01 96
203 ESBackSacRefixation 96
200 ESRankN 96
199 ESRankNMinus1 186
198 ESRankNMinus2 190
197 ESRankNMinus3 172
196 ESRankNMinus4 140
195 ESRankNMinus5 195
194 ESRankNMinus6 174
193 ESRankNMinus7 194
192 ESRankNMinus8 162
191 ESRankNMinus9 109
190 ESRankNMinus10 153
