999 WORDS_critique~1 134
999 WORDFREQ_11.15 134
999 WORDSALL_La~0_critique~1 134
999 COSIND_0.03 134
999 COSGEN_0.03 134
101 ESRank1 134
999 WORDS_exprimée~3 156
999 WORDFREQ_1.96 156
999 WORDSALL_s'est~2_exprimée~3 156
999 COSIND_0.01 156
999 COSGEN_0.01 156
102 ESRank2 156
202 ESForwSacLong+2+7 156
999 WORDS_exprimée~3 151
999 WORDFREQ_1.96 151
999 WORDSALL_s'est~2_exprimée~3 151
999 COSIND_0.01 151
999 COSGEN_0.01 151
103 ESRank3 151
203 ESBackSacRefixation 151
999 WORDS_plus~4 124
999 WORDFREQ_5014.53 124
999 WORDSALL_exprimée~3_plus~4 124
999 COSIND_-0.04 124
999 COSGEN_-0.04 124
104 ESRank4 124
201 ESForwSacShort 124
999 WORDS_radicalement~5 161
999 WORDFREQ_3.65 161
999 WORDSALL_radicalement~5 161
999 COSIND_0.11 161
999 COSGEN_0.11 161
105 ESRank5 161
201 ESForwSacShort 161
999 WORDS_radicalement~5 105
999 WORDFREQ_3.65 105
999 WORDSALL_radicalement~5 105
999 COSIND_0.11 105
999 COSGEN_0.11 105
106 ESRank6 105
203 ESBackSacRefixation 105
999 WORDS_nature~8 140
999 WORDFREQ_93.45 140
999 WORDSALL_sur~6_nature~8 140
999 COSIND_-0.02 140
999 COSGEN_-0.02 140
107 ESRank7 140
202 ESForwSacLong+3+8 140
999 WORDS_nature~8 118
999 WORDFREQ_93.45 118
999 WORDSALL_la~7_nature~8 118
999 COSIND_-0.02 118
999 COSGEN_-0.02 118
108 ESRank8 118
203 ESBackSacRefixation 118
999 WORDS_l'idéologie~10 203
999 WORDFREQ_2.97 203
999 WORDSALL_et~9_l'idéologie~10 203
999 COSIND_-0.03 203
999 COSGEN_-0.03 203
109 ESRank9 203
202 ESForwSacLong+2+4 203
999 WORDS_l'idéologie~10 114
999 WORDFREQ_2.97 114
999 WORDSALL_l'idéologie~10 114
999 COSIND_-0.03 114
999 COSGEN_-0.03 114
110 ESRank10 114
203 ESBackSacRefixation 114
999 WORDS_projet~12 169
999 WORDFREQ_39.86 169
999 WORDSALL_du~11_projet~12 169
999 COSIND_0.07 169
999 COSGEN_0.07 169
111 ESRank11 169
202 ESForwSacLong+2+4 169
999 WORDS_projet~12 120
999 WORDFREQ_39.86 120
999 WORDSALL_du~11_projet~12 120
999 COSIND_0.07 120
999 COSGEN_0.07 120
112 ESRank12 120
203 ESBackSacRefixation 120
999 WORDS_l'idéologie~10 141
999 WORDFREQ_2.97 141
999 WORDSALL_et~9_l'idéologie~10 141
999 COSIND_-0.03 141
999 COSGEN_-0.03 141
113 ESRank13 141
206 ESBackSacRegrLong-2-4 141
999 WORDS_l'idéologie~10 218
999 WORDFREQ_2.97 218
999 WORDSALL_l'idéologie~10 218
999 COSIND_-0.03 218
999 COSGEN_-0.03 218
114 ESRank14 218
203 ESBackSacRefixation 218
999 WORDS_projet~12 99
999 WORDFREQ_39.86 99
999 WORDSALL_du~11_projet~12 99
999 COSIND_0.07 99
999 COSGEN_0.07 99
115 ESRank15 99
202 ESForwSacLong+2+4 99
999 WORDS_projet~12 159
999 WORDFREQ_39.86 159
999 WORDSALL_du~11_projet~12 159
999 COSIND_0.07 159
999 COSGEN_0.07 159
116 ESRank16 159
203 ESBackSacRefixation 159
999 WORDS_éducatif~13 193
999 WORDFREQ_0.34 193
999 WORDSALL_projet~12_éducatif~13 193
999 COSIND_0.41 193
999 COSGEN_0.41 193
117 ESRank17 193
201 ESForwSacShort 193
999 WORDS_éducatif~13 214
999 WORDFREQ_0.34 214
999 WORDSALL_éducatif~13 214
999 COSIND_0.41 214
999 COSGEN_0.41 214
118 ESRank18 214
203 ESBackSacRefixation 214
999 WORDS_débat~16 144
999 WORDFREQ_9.46 144
999 WORDSALL_Dans~14_débat~16 144
999 COSIND_0.10 144
999 COSGEN_0.10 144
119 ESRank19 144
202 ESForwSacLong+3+9 144
999 WORDS_débat~16 270
999 WORDFREQ_9.46 270
999 WORDSALL_ce~15_débat~16 270
999 COSIND_0.10 270
999 COSGEN_0.10 270
120 ESRank20 270
203 ESBackSacRefixation 270
200 ESRankN 270
199 ESRankNMinus1 144
198 ESRankNMinus2 214
197 ESRankNMinus3 193
196 ESRankNMinus4 159
195 ESRankNMinus5 99
194 ESRankNMinus6 218
193 ESRankNMinus7 141
192 ESRankNMinus8 120
191 ESRankNMinus9 169
190 ESRankNMinus10 114
