999 WORDS_L'impact~0 131
999 WORDFREQ_2.3 131
999 WORDSALL_L'impact~0 131
999 COSIND_0.38 131
999 COSGEN_0.38 131
101 ESRank1 131
999 WORDS_tourisme~2 192
999 WORDFREQ_4.66 192
999 WORDSALL_du~1_tourisme~2 192
999 COSIND_0.06 192
999 COSGEN_0.06 192
102 ESRank2 192
202 ESForwSacLong+2+4 192
999 WORDS_l'évolution~4 126
999 WORDFREQ_11.69 126
999 WORDSALL_sur~3_l'évolution~4 126
999 COSIND_0.21 126
999 COSGEN_0.21 126
103 ESRank3 126
202 ESForwSacLong+2+5 126
999 WORDS_l'évolution~4 201
999 WORDFREQ_11.69 201
999 WORDSALL_l'évolution~4 201
999 COSIND_0.21 201
999 COSGEN_0.21 201
104 ESRank4 201
203 ESBackSacRefixation 201
999 WORDS_climat~6 163
999 WORDFREQ_17.16 163
999 WORDSALL_climat~6 163
999 COSIND_0.49 163
999 COSGEN_0.49 163
105 ESRank5 163
202 ESForwSacLong+2+4 163
999 WORDS_pourrait~7 227
999 WORDFREQ_159.32 227
999 WORDSALL_pourrait~7 227
999 COSIND_0.04 227
999 COSGEN_0.04 227
106 ESRank6 227
201 ESForwSacShort 227
999 WORDS_plus~8 149
999 WORDFREQ_5014.53 149
999 WORDSALL_plus~8 149
999 COSIND_0.12 149
999 COSGEN_0.12 149
107 ESRank7 149
201 ESForwSacShort 149
999 WORDS_doubler~10 97
999 WORDFREQ_4.39 97
999 WORDSALL_plus~8_doubler~10 97
999 COSIND_0.07 97
999 COSGEN_0.07 97
108 ESRank8 97
202 ESForwSacLong+2+5 97
999 WORDS_doubler~10 128
999 WORDFREQ_4.39 128
999 WORDSALL_doubler~10 128
999 COSIND_0.07 128
999 COSGEN_0.07 128
109 ESRank9 128
203 ESBackSacRefixation 128
999 WORDS_doubler~10 113
999 WORDFREQ_4.39 113
999 WORDSALL_doubler~10 113
999 COSIND_0.07 113
999 COSGEN_0.07 113
110 ESRank10 113
203 ESBackSacRefixation 113
999 WORDS_trente~13 173
999 WORDFREQ_79.12 173
999 WORDSALL_trente~13 173
999 COSIND_0.04 173
999 COSGEN_0.04 173
111 ESRank11 173
202 ESForwSacLong+3+10 173
999 WORDS_prochaines~14 158
999 WORDFREQ_2.7 158
999 WORDSALL_prochaines~14 158
999 COSIND_0.08 158
999 COSGEN_0.08 158
112 ESRank12 158
201 ESForwSacShort 158
999 WORDS_l'effet~19 152
999 WORDFREQ_173.18 152
999 WORDSALL_l'effet~19 152
999 COSIND_0.67 152
999 COSGEN_0.67 152
113 ESRank13 152
202 ESForwSacLong+5+22 152
999 WORDS_l'effet~19 106
999 WORDFREQ_173.18 106
999 WORDSALL_l'effet~19 106
999 COSIND_0.67 106
999 COSGEN_0.67 106
114 ESRank14 106
203 ESBackSacRefixation 106
999 WORDS_serre~21 192
999 WORDFREQ_4.53 192
999 WORDSALL_de~20_serre~21 192
999 COSIND_0.82 192
999 COSGEN_0.82 192
115 ESRank15 192
202 ESForwSacLong+2+4 192
999 WORDS_produit~22 216
999 WORDFREQ_0.41 216
999 WORDSALL_produit~22 216
999 COSIND_-0.05 216
999 COSGEN_-0.05 216
116 ESRank16 216
201 ESForwSacShort 216
200 ESRankN 216
199 ESRankNMinus1 192
198 ESRankNMinus2 106
197 ESRankNMinus3 152
196 ESRankNMinus4 158
195 ESRankNMinus5 173
194 ESRankNMinus6 113
193 ESRankNMinus7 128
192 ESRankNMinus8 97
191 ESRankNMinus9 149
190 ESRankNMinus10 227
