# 137 Fixation 1 (298,299.8): L'édition~0
# 157 Fixation 2 (416,299.6): d'art~1
# 141 Fixation 3 (488.4,300.8): offre~2
# 150 Fixation 4 (597,298.1): aux~3 jeunes~4
# 109 Fixation 5 (679.8,289.8): jeunes~4 éditeurs~5
# 181 Fixation 6 (299.6,355.7): ambitieux~6
# 117 Fixation 7 (287.6,353): ambitieux~6
# 189 Fixation 8 (435,342.9): d'art~1 offre~2 grandes~8
# 157 Fixation 9 (529.4,349.8): grandes~8 satisfactions~9
# 127 Fixation 10 (273.4,401.9): ambitieux~6 peut~11
# 124 Fixation 11 (364.8,397.1): ambitieux~6 avoir~13
# 175 Fixation 12 (494.4,405): grandes~8 sentiment~15
# 197 Fixation 13 (381,463.7): y~12 avoir~13 A~21 à~22
# 144 Fixation 14 (558.3,469.4): sentiment~15 producteur~26
# 113 Fixation 15 (367.1,525.6): de~20 A~21
# 146 Fixation 16 (284.5,516.5): livres~19
%%
# L'édition~0 Fixations= "1/"
# d'art~1 Fixations= "8/"
# offre~2 Fixations= "8/"
# aux~3 Fixations= "4/"
# jeunes~4 Fixations= "5/"
# éditeurs~5 Fixations= "5/"
# ambitieux~6 Fixations= "11/"
# de~7 Fixations= ""
# grandes~8 Fixations= "12/"
# satisfactions~9 Fixations= "9/"
# on~10 Fixations= ""
# peut~11 Fixations= "10/"
# y~12 Fixations= "13/"
# avoir~13 Fixations= "13/"
# le~14 Fixations= ""
# sentiment~15 Fixations= "14/"
# de~16 Fixations= ""
# faire~17 Fixations= ""
# les~18 Fixations= ""
# livres~19 Fixations= "16/"
# de~20 Fixations= "15/"
# A~21 Fixations= "15/"
# à~22 Fixations= "13/"
# Z~23 Fixations= ""
# comme~24 Fixations= ""
# un~25 Fixations= ""
# producteur~26 Fixations= "14/"
# de~27 Fixations= ""
# Hollywood~28 Fixations= ""
# ses~29 Fixations= ""
# films~30 Fixations= ""
%%
#  L'éDITION[1] D'ART[8] OFFRE[8] AUX[4] JEUNES[5] éDITEURS[5] AMBITIEUX[11] de GRANDES[12] SATISFACTIONS[9] on PEUT[10] Y[13] AVOIR[13] le SENTIMENT[14] de faire les LIVRES[16] DE[15] A[15] à[13] Z comme un PRODUCTEUR[14] de Hollywood ses films
# s10 chasse_oiseaux-a2 PercentageOfWordsProcessed= 0.580645161290323 PercentageOfWordsReallyProcessed= 0.666666666666667
