# 147 Fixation 1 (294.9,274.1): Cette~0 grève~1
# 131 Fixation 2 (306.9,259.1): Cette~0 grève~1
# 142 Fixation 3 (473.1,202.1):
# 198 Fixation 4 (552.7,194.6):
# 277 Fixation 5 (276.4,352): affichaient~5
# 386 Fixation 6 (457,364.4): des~6 positions~7
# 156 Fixation 7 (305.9,400.9): contradictoires~11
# 292 Fixation 8 (276.5,428): contradictoires~11
# 190 Fixation 9 (661.6,364.1): et~8 objectifs~10
# 145 Fixation 10 (695.1,351.8): des~9 objectifs~10
# 149 Fixation 11 (563.1,429.7): direction~13
# 349 Fixation 12 (502.6,449.2): allait~18 pourrir~19
# 183 Fixation 13 (499.7,440.9): La~12 direction~13
# 260 Fixation 14 (651.9,426): croyait~14
# 242 Fixation 15 (288.8,493.9): le~16 mouvement~17
# 220 Fixation 16 (485.1,527.2): sur~26 recul~28
# 183 Fixation 17 (648.1,517): des~29 salariés~30
# 137 Fixation 18 (626.6,517.3): des~29 salariés~30
# 123 Fixation 19 (746.7,507.6): a~21 eu~22 tort~23
# 162 Fixation 20 (255.4,590.8): de~24 spéculer~25
# 253 Fixation 21 (294.1,588.1): de~24 spéculer~25
# 183 Fixation 22 (334,582.3): spéculer~25
# 192 Fixation 23 (499.6,598): un~27 recul~28
# 340 Fixation 24 (615.1,609.6): des~29 salariés~30
# 405 Fixation 25 (499.8,600.2): un~27 recul~28
# 200 Fixation 26 (387,258.9): grève~1
# 189 Fixation 27 (325.7,279.2): Cette~0 grève~1
%%
# Cette~0 Fixations= "27/"
# grève~1 Fixations= "27/"
# et~2 Fixations= ""
# cette~3 Fixations= ""
# manifestation~4 Fixations= ""
# affichaient~5 Fixations= "5/"
# des~6 Fixations= "6/"
# positions~7 Fixations= "6/"
# et~8 Fixations= "9/"
# des~9 Fixations= "10/"
# objectifs~10 Fixations= "10/"
# contradictoires~11 Fixations= "8/"
# La~12 Fixations= "13/"
# direction~13 Fixations= "13/"
# croyait~14 Fixations= "14/"
# que~15 Fixations= ""
# le~16 Fixations= "15/"
# mouvement~17 Fixations= "15/"
# allait~18 Fixations= "12/"
# pourrir~19 Fixations= "12/"
# Elle~20 Fixations= ""
# a~21 Fixations= "19/"
# eu~22 Fixations= "19/"
# tort~23 Fixations= "19/"
# de~24 Fixations= "21/"
# spéculer~25 Fixations= "22/"
# sur~26 Fixations= "16/"
# un~27 Fixations= "25/"
# recul~28 Fixations= "25/"
# des~29 Fixations= "24/"
# salariés~30 Fixations= "24/"
%%
#  CETTE[27] GRèVE[27] et cette manifestation AFFICHAIENT[5] DES[6] POSITIONS[6] ET[9] DES[10] OBJECTIFS[10] CONTRADICTOIRES[8] LA[13] DIRECTION[13] CROYAIT[14] que LE[15] MOUVEMENT[15] ALLAIT[12] POURRIR[12] Elle A[19] EU[19] TORT[19] DE[21] SPéCULER[22] SUR[16] UN[25] RECUL[25] DES[24] SALARIéS[24]
# s20 greve_cheminot-f1 PercentageOfWordsProcessed= 0.838709677419355 PercentageOfWordsReallyProcessed= 0.838709677419355
