# 151 Fixation 1 (475,300.5): d'un~2 laboratoire~3
# 188 Fixation 2 (630.2,296.2): japonais~4
# 116 Fixation 3 (730.7,285.4): japonais~4 a~5
# 164 Fixation 4 (327.7,335.4): au~7 point~8
# 190 Fixation 5 (426.9,341.8): un~9 logiciel~10
# 203 Fixation 6 (556.4,349.7): de~11 traitement~12
# 145 Fixation 7 (706.9,363): traitement~12 d'images~13
# 152 Fixation 8 (345.9,385.6): capable~14
# 162 Fixation 9 (421.2,400.5): de~15 deviner~16
# 196 Fixation 10 (527.2,412.3): la~17 présence~18
# 142 Fixation 11 (560.3,414.6): la~17 présence~18
# 184 Fixation 12 (678.1,419.7): de~19 mines~20
# 136 Fixation 13 (341,434.6): capable~14
# 160 Fixation 14 (321.1,438.2): capable~14
# 189 Fixation 15 (414.5,449.3): de~23 photographies~24
# 223 Fixation 16 (571.4,464.2): aériennes~25
# 260 Fixation 17 (708.8,477.7): et~26
# 310 Fixation 18 (592.8,456.5): aériennes~25
# 101 Fixation 19 (690.7,475.6): aériennes~25
# 111 Fixation 20 (342.7,481.4): partir~22
# 149 Fixation 21 (316.7,502.7): partir~22
# 157 Fixation 22 (462.8,516.6): de~29 filtrage~30
# 196 Fixation 23 (627.3,427.8): présence~18
# 154 Fixation 24 (538.8,413.7): la~17 présence~18
# 145 Fixation 25 (684.9,427.5): de~19 mines~20
# 115 Fixation 26 (317.2,437.9): capable~14
# 205 Fixation 27 (290.7,448.7): partir~22
# 126 Fixation 28 (412.4,465): de~23 photographies~24
# 158 Fixation 29 (376.8,390.3): de~15 deviner~16
# 124 Fixation 30 (436.1,403.7): deviner~16
# 238 Fixation 31 (534.9,410.3): la~17 présence~18
# 145 Fixation 32 (596.9,341.4): de~11 traitement~12
# 142 Fixation 33 (666,352.7): traitement~12
# 171 Fixation 34 (705.2,357.9): traitement~12 d'images~13
# 133 Fixation 35 (703.9,290.7): japonais~4 a~5
# 100 Fixation 36 (614.9,284.8): japonais~4
# 132 Fixation 37 (346.2,281.6): équipe~1
%%
# Une~0 Fixations= ""
# équipe~1 Fixations= "37/"
# d'un~2 Fixations= "1/"
# laboratoire~3 Fixations= "1/"
# japonais~4 Fixations= "36/"
# a~5 Fixations= "35/"
# mis~6 Fixations= ""
# au~7 Fixations= "4/"
# point~8 Fixations= "4/"
# un~9 Fixations= "5/"
# logiciel~10 Fixations= "5/"
# de~11 Fixations= "32/"
# traitement~12 Fixations= "34/"
# d'images~13 Fixations= "34/"
# capable~14 Fixations= "26/"
# de~15 Fixations= "29/"
# deviner~16 Fixations= "30/"
# la~17 Fixations= "31/"
# présence~18 Fixations= "31/"
# de~19 Fixations= "25/"
# mines~20 Fixations= "25/"
# à~21 Fixations= ""
# partir~22 Fixations= "27/"
# de~23 Fixations= "28/"
# photographies~24 Fixations= "28/"
# aériennes~25 Fixations= "19/"
# et~26 Fixations= "17/"
# d'un~27 Fixations= ""
# dispositif~28 Fixations= ""
# de~29 Fixations= "22/"
# filtrage~30 Fixations= "22/"
%%
#  Une éQUIPE[37] D'UN[1] LABORATOIRE[1] JAPONAIS[36] A[35] mis AU[4] POINT[4] UN[5] LOGICIEL[5] DE[32] TRAITEMENT[34] D'IMAGES[34] CAPABLE[26] DE[29] DEVINER[30] LA[31] PRéSENCE[31] DE[25] MINES[25] à PARTIR[27] DE[28] PHOTOGRAPHIES[28] AéRIENNES[19] ET[17] d'un dispositif DE[22] FILTRAGE[22]
# s08 observation_planetes-m2 PercentageOfWordsProcessed= 0.838709677419355 PercentageOfWordsReallyProcessed= 0.838709677419355
