# 188 Fixation 1 (287.1,253.3): Le~0 fondateur~1
# 245 Fixation 2 (521.9,267.5): la~3 guérilla~4
# 199 Fixation 3 (661.8,259.3): en~5 rébellion~6
# 170 Fixation 4 (328.9,311.1): fondateur~1
# 156 Fixation 5 (457.3,325.4): de~2 guérilla~4 autorités~9
# 210 Fixation 6 (611.6,345.4): guérilla~4 fait~11
# 251 Fixation 7 (652.7,407.6): fait~11 aucune~12 humanitaire~16
# 172 Fixation 8 (713.6,469.1): visant~17 début~26
%%
# Le~0 Fixations= "1/"
# fondateur~1 Fixations= "4/"
# de~2 Fixations= "5/"
# la~3 Fixations= "2/"
# guérilla~4 Fixations= "6/"
# en~5 Fixations= "3/"
# rébellion~6 Fixations= "3/"
# contre~7 Fixations= ""
# les~8 Fixations= ""
# autorités~9 Fixations= "5/"
# ne~10 Fixations= ""
# fait~11 Fixations= "7/"
# aucune~12 Fixations= "7/"
# allusion~13 Fixations= ""
# à~14 Fixations= ""
# l'opération~15 Fixations= ""
# humanitaire~16 Fixations= "7/"
# visant~17 Fixations= "8/"
# à~18 Fixations= ""
# remettre~19 Fixations= ""
# trois~20 Fixations= ""
# otages~21 Fixations= ""
# qui~22 Fixations= ""
# a~23 Fixations= ""
# capoté~24 Fixations= ""
# en~25 Fixations= ""
# début~26 Fixations= "8/"
# de~27 Fixations= ""
# semaine~28 Fixations= ""
# dernière~29 Fixations= ""
%%
#  LE[1] FONDATEUR[4] DE[5] LA[2] GUéRILLA[6] EN[3] RéBELLION[3] contre les AUTORITéS[5] ne FAIT[7] AUCUNE[7] allusion à l'opération HUMANITAIRE[7] VISANT[8] à remettre trois otages qui a capoté en DéBUT[8] de semaine dernière
# s17 course_voiliers-a2 PercentageOfWordsProcessed= 0.433333333333333 PercentageOfWordsReallyProcessed= 0.481481481481481
