# 191 Fixation 1 (297.2,297.1): Il~0 pleut~1
# 189 Fixation 2 (300.4,284.3): Il~0 pleut~1
# 179 Fixation 3 (391.2,285.5): pleut~1
# 373 Fixation 4 (340.4,274.8): pleut~1
# 192 Fixation 5 (657.5,274.8): il~5 fait~6
# 220 Fixation 6 (641.5,289.7): il~5 fait~6
# 131 Fixation 7 (479.2,334.9): encore~11 courts~12
# 122 Fixation 8 (429.9,353): sont~10
# 342 Fixation 9 (620.5,360.6): courts~12 A~13
# 120 Fixation 10 (410,385.6): forsythias~16
# 94 Fixation 11 (387.4,405.1): forsythias~16
# 355 Fixation 12 (293.4,407.3): quelques~15 forsythias~16
# 266 Fixation 13 (459,426): forsythias~16
# 157 Fixation 14 (495.3,427.1): forsythias~16 héroïques~17
# 146 Fixation 15 (554.2,476.5): printemps~23 rase~24
%%
# Il~0 Fixations= "2/"
# pleut~1 Fixations= "4/"
# sur~2 Fixations= ""
# la~3 Fixations= ""
# Haute-Saône~4 Fixations= ""
# il~5 Fixations= "6/"
# fait~6 Fixations= "6/"
# froid~7 Fixations= ""
# les~8 Fixations= ""
# jours~9 Fixations= ""
# sont~10 Fixations= "8/"
# encore~11 Fixations= "7/"
# courts~12 Fixations= "9/"
# A~13 Fixations= "9/"
# part~14 Fixations= ""
# quelques~15 Fixations= "12/"
# forsythias~16 Fixations= "14/"
# héroïques~17 Fixations= "14/"
# les~18 Fixations= ""
# arbustes~19 Fixations= ""
# sont~20 Fixations= ""
# nus~21 Fixations= ""
# le~22 Fixations= ""
# printemps~23 Fixations= "15/"
# rase~24 Fixations= "15/"
# les~25 Fixations= ""
# murs~26 Fixations= ""
%%
#  IL[2] PLEUT[4] sur la Haute-Saône IL[6] FAIT[6] froid les jours SONT[8] ENCORE[7] COURTS[9] A[9] part QUELQUES[12] FORSYTHIAS[14] HéROïQUES[14] les arbustes sont nus le PRINTEMPS[15] RASE[15] les murs
# s14 plantation_fleurs-m1 PercentageOfWordsProcessed= 0.481481481481481 PercentageOfWordsReallyProcessed= 0.52
