999 WORDS_Toutes~0 223
999 WORDFREQ_50.47 223
999 WORDSALL_Toutes~0 223
999 COSIND_0.04 223
999 COSGEN_0.04 223
101 ESRank1 223
999 WORDS_hélices~1 269
999 WORDFREQ_1.49 269
999 WORDSALL_Toutes~0_hélices~1 269
999 COSIND_-0.00 269
999 COSGEN_-0.00 269
102 ESRank2 269
201 ESForwSacShort 269
999 WORDS_Toutes~0 135
999 WORDFREQ_50.47 135
999 WORDSALL_Toutes~0 135
999 COSIND_0.04 135
999 COSGEN_0.04 135
103 ESRank3 135
205 ESBackSacRegrShort 135
999 WORDS_Toutes~0 244
999 WORDFREQ_50.47 244
999 WORDSALL_Toutes~0 244
999 COSIND_0.04 244
999 COSGEN_0.04 244
104 ESRank4 244
203 ESBackSacRefixation 244
999 WORDS_dehors~2 284
999 WORDFREQ_109.05 284
999 WORDSALL_hélices~1_dehors~2 284
999 COSIND_-0.02 284
999 COSGEN_-0.02 284
105 ESRank5 284
202 ESForwSacLong+2+10 284
999 WORDS_dehors~2 179
999 WORDFREQ_109.05 179
999 WORDSALL_dehors~2 179
999 COSIND_-0.02 179
999 COSGEN_-0.02 179
106 ESRank6 179
203 ESBackSacRefixation 179
999 WORDS_bigarré~3 379
999 WORDFREQ_0.34 379
999 WORDSALL_dehors~2_bigarré~3 379
999 COSIND_-0.08 379
999 COSGEN_-0.08 379
107 ESRank7 379
201 ESForwSacShort 379
999 WORDS_comme~4 195
999 WORDFREQ_3429.32 195
999 WORDSALL_comme~4 195
999 COSIND_N/A 195
108 ESRank8 195
201 ESForwSacShort 195
999 WORDS_Antonov~15 237
999 WORDFREQ_N/A 237
999 WORDSALL_plus~9_l'être~10_Antonov~15 237
999 COSIND_N/A 237
109 ESRank9 237
202 ESForwSacLong+11+78 237
999 WORDS_militaire~14 205
999 WORDFREQ_69.19 205
999 WORDSALL_plus~9_militaire~14 205
999 COSIND_-0.03 205
999 COSGEN_-0.03 205
110 ESRank10 205
205 ESBackSacRegrShort 205
999 WORDS_Bourget~22 99
999 WORDFREQ_N/A 99
999 WORDSALL_Bourget~22 99
999 COSIND_N/A 99
111 ESRank11 99
202 ESForwSacLong+8+36 99
999 WORDS_l'Hercules~29 161
999 WORDFREQ_0.27 161
999 WORDSALL_salon~20_Bourget~22_l'Hercules~29 161
999 COSIND_-0.08 161
999 COSGEN_-0.08 161
112 ESRank12 161
202 ESForwSacLong+7+29 161
999 WORDS_l'Hercules~29 172
999 WORDFREQ_0.27 172
999 WORDSALL_salon~20_Bourget~22_l'Hercules~29 172
999 COSIND_-0.08 172
999 COSGEN_-0.08 172
113 ESRank13 172
203 ESBackSacRefixation 172
999 WORDS_C-130J~30 240
999 WORDFREQ_N/A 240
999 WORDSALL_Bourget~22_C-130J~30 240
999 COSIND_N/A 240
114 ESRank14 240
201 ESForwSacShort 240
200 ESRankN 240
199 ESRankNMinus1 172
198 ESRankNMinus2 161
197 ESRankNMinus3 99
196 ESRankNMinus4 205
195 ESRankNMinus5 237
194 ESRankNMinus6 195
193 ESRankNMinus7 379
192 ESRankNMinus8 179
191 ESRankNMinus9 284
190 ESRankNMinus10 244
