999 WORDS_représentant~1 223
999 WORDFREQ_12.3 223
999 WORDSALL_représentant~1 223
999 COSIND_0.14 223
999 COSGEN_0.14 223
101 ESRank1 223
999 WORDS_représentant~1 129
999 WORDFREQ_12.3 129
999 WORDSALL_Le~0_représentant~1 129
999 COSIND_0.14 129
999 COSGEN_0.14 129
102 ESRank2 129
203 ESBackSacRefixation 129
999 WORDS_représentant~1 161
999 WORDFREQ_12.3 161
999 WORDSALL_Le~0_représentant~1 161
999 COSIND_0.14 161
999 COSGEN_0.14 161
103 ESRank3 161
203 ESBackSacRefixation 161
999 WORDS_consortium~3 293
999 WORDFREQ_0.07 293
999 WORDSALL_du~2_consortium~3 293
999 COSIND_0.29 293
999 COSGEN_0.29 293
104 ESRank4 293
202 ESForwSacLong+2+4 293
999 WORDS_consortium~3 374
999 WORDFREQ_0.07 374
999 WORDSALL_du~2_consortium~3 374
999 COSIND_0.29 374
999 COSGEN_0.29 374
105 ESRank5 374
203 ESBackSacRefixation 374
999 WORDS_consortium~3 175
999 WORDFREQ_0.07 175
999 WORDSALL_du~2_consortium~3 175
999 COSIND_0.29 175
999 COSGEN_0.29 175
106 ESRank6 175
203 ESBackSacRefixation 175
999 WORDS_consortium~3 320
999 WORDFREQ_0.07 320
999 WORDSALL_consortium~3 320
999 COSIND_0.29 320
999 COSGEN_0.29 320
107 ESRank7 320
203 ESBackSacRefixation 320
999 WORDS_aéronautique~4 161
999 WORDFREQ_0.07 161
999 WORDSALL_aéronautique~4 161
999 COSIND_0.60 161
999 COSGEN_0.60 161
108 ESRank8 161
201 ESForwSacShort 161
999 WORDS_européen~5 309
999 WORDFREQ_3.78 309
999 WORDSALL_européen~5 309
999 COSIND_0.09 309
999 COSGEN_0.09 309
109 ESRank9 309
201 ESForwSacShort 309
999 WORDS_pouvait~6 261
999 WORDFREQ_445 261
999 WORDSALL_européen~5_pouvait~6 261
999 COSIND_-0.01 261
999 COSGEN_-0.01 261
110 ESRank10 261
201 ESForwSacShort 261
999 WORDS_parader~7 553
999 WORDFREQ_0.81 553
999 WORDSALL_pouvait~6_parader~7 553
999 COSIND_0.02 553
999 COSGEN_0.02 553
111 ESRank11 553
201 ESForwSacShort 553
999 WORDS_stands~10 144
999 WORDFREQ_1.08 144
999 WORDSALL_dans~8_stands~10 144
999 COSIND_0.55 144
999 COSGEN_0.55 144
112 ESRank12 144
202 ESForwSacLong+3+10 144
999 WORDS_parader~7 163
999 WORDFREQ_0.81 163
999 WORDSALL_parader~7 163
999 COSIND_0.02 163
999 COSGEN_0.02 163
113 ESRank13 163
206 ESBackSacRegrLong-3-10 163
999 WORDS_parader~7 342
999 WORDFREQ_0.81 342
999 WORDSALL_pouvait~6_parader~7 342
999 COSIND_0.02 342
999 COSGEN_0.02 342
114 ESRank14 342
203 ESBackSacRefixation 342
999 WORDS_stands~10 277
999 WORDFREQ_1.08 277
999 WORDSALL_dans~8_stands~10 277
999 COSIND_0.55 277
999 COSGEN_0.55 277
115 ESRank15 277
202 ESForwSacLong+3+10 277
999 WORDS_stands~10 154
999 WORDFREQ_1.08 154
999 WORDSALL_les~9_stands~10 154
999 COSIND_0.55 154
999 COSGEN_0.55 154
116 ESRank16 154
203 ESBackSacRefixation 154
999 WORDS_parader~7 216
999 WORDFREQ_0.81 216
999 WORDSALL_parader~7 216
999 COSIND_0.02 216
999 COSGEN_0.02 216
117 ESRank17 216
206 ESBackSacRegrLong-3-10 216
999 WORDS_Airbus~11 398
999 WORDFREQ_0 398
999 WORDSALL_Airbus~11 398
999 COSIND_N/A 398
118 ESRank18 398
202 ESForwSacLong+4+17 398
999 WORDS_reçu~13 228
999 WORDFREQ_56.15 228
999 WORDSALL_a~12_reçu~13 228
999 COSIND_-0.00 228
999 COSGEN_-0.00 228
119 ESRank19 228
202 ESForwSacLong+2+3 228
999 WORDS_commande~15 219
999 WORDFREQ_12.64 219
999 WORDSALL_commande~15 219
999 COSIND_0.37 219
999 COSGEN_0.37 219
120 ESRank20 219
202 ESForwSacLong+2+5 219
999 WORDS_commande~15 178
999 WORDFREQ_12.64 178
999 WORDSALL_une~14_commande~15 178
999 COSIND_0.37 178
999 COSGEN_0.37 178
203 ESBackSacRefixation 178
999 WORDS_52~17 317
999 WORDFREQ_N/A 317
999 WORDSALL_de~16_52~17 317
999 COSIND_N/A 317
202 ESForwSacLong+2+4 317
999 WORDS_premier~21 274
999 WORDFREQ_237.91 274
999 WORDSALL_le~20_premier~21 274
999 COSIND_-0.00 274
999 COSGEN_-0.00 274
202 ESForwSacLong+4+16 274
200 ESRankN 274
199 ESRankNMinus1 317
198 ESRankNMinus2 178
197 ESRankNMinus3 219
196 ESRankNMinus4 228
195 ESRankNMinus5 398
194 ESRankNMinus6 216
193 ESRankNMinus7 154
192 ESRankNMinus8 277
191 ESRankNMinus9 342
190 ESRankNMinus10 163
