999 WORDS_L'édition~0 257
999 WORDFREQ_10.61 257
999 WORDSALL_L'édition~0 257
999 COSIND_-0.04 257
999 COSGEN_-0.04 257
101 ESRank1 257
999 WORDS_L'édition~0 137
999 WORDFREQ_10.61 137
999 WORDSALL_L'édition~0 137
999 COSIND_-0.04 137
999 COSGEN_-0.04 137
102 ESRank2 137
203 ESBackSacRefixation 137
999 WORDS_offre~2 199
999 WORDFREQ_29.8 199
999 WORDSALL_d'art~1_offre~2 199
999 COSIND_-0.00 199
999 COSGEN_-0.00 199
103 ESRank3 199
202 ESForwSacLong+2+7 199
999 WORDS_d'art~1 235
999 WORDFREQ_81.49 235
999 WORDSALL_L'édition~0_d'art~1 235
999 COSIND_0.07 235
999 COSGEN_0.07 235
104 ESRank4 235
205 ESBackSacRegrShort 235
999 WORDS_jeunes~4 180
999 WORDFREQ_30.14 180
999 WORDSALL_aux~3_jeunes~4 180
999 COSIND_0.03 180
999 COSGEN_0.03 180
105 ESRank5 180
202 ESForwSacLong+3+11 180
999 WORDS_jeunes~4 146
999 WORDFREQ_30.14 146
999 WORDSALL_jeunes~4 146
999 COSIND_0.03 146
999 COSGEN_0.03 146
106 ESRank6 146
203 ESBackSacRefixation 146
999 WORDS_ 153
999 WORDFREQ_ 153
999 WORDSALL_ 153
107 ESRank7 153
999 WORDS_ambitieux~6 165
999 WORDFREQ_3.72 165
999 WORDSALL_L'édition~0_ambitieux~6 165
999 COSIND_-0.06 165
999 COSGEN_-0.06 165
108 ESRank8 165
999 WORDS_ambitieux~6 235
999 WORDFREQ_3.72 235
999 WORDSALL_ambitieux~6 235
999 COSIND_-0.06 235
999 COSGEN_-0.06 235
109 ESRank9 235
203 ESBackSacRefixation 235
999 WORDS_grandes~8 257
999 WORDFREQ_126.49 257
999 WORDSALL_d'art~1_offre~2_grandes~8 257
999 COSIND_0.03 257
999 COSGEN_0.03 257
110 ESRank10 257
202 ESForwSacLong+2+4 257
999 WORDS_satisfactions~9 253
999 WORDFREQ_4.12 253
999 WORDSALL_offre~2_jeunes~4_satisfactions~9 253
999 COSIND_-0.03 253
999 COSGEN_-0.03 253
111 ESRank11 253
201 ESForwSacShort 253
999 WORDS_peut~11 199
999 WORDFREQ_508.99 199
999 WORDSALL_peut~11 199
999 COSIND_-0.06 199
999 COSGEN_-0.06 199
112 ESRank12 199
202 ESForwSacLong+2+4 199
999 WORDS_sentiment~15 358
999 WORDFREQ_106.42 358
999 WORDSALL_le~14_sentiment~15 358
999 COSIND_0.01 358
999 COSGEN_0.01 358
113 ESRank13 358
202 ESForwSacLong+4+12 358
999 WORDS_faire~17 185
999 WORDFREQ_1555.14 185
999 WORDSALL_de~16_faire~17 185
999 COSIND_0.04 185
999 COSGEN_0.04 185
114 ESRank14 185
202 ESForwSacLong+2+4 185
999 WORDS_livres~19 161
999 WORDFREQ_134.73 161
999 WORDSALL_peut~11_livres~19 161
999 COSIND_-0.00 161
999 COSGEN_-0.00 161
115 ESRank15 161
202 ESForwSacLong+2+5 161
999 WORDS_livres~19 184
999 WORDFREQ_134.73 184
999 WORDSALL_livres~19 184
999 COSIND_-0.00 184
999 COSGEN_-0.00 184
116 ESRank16 184
203 ESBackSacRefixation 184
999 WORDS_Hollywood~28 159
999 WORDFREQ_N/A 159
999 WORDSALL_livres~19_Hollywood~28 159
999 COSIND_N/A 159
117 ESRank17 159
202 ESForwSacLong+9+34 159
200 ESRankN 159
199 ESRankNMinus1 184
198 ESRankNMinus2 161
197 ESRankNMinus3 185
196 ESRankNMinus4 358
195 ESRankNMinus5 199
194 ESRankNMinus6 253
193 ESRankNMinus7 257
192 ESRankNMinus8 235
191 ESRankNMinus9 165
190 ESRankNMinus10 153
