999 WORDS_formule~1 157
999 WORDFREQ_22.84 157
999 WORDSALL_La~0_formule~1 157
999 COSIND_0.07 157
999 COSGEN_0.07 157
101 ESRank1 157
999 WORDS_formule~1 204
999 WORDFREQ_22.84 204
999 WORDSALL_La~0_formule~1 204
999 COSIND_0.07 204
999 COSGEN_0.07 204
102 ESRank2 204
203 ESBackSacRefixation 204
999 WORDS_1~2 401
999 WORDFREQ_N/A 401
999 WORDSALL_formule~1_1~2 401
999 COSIND_N/A 401
103 ESRank3 401
201 ESForwSacShort 401
999 WORDS_réclamé~4 160
999 WORDFREQ_2.64 160
999 WORDSALL_1~2_a~3_réclamé~4 160
999 COSIND_0.02 160
999 COSGEN_0.02 160
104 ESRank4 160
202 ESForwSacLong+2+3 160
999 WORDS_a~3 283
999 WORDFREQ_2926.69 283
999 WORDSALL_formule~1_1~2_a~3 283
999 COSIND_N/A 283
105 ESRank5 283
205 ESBackSacRegrShort 283
999 WORDS_1~2 264
999 WORDFREQ_N/A 264
999 WORDSALL_formule~1_1~2 264
999 COSIND_N/A 264
106 ESRank6 264
205 ESBackSacRegrShort 264
999 WORDS_1~2 587
999 WORDFREQ_N/A 587
999 WORDSALL_formule~1_1~2 587
999 COSIND_N/A 587
107 ESRank7 587
203 ESBackSacRefixation 587
999 WORDS_formule~1 112
999 WORDFREQ_22.84 112
999 WORDSALL_La~0_formule~1 112
999 COSIND_0.07 112
999 COSGEN_0.07 112
108 ESRank8 112
205 ESBackSacRegrShort 112
999 WORDS_a~3 286
999 WORDFREQ_2926.69 286
999 WORDSALL_formule~1_1~2_a~3 286
999 COSIND_N/A 286
109 ESRank9 286
202 ESForwSacLong+2+3 286
999 WORDS_réclamé~4 198
999 WORDFREQ_2.64 198
999 WORDSALL_1~2_a~3_réclamé~4 198
999 COSIND_0.02 198
999 COSGEN_0.02 198
110 ESRank10 198
201 ESForwSacShort 198
999 WORDS_a~3 207
999 WORDFREQ_2926.69 207
999 WORDSALL_1~2_a~3 207
999 COSIND_N/A 207
111 ESRank11 207
205 ESBackSacRegrShort 207
999 WORDS_réclamé~4 168
999 WORDFREQ_2.64 168
999 WORDSALL_1~2_a~3_réclamé~4 168
999 COSIND_0.02 168
999 COSGEN_0.02 168
112 ESRank12 168
201 ESForwSacShort 168
999 WORDS_pilotes~7 338
999 WORDFREQ_3.11 338
999 WORDSALL_de~5_pilotes~7 338
999 COSIND_0.26 338
999 COSGEN_0.26 338
113 ESRank13 338
202 ESForwSacLong+3+8 338
999 WORDS_pilotes~7 170
999 WORDFREQ_3.11 170
999 WORDSALL_ses~6_pilotes~7 170
999 COSIND_0.26 170
999 COSGEN_0.26 170
114 ESRank14 170
203 ESBackSacRefixation 170
999 WORDS_soient~9 224
999 WORDFREQ_32.03 224
999 WORDSALL_qu'ils~8_soient~9 224
999 COSIND_0.04 224
999 COSGEN_0.04 224
115 ESRank15 224
202 ESForwSacLong+2+8 224
999 WORDS_qu'ils~8 154
999 WORDFREQ_N/A 154
999 WORDSALL_qu'ils~8 154
999 COSIND_N/A 154
116 ESRank16 154
205 ESBackSacRegrShort 154
999 WORDS_plus~11 235
999 WORDFREQ_5014.53 235
999 WORDSALL_les~10_plus~11 235
999 COSIND_0.01 235
999 COSGEN_0.01 235
117 ESRank17 235
202 ESForwSacLong+3+12 235
200 ESRankN 235
199 ESRankNMinus1 154
198 ESRankNMinus2 224
197 ESRankNMinus3 170
196 ESRankNMinus4 338
195 ESRankNMinus5 168
194 ESRankNMinus6 207
193 ESRankNMinus7 198
192 ESRankNMinus8 286
191 ESRankNMinus9 112
190 ESRankNMinus10 587
