999 WORDS_direction~1 147
999 WORDFREQ_103.04 147
999 WORDSALL_direction~1 147
999 COSIND_0.55 147
999 COSGEN_0.55 147
101 ESRank1 147
999 WORDS_direction~1 82
999 WORDFREQ_103.04 82
999 WORDSALL_La~0_direction~1 82
999 COSIND_0.55 82
999 COSGEN_0.55 82
102 ESRank2 82
203 ESBackSacRefixation 82
999 WORDS_l'entreprise~3 108
999 WORDFREQ_29.05 108
999 WORDSALL_de~2_l'entreprise~3 108
999 COSIND_-0.07 108
999 COSGEN_-0.07 108
103 ESRank3 108
202 ESForwSacLong+2+4 108
999 WORDS_confirme~4 213
999 WORDFREQ_3.92 213
999 WORDSALL_l'entreprise~3_confirme~4 213
999 COSIND_-0.03 213
999 COSGEN_-0.03 213
104 ESRank4 213
201 ESForwSacShort 213
999 WORDS_l'existence~5 228
999 WORDFREQ_93.85 228
999 WORDSALL_l'existence~5 228
999 COSIND_-0.04 228
999 COSGEN_-0.04 228
105 ESRank5 228
201 ESForwSacShort 228
999 WORDS_document~7 231
999 WORDFREQ_6.69 231
999 WORDSALL_du~6_document~7 231
999 COSIND_-0.04 231
999 COSGEN_-0.04 231
106 ESRank6 231
202 ESForwSacLong+2+4 231
999 WORDS_incriminé~8 267
999 WORDFREQ_0.07 267
999 WORDSALL_document~7_incriminé~8 267
999 COSIND_-0.00 267
999 COSGEN_-0.00 267
107 ESRank7 267
201 ESForwSacShort 267
999 WORDS_document~7 137
999 WORDFREQ_6.69 137
999 WORDSALL_du~6_document~7 137
999 COSIND_-0.04 137
999 COSGEN_-0.04 137
108 ESRank8 137
205 ESBackSacRegrShort 137
999 WORDS_incriminé~8 227
999 WORDFREQ_0.07 227
999 WORDSALL_incriminé~8 227
999 COSIND_-0.00 227
999 COSGEN_-0.00 227
109 ESRank9 227
201 ESForwSacShort 227
999 WORDS_jugeant~9 166
999 WORDFREQ_3.72 166
999 WORDSALL_jugeant~9 166
999 COSIND_0.00 166
999 COSGEN_0.00 166
110 ESRank10 166
201 ESForwSacShort 166
999 WORDS_l'initiative~11 110
999 WORDFREQ_14.46 110
999 WORDSALL_que~10_l'initiative~11 110
999 COSIND_0.12 110
999 COSGEN_0.12 110
111 ESRank11 110
202 ESForwSacLong+2+5 110
999 WORDS_collaborateur~13 83
999 WORDFREQ_3.78 83
999 WORDSALL_d'un~12_collaborateur~13 83
999 COSIND_-0.02 83
999 COSGEN_-0.02 83
112 ESRank12 83
202 ESForwSacLong+2+6 83
999 WORDS_externe~14 198
999 WORDFREQ_0.54 198
999 WORDSALL_collaborateur~13_externe~14 198
999 COSIND_0.05 198
999 COSGEN_0.05 198
113 ESRank13 198
201 ESForwSacShort 198
999 WORDS_collaborateur~13 186
999 WORDFREQ_3.78 186
999 WORDSALL_collaborateur~13 186
999 COSIND_-0.02 186
999 COSGEN_-0.02 186
114 ESRank14 186
205 ESBackSacRegrShort 186
999 WORDS_externe~14 104
999 WORDFREQ_0.54 104
999 WORDSALL_externe~14 104
999 COSIND_0.05 104
999 COSGEN_0.05 104
115 ESRank15 104
201 ESForwSacShort 104
999 WORDS_processus~16 168
999 WORDFREQ_5.47 168
999 WORDSALL_processus~16 168
999 COSIND_0.00 168
999 COSGEN_0.00 168
116 ESRank16 168
202 ESForwSacLong+2+4 168
999 WORDS_processus~16 133
999 WORDFREQ_5.47 133
999 WORDSALL_au~15_processus~16 133
999 COSIND_0.00 133
999 COSGEN_0.00 133
117 ESRank17 133
203 ESBackSacRefixation 133
999 WORDS_recrutement~18 270
999 WORDFREQ_3.51 270
999 WORDSALL_de~17_recrutement~18 270
999 COSIND_0.01 270
999 COSGEN_0.01 270
118 ESRank18 270
202 ESForwSacLong+2+4 270
999 WORDS_inadmissible~20 322
999 WORDFREQ_2.64 322
999 WORDSALL_inadmissible~20 322
999 COSIND_0.19 322
999 COSGEN_0.19 322
119 ESRank19 322
202 ESForwSacLong+2+5 322
999 WORDS_recrutement~18 239
999 WORDFREQ_3.51 239
999 WORDSALL_recrutement~18 239
999 COSIND_0.01 239
999 COSGEN_0.01 239
120 ESRank20 239
206 ESBackSacRegrLong-2-5 239
999 WORDS_collaborateur~13 185
999 WORDFREQ_3.78 185
999 WORDSALL_d'un~12_collaborateur~13 185
999 COSIND_-0.02 185
999 COSGEN_-0.02 185
206 ESBackSacRegrLong-5-25 185
999 WORDS_collaborateur~13 163
999 WORDFREQ_3.78 163
999 WORDSALL_d'un~12_collaborateur~13 163
999 COSIND_-0.02 163
999 COSGEN_-0.02 163
203 ESBackSacRefixation 163
999 WORDS_l'initiative~11 266
999 WORDFREQ_14.46 266
999 WORDSALL_l'initiative~11 266
999 COSIND_0.12 266
999 COSGEN_0.12 266
206 ESBackSacRegrLong-2-6 266
999 WORDS_l'initiative~11 200
999 WORDFREQ_14.46 200
999 WORDSALL_que~10_l'initiative~11 200
999 COSIND_0.12 200
999 COSGEN_0.12 200
203 ESBackSacRefixation 200
999 WORDS_externe~14 117
999 WORDFREQ_0.54 117
999 WORDSALL_externe~14 117
999 COSIND_0.05 117
999 COSGEN_0.05 117
202 ESForwSacLong+3+20 117
999 WORDS_processus~16 221
999 WORDFREQ_5.47 221
999 WORDSALL_processus~16 221
999 COSIND_0.00 221
999 COSGEN_0.00 221
202 ESForwSacLong+2+4 221
999 WORDS_recrutement~18 92
999 WORDFREQ_3.51 92
999 WORDSALL_de~17_recrutement~18 92
999 COSIND_0.01 92
999 COSGEN_0.01 92
202 ESForwSacLong+2+4 92
999 WORDS_recrutement~18 84
999 WORDFREQ_3.51 84
999 WORDSALL_recrutement~18 84
999 COSIND_0.01 84
999 COSGEN_0.01 84
203 ESBackSacRefixation 84
999 WORDS_processus~16 164
999 WORDFREQ_5.47 164
999 WORDSALL_au~15_processus~16 164
999 COSIND_0.00 164
999 COSGEN_0.00 164
206 ESBackSacRegrLong-2-4 164
999 WORDS_collaborateur~13 252
999 WORDFREQ_3.78 252
999 WORDSALL_collaborateur~13 252
999 COSIND_-0.02 252
999 COSGEN_-0.02 252
206 ESBackSacRegrLong-3-12 252
999 WORDS_collaborateur~13 164
999 WORDFREQ_3.78 164
999 WORDSALL_collaborateur~13 164
999 COSIND_-0.02 164
999 COSGEN_-0.02 164
203 ESBackSacRefixation 164
999 WORDS_externe~14 86
999 WORDFREQ_0.54 86
999 WORDSALL_externe~14 86
999 COSIND_0.05 86
999 COSGEN_0.05 86
201 ESForwSacShort 86
999 WORDS_processus~16 156
999 WORDFREQ_5.47 156
999 WORDSALL_au~15_processus~16 156
999 COSIND_0.00 156
999 COSGEN_0.00 156
202 ESForwSacLong+2+4 156
999 WORDS_inadmissible~20 158
999 WORDFREQ_2.64 158
999 WORDSALL_inadmissible~20 158
999 COSIND_0.19 158
999 COSGEN_0.19 158
202 ESForwSacLong+4+20 158
999 WORDS_cautionne~23 246
999 WORDFREQ_0 246
999 WORDSALL_Elle~21_cautionne~23 246
999 COSIND_0.08 246
999 COSGEN_0.08 246
202 ESForwSacLong+3+9 246
999 WORDS_cautionne~23 86
999 WORDFREQ_0 86
999 WORDSALL_ne~22_cautionne~23 86
999 COSIND_0.08 86
999 COSGEN_0.08 86
203 ESBackSacRefixation 86
999 WORDS_absolument~24 128
999 WORDFREQ_63.45 128
999 WORDSALL_absolument~24 128
999 COSIND_-0.10 128
999 COSGEN_-0.10 128
201 ESForwSacShort 128
999 WORDS_action~27 218
999 WORDFREQ_72.91 218
999 WORDSALL_pas~25_action~27 218
999 COSIND_0.02 218
999 COSGEN_0.02 218
202 ESForwSacLong+3+11 218
999 WORDS_action~27 159
999 WORDFREQ_72.91 159
999 WORDSALL_cette~26_action~27 159
999 COSIND_0.02 159
999 COSGEN_0.02 159
203 ESBackSacRefixation 159
999 WORDS_direction~1 137
999 WORDFREQ_103.04 137
999 WORDSALL_direction~1 137
999 COSIND_0.55 137
999 COSGEN_0.55 137
206 ESBackSacRegrLong-26-197 137
999 WORDS_direction~1 187
999 WORDFREQ_103.04 187
999 WORDSALL_La~0_direction~1 187
999 COSIND_0.55 187
999 COSGEN_0.55 187
203 ESBackSacRefixation 187
200 ESRankN 187
199 ESRankNMinus1 137
198 ESRankNMinus2 159
197 ESRankNMinus3 218
196 ESRankNMinus4 128
195 ESRankNMinus5 86
194 ESRankNMinus6 246
193 ESRankNMinus7 158
192 ESRankNMinus8 156
191 ESRankNMinus9 86
190 ESRankNMinus10 164
