# 150 Fixation 1 (278.7,234.6): Plusieurs~0
# 204 Fixation 2 (404,240.5): tribunaux~1
# 280 Fixation 3 (553.8,230.5): administratifs~2
# 194 Fixation 4 (264.8,342.6): sommé~4
# 218 Fixation 5 (392.3,336.3): les~5 préfets~6
# 289 Fixation 6 (533.5,342.1): de~7 treize~8
# 198 Fixation 7 (676.5,280.5): administratifs~2 ont~3
# 244 Fixation 8 (292,400.8): prendre~11
# 257 Fixation 9 (447.1,409.8): arrêtés~13
# 323 Fixation 10 (554.5,406): de~14 fermeture~15
# 180 Fixation 11 (301.4,432.3): prendre~11
# 128 Fixation 12 (285.7,455.3): chasse~18
# 177 Fixation 13 (417.6,462.5): aux~19 oiseaux~20
# 174 Fixation 14 (532.6,478): migrateurs~21
# 179 Fixation 15 (500.3,480.5): oiseaux~20 migrateurs~21
%%
# Plusieurs~0 Fixations= "1/"
# tribunaux~1 Fixations= "2/"
# administratifs~2 Fixations= "7/"
# ont~3 Fixations= "7/"
# sommé~4 Fixations= "4/"
# les~5 Fixations= "5/"
# préfets~6 Fixations= "5/"
# de~7 Fixations= "6/"
# treize~8 Fixations= "6/"
# départements~9 Fixations= ""
# de~10 Fixations= ""
# prendre~11 Fixations= "11/"
# des~12 Fixations= ""
# arrêtés~13 Fixations= "9/"
# de~14 Fixations= "10/"
# fermeture~15 Fixations= "10/"
# de~16 Fixations= ""
# la~17 Fixations= ""
# chasse~18 Fixations= "12/"
# aux~19 Fixations= "13/"
# oiseaux~20 Fixations= "15/"
# migrateurs~21 Fixations= "15/"
# au~22 Fixations= ""
# 31~23 Fixations= ""
# janvier~24 Fixations= ""
# réduisant~25 Fixations= ""
# de~26 Fixations= ""
# trois~27 Fixations= ""
# semaines~28 Fixations= ""
# la~29 Fixations= ""
# durée~30 Fixations= ""
# de~31 Fixations= ""
# la~32 Fixations= ""
# chasse~33 Fixations= ""
%%
#  PLUSIEURS[1] TRIBUNAUX[2] ADMINISTRATIFS[7] ONT[7] SOMMé[4] LES[5] PRéFETS[5] DE[6] TREIZE[6] départements de PRENDRE[11] des ARRêTéS[9] DE[10] FERMETURE[10] de la CHASSE[12] AUX[13] OISEAUX[15] MIGRATEURS[15] au 31 janvier réduisant de trois semaines la durée de la chasse
# s20 chasse_oiseaux-f2 PercentageOfWordsProcessed= 0.5 PercentageOfWordsReallyProcessed= 0.772727272727273
