# 86 Fixation 1 (348.7,272.9): fondateur~1
# 132 Fixation 2 (468,282.7): de~2 guérilla~4
# 159 Fixation 3 (538.7,284.4): guérilla~4
# 146 Fixation 4 (584.9,285.5): guérilla~4
# 357 Fixation 5 (685.7,280.6): en~5 rébellion~6
# 172 Fixation 6 (271.3,337.8): Le~0 fondateur~1
# 157 Fixation 7 (380.8,332.9): fondateur~1 autorités~9
# 181 Fixation 8 (443.5,334.2): de~2 guérilla~4 autorités~9
# 241 Fixation 9 (586.4,351.5): ne~10 fait~11
# 86 Fixation 10 (615.5,360.9): fait~11
# 176 Fixation 11 (304.7,396.7): contre~7 autorités~9 allusion~13
%%
# Le~0 Fixations= "6/"
# fondateur~1 Fixations= "7/"
# de~2 Fixations= "8/"
# la~3 Fixations= ""
# guérilla~4 Fixations= "8/"
# en~5 Fixations= "5/"
# rébellion~6 Fixations= "5/"
# contre~7 Fixations= "11/"
# les~8 Fixations= ""
# autorités~9 Fixations= "11/"
# ne~10 Fixations= "9/"
# fait~11 Fixations= "10/"
# aucune~12 Fixations= ""
# allusion~13 Fixations= "11/"
# à~14 Fixations= ""
# l'opération~15 Fixations= ""
# humanitaire~16 Fixations= ""
# visant~17 Fixations= ""
# à~18 Fixations= ""
# remettre~19 Fixations= ""
# trois~20 Fixations= ""
# otages~21 Fixations= ""
# qui~22 Fixations= ""
# a~23 Fixations= ""
# capoté~24 Fixations= ""
# en~25 Fixations= ""
# début~26 Fixations= ""
# de~27 Fixations= ""
# semaine~28 Fixations= ""
# dernière~29 Fixations= ""
%%
#  LE[6] FONDATEUR[7] DE[8] la GUéRILLA[8] EN[5] RéBELLION[5] CONTRE[11] les AUTORITéS[11] NE[9] FAIT[10] aucune ALLUSION[11] à l'opération humanitaire visant à remettre trois otages qui a capoté en début de semaine dernière
# s06 course_voiliers-a2 PercentageOfWordsProcessed= 0.366666666666667 PercentageOfWordsReallyProcessed= 0.785714285714286
