# 206 Fixation 1 (297.3,287.7): Le~0 skippeur~1
# 181 Fixation 2 (444.6,277.4): rend~2
# 172 Fixation 3 (482.8,275.5): rend~2 hommage~3
# 227 Fixation 4 (642.4,211.4): aux~4 concepteurs~5
%%
# Le~0 Fixations= "1/"
# skippeur~1 Fixations= "1/"
# rend~2 Fixations= "3/"
# hommage~3 Fixations= "3/"
# aux~4 Fixations= "4/"
# concepteurs~5 Fixations= "4/"
# Le~6 Fixations= ""
# pari~7 Fixations= ""
# de~8 Fixations= ""
# la~9 Fixations= ""
# légèreté~10 Fixations= ""
# et~11 Fixations= ""
# de~12 Fixations= ""
# la~13 Fixations= ""
# simplicité~14 Fixations= ""
# était~15 Fixations= ""
# osé~16 Fixations= ""
# Les~17 Fixations= ""
# gens~18 Fixations= ""
# qui~19 Fixations= ""
# se~20 Fixations= ""
# sont~21 Fixations= ""
# investis~22 Fixations= ""
# pour~23 Fixations= ""
# que~24 Fixations= ""
# ce~25 Fixations= ""
# projet~26 Fixations= ""
# existe~27 Fixations= ""
# peuvent~28 Fixations= ""
# être~29 Fixations= ""
# fiers~30 Fixations= ""
%%
#  LE[1] SKIPPEUR[1] REND[3] HOMMAGE[3] AUX[4] CONCEPTEURS[4] Le pari de la légèreté et de la simplicité était osé Les gens qui se sont investis pour que ce projet existe peuvent être fiers
# s20 faiblesse_dollar-a2 PercentageOfWordsProcessed= 0.193548387096774 PercentageOfWordsReallyProcessed= 1
