999 WORDS_inquiétude~1 155
999 WORDFREQ_41.35 155
999 WORDSALL_Une~0_inquiétude~1 155
999 COSIND_-0.01 155
999 COSGEN_-0.01 155
101 ESRank1 155
999 WORDS_inquiétude~1 160
999 WORDFREQ_41.35 160
999 WORDSALL_Une~0_inquiétude~1 160
999 COSIND_-0.01 160
999 COSGEN_-0.01 160
102 ESRank2 160
203 ESBackSacRefixation 160
999 WORDS_particulière~2 269
999 WORDFREQ_20 269
999 WORDSALL_particulière~2 269
999 COSIND_-0.00 269
999 COSGEN_-0.00 269
103 ESRank3 269
201 ESForwSacShort 269
999 WORDS_pointe~3 265
999 WORDFREQ_7.84 265
999 WORDSALL_pointe~3 265
999 COSIND_0.22 265
999 COSGEN_0.22 265
104 ESRank4 265
201 ESForwSacShort 265
999 WORDS_pointe~3 240
999 WORDFREQ_7.84 240
999 WORDSALL_pointe~3 240
999 COSIND_0.22 240
999 COSGEN_0.22 240
105 ESRank5 240
203 ESBackSacRefixation 240
999 WORDS_responsabilité~7 258
999 WORDFREQ_18.11 258
999 WORDSALL_Une~0_inquiétude~1_responsabilité~7 258
999 COSIND_-0.03 258
999 COSGEN_-0.03 258
106 ESRank6 258
202 ESForwSacLong+4+13 258
999 WORDS_pénale~8 164
999 WORDFREQ_0.2 164
999 WORDSALL_particulière~2_pénale~8 164
999 COSIND_0.02 164
999 COSGEN_0.02 164
107 ESRank7 164
201 ESForwSacShort 164
999 WORDS_pénale~8 149
999 WORDFREQ_0.2 149
999 WORDSALL_particulière~2_pénale~8 149
999 COSIND_0.02 149
999 COSGEN_0.02 149
108 ESRank8 149
203 ESBackSacRefixation 149
999 WORDS_pointe~3 205
999 WORDFREQ_7.84 205
999 WORDSALL_pointe~3 205
999 COSIND_0.22 205
999 COSGEN_0.22 205
109 ESRank9 205
206 ESBackSacRegrLong-5-29 205
999 WORDS_d'établissement~11 261
999 WORDFREQ_17.36 261
999 WORDSALL_d'établissement~11 261
999 COSIND_-0.00 261
999 COSGEN_-0.00 261
110 ESRank10 261
202 ESForwSacLong+8+47 261
999 WORDS_mise~12 194
999 WORDFREQ_2.5 194
999 WORDSALL_pénale~8_mise~12 194
999 COSIND_0.03 194
999 COSGEN_0.03 194
111 ESRank11 194
201 ESForwSacShort 194
999 WORDS_mise~12 135
999 WORDFREQ_2.5 135
999 WORDSALL_mise~12 135
999 COSIND_0.03 135
999 COSGEN_0.03 135
112 ESRank12 135
203 ESBackSacRefixation 135
999 WORDS_jeu~14 218
999 WORDFREQ_130.68 218
999 WORDSALL_en~13_jeu~14 218
999 COSIND_-0.07 218
999 COSGEN_-0.07 218
113 ESRank13 218
202 ESForwSacLong+2+4 218
999 WORDS_d'accidents~16 165
999 WORDFREQ_8.18 165
999 WORDSALL_d'accidents~16 165
999 COSIND_-0.10 165
999 COSGEN_-0.10 165
114 ESRank14 165
202 ESForwSacLong+2+6 165
200 ESRankN 165
199 ESRankNMinus1 218
198 ESRankNMinus2 135
197 ESRankNMinus3 194
196 ESRankNMinus4 261
195 ESRankNMinus5 205
194 ESRankNMinus6 149
193 ESRankNMinus7 164
192 ESRankNMinus8 258
191 ESRankNMinus9 240
190 ESRankNMinus10 265
