999 WORDS_nord~7 111
999 WORDFREQ_11.89 111
999 WORDSALL_nord~7 111
999 COSIND_0.03 111
999 COSGEN_0.03 111
101 ESRank1 111
999 WORDS_nord~7 217
999 WORDFREQ_11.89 217
999 WORDSALL_nord~7 217
999 COSIND_0.03 217
999 COSGEN_0.03 217
102 ESRank2 217
203 ESBackSacRefixation 217
999 WORDS_travaux~3 210
999 WORDFREQ_39.46 210
999 WORDSALL_des~2_travaux~3 210
999 COSIND_-0.01 210
999 COSGEN_-0.01 210
103 ESRank3 210
206 ESBackSacRegrLong-4-23 210
999 WORDS_entrepris~4 281
999 WORDFREQ_10.74 281
999 WORDSALL_travaux~3_entrepris~4 281
999 COSIND_0.04 281
999 COSGEN_0.04 281
104 ESRank4 281
201 ESForwSacShort 281
999 WORDS_entrepris~4 114
999 WORDFREQ_10.74 114
999 WORDSALL_entrepris~4 114
999 COSIND_0.04 114
999 COSGEN_0.04 114
105 ESRank5 114
203 ESBackSacRefixation 114
200 ESRankN 114
199 ESRankNMinus1 281
198 ESRankNMinus2 210
197 ESRankNMinus3 217
196 ESRankNMinus4 111
