999 WORDS_3e~1 140
999 WORDFREQ_N/A 140
999 WORDSALL_Le~0_3e~1 140
999 COSIND_N/A 140
101 ESRank1 140
999 WORDS_ligne~2 225
999 WORDFREQ_101.01 225
999 WORDSALL_3e~1_ligne~2 225
999 COSIND_0.13 225
999 COSGEN_0.13 225
102 ESRank2 225
201 ESForwSacShort 225
999 WORDS_XV~4 204
999 WORDFREQ_N/A 204
999 WORDSALL_du~3_XV~4 204
999 COSIND_N/A 204
103 ESRank3 204
202 ESForwSacLong+2+4 204
999 WORDS_d'Angleterre~5 250
999 WORDFREQ_0.47 250
999 WORDSALL_d'Angleterre~5 250
999 COSIND_0.05 250
999 COSGEN_0.05 250
104 ESRank4 250
201 ESForwSacShort 250
999 WORDS_85~7 99
999 WORDFREQ_N/A 99
999 WORDSALL_aux~6_85~7 99
999 COSIND_N/A 99
105 ESRank5 99
202 ESForwSacLong+2+5 99
999 WORDS_sélections~8 243
999 WORDFREQ_0.27 243
999 WORDSALL_sélections~8 243
999 COSIND_-0.04 243
999 COSGEN_-0.04 243
106 ESRank6 243
201 ESForwSacShort 243
999 WORDS_annoncé~10 184
999 WORDFREQ_15.68 184
999 WORDSALL_a~9_annoncé~10 184
999 COSIND_0.04 184
999 COSGEN_0.04 184
107 ESRank7 184
202 ESForwSacLong+2+3 184
999 WORDS_internationale~13 255
999 WORDFREQ_10 255
999 WORDSALL_internationale~13 255
999 COSIND_-0.03 255
999 COSGEN_-0.03 255
108 ESRank8 255
202 ESForwSacLong+3+13 255
999 WORDS_retraite~20 87
999 WORDFREQ_38.78 87
999 WORDSALL_internationale~13_retraite~20 87
999 COSIND_-0.00 87
999 COSGEN_-0.00 87
109 ESRank9 87
202 ESForwSacLong+7+35 87
999 WORDS_retraite~20 100
999 WORDFREQ_38.78 100
999 WORDSALL_dans~14_colonnes~16_retraite~20 100
999 COSIND_-0.00 100
999 COSGEN_-0.00 100
110 ESRank10 100
203 ESBackSacRefixation 100
200 ESRankN 100
199 ESRankNMinus1 87
198 ESRankNMinus2 255
197 ESRankNMinus3 184
196 ESRankNMinus4 243
195 ESRankNMinus5 99
194 ESRankNMinus6 250
193 ESRankNMinus7 204
192 ESRankNMinus8 225
191 ESRankNMinus9 140
