999 WORDS_moyen~2 165
999 WORDFREQ_28.24 165
999 WORDSALL_moyen~2 165
999 COSIND_0.01 165
999 COSGEN_0.01 165
101 ESRank1 165
999 WORDS_imposable~3 252
999 WORDFREQ_0.07 252
999 WORDSALL_imposable~3 252
999 COSIND_0.34 252
999 COSGEN_0.34 252
102 ESRank2 252
201 ESForwSacShort 252
999 WORDS_foyer~5 101
999 WORDFREQ_25.81 101
999 WORDSALL_par~4_foyer~5 101
999 COSIND_0.27 101
999 COSGEN_0.27 101
103 ESRank3 101
202 ESForwSacLong+2+5 101
999 WORDS_revenu~1 339
999 WORDFREQ_2.23 339
999 WORDSALL_Le~0_revenu~1 339
999 COSIND_0.33 339
999 COSGEN_0.33 339
104 ESRank4 339
206 ESBackSacRegrLong-4-21 339
999 WORDS_moyen~2 181
999 WORDFREQ_28.24 181
999 WORDSALL_revenu~1_moyen~2 181
999 COSIND_0.01 181
999 COSGEN_0.01 181
105 ESRank5 181
201 ESForwSacShort 181
999 WORDS_imposable~3 203
999 WORDFREQ_0.07 203
999 WORDSALL_imposable~3 203
999 COSIND_0.34 203
999 COSGEN_0.34 203
106 ESRank6 203
201 ESForwSacShort 203
999 WORDS_faible~10 248
999 WORDFREQ_40.95 248
999 WORDSALL_plus~9_faible~10 248
999 COSIND_0.17 248
999 COSGEN_0.17 248
107 ESRank7 248
202 ESForwSacLong+7+30 248
999 WORDS_l'agglomération~14 158
999 WORDFREQ_1.62 158
999 WORDSALL_l'agglomération~14 158
999 COSIND_0.30 158
999 COSGEN_0.30 158
108 ESRank8 158
202 ESForwSacLong+4+17 158
999 WORDS_Riches-pauvres~15 212
999 WORDFREQ_N/A 212
999 WORDSALL_Riches-pauvres~15 212
999 COSIND_N/A 212
109 ESRank9 212
201 ESForwSacShort 212
999 WORDS_Riches-pauvres~15 120
999 WORDFREQ_N/A 120
999 WORDSALL_Riches-pauvres~15 120
999 COSIND_N/A 120
110 ESRank10 120
203 ESBackSacRefixation 120
999 WORDS_n'échappe~17 222
999 WORDFREQ_18.65 222
999 WORDSALL_n'échappe~17 222
999 COSIND_-0.02 222
999 COSGEN_-0.02 222
111 ESRank11 222
202 ESForwSacLong+2+4 222
999 WORDS_face-à-face~20 224
999 WORDFREQ_0.47 224
999 WORDSALL_au~19_face-à-face~20 224
999 COSIND_N/A 224
112 ESRank12 224
202 ESForwSacLong+3+8 224
999 WORDS_plupart~26 164
999 WORDFREQ_0.07 164
999 WORDSALL_la~25_plupart~26 164
999 COSIND_0.01 164
999 COSGEN_0.01 164
113 ESRank13 164
202 ESForwSacLong+6+28 164
999 WORDS_convulsions~28 178
999 WORDFREQ_4.32 178
999 WORDSALL_des~27_convulsions~28 178
999 COSIND_-0.14 178
999 COSGEN_-0.14 178
114 ESRank14 178
202 ESForwSacLong+2+5 178
999 WORDS_l'histoire~30 200
999 WORDFREQ_292.23 200
999 WORDSALL_l'histoire~30 200
999 COSIND_0.04 200
999 COSGEN_0.04 200
115 ESRank15 200
202 ESForwSacLong+2+4 200
200 ESRankN 200
199 ESRankNMinus1 178
198 ESRankNMinus2 164
197 ESRankNMinus3 224
196 ESRankNMinus4 222
195 ESRankNMinus5 120
194 ESRankNMinus6 212
193 ESRankNMinus7 158
192 ESRankNMinus8 248
191 ESRankNMinus9 203
190 ESRankNMinus10 181
