999 WORDS_américaine~2 141
999 WORDFREQ_19.53 141
999 WORDSALL_américaine~2 141
999 COSIND_0.15 141
999 COSGEN_0.15 141
101 ESRank1 141
999 WORDS_Stardust~3 163
999 WORDFREQ_N/A 163
999 WORDSALL_Stardust~3 163
999 COSIND_N/A 163
102 ESRank2 163
201 ESForwSacShort 163
999 WORDS_doit~5 171
999 WORDFREQ_224.59 171
999 WORDSALL_qui~4_doit~5 171
999 COSIND_0.04 171
999 COSGEN_0.04 171
103 ESRank3 171
202 ESForwSacLong+2+5 171
999 WORDS_sonde~1 356
999 WORDFREQ_0.81 356
999 WORDSALL_La~0_sonde~1 356
999 COSIND_0.46 356
999 COSGEN_0.46 356
104 ESRank4 356
206 ESBackSacRegrLong-4-26 356
999 WORDS_terre~8 189
999 WORDFREQ_420.88 189
999 WORDSALL_sur~7_terre~8 189
999 COSIND_0.30 189
999 COSGEN_0.30 189
105 ESRank5 189
202 ESForwSacLong+7+43 189
999 WORDS_Stardust~3 173
999 WORDFREQ_N/A 173
999 WORDSALL_Stardust~3 173
999 COSIND_N/A 173
106 ESRank6 173
206 ESBackSacRegrLong-5-22 173
999 WORDS_de~11 110
999 WORDFREQ_38928.92 110
999 WORDSALL_de~11 110
999 COSIND_N/A 110
107 ESRank7 110
202 ESForwSacLong+8+46 110
999 WORDS_ramener~6 197
999 WORDFREQ_24.93 197
999 WORDSALL_ramener~6 197
999 COSIND_0.17 197
999 COSGEN_0.17 197
108 ESRank8 197
206 ESBackSacRegrLong-5-29 197
999 WORDS_lancée~17 238
999 WORDFREQ_6.76 238
999 WORDSALL_été~16_lancée~17 238
999 COSIND_0.10 238
999 COSGEN_0.10 238
109 ESRank9 238
202 ESForwSacLong+11+58 238
999 WORDS_Cap~19 208
999 WORDFREQ_15.68 208
999 WORDSALL_Cap~19 208
999 COSIND_0.16 208
999 COSGEN_0.16 208
110 ESRank10 208
202 ESForwSacLong+2+4 208
999 WORDS_comète~13 278
999 WORDFREQ_2.3 278
999 WORDSALL_comète~13 278
999 COSIND_0.32 278
999 COSGEN_0.32 278
111 ESRank11 278
206 ESBackSacRegrLong-6-27 278
200 ESRankN 278
199 ESRankNMinus1 208
198 ESRankNMinus2 238
197 ESRankNMinus3 197
196 ESRankNMinus4 110
195 ESRankNMinus5 173
194 ESRankNMinus6 189
193 ESRankNMinus7 356
192 ESRankNMinus8 171
191 ESRankNMinus9 163
190 ESRankNMinus10 141
