999 WORDS_L'entraîneur~0 104
999 WORDFREQ_2.77 104
999 WORDSALL_L'entraîneur~0 104
999 COSIND_-0.01 104
999 COSGEN_-0.01 104
101 ESRank1 104
999 WORDS_L'entraîneur~0 123
999 WORDFREQ_2.77 123
999 WORDSALL_L'entraîneur~0 123
999 COSIND_-0.01 123
999 COSGEN_-0.01 123
102 ESRank2 123
203 ESBackSacRefixation 123
999 WORDS_dirige~1 210
999 WORDFREQ_12.77 210
999 WORDSALL_dirige~1 210
999 COSIND_0.04 210
999 COSGEN_0.04 210
103 ESRank3 210
201 ESForwSacShort 210
999 WORDS_l'équipe~2 197
999 WORDFREQ_26.28 197
999 WORDSALL_l'équipe~2 197
999 COSIND_0.05 197
999 COSGEN_0.05 197
104 ESRank4 197
201 ESForwSacShort 197
999 WORDS_féminine~3 172
999 WORDFREQ_13.38 172
999 WORDSALL_féminine~3 172
999 COSIND_-0.06 172
999 COSGEN_-0.06 172
105 ESRank5 172
201 ESForwSacShort 172
999 WORDS_cinq~5 181
999 WORDFREQ_220.61 181
999 WORDSALL_L'entraîneur~0_cinq~5 181
999 COSIND_0.03 181
999 COSGEN_0.03 181
106 ESRank6 181
202 ESForwSacLong+2+11 181
999 WORDS_L'entraîneur~0 174
999 WORDFREQ_2.77 174
999 WORDSALL_L'entraîneur~0 174
999 COSIND_-0.01 174
999 COSGEN_-0.01 174
107 ESRank7 174
206 ESBackSacRegrLong-5-38 174
999 WORDS_cinq~5 157
999 WORDFREQ_220.61 157
999 WORDSALL_L'entraîneur~0_dirige~1_cinq~5 157
999 COSIND_0.03 157
999 COSGEN_0.03 157
108 ESRank8 157
202 ESForwSacLong+5+38 157
200 ESRankN 157
199 ESRankNMinus1 174
198 ESRankNMinus2 181
197 ESRankNMinus3 172
196 ESRankNMinus4 197
195 ESRankNMinus5 210
194 ESRankNMinus6 123
193 ESRankNMinus7 104
