# 157 Fixation 1 (328.8,248.9): Les~0 habitants~1
# 259 Fixation 2 (463.5,252): de~2 Tirana~3
# 245 Fixation 3 (565.6,377.1): frères~9 kosovars~10
# 133 Fixation 4 (604.7,356.3): kosovars~10
# 184 Fixation 5 (509.1,330): leurs~8 frères~9
# 157 Fixation 6 (692.1,301.8): compatissent~4
# 239 Fixation 7 (420.2,399.5): ulcérés~14
# 204 Fixation 8 (589.8,411.6): l'enchaînement~16
# 269 Fixation 9 (457.3,491.5): qu'ils~18
# 230 Fixation 10 (465,529.9): injustice~23
# 198 Fixation 11 (560.2,526.3): et~24 reprochent~25
# 134 Fixation 12 (700.6,526.4): à~26 l'UCK~27
# 144 Fixation 13 (330.9,601.6): d'avoir~28 lancé~29
# 91 Fixation 14 (290.2,608.6): d'avoir~28
# 208 Fixation 15 (499.3,603.9): des~30 opérations~31
# 272 Fixation 16 (637.3,604.8): armées~32
%%
# Les~0 Fixations= "1/"
# habitants~1 Fixations= "1/"
# de~2 Fixations= "2/"
# Tirana~3 Fixations= "2/"
# compatissent~4 Fixations= "6/"
# aux~5 Fixations= ""
# malheurs~6 Fixations= ""
# de~7 Fixations= ""
# leurs~8 Fixations= "5/"
# frères~9 Fixations= "5/"
# kosovars~10 Fixations= "4/"
# Ils~11 Fixations= ""
# se~12 Fixations= ""
# déclarent~13 Fixations= ""
# ulcérés~14 Fixations= "7/"
# par~15 Fixations= ""
# l'enchaînement~16 Fixations= "8/"
# d'événements~17 Fixations= ""
# qu'ils~18 Fixations= "9/"
# ressentent~19 Fixations= ""
# comme~20 Fixations= ""
# une~21 Fixations= ""
# profonde~22 Fixations= ""
# injustice~23 Fixations= "10/"
# et~24 Fixations= "11/"
# reprochent~25 Fixations= "11/"
# à~26 Fixations= "12/"
# l'UCK~27 Fixations= "12/"
# d'avoir~28 Fixations= "14/"
# lancé~29 Fixations= "13/"
# des~30 Fixations= "15/"
# opérations~31 Fixations= "15/"
# armées~32 Fixations= "16/"
%%
#  LES[1] HABITANTS[1] DE[2] TIRANA[2] COMPATISSENT[6] aux malheurs de LEURS[5] FRèRES[5] KOSOVARS[4] Ils se déclarent ULCéRéS[7] par L'ENCHAîNEMENT[8] d'événements QU'ILS[9] ressentent comme une profonde INJUSTICE[10] ET[11] REPROCHENT[11] à[12] L'UCK[12] D'AVOIR[14] LANCé[13] DES[15] OPéRATIONS[15] ARMéES[16]
# s21 aide_refugies-m2 PercentageOfWordsProcessed= 0.636363636363636 PercentageOfWordsReallyProcessed= 0.636363636363636
