999 WORDS_semble~1 179
999 WORDFREQ_154.19 179
999 WORDSALL_Il~0_semble~1 179
999 COSIND_0.05 179
999 COSGEN_0.05 179
101 ESRank1 179
999 WORDS_l'instar~4 215
999 WORDFREQ_N/A 215
999 WORDSALL_à~3_l'instar~4 215
999 COSIND_N/A 215
102 ESRank2 215
202 ESForwSacLong+3+8 215
999 WORDS_Anglais~6 216
999 WORDFREQ_69.46 216
999 WORDSALL_des~5_Anglais~6 216
999 COSIND_0.11 216
999 COSGEN_0.11 216
103 ESRank3 216
202 ESForwSacLong+2+5 216
999 WORDS_Anglais~6 104
999 WORDFREQ_69.46 104
999 WORDSALL_Anglais~6 104
999 COSIND_0.11 104
999 COSGEN_0.11 104
104 ESRank4 104
203 ESBackSacRefixation 104
999 WORDS_Gallois~8 251
999 WORDFREQ_0 251
999 WORDSALL_Gallois~8 251
999 COSIND_0.45 251
999 COSGEN_0.45 251
105 ESRank5 251
202 ESForwSacLong+2+5 251
999 WORDS_parvenus~10 187
999 WORDFREQ_5.2 187
999 WORDSALL_parvenus~10 187
999 COSIND_0.06 187
999 COSGEN_0.06 187
106 ESRank6 187
202 ESForwSacLong+2+8 187
999 WORDS_assimiler~12 214
999 WORDFREQ_3.04 214
999 WORDSALL_à~11_assimiler~12 214
999 COSIND_-0.01 214
999 COSGEN_-0.01 214
107 ESRank7 214
202 ESForwSacLong+2+4 214
999 WORDS_éléments~14 181
999 WORDFREQ_46.89 181
999 WORDSALL_éléments~14 181
999 COSIND_0.00 181
999 COSGEN_0.00 181
108 ESRank8 181
202 ESForwSacLong+2+5 181
999 WORDS_permis~17 144
999 WORDFREQ_35.54 144
999 WORDSALL_ont~16_permis~17 144
999 COSIND_0.17 144
999 COSGEN_0.17 144
109 ESRank9 144
202 ESForwSacLong+3+9 144
999 WORDS_à~18 202
999 WORDFREQ_19209.05 202
999 WORDSALL_à~18 202
999 COSIND_N/A 202
110 ESRank10 202
201 ESForwSacShort 202
999 WORDS_l'hémisphère~19 184
999 WORDFREQ_0.88 184
999 WORDSALL_l'hémisphère~19 184
999 COSIND_0.16 184
999 COSGEN_0.16 184
111 ESRank11 184
201 ESForwSacShort 184
999 WORDS_dominer~22 227
999 WORDFREQ_10.34 227
999 WORDSALL_dominer~22 227
999 COSIND_0.35 227
999 COSGEN_0.35 227
112 ESRank12 227
202 ESForwSacLong+3+8 227
999 WORDS_rugby~24 157
999 WORDFREQ_3.11 157
999 WORDSALL_le~23_rugby~24 157
999 COSIND_0.13 157
999 COSGEN_0.13 157
113 ESRank13 157
202 ESForwSacLong+2+4 157
999 WORDS_mondial~25 163
999 WORDFREQ_2.5 163
999 WORDSALL_mondial~25 163
999 COSIND_0.14 163
999 COSGEN_0.14 163
114 ESRank14 163
201 ESForwSacShort 163
999 WORDS_depuis~26 101
999 WORDFREQ_114.05 101
999 WORDSALL_depuis~26 101
999 COSIND_N/A 101
115 ESRank15 101
201 ESForwSacShort 101
999 WORDS_depuis~26 97
999 WORDFREQ_114.05 97
999 WORDSALL_depuis~26 97
999 COSIND_N/A 97
116 ESRank16 97
203 ESBackSacRefixation 97
200 ESRankN 97
199 ESRankNMinus1 101
198 ESRankNMinus2 163
197 ESRankNMinus3 157
196 ESRankNMinus4 227
195 ESRankNMinus5 184
194 ESRankNMinus6 202
193 ESRankNMinus7 144
192 ESRankNMinus8 181
191 ESRankNMinus9 214
190 ESRankNMinus10 187
