# 135 Fixation 1 (289.1,252.2): La~0 Chine~1
# 103 Fixation 2 (300,275.6): La~0 Chine~1
# 259 Fixation 3 (380.5,278): Chine~1 souhaite~2
# 249 Fixation 4 (510.7,287.1): généraliser~3
# 202 Fixation 5 (657.5,295): l'usage~4
# 161 Fixation 6 (331.4,351.5): l'injection~6
# 122 Fixation 7 (295.4,353.8): l'injection~6
# 329 Fixation 8 (432.8,349.5): mortelle~7
%%
# La~0 Fixations= "2/"
# Chine~1 Fixations= "3/"
# souhaite~2 Fixations= "3/"
# généraliser~3 Fixations= "4/"
# l'usage~4 Fixations= "5/"
# de~5 Fixations= ""
# l'injection~6 Fixations= "7/"
# mortelle~7 Fixations= "8/"
# pour~8 Fixations= ""
# les~9 Fixations= ""
# peines~10 Fixations= ""
# capitales~11 Fixations= ""
# au~12 Fixations= ""
# détriment~13 Fixations= ""
# de~14 Fixations= ""
# l'exécution~15 Fixations= ""
# par~16 Fixations= ""
# balle~17 Fixations= ""
# C'est~18 Fixations= ""
# considéré~19 Fixations= ""
# comme~20 Fixations= ""
# plus~21 Fixations= ""
# humain~22 Fixations= ""
# dans~23 Fixations= ""
# toutes~24 Fixations= ""
# les~25 Fixations= ""
# juridictions~26 Fixations= ""
# intermédiaires~27 Fixations= ""
%%
#  LA[2] CHINE[3] SOUHAITE[3] GéNéRALISER[4] L'USAGE[5] de L'INJECTION[7] MORTELLE[8] pour les peines capitales au détriment de l'exécution par balle C'est considéré comme plus humain dans toutes les juridictions intermédiaires
# s01 course_voiliers-a1 PercentageOfWordsProcessed= 0.25 PercentageOfWordsReallyProcessed= 0.875
