# 211 Fixation 1 (243.2,191.8):
# 227 Fixation 2 (402.1,213.4): sous~1 serment~2
# 163 Fixation 3 (563.5,232.4): c'est~3 insulte~5
# 135 Fixation 4 (648,251.4): une~4 insulte~5
# 147 Fixation 5 (364,249.3): sous~1
# 216 Fixation 6 (292,310.3): Mentir~0
# 186 Fixation 7 (431.3,282.9): sous~1 serment~2
# 149 Fixation 8 (600.5,306.7): c'est~3 insulte~5
# 197 Fixation 9 (623.6,432.2): y~19 a~20
# 81 Fixation 10 (676.3,417.8): des~21 gens~22
# 138 Fixation 11 (438.9,486): de~26 crimes~28
# 181 Fixation 12 (308.9,477.1): prison~24
# 103 Fixation 13 (281.8,478.7): prison~24
# 265 Fixation 14 (444.5,484.1): de~26 crimes~28
# 158 Fixation 15 (421.2,442.2): bafouer~15 loi~17
# 347 Fixation 16 (336.2,426.4): c'est~14 bafouer~15
%%
# Mentir~0 Fixations= "6/"
# sous~1 Fixations= "7/"
# serment~2 Fixations= "7/"
# c'est~3 Fixations= "8/"
# une~4 Fixations= "4/"
# insulte~5 Fixations= "8/"
# à~6 Fixations= ""
# la~7 Fixations= ""
# liberté~8 Fixations= ""
# Faire~9 Fixations= ""
# obstruction~10 Fixations= ""
# à~11 Fixations= ""
# la~12 Fixations= ""
# justice~13 Fixations= ""
# c'est~14 Fixations= "16/"
# bafouer~15 Fixations= "16/"
# la~16 Fixations= ""
# loi~17 Fixations= "15/"
# Il~18 Fixations= ""
# y~19 Fixations= "9/"
# a~20 Fixations= "9/"
# des~21 Fixations= "10/"
# gens~22 Fixations= "10/"
# en~23 Fixations= ""
# prison~24 Fixations= "13/"
# pour~25 Fixations= ""
# de~26 Fixations= "14/"
# tels~27 Fixations= ""
# crimes~28 Fixations= "14/"
%%
#  MENTIR[6] SOUS[7] SERMENT[7] C'EST[8] UNE[4] INSULTE[8] à la liberté Faire obstruction à la justice C'EST[16] BAFOUER[16] la LOI[15] Il Y[9] A[9] DES[10] GENS[10] en PRISON[13] pour DE[14] tels CRIMES[14]
# s21 reforme_justice-f2 PercentageOfWordsProcessed= 0.551724137931034 PercentageOfWordsReallyProcessed= 0.551724137931034
