# 136 Fixation 1 (307.5,293.8): Le~0 pacte~1
# 163 Fixation 2 (425.2,287.6): de~2 stabilité~3
# 123 Fixation 3 (547.2,279.4): et~4 croissance~6
# 270 Fixation 4 (634.9,276.1): de~5 croissance~6
# 232 Fixation 5 (527.2,354): l'utilisation~11
# 152 Fixation 6 (459.1,346.3): à~10 l'utilisation~11
# 221 Fixation 7 (641.8,346.9): du~12 budget~13
# 239 Fixation 8 (549.6,462.4): la~22 pérennité~23
%%
# Le~0 Fixations= "1/"
# pacte~1 Fixations= "1/"
# de~2 Fixations= "2/"
# stabilité~3 Fixations= "2/"
# et~4 Fixations= "3/"
# de~5 Fixations= "4/"
# croissance~6 Fixations= "4/"
# pose~7 Fixations= ""
# des~8 Fixations= ""
# limites~9 Fixations= ""
# à~10 Fixations= "6/"
# l'utilisation~11 Fixations= "6/"
# du~12 Fixations= "7/"
# budget~13 Fixations= "7/"
# pour~14 Fixations= ""
# relancer~15 Fixations= ""
# une~16 Fixations= ""
# économie~17 Fixations= ""
# Les~18 Fixations= ""
# économistes~19 Fixations= ""
# s'interrogent~20 Fixations= ""
# sur~21 Fixations= ""
# la~22 Fixations= "8/"
# pérennité~23 Fixations= "8/"
# de~24 Fixations= ""
# cette~25 Fixations= ""
# croissance~26 Fixations= ""
# qui~27 Fixations= ""
# est~28 Fixations= ""
# étonnante~29 Fixations= ""
%%
#  LE[1] PACTE[1] DE[2] STABILITé[2] ET[3] DE[4] CROISSANCE[4] pose des limites à[6] L'UTILISATION[6] DU[7] BUDGET[7] pour relancer une économie Les économistes s'interrogent sur LA[8] PéRENNITé[8] de cette croissance qui est étonnante
# s10 croissance_economie-f1 PercentageOfWordsProcessed= 0.433333333333333 PercentageOfWordsReallyProcessed= 0.541666666666667
