999 WORDS_combats~1 106
999 WORDFREQ_20.2 106
999 WORDSALL_Ces~0_combats~1 106
999 COSIND_-0.07 106
999 COSGEN_-0.07 106
101 ESRank1 106
999 WORDS_combats~1 165
999 WORDFREQ_20.2 165
999 WORDSALL_Ces~0_combats~1 165
999 COSIND_-0.07 165
999 COSGEN_-0.07 165
102 ESRank2 165
203 ESBackSacRefixation 165
999 WORDS_remettent~4 112
999 WORDFREQ_2.91 112
999 WORDSALL_qui~2_remettent~4 112
999 COSIND_-0.03 112
999 COSGEN_-0.03 112
103 ESRank3 112
202 ESForwSacLong+3+8 112
999 WORDS_remettent~4 96
999 WORDFREQ_2.91 96
999 WORDSALL_qui~2_remettent~4 96
999 COSIND_-0.03 96
999 COSGEN_-0.03 96
104 ESRank4 96
203 ESBackSacRefixation 96
999 WORDS_remettent~4 200
999 WORDFREQ_2.91 200
999 WORDSALL_remettent~4 200
999 COSIND_-0.03 200
999 COSGEN_-0.03 200
105 ESRank5 200
203 ESBackSacRefixation 200
999 WORDS_cause~7 145
999 WORDFREQ_188.04 145
999 WORDSALL_pas~5_cause~7 145
999 COSIND_-0.04 145
999 COSGEN_-0.04 145
106 ESRank6 145
202 ESForwSacLong+3+8 145
999 WORDS_suprématie~9 141
999 WORDFREQ_1.08 141
999 WORDSALL_la~8_suprématie~9 141
999 COSIND_0.02 141
999 COSGEN_0.02 141
107 ESRank7 141
202 ESForwSacLong+2+4 141
999 WORDS_suprématie~9 159
999 WORDFREQ_1.08 159
999 WORDSALL_suprématie~9 159
999 COSIND_0.02 159
999 COSGEN_0.02 159
108 ESRank8 159
203 ESBackSacRefixation 159
999 WORDS_talibans~11 171
999 WORDFREQ_0 171
999 WORDSALL_des~10_talibans~11 171
999 COSIND_N/A 171
109 ESRank9 171
202 ESForwSacLong+2+5 171
999 WORDS_talibans~11 168
999 WORDFREQ_0 168
999 WORDSALL_talibans~11 168
999 COSIND_N/A 168
110 ESRank10 168
203 ESBackSacRefixation 168
999 WORDS_l'Afghanistan~13 191
999 WORDFREQ_N/A 191
999 WORDSALL_l'Afghanistan~13 191
999 COSIND_N/A 191
111 ESRank11 191
202 ESForwSacLong+2+5 191
999 WORDS_l'Afghanistan~13 153
999 WORDFREQ_N/A 153
999 WORDSALL_l'Afghanistan~13 153
999 COSIND_N/A 153
112 ESRank12 153
203 ESBackSacRefixation 153
999 WORDS_prouvent~14 84
999 WORDFREQ_1.35 84
999 WORDSALL_prouvent~14 84
999 COSIND_0.02 84
999 COSGEN_0.02 84
113 ESRank13 84
201 ESForwSacShort 84
999 WORDS_prouvent~14 215
999 WORDFREQ_1.35 215
999 WORDSALL_prouvent~14 215
999 COSIND_0.02 215
999 COSGEN_0.02 215
114 ESRank14 215
203 ESBackSacRefixation 215
999 WORDS_peut~19 105
999 WORDFREQ_508.99 105
999 WORDSALL_et~18_peut~19 105
999 COSIND_0.03 105
999 COSGEN_0.03 105
115 ESRank15 105
202 ESForwSacLong+5+27 105
200 ESRankN 105
199 ESRankNMinus1 215
198 ESRankNMinus2 84
197 ESRankNMinus3 153
196 ESRankNMinus4 191
195 ESRankNMinus5 168
194 ESRankNMinus6 171
193 ESRankNMinus7 159
192 ESRankNMinus8 141
191 ESRankNMinus9 145
190 ESRankNMinus10 200
