999 WORDS_L'allocation~0 178
999 WORDFREQ_0.41 178
999 WORDSALL_L'allocation~0 178
999 COSIND_1.00 178
999 COSGEN_1.00 178
101 ESRank1 178
999 WORDS_rentrée~2 188
999 WORDFREQ_14.19 188
999 WORDSALL_de~1_rentrée~2 188
999 COSIND_0.08 188
999 COSGEN_0.08 188
102 ESRank2 188
202 ESForwSacLong+2+4 188
999 WORDS_rentrée~2 201
999 WORDFREQ_14.19 201
999 WORDSALL_de~1_rentrée~2 201
999 COSIND_0.08 201
999 COSGEN_0.08 201
103 ESRank3 201
203 ESBackSacRefixation 201
999 WORDS_rentrée~2 96
999 WORDFREQ_14.19 96
999 WORDSALL_de~1_rentrée~2 96
999 COSIND_0.08 96
999 COSGEN_0.08 96
104 ESRank4 96
203 ESBackSacRefixation 96
999 WORDS_scolaire~3 185
999 WORDFREQ_9.66 185
999 WORDSALL_rentrée~2_scolaire~3 185
999 COSIND_0.01 185
999 COSGEN_0.01 185
105 ESRank5 185
201 ESForwSacShort 185
999 WORDS_concerne~4 187
999 WORDFREQ_26.42 187
999 WORDSALL_scolaire~3_concerne~4 187
999 COSIND_0.08 187
999 COSGEN_0.08 187
106 ESRank6 187
201 ESForwSacShort 187
999 WORDS_000~6 196
999 WORDFREQ_N/A 196
999 WORDSALL_350~5_000~6 196
999 COSIND_N/A 196
107 ESRank7 196
202 ESForwSacLong+2+5 196
200 ESRankN 196
199 ESRankNMinus1 187
198 ESRankNMinus2 185
197 ESRankNMinus3 96
196 ESRankNMinus4 201
195 ESRankNMinus5 188
194 ESRankNMinus6 178
