999 WORDS_pianiste~1 261
999 WORDFREQ_4.8 261
999 WORDSALL_La~0_pianiste~1 261
999 COSIND_-0.02 261
999 COSGEN_-0.02 261
101 ESRank1 261
999 WORDS_pianiste~1 316
999 WORDFREQ_4.8 316
999 WORDSALL_La~0_pianiste~1 316
999 COSIND_-0.02 316
999 COSGEN_-0.02 316
102 ESRank2 316
203 ESBackSacRefixation 316
999 WORDS_américaine~2 294
999 WORDFREQ_19.53 294
999 WORDSALL_pianiste~1_américaine~2 294
999 COSIND_0.02 294
999 COSGEN_0.02 294
103 ESRank3 294
201 ESForwSacShort 294
999 WORDS_Rosalyn~3 223
999 WORDFREQ_N/A 223
999 WORDSALL_américaine~2_Rosalyn~3 223
999 COSIND_N/A 223
104 ESRank4 223
201 ESForwSacShort 223
999 WORDS_Tureck~4 136
999 WORDFREQ_N/A 136
999 WORDSALL_Rosalyn~3_Tureck~4 136
999 COSIND_N/A 136
105 ESRank5 136
201 ESForwSacShort 136
999 WORDS_Tureck~4 225
999 WORDFREQ_N/A 225
999 WORDSALL_Tureck~4 225
999 COSIND_N/A 225
106 ESRank6 225
203 ESBackSacRefixation 225
999 WORDS_entrée~7 260
999 WORDFREQ_113.72 260
999 WORDSALL_La~0_pianiste~1_entrée~7 260
999 COSIND_0.02 260
999 COSGEN_0.02 260
107 ESRank7 260
202 ESForwSacLong+3+10 260
999 WORDS_entrée~7 181
999 WORDFREQ_113.72 181
999 WORDSALL_La~0_pianiste~1_entrée~7 181
999 COSIND_0.02 181
999 COSGEN_0.02 181
108 ESRank8 181
203 ESBackSacRefixation 181
999 WORDS_à~8 280
999 WORDFREQ_19209.05 280
999 WORDSALL_entrée~7_à~8 280
999 COSIND_N/A 280
109 ESRank9 280
201 ESForwSacShort 280
999 WORDS_quatre-vingt-quatre~9 410
999 WORDFREQ_0.74 410
999 WORDSALL_américaine~2_quatre-vingt-quatre~9 410
999 COSIND_N/A 410
110 ESRank10 410
201 ESForwSacShort 410
999 WORDS_quatre-vingt-quatre~9 147
999 WORDFREQ_0.74 147
999 WORDSALL_Rosalyn~3_quatre-vingt-quatre~9 147
999 COSIND_N/A 147
111 ESRank11 147
203 ESBackSacRefixation 147
999 WORDS_ans~10 231
999 WORDFREQ_609.05 231
999 WORDSALL_Tureck~4_fait~5_ans~10 231
999 COSIND_0.07 231
999 COSGEN_0.07 231
112 ESRank12 231
201 ESForwSacShort 231
999 WORDS_répertoire~13 324
999 WORDFREQ_5.34 324
999 WORDSALL_son~6_entrée~7_répertoire~13 324
999 COSIND_-0.02 324
999 COSGEN_-0.02 324
113 ESRank13 324
202 ESForwSacLong+3+9 324
999 WORDS_discographique~14 329
999 WORDFREQ_N/A 329
999 WORDSALL_à~8_discographique~14 329
999 COSIND_N/A 329
114 ESRank14 329
201 ESForwSacShort 329
999 WORDS_interprétation~19 168
999 WORDFREQ_5.68 168
999 WORDSALL_discographique~14_interprétation~19 168
999 COSIND_-0.05 168
999 COSGEN_-0.05 168
115 ESRank15 168
202 ESForwSacLong+5+28 168
999 WORDS_interprétation~19 201
999 WORDFREQ_5.68 201
999 WORDSALL_Son~18_interprétation~19 201
999 COSIND_-0.05 201
999 COSGEN_-0.05 201
116 ESRank16 201
203 ESBackSacRefixation 201
999 WORDS_Goldberg~22 205
999 WORDFREQ_N/A 205
999 WORDSALL_Son~18_interprétation~19_Goldberg~22 205
999 COSIND_N/A 205
117 ESRank17 205
202 ESForwSacLong+3+16 205
999 WORDS_Bach~24 236
999 WORDFREQ_N/A 236
999 WORDSALL_de~23_Bach~24 236
999 COSIND_N/A 236
118 ESRank18 236
202 ESForwSacLong+2+4 236
999 WORDS_Bach~24 185
999 WORDFREQ_N/A 185
999 WORDSALL_de~23_Bach~24 185
999 COSIND_N/A 185
119 ESRank19 185
203 ESBackSacRefixation 185
999 WORDS_va~25 131
999 WORDFREQ_694.59 131
999 WORDSALL_Bach~24_va~25 131
999 COSIND_-0.01 131
999 COSGEN_-0.01 131
120 ESRank20 131
201 ESForwSacShort 131
999 WORDS_grand~30 244
999 WORDFREQ_537.97 244
999 WORDSALL_variations~21_Goldberg~22_grand~30 244
999 COSIND_-0.01 244
999 COSGEN_-0.01 244
202 ESForwSacLong+5+24 244
999 WORDS_connaître~28 295
999 WORDFREQ_90.14 295
999 WORDSALL_variations~21_connaître~28 295
999 COSIND_-0.03 295
999 COSGEN_-0.03 295
206 ESBackSacRegrLong-2-4 295
200 ESRankN 295
199 ESRankNMinus1 244
198 ESRankNMinus2 131
197 ESRankNMinus3 185
196 ESRankNMinus4 236
195 ESRankNMinus5 205
194 ESRankNMinus6 201
193 ESRankNMinus7 168
192 ESRankNMinus8 329
191 ESRankNMinus9 324
190 ESRankNMinus10 231
