999 WORDS_involontaires~5 176
999 WORDFREQ_1.01 176
999 WORDSALL_Une~0_information~1_involontaires~5 176
999 COSIND_-0.02 176
999 COSGEN_-0.02 176
101 ESRank1 176
999 WORDS_involontaires~5 134
999 WORDFREQ_1.01 134
999 WORDSALL_Une~0_information~1_involontaires~5 134
999 COSIND_-0.02 134
999 COSGEN_-0.02 134
102 ESRank2 134
203 ESBackSacRefixation 134
999 WORDS_information~1 126
999 WORDFREQ_16.22 126
999 WORDSALL_Une~0_information~1 126
999 COSIND_-0.06 126
999 COSGEN_-0.06 126
103 ESRank3 126
206 ESBackSacRegrLong-4-27 126
999 WORDS_judiciaire~2 490
999 WORDFREQ_4.26 490
999 WORDSALL_judiciaire~2 490
999 COSIND_0.02 490
999 COSGEN_0.02 490
104 ESRank4 490
201 ESForwSacShort 490
999 WORDS_judiciaire~2 277
999 WORDFREQ_4.26 277
999 WORDSALL_judiciaire~2 277
999 COSIND_0.02 277
999 COSGEN_0.02 277
105 ESRank5 277
203 ESBackSacRefixation 277
999 WORDS_blessures~4 198
999 WORDFREQ_13.18 198
999 WORDSALL_pour~3_blessures~4 198
999 COSIND_-0.03 198
999 COSGEN_-0.03 198
106 ESRank6 198
202 ESForwSacLong+2+6 198
999 WORDS_judiciaire~2 356
999 WORDFREQ_4.26 356
999 WORDSALL_judiciaire~2 356
999 COSIND_0.02 356
999 COSGEN_0.02 356
107 ESRank7 356
206 ESBackSacRegrLong-2-6 356
999 WORDS_blessures~4 169
999 WORDFREQ_13.18 169
999 WORDSALL_pour~3_blessures~4 169
999 COSIND_-0.03 169
999 COSGEN_-0.03 169
108 ESRank8 169
202 ESForwSacLong+2+6 169
999 WORDS_involontaires~5 371
999 WORDFREQ_1.01 371
999 WORDSALL_Une~0_information~1_involontaires~5 371
999 COSIND_-0.02 371
999 COSGEN_-0.02 371
109 ESRank9 371
201 ESForwSacShort 371
999 WORDS_commises~6 309
999 WORDFREQ_2.57 309
999 WORDSALL_information~1_judiciaire~2_commises~6 309
999 COSIND_0.02 309
999 COSGEN_0.02 309
110 ESRank10 309
201 ESForwSacShort 309
999 WORDS_négligences~8 320
999 WORDFREQ_0.88 320
999 WORDSALL_judiciaire~2_négligences~8 320
999 COSIND_-0.00 320
999 COSGEN_-0.00 320
111 ESRank11 320
202 ESForwSacLong+2+5 320
999 WORDS_chute~14 104
999 WORDFREQ_35.27 104
999 WORDSALL_commises~6_chute~14 104
999 COSIND_-0.04 104
999 COSGEN_-0.04 104
112 ESRank12 104
202 ESForwSacLong+6+27 104
999 WORDS_chute~14 151
999 WORDFREQ_35.27 151
999 WORDSALL_commises~6_chute~14 151
999 COSIND_-0.04 151
999 COSGEN_-0.04 151
113 ESRank13 151
203 ESBackSacRefixation 151
999 WORDS_wagon~22 312
999 WORDFREQ_18.11 312
999 WORDSALL_après~12_chute~14_wagon~22 312
999 COSIND_-0.00 312
999 COSGEN_-0.00 312
114 ESRank14 312
202 ESForwSacLong+8+36 312
200 ESRankN 312
199 ESRankNMinus1 151
198 ESRankNMinus2 104
197 ESRankNMinus3 320
196 ESRankNMinus4 309
195 ESRankNMinus5 371
194 ESRankNMinus6 169
193 ESRankNMinus7 356
192 ESRankNMinus8 198
191 ESRankNMinus9 277
190 ESRankNMinus10 490
