# 154 Fixation 1 (308.6,297.1): Le~0 football~1
# 156 Fixation 2 (297.7,292.8): Le~0 football~1
# 174 Fixation 3 (409.2,286.4): football~1 deux~8 équipes~9
# 118 Fixation 4 (469,280.8): est~2 sport~4
# 119 Fixation 5 (504.2,282.3): un~3 sport~4
# 212 Fixation 6 (632.6,280.2): collectif~5
# 171 Fixation 7 (604.4,279.8): collectif~5
# 159 Fixation 8 (684.9,283.9): collectif~5
# 294 Fixation 9 (272.6,348.5): Le~0 football~1 oppose~7
# 168 Fixation 10 (382.7,335): football~1 deux~8
# 209 Fixation 11 (436.8,337.4): est~2 sport~4 deux~8 équipes~9
# 358 Fixation 12 (566.9,341.3): sport~4 collectif~5 onze~11
# 279 Fixation 13 (643.5,343): collectif~5 onze~11 joueurs~12
# 166 Fixation 14 (738.2,350.4): dans~13 ballon~23
# 257 Fixation 15 (328.4,503.6): sphérique~24
# 209 Fixation 16 (327.9,546.1): est~31 doute~33
# 115 Fixation 17 (315.7,541.9): est~31 doute~33
# 238 Fixation 18 (386.2,533.2): sphérique~24 but~27 doute~33
# 260 Fixation 19 (490.7,534.4): le~26 but~27 sport~35
# 170 Fixation 20 (627.7,529.3): adverse~28 plus~37
# 138 Fixation 21 (666,533.4): Le~29 football~30 plus~37 médiatisé~38
# 446 Fixation 22 (355.4,593.8): sans~32 doute~33 monde~41
%%
# Le~0 Fixations= "9/"
# football~1 Fixations= "10/"
# est~2 Fixations= "11/"
# un~3 Fixations= "5/"
# sport~4 Fixations= "12/"
# collectif~5 Fixations= "13/"
# qui~6 Fixations= ""
# oppose~7 Fixations= "9/"
# deux~8 Fixations= "11/"
# équipes~9 Fixations= "11/"
# de~10 Fixations= ""
# onze~11 Fixations= "13/"
# joueurs~12 Fixations= "13/"
# dans~13 Fixations= "14/"
# un~14 Fixations= ""
# stade~15 Fixations= ""
# dont~16 Fixations= ""
# le~17 Fixations= ""
# but~18 Fixations= ""
# est~19 Fixations= ""
# de~20 Fixations= ""
# mettre~21 Fixations= ""
# un~22 Fixations= ""
# ballon~23 Fixations= "14/"
# sphérique~24 Fixations= "18/"
# dans~25 Fixations= ""
# le~26 Fixations= "19/"
# but~27 Fixations= "19/"
# adverse~28 Fixations= "20/"
# Le~29 Fixations= "21/"
# football~30 Fixations= "21/"
# est~31 Fixations= "17/"
# sans~32 Fixations= "22/"
# doute~33 Fixations= "22/"
# le~34 Fixations= ""
# sport~35 Fixations= "19/"
# le~36 Fixations= ""
# plus~37 Fixations= "21/"
# médiatisé~38 Fixations= "21/"
# dans~39 Fixations= ""
# le~40 Fixations= ""
# monde~41 Fixations= "22/"
%%
#  LE[9] FOOTBALL[10] EST[11] UN[5] SPORT[12] COLLECTIF[13] qui OPPOSE[9] DEUX[11] éQUIPES[11] de ONZE[13] JOUEURS[13] DANS[14] un stade dont le but est de mettre un BALLON[14] SPHéRIQUE[18] dans LE[19] BUT[19] ADVERSE[20] LE[21] FOOTBALL[21] EST[17] SANS[22] DOUTE[22] le SPORT[19] le PLUS[21] MéDIATISé[21] dans le MONDE[22]
# s13 faiblesse_dollar-a1 PercentageOfWordsProcessed= 0.619047619047619 PercentageOfWordsReallyProcessed= 0.619047619047619
