999 WORDS_Quand~0 82
999 WORDFREQ_0.68 82
999 WORDSALL_Quand~0 82
999 COSIND_N/A 82
101 ESRank1 82
999 WORDS_brûlons~2 174
999 WORDFREQ_0.27 174
999 WORDSALL_nous~1_brûlons~2 174
999 COSIND_0.04 174
999 COSGEN_0.04 174
102 ESRank2 174
202 ESForwSacLong+2+6 174
999 WORDS_combustibles~4 93
999 WORDFREQ_0.47 93
999 WORDSALL_des~3_combustibles~4 93
999 COSIND_0.20 93
999 COSGEN_0.20 93
103 ESRank3 93
202 ESForwSacLong+2+5 93
999 WORDS_combustibles~4 107
999 WORDFREQ_0.47 107
999 WORDSALL_combustibles~4 107
999 COSIND_0.20 107
999 COSGEN_0.20 107
104 ESRank4 107
203 ESBackSacRefixation 107
999 WORDS_fossiles~5 239
999 WORDFREQ_0.88 239
999 WORDSALL_fossiles~5 239
999 COSIND_0.53 239
999 COSGEN_0.53 239
105 ESRank5 239
201 ESForwSacShort 239
999 WORDS_fossiles~5 158
999 WORDFREQ_0.88 158
999 WORDSALL_fossiles~5 158
999 COSIND_0.53 158
999 COSGEN_0.53 158
106 ESRank6 158
203 ESBackSacRefixation 158
999 WORDS_l'atmosphère~15 88
999 WORDFREQ_36.15 88
999 WORDSALL_dans~14_l'atmosphère~15 88
999 COSIND_0.61 88
999 COSGEN_0.61 88
107 ESRank7 88
202 ESForwSacLong+10+47 88
999 WORDS_l'atmosphère~15 166
999 WORDFREQ_36.15 166
999 WORDSALL_l'atmosphère~15 166
999 COSIND_0.61 166
999 COSGEN_0.61 166
108 ESRank8 166
203 ESBackSacRefixation 166
999 WORDS_l'atmosphère~15 102
999 WORDFREQ_36.15 102
999 WORDSALL_l'atmosphère~15 102
999 COSIND_0.61 102
999 COSGEN_0.61 102
109 ESRank9 102
203 ESBackSacRefixation 102
999 WORDS_a~18 112
999 WORDFREQ_1669.39 112
999 WORDSALL_ce~16_a~18 112
999 COSIND_N/A 112
110 ESRank10 112
202 ESForwSacLong+3+8 112
200 ESRankN 112
199 ESRankNMinus1 102
198 ESRankNMinus2 166
197 ESRankNMinus3 88
196 ESRankNMinus4 158
195 ESRankNMinus5 239
194 ESRankNMinus6 107
193 ESRankNMinus7 93
192 ESRankNMinus8 174
191 ESRankNMinus9 82
