# 137 Fixation 1 (307.3,293.6): Le~0 bombardier~1
# 124 Fixation 2 (395.4,293.4): bombardier~1 Spirit~2 Bourget~9
# 159 Fixation 3 (457,294.6): Spirit~2
# 144 Fixation 4 (601.2,289.7): que~3 visiteurs~5 entraperçu~11
# 175 Fixation 5 (649.8,282.8): les~4 visiteurs~5
# 138 Fixation 6 (536,386): ont~10 entraperçu~11 passage~19
# 131 Fixation 7 (568.3,375): entraperçu~11
# 123 Fixation 8 (651.9,367.9): entraperçu~11 juin~13 au-dessus~20
# 159 Fixation 9 (699.1,366): en~12 juin~13
# 154 Fixation 10 (461.4,431.5): très~17 bref~18
# 157 Fixation 11 (534.6,420.1): bref~18 passage~19
# 236 Fixation 12 (662.4,412.7): entraperçu~11 juin~13 au-dessus~20
# 199 Fixation 13 (315.3,456.4): temps~15 têtes~23
# 126 Fixation 14 (477.4,462.7): très~17 bref~18
# 130 Fixation 15 (558.9,466.5): passage~19 drôle~26
# 169 Fixation 16 (626,467.3): passage~19 au-dessus~20 machine~28
# 165 Fixation 17 (376.6,510.2): têtes~23
%%
# Le~0 Fixations= "1/"
# bombardier~1 Fixations= "2/"
# Spirit~2 Fixations= "3/"
# que~3 Fixations= "4/"
# les~4 Fixations= "5/"
# visiteurs~5 Fixations= "5/"
# du~6 Fixations= ""
# salon~7 Fixations= ""
# du~8 Fixations= ""
# Bourget~9 Fixations= "2/"
# ont~10 Fixations= "6/"
# entraperçu~11 Fixations= "12/"
# en~12 Fixations= "9/"
# juin~13 Fixations= "12/"
# le~14 Fixations= ""
# temps~15 Fixations= "13/"
# d'un~16 Fixations= ""
# très~17 Fixations= "14/"
# bref~18 Fixations= "14/"
# passage~19 Fixations= "16/"
# au-dessus~20 Fixations= "16/"
# de~21 Fixations= ""
# leurs~22 Fixations= ""
# têtes~23 Fixations= "17/"
# est~24 Fixations= ""
# une~25 Fixations= ""
# drôle~26 Fixations= "15/"
# de~27 Fixations= ""
# machine~28 Fixations= "16/"
# volante~29 Fixations= ""
# pour~30 Fixations= ""
# les~31 Fixations= ""
# non~32 Fixations= ""
# initiés~33 Fixations= ""
%%
#  LE[1] BOMBARDIER[2] SPIRIT[3] QUE[4] LES[5] VISITEURS[5] du salon du BOURGET[2] ONT[6] ENTRAPERçU[12] EN[9] JUIN[12] le TEMPS[13] d'un TRèS[14] BREF[14] PASSAGE[16] AU-DESSUS[16] de leurs TêTES[17] est une DRôLE[15] de MACHINE[16] volante pour les non initiés
# s10 allocation_familiale-a1 PercentageOfWordsProcessed= 0.558823529411765 PercentageOfWordsReallyProcessed= 0.655172413793103
