999 WORDS_L'ortolan~0 133
999 WORDFREQ_0.27 133
999 WORDSALL_L'ortolan~0 133
999 COSIND_0.54 133
999 COSGEN_0.54 133
101 ESRank1 133
999 WORDS_L'ortolan~0 206
999 WORDFREQ_0.27 206
999 WORDSALL_L'ortolan~0 206
999 COSIND_0.54 206
999 COSGEN_0.54 206
102 ESRank2 206
203 ESBackSacRefixation 206
999 WORDS_petit~1 270
999 WORDFREQ_653.78 270
999 WORDSALL_petit~1 270
999 COSIND_0.09 270
999 COSGEN_0.09 270
103 ESRank3 270
201 ESForwSacShort 270
999 WORDS_oiseau~2 158
999 WORDFREQ_47.97 158
999 WORDSALL_petit~1_oiseau~2 158
999 COSIND_0.83 158
999 COSGEN_0.83 158
104 ESRank4 158
201 ESForwSacShort 158
999 WORDS_très~3 145
999 WORDFREQ_1120.81 145
999 WORDSALL_oiseau~2_très~3 145
999 COSIND_N/A 145
105 ESRank5 145
201 ESForwSacShort 145
999 WORDS_prisé~4 188
999 WORDFREQ_0.54 188
999 WORDSALL_très~3_prisé~4 188
999 COSIND_0.09 188
999 COSGEN_0.09 188
106 ESRank6 188
201 ESForwSacShort 188
999 WORDS_prisé~4 107
999 WORDFREQ_0.54 107
999 WORDSALL_prisé~4 107
999 COSIND_0.09 107
999 COSGEN_0.09 107
107 ESRank7 107
203 ESBackSacRefixation 107
999 WORDS_gourmets~7 255
999 WORDFREQ_0.74 255
999 WORDSALL_gourmets~7 255
999 COSIND_0.07 255
999 COSGEN_0.07 255
108 ESRank8 255
202 ESForwSacLong+3+9 255
999 WORDS_Sud-ouest~9 177
999 WORDFREQ_3.51 177
999 WORDSALL_du~8_Sud-ouest~9 177
999 COSIND_N/A 177
109 ESRank9 177
202 ESForwSacLong+2+4 177
999 WORDS_Sud-ouest~9 106
999 WORDFREQ_3.51 106
999 WORDSALL_Sud-ouest~9 106
999 COSIND_N/A 106
110 ESRank10 106
203 ESBackSacRefixation 106
999 WORDS_appartiendra~10 151
999 WORDFREQ_1.01 151
999 WORDSALL_appartiendra~10 151
999 COSIND_-0.02 151
999 COSGEN_-0.02 151
111 ESRank11 151
201 ESForwSacShort 151
999 WORDS_appartiendra~10 99
999 WORDFREQ_1.01 99
999 WORDSALL_appartiendra~10 99
999 COSIND_-0.02 99
999 COSGEN_-0.02 99
112 ESRank12 99
203 ESBackSacRefixation 99
999 WORDS_espèces~13 220
999 WORDFREQ_14.46 220
999 WORDSALL_aux~12_espèces~13 220
999 COSIND_0.54 220
999 COSGEN_0.54 220
113 ESRank13 220
202 ESForwSacLong+3+14 220
999 WORDS_protégées~14 220
999 WORDFREQ_0.14 220
999 WORDSALL_protégées~14 220
999 COSIND_0.25 220
999 COSGEN_0.25 220
114 ESRank14 220
201 ESForwSacShort 220
999 WORDS_décret~16 247
999 WORDFREQ_6.42 247
999 WORDSALL_Un~15_décret~16 247
999 COSIND_0.18 247
999 COSGEN_0.18 247
115 ESRank15 247
202 ESForwSacLong+2+4 247
200 ESRankN 247
199 ESRankNMinus1 220
198 ESRankNMinus2 220
197 ESRankNMinus3 99
196 ESRankNMinus4 151
195 ESRankNMinus5 106
194 ESRankNMinus6 177
193 ESRankNMinus7 255
192 ESRankNMinus8 107
191 ESRankNMinus9 188
190 ESRankNMinus10 145
