999 WORDS_Après~0 114
999 WORDFREQ_137.23 114
999 WORDSALL_Après~0 114
999 COSIND_0.01 114
999 COSGEN_0.01 114
101 ESRank1 114
999 WORDS_l'Amérique~1 129
999 WORDFREQ_1.08 129
999 WORDSALL_l'Amérique~1 129
999 COSIND_N/A 129
102 ESRank2 129
201 ESForwSacShort 129
999 WORDS_Sud~3 135
999 WORDFREQ_28.38 135
999 WORDSALL_du~2_Sud~3 135
999 COSIND_-0.04 135
999 COSGEN_-0.04 135
103 ESRank3 135
202 ESForwSacLong+2+4 135
999 WORDS_continue~6 127
999 WORDFREQ_50.54 127
999 WORDSALL_où~4_continue~6 127
999 COSIND_N/A 127
104 ESRank4 127
202 ESForwSacLong+3+8 127
999 WORDS_nourrir~8 200
999 WORDFREQ_24.05 200
999 WORDSALL_Après~0_l'Amérique~1_nourrir~8 200
999 COSIND_-0.03 200
999 COSGEN_-0.03 200
105 ESRank5 200
202 ESForwSacLong+2+4 200
999 WORDS_populations~10 119
999 WORDFREQ_10.07 119
999 WORDSALL_les~9_populations~10 119
999 COSIND_0.08 119
999 COSGEN_0.08 119
106 ESRank6 119
202 ESForwSacLong+2+5 119
999 WORDS_nourrir~8 167
999 WORDFREQ_24.05 167
999 WORDSALL_Après~0_nourrir~8 167
999 COSIND_-0.03 167
999 COSGEN_-0.03 167
107 ESRank7 167
206 ESBackSacRegrLong-2-5 167
999 WORDS_maïs~12 237
999 WORDFREQ_6.42 237
999 WORDSALL_le~11_maïs~12 237
999 COSIND_-0.08 237
999 COSGEN_-0.08 237
108 ESRank8 237
202 ESForwSacLong+4+20 237
999 WORDS_conquis~14 152
999 WORDFREQ_7.97 152
999 WORDSALL_maïs~12_a~13_conquis~14 152
999 COSIND_-0.04 152
999 COSGEN_-0.04 152
109 ESRank9 152
202 ESForwSacLong+2+3 152
999 WORDS_troupeaux~27 135
999 WORDFREQ_9.26 135
999 WORDSALL_il~20_utilisé~23_troupeaux~27 135
999 COSIND_-0.10 135
999 COSGEN_-0.10 135
110 ESRank10 135
202 ESForwSacLong+13+67 135
999 WORDS_utilisé~23 168
999 WORDFREQ_0.95 168
999 WORDSALL_surtout~22_utilisé~23 168
999 COSIND_-0.01 168
999 COSGEN_-0.01 168
111 ESRank11 168
206 ESBackSacRegrLong-4-21 168
999 WORDS_où~19 161
999 WORDFREQ_1767.23 161
999 WORDSALL_monde~18_où~19 161
999 COSIND_N/A 161
112 ESRank12 161
206 ESBackSacRegrLong-4-16 161
999 WORDS_reste~16 112
999 WORDFREQ_152.91 112
999 WORDSALL_le~15_reste~16 112
999 COSIND_-0.00 112
999 COSGEN_-0.00 112
113 ESRank13 112
206 ESBackSacRegrLong-3-10 112
999 WORDS_reste~16 147
999 WORDFREQ_152.91 147
999 WORDSALL_nourrir~8_reste~16 147
999 COSIND_-0.00 147
999 COSGEN_-0.00 147
114 ESRank14 147
203 ESBackSacRefixation 147
200 ESRankN 147
199 ESRankNMinus1 112
198 ESRankNMinus2 161
197 ESRankNMinus3 168
196 ESRankNMinus4 135
195 ESRankNMinus5 152
194 ESRankNMinus6 237
193 ESRankNMinus7 167
192 ESRankNMinus8 119
191 ESRankNMinus9 200
190 ESRankNMinus10 127
