999 WORDS_raison~1 94
999 WORDFREQ_247.5 94
999 WORDSALL_En~0_raison~1 94
999 COSIND_0.01 94
999 COSGEN_0.01 94
101 ESRank1 94
999 WORDS_raison~1 155
999 WORDFREQ_247.5 155
999 WORDSALL_En~0_raison~1 155
999 COSIND_0.01 155
999 COSGEN_0.01 155
102 ESRank2 155
203 ESBackSacRefixation 155
999 WORDS_travaux~3 222
999 WORDFREQ_39.46 222
999 WORDSALL_des~2_travaux~3 222
999 COSIND_-0.01 222
999 COSGEN_-0.01 222
103 ESRank3 222
202 ESForwSacLong+2+5 222
999 WORDS_entrepris~4 204
999 WORDFREQ_10.74 204
999 WORDSALL_travaux~3_entrepris~4 204
999 COSIND_0.04 204
999 COSGEN_0.04 204
104 ESRank4 204
201 ESForwSacShort 204
999 WORDS_entrepris~4 108
999 WORDFREQ_10.74 108
999 WORDSALL_entrepris~4 108
999 COSIND_0.04 108
999 COSGEN_0.04 108
105 ESRank5 108
203 ESBackSacRefixation 108
999 WORDS_l'aile~6 176
999 WORDFREQ_20.47 176
999 WORDSALL_entrepris~4_l'aile~6 176
999 COSIND_0.18 176
999 COSGEN_0.18 176
106 ESRank6 176
202 ESForwSacLong+2+6 176
999 WORDS_l'aile~6 203
999 WORDFREQ_20.47 203
999 WORDSALL_dans~5_l'aile~6 203
999 COSIND_0.18 203
999 COSGEN_0.18 203
107 ESRank7 203
203 ESBackSacRefixation 203
999 WORDS_nord~7 142
999 WORDFREQ_11.89 142
999 WORDSALL_nord~7 142
999 COSIND_0.03 142
999 COSGEN_0.03 142
108 ESRank8 142
201 ESForwSacShort 142
999 WORDS_nord~7 138
999 WORDFREQ_11.89 138
999 WORDSALL_nord~7 138
999 COSIND_0.03 138
999 COSGEN_0.03 138
109 ESRank9 138
203 ESBackSacRefixation 138
999 WORDS_château~9 191
999 WORDFREQ_63.38 191
999 WORDSALL_du~8_château~9 191
999 COSIND_0.13 191
999 COSGEN_0.13 191
110 ESRank10 191
202 ESForwSacLong+2+4 191
999 WORDS_Versailles~11 307
999 WORDFREQ_N/A 307
999 WORDSALL_de~10_Versailles~11 307
999 COSIND_N/A 307
111 ESRank11 307
202 ESForwSacLong+2+4 307
999 WORDS_Versailles~11 132
999 WORDFREQ_N/A 132
999 WORDSALL_de~10_Versailles~11 132
999 COSIND_N/A 132
112 ESRank12 132
203 ESBackSacRefixation 132
999 WORDS_salles~13 253
999 WORDFREQ_18.18 253
999 WORDSALL_les~12_salles~13 253
999 COSIND_0.15 253
999 COSGEN_0.15 253
113 ESRank13 253
202 ESForwSacLong+2+5 253
999 WORDS_croisades~15 187
999 WORDFREQ_2.97 187
999 WORDSALL_des~14_croisades~15 187
999 COSIND_-0.04 187
999 COSGEN_-0.04 187
114 ESRank14 187
202 ESForwSacLong+2+5 187
999 WORDS_croisades~15 133
999 WORDFREQ_2.97 133
999 WORDSALL_croisades~15 133
999 COSIND_-0.04 133
999 COSGEN_-0.04 133
115 ESRank15 133
203 ESBackSacRefixation 133
999 WORDS_circuit~18 306
999 WORDFREQ_7.77 306
999 WORDSALL_le~17_circuit~18 306
999 COSIND_0.01 306
999 COSGEN_0.01 306
116 ESRank16 306
202 ESForwSacLong+3+7 306
999 WORDS_XVIIe~20 343
999 WORDFREQ_N/A 343
999 WORDSALL_circuit~18_XVIIe~20 343
999 COSIND_N/A 343
117 ESRank17 343
202 ESForwSacLong+2+4 343
999 WORDS_siècle~21 117
999 WORDFREQ_79.05 117
999 WORDSALL_siècle~21 117
999 COSIND_0.01 117
999 COSGEN_0.01 117
118 ESRank18 117
201 ESForwSacShort 117
999 WORDS_siècle~21 201
999 WORDFREQ_79.05 201
999 WORDSALL_siècle~21 201
999 COSIND_0.01 201
999 COSGEN_0.01 201
119 ESRank19 201
203 ESBackSacRefixation 201
999 WORDS_font~23 180
999 WORDFREQ_153.92 180
999 WORDSALL_qui~22_font~23 180
999 COSIND_0.02 180
999 COSGEN_0.02 180
120 ESRank20 180
202 ESForwSacLong+2+5 180
999 WORDS_partie~24 172
999 WORDFREQ_187.97 172
999 WORDSALL_font~23_partie~24 172
999 COSIND_0.03 172
999 COSGEN_0.03 172
201 ESForwSacShort 172
999 WORDS_partie~24 129
999 WORDFREQ_187.97 129
999 WORDSALL_font~23_partie~24 129
999 COSIND_0.03 129
999 COSGEN_0.03 129
203 ESBackSacRefixation 129
999 WORDS_musée~26 221
999 WORDFREQ_21.55 221
999 WORDSALL_du~25_musée~26 221
999 COSIND_0.86 221
999 COSGEN_0.86 221
202 ESForwSacLong+2+4 221
999 WORDS_musée~26 112
999 WORDFREQ_21.55 112
999 WORDSALL_du~25_musée~26 112
999 COSIND_0.86 112
999 COSGEN_0.86 112
203 ESBackSacRefixation 112
999 WORDS_musée~26 198
999 WORDFREQ_21.55 198
999 WORDSALL_musée~26 198
999 COSIND_0.86 198
999 COSGEN_0.86 198
203 ESBackSacRefixation 198
999 WORDS_l'histoire~28 147
999 WORDFREQ_292.23 147
999 WORDSALL_l'histoire~28 147
999 COSIND_0.02 147
999 COSGEN_0.02 147
202 ESForwSacLong+2+4 147
999 WORDS_l'histoire~28 177
999 WORDFREQ_292.23 177
999 WORDSALL_l'histoire~28 177
999 COSIND_0.02 177
999 COSGEN_0.02 177
203 ESBackSacRefixation 177
999 WORDS_France~30 266
999 WORDFREQ_N/A 266
999 WORDSALL_de~29_France~30 266
999 COSIND_N/A 266
202 ESForwSacLong+2+4 266
999 WORDS_seront~31 156
999 WORDFREQ_23.99 156
999 WORDSALL_seront~31 156
999 COSIND_0.06 156
999 COSGEN_0.06 156
201 ESForwSacShort 156
200 ESRankN 156
199 ESRankNMinus1 266
198 ESRankNMinus2 177
197 ESRankNMinus3 147
196 ESRankNMinus4 198
195 ESRankNMinus5 112
194 ESRankNMinus6 221
193 ESRankNMinus7 129
192 ESRankNMinus8 172
191 ESRankNMinus9 180
190 ESRankNMinus10 201
