# 159 Fixation 1 (343,294): bonne~1
# 170 Fixation 2 (440.2,279.1): connaissance~2
# 168 Fixation 3 (590.3,279): du~3 fonctionnement~4
# 132 Fixation 4 (674.6,283.9): fonctionnement~4
# 230 Fixation 5 (306.3,340.4): l'ordinateur~6
# 331 Fixation 6 (493.2,329.6): et~7 d'Internet~8
# 490 Fixation 7 (664.4,338.6): est~9 importante~10
# 209 Fixation 8 (517.2,326.3): d'Internet~8
# 166 Fixation 9 (363.8,376.8): l'ordinateur~6
# 132 Fixation 10 (375,349.5): l'ordinateur~6
# 254 Fixation 11 (431.5,344.8): et~7 d'Internet~8
# 242 Fixation 12 (359,406.6): systèmes~12
# 211 Fixation 13 (468.4,405.7): de~13 formation~14
# 414 Fixation 14 (637.3,396.4): à~15 distance~16
# 262 Fixation 15 (338.3,449.3): pédagogie~20
# 259 Fixation 16 (508.1,460.8): pour~21 adultes~22
# 261 Fixation 17 (618.7,462.7): en~23 formation~24
# 265 Fixation 18 (348.1,530.7): continue~25 vont~26
# 184 Fixation 19 (453.4,527.8): vont~26 être~27
# 125 Fixation 20 (556,532.1): mis~28 place~30
%%
# Une~0 Fixations= ""
# bonne~1 Fixations= "1/"
# connaissance~2 Fixations= "2/"
# du~3 Fixations= "3/"
# fonctionnement~4 Fixations= "4/"
# de~5 Fixations= ""
# l'ordinateur~6 Fixations= "10/"
# et~7 Fixations= "11/"
# d'Internet~8 Fixations= "11/"
# est~9 Fixations= "7/"
# importante~10 Fixations= "7/"
# Des~11 Fixations= ""
# systèmes~12 Fixations= "12/"
# de~13 Fixations= "13/"
# formation~14 Fixations= "13/"
# à~15 Fixations= "14/"
# distance~16 Fixations= "14/"
# et~17 Fixations= ""
# de~18 Fixations= ""
# la~19 Fixations= ""
# pédagogie~20 Fixations= "15/"
# pour~21 Fixations= "16/"
# adultes~22 Fixations= "16/"
# en~23 Fixations= "17/"
# formation~24 Fixations= "17/"
# continue~25 Fixations= "18/"
# vont~26 Fixations= "19/"
# être~27 Fixations= "19/"
# mis~28 Fixations= "20/"
# en~29 Fixations= ""
# place~30 Fixations= "20/"
%%
#  Une BONNE[1] CONNAISSANCE[2] DU[3] FONCTIONNEMENT[4] de L'ORDINATEUR[10] ET[11] D'INTERNET[11] EST[7] IMPORTANTE[7] Des SYSTèMES[12] DE[13] FORMATION[13] à[14] DISTANCE[14] et de la PéDAGOGIE[15] POUR[16] ADULTES[16] EN[17] FORMATION[17] CONTINUE[18] VONT[19] êTRE[19] MIS[20] en PLACE[20]
# s04 formation_informatique-f2 PercentageOfWordsProcessed= 0.774193548387097 PercentageOfWordsReallyProcessed= 0.774193548387097
