# 162 Fixation 1 (378.4,260.6): souvient~2
# 157 Fixation 2 (279.7,279): On~0 souvient~2
# 147 Fixation 3 (336,276.4): se~1 souvient~2
# 346 Fixation 4 (490.8,252.8): du~3 fameux~4
# 150 Fixation 5 (604.7,222.1): symbole~5
# 183 Fixation 6 (746,195.4):
# 207 Fixation 7 (330.7,336): revu~8 Andy~10
# 238 Fixation 8 (254.8,349.1): revu~8
# 240 Fixation 9 (411.7,344.7): Andy~10 Warhol~11
# 161 Fixation 10 (451.6,343.6): Andy~10 Warhol~11
# 288 Fixation 11 (560.7,331.5): Le~12 pop-artiste~13
# 168 Fixation 12 (284.6,409.1): américain~14
# 159 Fixation 13 (263.1,413.4): américain~14
# 209 Fixation 14 (404.3,441.4): avait~15
# 252 Fixation 15 (409.1,482.5): l'argent~22
# 175 Fixation 16 (426.6,549.9): collectionneurs~30
%%
# On~0 Fixations= "2/"
# se~1 Fixations= "3/"
# souvient~2 Fixations= "3/"
# du~3 Fixations= "4/"
# fameux~4 Fixations= "4/"
# symbole~5 Fixations= "5/"
# du~6 Fixations= ""
# dollar~7 Fixations= ""
# revu~8 Fixations= "8/"
# par~9 Fixations= ""
# Andy~10 Fixations= "10/"
# Warhol~11 Fixations= "10/"
# Le~12 Fixations= "11/"
# pop-artiste~13 Fixations= "11/"
# américain~14 Fixations= "13/"
# avait~15 Fixations= "14/"
# d'un~16 Fixations= ""
# signe~17 Fixations= ""
# simple~18 Fixations= ""
# amalgamé~19 Fixations= ""
# l'art~20 Fixations= ""
# et~21 Fixations= ""
# l'argent~22 Fixations= "15/"
# pour~23 Fixations= ""
# la~24 Fixations= ""
# plus~25 Fixations= ""
# grande~26 Fixations= ""
# joie~27 Fixations= ""
# de~28 Fixations= ""
# ses~29 Fixations= ""
# collectionneurs~30 Fixations= "16/"
%%
#  ON[2] SE[3] SOUVIENT[3] DU[4] FAMEUX[4] SYMBOLE[5] du dollar REVU[8] par ANDY[10] WARHOL[10] LE[11] POP-ARTISTE[11] AMéRICAIN[13] AVAIT[14] d'un signe simple amalgamé l'art et L'ARGENT[15] pour la plus grande joie de ses COLLECTIONNEURS[16]
# s20 art_contemporain-f1 PercentageOfWordsProcessed= 0.483870967741935 PercentageOfWordsReallyProcessed= 0.483870967741935
