# 358 Fixation 1 (286.7,291.3): La~0 plainte~1
# 211 Fixation 2 (376.5,287.5): plainte~1 avait~2
# 130 Fixation 3 (341,286.7): plainte~1
# 277 Fixation 4 (433.4,281.3): avait~2
# 223 Fixation 5 (496.7,279.9): été~3
# 144 Fixation 6 (563.7,280.3): déposée~4
# 183 Fixation 7 (618.4,277.8): déposée~4
# 338 Fixation 8 (300.1,339.8): La~0 plainte~1 l'entreprise~6
# 322 Fixation 9 (450.2,365.1): et~7 portait~8
# 225 Fixation 10 (611.1,419.3): location~17
# 183 Fixation 11 (661.2,343.3): par~5 mobilier~11
# 240 Fixation 12 (579.1,428.3): de~16 location~17
# 296 Fixation 13 (387.3,421.8): et~13 service~15 service~22
# 395 Fixation 14 (332.3,417.3): urbain~12
# 235 Fixation 15 (323.8,457.2): urbain~12 libre~21
# 366 Fixation 16 (494.7,468.9): service~15 groupe~24
# 209 Fixation 17 (592.2,476.2): de~16 location~17 groupe~24
# 342 Fixation 18 (332.8,533.1): libre~21
# 294 Fixation 19 (370.2,391.7): l'entreprise~6
# 364 Fixation 20 (273.2,396.5): l'entreprise~6 urbain~12
# 304 Fixation 21 (308.1,349): l'entreprise~6
# 284 Fixation 22 (355.9,287.7): plainte~1
# 251 Fixation 23 (416.8,325.6): avait~2
%%
# La~0 Fixations= "8/"
# plainte~1 Fixations= "22/"
# avait~2 Fixations= "23/"
# été~3 Fixations= "5/"
# déposée~4 Fixations= "7/"
# par~5 Fixations= "11/"
# l'entreprise~6 Fixations= "21/"
# et~7 Fixations= "9/"
# portait~8 Fixations= "9/"
# sur~9 Fixations= ""
# le~10 Fixations= ""
# mobilier~11 Fixations= "11/"
# urbain~12 Fixations= "20/"
# et~13 Fixations= "13/"
# le~14 Fixations= ""
# service~15 Fixations= "16/"
# de~16 Fixations= "17/"
# location~17 Fixations= "17/"
# de~18 Fixations= ""
# vélos~19 Fixations= ""
# en~20 Fixations= ""
# libre~21 Fixations= "18/"
# service~22 Fixations= "13/"
# Le~23 Fixations= ""
# groupe~24 Fixations= "17/"
# américain~25 Fixations= ""
# a~26 Fixations= ""
# déposé~27 Fixations= ""
# un~28 Fixations= ""
# recours~29 Fixations= ""
%%
#  LA[8] PLAINTE[22] AVAIT[23] éTé[5] DéPOSéE[7] PAR[11] L'ENTREPRISE[21] ET[9] PORTAIT[9] sur le MOBILIER[11] URBAIN[20] ET[13] le SERVICE[16] DE[17] LOCATION[17] de vélos en LIBRE[18] SERVICE[13] Le GROUPE[17] américain a déposé un recours
# s14 observation_planetes-a1 PercentageOfWordsProcessed= 0.6 PercentageOfWordsReallyProcessed= 0.72
