999 WORDS_semble~1 130
999 WORDFREQ_154.19 130
999 WORDSALL_Il~0_semble~1 130
999 COSIND_0.05 130
999 COSGEN_0.05 130
101 ESRank1 130
999 WORDS_à~3 203
999 WORDFREQ_19209.05 203
999 WORDSALL_semble~1_à~3 203
999 COSIND_N/A 203
102 ESRank2 203
202 ESForwSacLong+2+5 203
999 WORDS_l'instar~4 250
999 WORDFREQ_N/A 250
999 WORDSALL_à~3_l'instar~4 250
999 COSIND_N/A 250
103 ESRank3 250
201 ESForwSacShort 250
999 WORDS_Anglais~6 417
999 WORDFREQ_69.46 417
999 WORDSALL_des~5_Anglais~6 417
999 COSIND_0.11 417
999 COSGEN_0.11 417
104 ESRank4 417
202 ESForwSacLong+2+5 417
999 WORDS_Anglais~6 83
999 WORDFREQ_69.46 83
999 WORDSALL_l'instar~4_Anglais~6 83
999 COSIND_0.11 83
999 COSGEN_0.11 83
105 ESRank5 83
203 ESBackSacRefixation 83
999 WORDS_Gallois~8 186
999 WORDFREQ_0 186
999 WORDSALL_Gallois~8 186
999 COSIND_0.45 186
999 COSGEN_0.45 186
106 ESRank6 186
202 ESForwSacLong+2+5 186
999 WORDS_Gallois~8 142
999 WORDFREQ_0 142
999 WORDSALL_Gallois~8 142
999 COSIND_0.45 142
999 COSGEN_0.45 142
107 ESRank7 142
203 ESBackSacRefixation 142
999 WORDS_soient~9 170
999 WORDFREQ_21.89 170
999 WORDSALL_soient~9 170
999 COSIND_0.12 170
999 COSGEN_0.12 170
108 ESRank8 170
201 ESForwSacShort 170
999 WORDS_parvenus~10 188
999 WORDFREQ_5.2 188
999 WORDSALL_parvenus~10 188
999 COSIND_0.06 188
999 COSGEN_0.06 188
109 ESRank9 188
201 ESForwSacShort 188
999 WORDS_assimiler~12 132
999 WORDFREQ_3.04 132
999 WORDSALL_à~11_assimiler~12 132
999 COSIND_-0.01 132
999 COSGEN_-0.01 132
110 ESRank10 132
202 ESForwSacLong+2+4 132
999 WORDS_assimiler~12 156
999 WORDFREQ_3.04 156
999 WORDSALL_à~11_assimiler~12 156
999 COSIND_-0.01 156
999 COSGEN_-0.01 156
111 ESRank11 156
203 ESBackSacRefixation 156
999 WORDS_éléments~14 125
999 WORDFREQ_46.89 125
999 WORDSALL_éléments~14 125
999 COSIND_0.00 125
999 COSGEN_0.00 125
112 ESRank12 125
202 ESForwSacLong+2+5 125
999 WORDS_éléments~14 189
999 WORDFREQ_46.89 189
999 WORDSALL_éléments~14 189
999 COSIND_0.00 189
999 COSGEN_0.00 189
113 ESRank13 189
203 ESBackSacRefixation 189
999 WORDS_permis~17 234
999 WORDFREQ_35.54 234
999 WORDSALL_ont~16_permis~17 234
999 COSIND_0.17 234
999 COSGEN_0.17 234
114 ESRank14 234
202 ESForwSacLong+3+9 234
999 WORDS_l'hémisphère~19 178
999 WORDFREQ_0.88 178
999 WORDSALL_l'hémisphère~19 178
999 COSIND_0.16 178
999 COSGEN_0.16 178
115 ESRank15 178
202 ESForwSacLong+2+4 178
999 WORDS_l'hémisphère~19 165
999 WORDFREQ_0.88 165
999 WORDSALL_à~18_l'hémisphère~19 165
999 COSIND_0.16 165
999 COSGEN_0.16 165
116 ESRank16 165
203 ESBackSacRefixation 165
999 WORDS_Sud~20 83
999 WORDFREQ_6.62 83
999 WORDSALL_l'hémisphère~19_Sud~20 83
999 COSIND_0.05 83
999 COSGEN_0.05 83
117 ESRank17 83
201 ESForwSacShort 83
999 WORDS_dominer~22 320
999 WORDFREQ_10.34 320
999 WORDSALL_dominer~22 320
999 COSIND_0.35 320
999 COSGEN_0.35 320
118 ESRank18 320
202 ESForwSacLong+2+4 320
999 WORDS_rugby~24 250
999 WORDFREQ_3.11 250
999 WORDSALL_le~23_rugby~24 250
999 COSIND_0.13 250
999 COSGEN_0.13 250
119 ESRank19 250
202 ESForwSacLong+2+4 250
999 WORDS_mondial~25 183
999 WORDFREQ_2.5 183
999 WORDSALL_rugby~24_mondial~25 183
999 COSIND_0.14 183
999 COSGEN_0.14 183
120 ESRank20 183
201 ESForwSacShort 183
999 WORDS_depuis~26 165
999 WORDFREQ_114.05 165
999 WORDSALL_depuis~26 165
999 COSIND_N/A 165
201 ESForwSacShort 165
999 WORDS_dominer~22 144
999 WORDFREQ_10.34 144
999 WORDSALL_dominer~22 144
999 COSIND_0.35 144
999 COSGEN_0.35 144
206 ESBackSacRegrLong-4-18 144
999 WORDS_depuis~26 250
999 WORDFREQ_114.05 250
999 WORDSALL_depuis~26 250
999 COSIND_N/A 250
202 ESForwSacLong+4+18 250
200 ESRankN 250
199 ESRankNMinus1 144
198 ESRankNMinus2 165
197 ESRankNMinus3 183
196 ESRankNMinus4 250
195 ESRankNMinus5 320
194 ESRankNMinus6 83
193 ESRankNMinus7 165
192 ESRankNMinus8 178
191 ESRankNMinus9 234
190 ESRankNMinus10 189
