# 158 Fixation 1 (245,196.5): Qui~0 sont~1
# 118 Fixation 2 (313.3,202.5): Qui~0 sont~1
# 198 Fixation 3 (429.6,220.6): ces~2 étudiants~3
# 161 Fixation 4 (590.2,256.9): qui~4 n'ont~5
# 127 Fixation 5 (670.2,268): n'ont~5
# 133 Fixation 6 (307.2,321.1): Qui~0 sont~1 moyens~8
# 146 Fixation 7 (265,355.5): moyens~8
# 158 Fixation 8 (444.4,328.2): ces~2 étudiants~3 s'offrir~10
# 217 Fixation 9 (624.7,366.4): repas~12 à~13 3~14
# 230 Fixation 10 (319.8,405.4): moyens~8 Principalement~16
# 180 Fixation 11 (545,413.6): étudiants~18
# 184 Fixation 12 (663.4,422.5): étrangers~19
# 180 Fixation 13 (520.8,421.6): des~17 étudiants~18
# 132 Fixation 14 (673.8,432.7): étrangers~19
# 132 Fixation 15 (387.7,489.5): pas~22 bourses~24
# 240 Fixation 16 (552.7,469.1): étudiants~18 d'études~25
%%
# Qui~0 Fixations= "6/"
# sont~1 Fixations= "6/"
# ces~2 Fixations= "8/"
# étudiants~3 Fixations= "8/"
# qui~4 Fixations= "4/"
# n'ont~5 Fixations= "5/"
# pas~6 Fixations= ""
# les~7 Fixations= ""
# moyens~8 Fixations= "10/"
# de~9 Fixations= ""
# s'offrir~10 Fixations= "8/"
# un~11 Fixations= ""
# repas~12 Fixations= "9/"
# à~13 Fixations= "9/"
# 3~14 Fixations= "9/"
# euros~15 Fixations= ""
# Principalement~16 Fixations= "10/"
# des~17 Fixations= "13/"
# étudiants~18 Fixations= "16/"
# étrangers~19 Fixations= "14/"
# qui~20 Fixations= ""
# n'ont~21 Fixations= ""
# pas~22 Fixations= "15/"
# de~23 Fixations= ""
# bourses~24 Fixations= "15/"
# d'études~25 Fixations= "16/"
# résume~26 Fixations= ""
# l'assistante~27 Fixations= ""
# sociale~28 Fixations= ""
# du~29 Fixations= ""
# Crous~30 Fixations= ""
%%
#  QUI[6] SONT[6] CES[8] éTUDIANTS[8] QUI[4] N'ONT[5] pas les MOYENS[10] de S'OFFRIR[8] un REPAS[9] à[9] 3[9] euros PRINCIPALEMENT[10] DES[13] éTUDIANTS[16] éTRANGERS[14] qui n'ont PAS[15] de BOURSES[15] D'éTUDES[16] résume l'assistante sociale du Crous
# s21 salon_aeronautique-a1 PercentageOfWordsProcessed= 0.580645161290323 PercentageOfWordsReallyProcessed= 0.692307692307692
