# 150 Fixation 1 (350.5,301.6): Comme~0 écho~2
# 156 Fixation 2 (428.1,295.3): écho~2 à~3
# 149 Fixation 3 (475.9,286.8): à~3
# 243 Fixation 4 (575.1,291.3): assurance~5
# 167 Fixation 5 (695.5,299.1): retrouvée~6
# 191 Fixation 6 (342.4,344.1): depuis~7 fin~9
# 185 Fixation 7 (411.5,346.4): la~8 fin~9
# 103 Fixation 8 (302.6,349.3): depuis~7 fin~9
# 163 Fixation 9 (626.7,351.6): la~13 commission~14
# 142 Fixation 10 (679.6,353.1): la~13 commission~14
# 312 Fixation 11 (336.3,410.1): des~15 affaires~16
# 200 Fixation 12 (453,410.5): étrangères~17
# 257 Fixation 13 (599.2,410.3): du~18 Sénat~19
# 198 Fixation 14 (712.8,400.6): a~20 fixé~21
# 202 Fixation 15 (596.9,411.5): du~18 Sénat~19
# 246 Fixation 16 (715.2,407.9): a~20 fixé~21
# 346 Fixation 17 (331.2,459): date~23
# 104 Fixation 18 (271.9,462.1): date~23
# 152 Fixation 19 (439.6,467.3): le~25 début~26
# 339 Fixation 20 (559.4,474.5): des~27 auditions~28
# 159 Fixation 21 (522.6,476.6): des~27 auditions~28
# 101 Fixation 22 (689.5,466.5): et~29
# 236 Fixation 23 (297.1,520.8): nomination~31
# 220 Fixation 24 (455.7,532): qui~32 était~33
# 232 Fixation 25 (532.2,526.2): était~33 bloquée~34
# 307 Fixation 26 (655.8,532): depuis~35 dix~36
# 163 Fixation 27 (405.1,540.6): qui~32 était~33
# 194 Fixation 28 (276.8,573.9): mois~37
# 174 Fixation 29 (561.8,521.5): bloquée~34
%%
# Comme~0 Fixations= "1/"
# en~1 Fixations= ""
# écho~2 Fixations= "2/"
# à~3 Fixations= "3/"
# cette~4 Fixations= ""
# assurance~5 Fixations= "4/"
# retrouvée~6 Fixations= "5/"
# depuis~7 Fixations= "8/"
# la~8 Fixations= "7/"
# fin~9 Fixations= "8/"
# de~10 Fixations= ""
# la~11 Fixations= ""
# guerre~12 Fixations= ""
# la~13 Fixations= "10/"
# commission~14 Fixations= "10/"
# des~15 Fixations= "11/"
# affaires~16 Fixations= "11/"
# étrangères~17 Fixations= "12/"
# du~18 Fixations= "15/"
# Sénat~19 Fixations= "15/"
# a~20 Fixations= "16/"
# fixé~21 Fixations= "16/"
# une~22 Fixations= ""
# date~23 Fixations= "18/"
# pour~24 Fixations= ""
# le~25 Fixations= "19/"
# début~26 Fixations= "19/"
# des~27 Fixations= "21/"
# auditions~28 Fixations= "21/"
# et~29 Fixations= "22/"
# la~30 Fixations= ""
# nomination~31 Fixations= "23/"
# qui~32 Fixations= "27/"
# était~33 Fixations= "27/"
# bloquée~34 Fixations= "29/"
# depuis~35 Fixations= "26/"
# dix~36 Fixations= "26/"
# mois~37 Fixations= "28/"
%%
#  COMME[1] en éCHO[2] à[3] cette ASSURANCE[4] RETROUVéE[5] DEPUIS[8] LA[7] FIN[8] de la guerre LA[10] COMMISSION[10] DES[11] AFFAIRES[11] éTRANGèRES[12] DU[15] SéNAT[15] A[16] FIXé[16] une DATE[18] pour LE[19] DéBUT[19] DES[21] AUDITIONS[21] ET[22] la NOMINATION[23] QUI[27] éTAIT[27] BLOQUéE[29] DEPUIS[26] DIX[26] MOIS[28]
# s04 conflit_irak-m1 PercentageOfWordsProcessed= 0.789473684210526 PercentageOfWordsReallyProcessed= 0.789473684210526
