999 WORDS_filiale~1 152
999 WORDFREQ_0.54 152
999 WORDSALL_filiale~1 152
999 COSIND_0.07 152
999 COSGEN_0.07 152
101 ESRank1 152
999 WORDS_déchets~2 419
999 WORDFREQ_4.46 419
999 WORDSALL_déchets~2 419
999 COSIND_0.92 419
999 COSGEN_0.92 419
102 ESRank2 419
201 ESForwSacShort 419
999 WORDS_filiale~1 354
999 WORDFREQ_0.54 354
999 WORDSALL_La~0_filiale~1 354
999 COSIND_0.07 354
999 COSGEN_0.07 354
103 ESRank3 354
205 ESBackSacRegrShort 354
999 WORDS_Suez~4 223
999 WORDFREQ_0.07 223
999 WORDSALL_de~3_Suez~4 223
999 COSIND_0.14 223
999 COSGEN_0.14 223
104 ESRank4 223
202 ESForwSacLong+3+13 223
999 WORDS_Suez~4 94
999 WORDFREQ_0.07 94
999 WORDSALL_de~3_Suez~4 94
999 COSIND_0.14 94
999 COSGEN_0.14 94
105 ESRank5 94
203 ESBackSacRefixation 94
999 WORDS_Lyonnaise~5 96
999 WORDFREQ_0.2 96
999 WORDSALL_Suez~4_Lyonnaise~5 96
999 COSIND_0.10 96
999 COSGEN_0.10 96
106 ESRank6 96
201 ESForwSacShort 96
999 WORDS_a~8 190
999 WORDFREQ_2926.69 190
999 WORDSALL_eaux~7_a~8 190
999 COSIND_N/A 190
107 ESRank7 190
202 ESForwSacLong+3+10 190
999 WORDS_garde~11 221
999 WORDFREQ_89.86 221
999 WORDSALL_mis~9_garde~11 221
999 COSIND_-0.02 221
999 COSGEN_-0.02 221
108 ESRank8 221
202 ESForwSacLong+3+8 221
999 WORDS_mis~9 120
999 WORDFREQ_245.68 120
999 WORDSALL_eaux~7_a~8_mis~9 120
999 COSIND_0.03 120
999 COSGEN_0.03 120
109 ESRank9 120
206 ESBackSacRegrLong-2-4 120
999 WORDS_mercredi~12 215
999 WORDFREQ_11.82 215
999 WORDSALL_garde~11_mercredi~12 215
999 COSIND_0.02 215
999 COSGEN_0.02 215
110 ESRank10 215
202 ESForwSacLong+3+10 215
999 WORDS_27~13 152
999 WORDFREQ_N/A 152
999 WORDSALL_mercredi~12_27~13 152
999 COSIND_N/A 152
111 ESRank11 152
201 ESForwSacShort 152
999 WORDS_janvier~14 110
999 WORDFREQ_30.61 110
999 WORDSALL_27~13_janvier~14 110
999 COSIND_0.12 110
999 COSGEN_0.12 110
112 ESRank12 110
201 ESForwSacShort 110
999 WORDS_marchés~16 235
999 WORDFREQ_5.07 235
999 WORDSALL_marchés~16 235
999 COSIND_-0.04 235
999 COSGEN_-0.04 235
113 ESRank13 235
202 ESForwSacLong+2+5 235
999 WORDS_possible~18 183
999 WORDFREQ_197.16 183
999 WORDSALL_d'une~17_possible~18 183
999 COSIND_0.02 183
999 COSGEN_0.02 183
114 ESRank14 183
202 ESForwSacLong+2+7 183
999 WORDS_marchés~16 149
999 WORDFREQ_5.07 149
999 WORDSALL_marchés~16 149
999 COSIND_-0.04 149
999 COSGEN_-0.04 149
115 ESRank15 149
206 ESBackSacRegrLong-2-7 149
999 WORDS_baisse~19 209
999 WORDFREQ_3.38 209
999 WORDSALL_possible~18_baisse~19 209
999 COSIND_-0.04 209
999 COSGEN_-0.04 209
116 ESRank16 209
202 ESForwSacLong+3+16 209
999 WORDS_baisse~19 109
999 WORDFREQ_3.38 109
999 WORDSALL_possible~18_baisse~19 109
999 COSIND_-0.04 109
999 COSGEN_-0.04 109
117 ESRank17 109
203 ESBackSacRefixation 109
999 WORDS_possible~18 206
999 WORDFREQ_197.16 206
999 WORDSALL_d'une~17_possible~18 206
999 COSIND_0.02 206
999 COSGEN_0.02 206
118 ESRank18 206
205 ESBackSacRegrShort 206
999 WORDS_baisse~19 203
999 WORDFREQ_3.38 203
999 WORDSALL_baisse~19 203
999 COSIND_-0.04 203
999 COSGEN_-0.04 203
119 ESRank19 203
201 ESForwSacShort 203
999 WORDS_résultats~22 207
999 WORDFREQ_10.95 207
999 WORDSALL_résultats~22 207
999 COSIND_-0.06 207
999 COSGEN_-0.06 207
120 ESRank20 207
202 ESForwSacLong+3+8 207
999 WORDS_suite~25 205
999 WORDFREQ_270.88 205
999 WORDSALL_à~23_suite~25 205
999 COSIND_0.00 205
999 COSGEN_0.00 205
202 ESForwSacLong+3+7 205
999 WORDS_modification~27 216
999 WORDFREQ_1.96 216
999 WORDSALL_d'une~26_modification~27 216
999 COSIND_-0.03 216
999 COSGEN_-0.03 216
202 ESForwSacLong+2+7 216
999 WORDS_modification~27 118
999 WORDFREQ_1.96 118
999 WORDSALL_modification~27 118
999 COSIND_-0.03 118
999 COSGEN_-0.03 118
203 ESBackSacRefixation 118
999 WORDS_réglementation~30 265
999 WORDFREQ_0.41 265
999 WORDSALL_réglementation~30 265
999 COSIND_0.01 265
999 COSGEN_0.01 265
202 ESForwSacLong+3+7 265
999 WORDS_décharges~33 260
999 WORDFREQ_1.42 260
999 WORDSALL_sur~31_décharges~33 260
999 COSIND_0.33 260
999 COSGEN_0.33 260
202 ESForwSacLong+3+9 260
999 WORDS_décharges~33 191
999 WORDFREQ_1.42 191
999 WORDSALL_les~32_décharges~33 191
999 COSIND_0.33 191
999 COSGEN_0.33 191
203 ESBackSacRefixation 191
999 WORDS_modification~27 124
999 WORDFREQ_1.96 124
999 WORDSALL_modification~27 124
999 COSIND_-0.03 124
999 COSGEN_-0.03 124
206 ESBackSacRegrLong-6-31 124
999 WORDS_décharges~33 168
999 WORDFREQ_1.42 168
999 WORDSALL_sur~31_décharges~33 168
999 COSIND_0.33 168
999 COSGEN_0.33 168
202 ESForwSacLong+6+31 168
200 ESRankN 168
199 ESRankNMinus1 124
198 ESRankNMinus2 191
197 ESRankNMinus3 260
196 ESRankNMinus4 265
195 ESRankNMinus5 118
194 ESRankNMinus6 216
193 ESRankNMinus7 205
192 ESRankNMinus8 207
191 ESRankNMinus9 203
190 ESRankNMinus10 206
