999 WORDS_L'ortolan~0 247
999 WORDFREQ_0.27 247
999 WORDSALL_L'ortolan~0 247
999 COSIND_0.54 247
999 COSGEN_0.54 247
101 ESRank1 247
999 WORDS_L'ortolan~0 187
999 WORDFREQ_0.27 187
999 WORDSALL_L'ortolan~0 187
999 COSIND_0.54 187
999 COSGEN_0.54 187
102 ESRank2 187
203 ESBackSacRefixation 187
999 WORDS_petit~1 184
999 WORDFREQ_653.78 184
999 WORDSALL_petit~1 184
999 COSIND_0.09 184
999 COSGEN_0.09 184
103 ESRank3 184
201 ESForwSacShort 184
999 WORDS_oiseau~2 160
999 WORDFREQ_47.97 160
999 WORDSALL_petit~1_oiseau~2 160
999 COSIND_0.83 160
999 COSGEN_0.83 160
104 ESRank4 160
201 ESForwSacShort 160
999 WORDS_prisé~4 289
999 WORDFREQ_0.54 289
999 WORDSALL_très~3_prisé~4 289
999 COSIND_0.09 289
999 COSGEN_0.09 289
105 ESRank5 289
202 ESForwSacLong+2+7 289
999 WORDS_gourmets~7 209
999 WORDFREQ_0.74 209
999 WORDSALL_gourmets~7 209
999 COSIND_0.07 209
999 COSGEN_0.07 209
106 ESRank6 209
202 ESForwSacLong+3+9 209
999 WORDS_Sud-ouest~9 179
999 WORDFREQ_3.51 179
999 WORDSALL_du~8_Sud-ouest~9 179
999 COSIND_N/A 179
107 ESRank7 179
202 ESForwSacLong+2+4 179
999 WORDS_très~3 315
999 WORDFREQ_1120.81 315
999 WORDSALL_oiseau~2_très~3 315
999 COSIND_N/A 315
108 ESRank8 315
206 ESBackSacRegrLong-6-28 315
999 WORDS_prisé~4 288
999 WORDFREQ_0.54 288
999 WORDSALL_prisé~4 288
999 COSIND_0.09 288
999 COSGEN_0.09 288
109 ESRank9 288
201 ESForwSacShort 288
999 WORDS_Sud-ouest~9 108
999 WORDFREQ_3.51 108
999 WORDSALL_Sud-ouest~9 108
999 COSIND_N/A 108
110 ESRank10 108
202 ESForwSacLong+5+21 108
999 WORDS_prisé~4 251
999 WORDFREQ_0.54 251
999 WORDSALL_très~3_prisé~4 251
999 COSIND_0.09 251
999 COSGEN_0.09 251
111 ESRank11 251
206 ESBackSacRegrLong-5-21 251
999 WORDS_espèces~13 230
999 WORDFREQ_14.46 230
999 WORDSALL_aux~12_espèces~13 230
999 COSIND_0.54 230
999 COSGEN_0.54 230
112 ESRank12 230
202 ESForwSacLong+9+57 230
999 WORDS_protégées~14 326
999 WORDFREQ_0.14 326
999 WORDSALL_protégées~14 326
999 COSIND_0.25 326
999 COSGEN_0.25 326
113 ESRank13 326
201 ESForwSacShort 326
200 ESRankN 326
199 ESRankNMinus1 230
198 ESRankNMinus2 251
197 ESRankNMinus3 108
196 ESRankNMinus4 288
195 ESRankNMinus5 315
194 ESRankNMinus6 179
193 ESRankNMinus7 209
192 ESRankNMinus8 289
191 ESRankNMinus9 160
190 ESRankNMinus10 184
