999 WORDS_petits~1 143
999 WORDFREQ_244.19 143
999 WORDSALL_Les~0_petits~1 143
999 COSIND_0.09 143
999 COSGEN_0.09 143
101 ESRank1 143
999 WORDS_boules~2 162
999 WORDFREQ_22.91 162
999 WORDSALL_petits~1_boules~2 162
999 COSIND_0.12 162
999 COSGEN_0.12 162
102 ESRank2 162
201 ESForwSacShort 162
999 WORDS_graisse~4 155
999 WORDFREQ_17.64 155
999 WORDSALL_de~3_graisse~4 155
999 COSIND_0.08 155
999 COSGEN_0.08 155
103 ESRank3 155
202 ESForwSacLong+2+4 155
999 WORDS_graisse~4 185
999 WORDFREQ_17.64 185
999 WORDSALL_de~3_graisse~4 185
999 COSIND_0.08 185
999 COSGEN_0.08 185
104 ESRank4 185
203 ESBackSacRefixation 185
999 WORDS_enrobées~5 227
999 WORDFREQ_0 227
999 WORDSALL_enrobées~5 227
999 COSIND_0.01 227
999 COSGEN_0.01 227
105 ESRank5 227
201 ESForwSacShort 227
999 WORDS_enrobées~5 174
999 WORDFREQ_0 174
999 WORDSALL_enrobées~5 174
999 COSIND_0.01 174
999 COSGEN_0.01 174
106 ESRank6 174
203 ESBackSacRefixation 174
999 WORDS_graines~7 227
999 WORDFREQ_5.47 227
999 WORDSALL_graines~7 227
999 COSIND_0.22 227
999 COSGEN_0.22 227
107 ESRank7 227
202 ESForwSacLong+2+4 227
999 WORDS_diverses~8 325
999 WORDFREQ_14.53 325
999 WORDSALL_graines~7_diverses~8 325
999 COSIND_-0.08 325
999 COSGEN_-0.08 325
108 ESRank8 325
201 ESForwSacShort 325
999 WORDS_sont~9 185
999 WORDFREQ_713.18 185
999 WORDSALL_sont~9 185
999 COSIND_-0.00 185
999 COSGEN_-0.00 185
109 ESRank9 185
201 ESForwSacShort 185
999 WORDS_très~10 116
999 WORDFREQ_1120.81 116
999 WORDSALL_sont~9_très~10 116
999 COSIND_N/A 116
110 ESRank10 116
201 ESForwSacShort 116
999 WORDS_appréciées~11 210
999 WORDFREQ_0.14 210
999 WORDSALL_appréciées~11 210
999 COSIND_0.04 210
999 COSGEN_0.04 210
111 ESRank11 210
201 ESForwSacShort 210
999 WORDS_mésanges~13 177
999 WORDFREQ_0.74 177
999 WORDSALL_mésanges~13 177
999 COSIND_0.18 177
999 COSGEN_0.18 177
112 ESRank12 177
202 ESForwSacLong+2+5 177
999 WORDS_mésanges~13 393
999 WORDFREQ_0.74 393
999 WORDSALL_mésanges~13 393
999 COSIND_0.18 393
999 COSGEN_0.18 393
113 ESRank13 393
203 ESBackSacRefixation 393
999 WORDS_prennent~16 204
999 WORDFREQ_29.12 204
999 WORDSALL_prennent~16 204
999 COSIND_0.02 204
999 COSGEN_0.02 204
114 ESRank14 204
202 ESForwSacLong+3+9 204
200 ESRankN 204
199 ESRankNMinus1 393
198 ESRankNMinus2 177
197 ESRankNMinus3 210
196 ESRankNMinus4 116
195 ESRankNMinus5 185
194 ESRankNMinus6 325
193 ESRankNMinus7 227
192 ESRankNMinus8 174
191 ESRankNMinus9 227
190 ESRankNMinus10 185
