999 WORDS_écho~2 85
999 WORDFREQ_32.5 85
999 WORDSALL_Comme~0_écho~2 85
999 COSIND_0.01 85
999 COSGEN_0.01 85
101 ESRank1 85
999 WORDS_écho~2 199
999 WORDFREQ_32.5 199
999 WORDSALL_en~1_écho~2 199
999 COSIND_0.01 199
999 COSGEN_0.01 199
102 ESRank2 199
203 ESBackSacRefixation 199
999 WORDS_à~3 215
999 WORDFREQ_19209.05 215
999 WORDSALL_écho~2_à~3 215
999 COSIND_N/A 215
103 ESRank3 215
201 ESForwSacShort 215
999 WORDS_assurance~5 216
999 WORDFREQ_25.14 216
999 WORDSALL_cette~4_assurance~5 216
999 COSIND_-0.06 216
999 COSGEN_-0.06 216
104 ESRank4 216
202 ESForwSacLong+2+7 216
999 WORDS_retrouvée~6 201
999 WORDFREQ_15.2 201
999 WORDSALL_retrouvée~6 201
999 COSIND_-0.08 201
999 COSGEN_-0.08 201
105 ESRank5 201
201 ESForwSacShort 201
999 WORDS_fin~9 195
999 WORDFREQ_303.31 195
999 WORDSALL_depuis~7_fin~9 195
999 COSIND_0.06 195
999 COSGEN_0.06 195
106 ESRank6 195
202 ESForwSacLong+3+11 195
999 WORDS_fin~9 117
999 WORDFREQ_303.31 117
999 WORDSALL_depuis~7_fin~9 117
999 COSIND_0.06 117
999 COSGEN_0.06 117
107 ESRank7 117
203 ESBackSacRefixation 117
999 WORDS_guerre~12 184
999 WORDFREQ_338.65 184
999 WORDSALL_de~10_guerre~12 184
999 COSIND_0.56 184
999 COSGEN_0.56 184
108 ESRank8 184
202 ESForwSacLong+3+7 184
999 WORDS_guerre~12 115
999 WORDFREQ_338.65 115
999 WORDSALL_la~11_guerre~12 115
999 COSIND_0.56 115
999 COSGEN_0.56 115
109 ESRank9 115
203 ESBackSacRefixation 115
999 WORDS_commission~14 233
999 WORDFREQ_10.81 233
999 WORDSALL_la~13_commission~14 233
999 COSIND_-0.00 233
999 COSGEN_-0.00 233
110 ESRank10 233
202 ESForwSacLong+2+4 233
999 WORDS_affaires~16 129
999 WORDFREQ_102.84 129
999 WORDSALL_affaires~16 129
999 COSIND_0.05 129
999 COSGEN_0.05 129
111 ESRank11 129
202 ESForwSacLong+2+5 129
999 WORDS_affaires~16 215
999 WORDFREQ_102.84 215
999 WORDSALL_des~15_affaires~16 215
999 COSIND_0.05 215
999 COSGEN_0.05 215
112 ESRank12 215
203 ESBackSacRefixation 215
999 WORDS_étrangères~17 167
999 WORDFREQ_16.82 167
999 WORDSALL_étrangères~17 167
999 COSIND_-0.01 167
999 COSGEN_-0.01 167
113 ESRank13 167
201 ESForwSacShort 167
999 WORDS_Sénat~19 270
999 WORDFREQ_1.82 270
999 WORDSALL_du~18_Sénat~19 270
999 COSIND_-0.01 270
999 COSGEN_-0.01 270
114 ESRank14 270
202 ESForwSacLong+2+4 270
999 WORDS_a~20 211
999 WORDFREQ_2926.69 211
999 WORDSALL_Sénat~19_a~20 211
999 COSIND_N/A 211
115 ESRank15 211
201 ESForwSacShort 211
999 WORDS_fixé~21 105
999 WORDFREQ_25.14 105
999 WORDSALL_a~20_fixé~21 105
999 COSIND_-0.11 105
999 COSGEN_-0.11 105
116 ESRank16 105
201 ESForwSacShort 105
999 WORDS_auditions~28 177
999 WORDFREQ_0.74 177
999 WORDSALL_des~27_auditions~28 177
999 COSIND_0.01 177
999 COSGEN_0.01 177
117 ESRank17 177
202 ESForwSacLong+7+29 177
999 WORDS_début~26 146
999 WORDFREQ_128.51 146
999 WORDSALL_pour~24_début~26 146
999 COSIND_0.17 146
999 COSGEN_0.17 146
118 ESRank18 146
206 ESBackSacRegrLong-2-5 146
999 WORDS_date~23 206
999 WORDFREQ_36.62 206
999 WORDSALL_date~23 206
999 COSIND_-0.04 206
999 COSGEN_-0.04 206
119 ESRank19 206
206 ESBackSacRegrLong-3-9 206
999 WORDS_nomination~31 234
999 WORDFREQ_2.77 234
999 WORDSALL_nomination~31 234
999 COSIND_0.06 234
999 COSGEN_0.06 234
120 ESRank20 234
202 ESForwSacLong+8+36 234
200 ESRankN 234
199 ESRankNMinus1 206
198 ESRankNMinus2 146
197 ESRankNMinus3 177
196 ESRankNMinus4 105
195 ESRankNMinus5 211
194 ESRankNMinus6 270
193 ESRankNMinus7 167
192 ESRankNMinus8 215
191 ESRankNMinus9 129
190 ESRankNMinus10 233
