999 WORDS_équipe~1 151
999 WORDFREQ_26.28 151
999 WORDSALL_Une~0_équipe~1 151
999 COSIND_0.06 151
999 COSGEN_0.06 151
101 ESRank1 151
999 WORDS_laboratoire~3 297
999 WORDFREQ_12.91 297
999 WORDSALL_d'un~2_laboratoire~3 297
999 COSIND_0.11 297
999 COSGEN_0.11 297
102 ESRank2 297
202 ESForwSacLong+2+6 297
999 WORDS_japonais~4 335
999 WORDFREQ_9.19 335
999 WORDSALL_laboratoire~3_japonais~4 335
999 COSIND_-0.02 335
999 COSGEN_-0.02 335
103 ESRank3 335
201 ESForwSacShort 335
999 WORDS_logiciel~10 145
999 WORDFREQ_0.14 145
999 WORDSALL_point~8_logiciel~10 145
999 COSIND_0.03 145
999 COSGEN_0.03 145
104 ESRank4 145
202 ESForwSacLong+6+19 145
999 WORDS_point~8 175
999 WORDFREQ_272.57 175
999 WORDSALL_au~7_point~8 175
999 COSIND_-0.00 175
999 COSGEN_-0.00 175
105 ESRank5 175
206 ESBackSacRegrLong-2-4 175
999 WORDS_traitement~12 243
999 WORDFREQ_11.08 243
999 WORDSALL_de~11_traitement~12 243
999 COSIND_-0.06 243
999 COSGEN_-0.06 243
106 ESRank6 243
202 ESForwSacLong+4+16 243
999 WORDS_d'images~13 162
999 WORDFREQ_69.53 162
999 WORDSALL_traitement~12_d'images~13 162
999 COSIND_0.06 162
999 COSGEN_0.06 162
107 ESRank7 162
201 ESForwSacShort 162
999 WORDS_capable~14 190
999 WORDFREQ_69.73 190
999 WORDSALL_capable~14 190
999 COSIND_0.22 190
999 COSGEN_0.22 190
108 ESRank8 190
201 ESForwSacShort 190
999 WORDS_deviner~16 208
999 WORDFREQ_25.95 208
999 WORDSALL_de~15_deviner~16 208
999 COSIND_0.08 208
999 COSGEN_0.08 208
109 ESRank9 208
202 ESForwSacLong+2+4 208
999 WORDS_présence~18 212
999 WORDFREQ_133.11 212
999 WORDSALL_la~17_présence~18 212
999 COSIND_0.09 212
999 COSGEN_0.09 212
110 ESRank10 212
202 ESForwSacLong+2+4 212
999 WORDS_mines~20 128
999 WORDFREQ_17.7 128
999 WORDSALL_présence~18_mines~20 128
999 COSIND_0.08 128
999 COSGEN_0.08 128
111 ESRank11 128
202 ESForwSacLong+2+4 128
999 WORDS_partir~22 173
999 WORDFREQ_167.77 173
999 WORDSALL_partir~22 173
999 COSIND_0.05 173
999 COSGEN_0.05 173
112 ESRank12 173
202 ESForwSacLong+2+4 173
999 WORDS_photographies~24 273
999 WORDFREQ_17.3 273
999 WORDSALL_de~23_photographies~24 273
999 COSIND_0.05 273
999 COSGEN_0.05 273
113 ESRank13 273
202 ESForwSacLong+2+4 273
999 WORDS_aériennes~25 398
999 WORDFREQ_6.15 398
999 WORDSALL_aériennes~25 398
999 COSIND_-0.10 398
999 COSGEN_-0.10 398
114 ESRank14 398
201 ESForwSacShort 398
999 WORDS_dispositif~28 208
999 WORDFREQ_5.07 208
999 WORDSALL_dispositif~28 208
999 COSIND_0.03 208
999 COSGEN_0.03 208
115 ESRank15 208
202 ESForwSacLong+3+9 208
999 WORDS_filtrage~30 178
999 WORDFREQ_0.07 178
999 WORDSALL_de~29_filtrage~30 178
999 COSIND_-0.09 178
999 COSGEN_-0.09 178
116 ESRank16 178
202 ESForwSacLong+2+4 178
200 ESRankN 178
199 ESRankNMinus1 208
198 ESRankNMinus2 398
197 ESRankNMinus3 273
196 ESRankNMinus4 173
195 ESRankNMinus5 128
194 ESRankNMinus6 212
193 ESRankNMinus7 208
192 ESRankNMinus8 190
191 ESRankNMinus9 162
190 ESRankNMinus10 243
