# 121 Fixation 1 (328.6,288): Pour~0 l'instant~1
# 147 Fixation 2 (498.6,288.6): les~2 télécommunications~3
# 124 Fixation 3 (555.4,294.2): télécommunications~3
# 179 Fixation 4 (311.5,339.7): palestiniennes~4
# 157 Fixation 5 (482.1,344.3): sous-traitent~5
# 152 Fixation 6 (551.8,345.9): sous-traitent~5
# 280 Fixation 7 (651.2,349.5): l'accès~6
# 205 Fixation 8 (344.7,366.3): palestiniennes~4
# 147 Fixation 9 (507.6,400.8): à~9
# 142 Fixation 10 (573.2,408.6): compagnie~11
# 138 Fixation 11 (673.1,418.7): privée~12
# 146 Fixation 12 (462.2,440.9): à~9
# 114 Fixation 13 (533.3,451.3): réseaux~15
# 179 Fixation 14 (628.2,455.5): sont~16
# 114 Fixation 15 (689.2,470.7): au~17 point~18
# 106 Fixation 16 (398.9,477.7): israélienne~13 réseaux~15
# 200 Fixation 17 (342.9,488.1): israélienne~13
# 151 Fixation 18 (443.1,494.2): Les~14 réseaux~15
# 292 Fixation 19 (579.3,506.2): réseaux~15 sont~16
# 197 Fixation 20 (351.4,542.8): trouve~21
# 152 Fixation 21 (509,553.5): maintenant~22
# 132 Fixation 22 (602.3,564.4): des~23 cabines~24
# 192 Fixation 23 (316.9,282.1): Pour~0 l'instant~1
# 125 Fixation 24 (388.4,291.8): l'instant~1
# 134 Fixation 25 (500.6,287.9): les~2 télécommunications~3
# 130 Fixation 26 (542.4,288.3): les~2 télécommunications~3
# 143 Fixation 27 (665,295.6): télécommunications~3
# 308 Fixation 28 (337.5,342.4): palestiniennes~4
# 156 Fixation 29 (493.2,348.3): sous-traitent~5
# 153 Fixation 30 (547.6,351.2): sous-traitent~5
# 139 Fixation 31 (642.8,352.2): l'accès~6
# 210 Fixation 32 (365.6,378): palestiniennes~4
# 156 Fixation 33 (513.7,392.2): à~9 compagnie~11
# 146 Fixation 34 (575.1,400.1): compagnie~11
# 309 Fixation 35 (671.3,410.6): compagnie~11 privée~12
%%
# Pour~0 Fixations= "23/"
# l'instant~1 Fixations= "24/"
# les~2 Fixations= "26/"
# télécommunications~3 Fixations= "27/"
# palestiniennes~4 Fixations= "32/"
# sous-traitent~5 Fixations= "30/"
# l'accès~6 Fixations= "31/"
# à~7 Fixations= ""
# l'international~8 Fixations= ""
# à~9 Fixations= "33/"
# une~10 Fixations= ""
# compagnie~11 Fixations= "35/"
# privée~12 Fixations= "35/"
# israélienne~13 Fixations= "17/"
# Les~14 Fixations= "18/"
# réseaux~15 Fixations= "19/"
# sont~16 Fixations= "19/"
# au~17 Fixations= "15/"
# point~18 Fixations= "15/"
# et~19 Fixations= ""
# on~20 Fixations= ""
# trouve~21 Fixations= "20/"
# maintenant~22 Fixations= "21/"
# des~23 Fixations= "22/"
# cabines~24 Fixations= "22/"
# téléphoniques~25 Fixations= ""
# publiques~26 Fixations= ""
# à~27 Fixations= ""
# carte~28 Fixations= ""
%%
#  POUR[23] L'INSTANT[24] LES[26] TéLéCOMMUNICATIONS[27] PALESTINIENNES[32] SOUS-TRAITENT[30] L'ACCèS[31] à l'international à[33] une COMPAGNIE[35] PRIVéE[35] ISRAéLIENNE[17] LES[18] RéSEAUX[19] SONT[19] AU[15] POINT[15] et on TROUVE[20] MAINTENANT[21] DES[22] CABINES[22] téléphoniques publiques à carte
# s08 conflit_israelo_palestinien-m2 PercentageOfWordsProcessed= 0.689655172413793 PercentageOfWordsReallyProcessed= 0.8
