# 160 Fixation 1 (353.9,287.3): labels~1
# 91 Fixation 2 (310.5,284.9): Les~0 labels~1
# 165 Fixation 3 (436.3,283.2): alertent~2
# 307 Fixation 4 (339.4,279.8): labels~1
# 156 Fixation 5 (439.6,282.9): alertent~2
# 225 Fixation 6 (564.1,288.8): le~3 public~4
# 184 Fixation 7 (683.7,304.9): avec~5 même~7
# 154 Fixation 8 (539.3,294.4): le~3 public~4
# 295 Fixation 9 (450.7,288.3): alertent~2
# 191 Fixation 10 (418.4,290.3): alertent~2
# 168 Fixation 11 (549.9,288.2): le~3 public~4
# 114 Fixation 12 (695.7,298.1): avec~5 même~7
# 186 Fixation 13 (296.2,350.5): refrain~8
# 105 Fixation 14 (439.6,349.5): les~9 plates-formes~10
# 103 Fixation 15 (566.5,343.8): le~3 public~4 plates-formes~10
# 251 Fixation 16 (336.3,399.2): refrain~8 téléchargement~12
# 315 Fixation 17 (492.9,410.2): plates-formes~10 illégales~13
# 206 Fixation 18 (618,423.9): tuent~14
# 152 Fixation 19 (671,423.1): tuent~14 l'industrie~15
# 140 Fixation 20 (601.3,424.2): tuent~14
# 190 Fixation 21 (704.2,425.7): l'industrie~15
# 285 Fixation 22 (317.1,466.1): téléchargement~12 musicale~16
# 175 Fixation 23 (459.3,476.7): illégales~13
# 151 Fixation 24 (530.7,476.3): illégales~13 temps~19
# 206 Fixation 25 (667.1,472.2): tuent~14 l'industrie~15 marchands~21
# 177 Fixation 26 (378.3,515.7): musicale~16 disques~23 ont~24
# 191 Fixation 27 (314.1,512.3): musicale~16
# 81 Fixation 28 (486.9,524.3): Pendant~17 temps~19 moral~26
# 82 Fixation 29 (589.4,530.1): temps~19 berne~28
# 236 Fixation 30 (455.5,521.3): Pendant~17 temps~19 ont~24 moral~26
# 405 Fixation 31 (579.6,541.7): moral~26 berne~28
# 216 Fixation 32 (509.6,460.4): illégales~13 temps~19
# 94 Fixation 33 (652.3,470): tuent~14 l'industrie~15 marchands~21
# 171 Fixation 34 (446.6,480.5): Pendant~17 temps~19
# 314 Fixation 35 (488.5,345.6): alertent~2 plates-formes~10
%%
# Les~0 Fixations= "2/"
# labels~1 Fixations= "4/"
# alertent~2 Fixations= "35/"
# le~3 Fixations= "15/"
# public~4 Fixations= "15/"
# avec~5 Fixations= "12/"
# le~6 Fixations= ""
# même~7 Fixations= "12/"
# refrain~8 Fixations= "16/"
# les~9 Fixations= "14/"
# plates-formes~10 Fixations= "35/"
# de~11 Fixations= ""
# téléchargement~12 Fixations= "22/"
# illégales~13 Fixations= "32/"
# tuent~14 Fixations= "33/"
# l'industrie~15 Fixations= "33/"
# musicale~16 Fixations= "27/"
# Pendant~17 Fixations= "34/"
# ce~18 Fixations= ""
# temps~19 Fixations= "34/"
# les~20 Fixations= ""
# marchands~21 Fixations= "33/"
# de~22 Fixations= ""
# disques~23 Fixations= "26/"
# ont~24 Fixations= "30/"
# le~25 Fixations= ""
# moral~26 Fixations= "31/"
# en~27 Fixations= ""
# berne~28 Fixations= "31/"
%%
#  LES[2] LABELS[4] ALERTENT[35] LE[15] PUBLIC[15] AVEC[12] le MêME[12] REFRAIN[16] LES[14] PLATES-FORMES[35] de TéLéCHARGEMENT[22] ILLéGALES[32] TUENT[33] L'INDUSTRIE[33] MUSICALE[27] PENDANT[34] ce TEMPS[34] les MARCHANDS[33] de DISQUES[26] ONT[30] le MORAL[31] en BERNE[31]
# s04 reforme_enseignement-a2 PercentageOfWordsProcessed= 0.758620689655172 PercentageOfWordsReallyProcessed= 0.758620689655172
