999 WORDS_marges~1 238
999 WORDFREQ_2.23 238
999 WORDSALL_Les~0_marges~1 238
999 COSIND_0.12 238
999 COSGEN_0.12 238
101 ESRank1 238
999 WORDS_croissance~3 252
999 WORDFREQ_3.92 252
999 WORDSALL_de~2_croissance~3 252
999 COSIND_0.79 252
999 COSGEN_0.79 252
102 ESRank2 252
202 ESForwSacLong+2+4 252
999 WORDS_pourraient~4 242
999 WORDFREQ_26.62 242
999 WORDSALL_pourraient~4 242
999 COSIND_0.03 242
999 COSGEN_0.03 242
103 ESRank3 242
201 ESForwSacShort 242
999 WORDS_augmentées~6 248
999 WORDFREQ_0.07 248
999 WORDSALL_augmentées~6 248
999 COSIND_0.05 248
999 COSGEN_0.05 248
104 ESRank4 248
202 ESForwSacLong+2+7 248
999 WORDS_réformes~9 159
999 WORDFREQ_6.42 159
999 WORDSALL_par~7_réformes~9 159
999 COSIND_-0.01 159
999 COSGEN_-0.01 159
105 ESRank5 159
202 ESForwSacLong+3+9 159
999 WORDS_réformes~9 243
999 WORDFREQ_6.42 243
999 WORDSALL_des~8_réformes~9 243
999 COSIND_-0.01 243
999 COSGEN_-0.01 243
106 ESRank6 243
203 ESBackSacRefixation 243
999 WORDS_structurelles~10 135
999 WORDFREQ_N/A 135
999 WORDSALL_réformes~9_structurelles~10 135
999 COSIND_N/A 135
107 ESRank7 135
201 ESForwSacShort 135
999 WORDS_marchés~13 214
999 WORDFREQ_5.07 214
999 WORDSALL_marchés~13 214
999 COSIND_0.05 214
999 COSGEN_0.05 214
108 ESRank8 214
202 ESForwSacLong+3+9 214
999 WORDS_travail~15 240
999 WORDFREQ_223.99 240
999 WORDSALL_du~14_travail~15 240
999 COSIND_0.02 240
999 COSGEN_0.02 240
109 ESRank9 240
202 ESForwSacLong+2+4 240
999 WORDS_accélération~21 247
999 WORDFREQ_2.64 247
999 WORDSALL_accélération~21 247
999 COSIND_0.45 247
999 COSGEN_0.45 247
110 ESRank10 247
202 ESForwSacLong+6+30 247
999 WORDS_stabilité~26 175
999 WORDFREQ_3.18 175
999 WORDSALL_la~25_stabilité~26 175
999 COSIND_0.35 175
999 COSGEN_0.35 175
111 ESRank11 175
202 ESForwSacLong+5+21 175
999 WORDS_croissance~24 261
999 WORDFREQ_3.92 261
999 WORDSALL_croissance~24 261
999 COSIND_0.79 261
999 COSGEN_0.79 261
112 ESRank12 261
206 ESBackSacRegrLong-2-4 261
999 WORDS_excédent~31 204
999 WORDFREQ_0.54 204
999 WORDSALL_excédent~31 204
999 COSIND_0.27 204
999 COSGEN_0.27 204
113 ESRank13 204
202 ESForwSacLong+7+30 204
999 WORDS_balance~34 227
999 WORDFREQ_8.18 227
999 WORDSALL_de~32_balance~34 227
999 COSIND_0.27 227
999 COSGEN_0.27 227
114 ESRank14 227
202 ESForwSacLong+3+7 227
999 WORDS_stabilité~26 387
999 WORDFREQ_3.18 387
999 WORDSALL_la~25_stabilité~26 387
999 COSIND_0.35 387
999 COSGEN_0.35 387
115 ESRank15 387
206 ESBackSacRegrLong-8-32 387
200 ESRankN 387
199 ESRankNMinus1 227
198 ESRankNMinus2 204
197 ESRankNMinus3 261
196 ESRankNMinus4 175
195 ESRankNMinus5 247
194 ESRankNMinus6 240
193 ESRankNMinus7 214
192 ESRankNMinus8 135
191 ESRankNMinus9 243
190 ESRankNMinus10 159
