999 WORDS_écho~2 113
999 WORDFREQ_32.5 113
999 WORDSALL_Comme~0_écho~2 113
999 COSIND_0.01 113
999 COSGEN_0.01 113
101 ESRank1 113
999 WORDS_à~3 143
999 WORDFREQ_19209.05 143
999 WORDSALL_en~1_écho~2_à~3 143
999 COSIND_N/A 143
102 ESRank2 143
201 ESForwSacShort 143
999 WORDS_à~3 141
999 WORDFREQ_19209.05 141
999 WORDSALL_à~3 141
999 COSIND_N/A 141
103 ESRank3 141
203 ESBackSacRefixation 141
999 WORDS_assurance~5 137
999 WORDFREQ_25.14 137
999 WORDSALL_assurance~5 137
999 COSIND_-0.06 137
999 COSGEN_-0.06 137
104 ESRank4 137
202 ESForwSacLong+2+7 137
999 WORDS_retrouvée~6 143
999 WORDFREQ_15.2 143
999 WORDSALL_retrouvée~6 143
999 COSIND_-0.08 143
999 COSGEN_-0.08 143
105 ESRank5 143
201 ESForwSacShort 143
999 WORDS_fin~9 174
999 WORDFREQ_303.31 174
999 WORDSALL_depuis~7_fin~9 174
999 COSIND_0.06 174
999 COSGEN_0.06 174
106 ESRank6 174
202 ESForwSacLong+3+11 174
999 WORDS_fin~9 171
999 WORDFREQ_303.31 171
999 WORDSALL_la~8_fin~9 171
999 COSIND_0.06 171
999 COSGEN_0.06 171
107 ESRank7 171
203 ESBackSacRefixation 171
999 WORDS_guerre~12 202
999 WORDFREQ_338.65 202
999 WORDSALL_de~10_guerre~12 202
999 COSIND_0.56 202
999 COSGEN_0.56 202
108 ESRank8 202
202 ESForwSacLong+3+7 202
999 WORDS_commission~14 171
999 WORDFREQ_10.81 171
999 WORDSALL_la~13_commission~14 171
999 COSIND_-0.00 171
999 COSGEN_-0.00 171
109 ESRank9 171
202 ESForwSacLong+2+4 171
999 WORDS_affaires~16 208
999 WORDFREQ_102.84 208
999 WORDSALL_affaires~16 208
999 COSIND_0.05 208
999 COSGEN_0.05 208
110 ESRank10 208
202 ESForwSacLong+2+5 208
999 WORDS_étrangères~17 137
999 WORDFREQ_16.82 137
999 WORDSALL_étrangères~17 137
999 COSIND_-0.01 137
999 COSGEN_-0.01 137
111 ESRank11 137
201 ESForwSacShort 137
999 WORDS_Sénat~19 153
999 WORDFREQ_1.82 153
999 WORDSALL_du~18_Sénat~19 153
999 COSIND_-0.01 153
999 COSGEN_-0.01 153
112 ESRank12 153
202 ESForwSacLong+2+4 153
999 WORDS_fixé~21 151
999 WORDFREQ_25.14 151
999 WORDSALL_Sénat~19_a~20_fixé~21 151
999 COSIND_-0.11 151
999 COSGEN_-0.11 151
113 ESRank13 151
202 ESForwSacLong+2+3 151
999 WORDS_Sénat~19 247
999 WORDFREQ_1.82 247
999 WORDSALL_du~18_Sénat~19 247
999 COSIND_-0.01 247
999 COSGEN_-0.01 247
114 ESRank14 247
206 ESBackSacRegrLong-2-3 247
999 WORDS_début~26 130
999 WORDFREQ_128.51 130
999 WORDSALL_début~26 130
999 COSIND_0.17 130
999 COSGEN_0.17 130
115 ESRank15 130
202 ESForwSacLong+7+26 130
999 WORDS_auditions~28 206
999 WORDFREQ_0.74 206
999 WORDSALL_auditions~28 206
999 COSIND_0.01 206
999 COSGEN_0.01 206
116 ESRank16 206
202 ESForwSacLong+2+5 206
999 WORDS_nomination~31 142
999 WORDFREQ_2.77 142
999 WORDSALL_nomination~31 142
999 COSIND_0.06 142
999 COSGEN_0.06 142
117 ESRank17 142
202 ESForwSacLong+3+7 142
999 WORDS_était~33 152
999 WORDFREQ_3688.99 152
999 WORDSALL_qui~32_était~33 152
999 COSIND_0.01 152
999 COSGEN_0.01 152
118 ESRank18 152
202 ESForwSacLong+2+5 152
999 WORDS_bloquée~34 168
999 WORDFREQ_1.15 168
999 WORDSALL_bloquée~34 168
999 COSIND_0.03 168
999 COSGEN_0.03 168
119 ESRank19 168
201 ESForwSacShort 168
999 WORDS_dix~36 138
999 WORDFREQ_209.86 138
999 WORDSALL_depuis~35_dix~36 138
999 COSIND_0.01 138
999 COSGEN_0.01 138
120 ESRank20 138
202 ESForwSacLong+2+8 138
999 WORDS_dix~36 113
999 WORDFREQ_209.86 113
999 WORDSALL_depuis~35_dix~36 113
999 COSIND_0.01 113
999 COSGEN_0.01 113
203 ESBackSacRefixation 113
999 WORDS_mois~37 93
999 WORDFREQ_304.86 93
999 WORDSALL_mois~37 93
999 COSIND_0.07 93
999 COSGEN_0.07 93
201 ESForwSacShort 93
999 WORDS_mois~37 147
999 WORDFREQ_304.86 147
999 WORDSALL_mois~37 147
999 COSIND_0.07 147
999 COSGEN_0.07 147
203 ESBackSacRefixation 147
999 WORDS_affaires~16 123
999 WORDFREQ_102.84 123
999 WORDSALL_affaires~16 123
999 COSIND_0.05 123
999 COSGEN_0.05 123
206 ESBackSacRegrLong-21-118 123
999 WORDS_étrangères~17 158
999 WORDFREQ_16.82 158
999 WORDSALL_étrangères~17 158
999 COSIND_-0.01 158
999 COSGEN_-0.01 158
201 ESForwSacShort 158
999 WORDS_Sénat~19 164
999 WORDFREQ_1.82 164
999 WORDSALL_du~18_Sénat~19 164
999 COSIND_-0.01 164
999 COSGEN_-0.01 164
202 ESForwSacLong+2+4 164
999 WORDS_fixé~21 189
999 WORDFREQ_25.14 189
999 WORDSALL_Sénat~19_a~20_fixé~21 189
999 COSIND_-0.11 189
999 COSGEN_-0.11 189
202 ESForwSacLong+2+3 189
999 WORDS_date~23 174
999 WORDFREQ_36.62 174
999 WORDSALL_date~23 174
999 COSIND_-0.04 174
999 COSGEN_-0.04 174
202 ESForwSacLong+2+5 174
999 WORDS_début~26 219
999 WORDFREQ_128.51 219
999 WORDSALL_le~25_début~26 219
999 COSIND_0.17 219
999 COSGEN_0.17 219
202 ESForwSacLong+3+9 219
999 WORDS_date~23 192
999 WORDFREQ_36.62 192
999 WORDSALL_date~23 192
999 COSIND_-0.04 192
999 COSGEN_-0.04 192
206 ESBackSacRegrLong-3-9 192
999 WORDS_début~26 140
999 WORDFREQ_128.51 140
999 WORDSALL_début~26 140
999 COSIND_0.17 140
999 COSGEN_0.17 140
202 ESForwSacLong+3+9 140
999 WORDS_auditions~28 130
999 WORDFREQ_0.74 130
999 WORDSALL_des~27_auditions~28 130
999 COSIND_0.01 130
999 COSGEN_0.01 130
202 ESForwSacLong+2+5 130
999 WORDS_auditions~28 182
999 WORDFREQ_0.74 182
999 WORDSALL_auditions~28 182
999 COSIND_0.01 182
999 COSGEN_0.01 182
203 ESBackSacRefixation 182
999 WORDS_début~26 119
999 WORDFREQ_128.51 119
999 WORDSALL_pour~24_début~26 119
999 COSIND_0.17 119
999 COSGEN_0.17 119
206 ESBackSacRegrLong-2-5 119
999 WORDS_début~26 125
999 WORDFREQ_128.51 125
999 WORDSALL_pour~24_début~26 125
999 COSIND_0.17 125
999 COSGEN_0.17 125
203 ESBackSacRefixation 125
200 ESRankN 125
199 ESRankNMinus1 119
198 ESRankNMinus2 182
197 ESRankNMinus3 130
196 ESRankNMinus4 140
195 ESRankNMinus5 192
194 ESRankNMinus6 219
193 ESRankNMinus7 174
192 ESRankNMinus8 189
191 ESRankNMinus9 164
190 ESRankNMinus10 158
