999 WORDS_États-Unis~1 143
999 WORDFREQ_N/A 143
999 WORDSALL_Les~0_États-Unis~1 143
999 COSIND_N/A 143
101 ESRank1 143
999 WORDS_ont~2 100
999 WORDFREQ_553.31 100
999 WORDSALL_États-Unis~1_ont~2 100
999 COSIND_-0.02 100
999 COSGEN_-0.02 100
102 ESRank2 100
201 ESForwSacShort 100
999 WORDS_profité~3 237
999 WORDFREQ_12.16 237
999 WORDSALL_ont~2_profité~3 237
999 COSIND_-0.07 237
999 COSGEN_-0.07 237
103 ESRank3 237
201 ESForwSacShort 237
999 WORDS_commission~6 200
999 WORDFREQ_10.81 200
999 WORDSALL_de~4_commission~6 200
999 COSIND_-0.00 200
999 COSGEN_-0.00 200
104 ESRank4 200
202 ESForwSacLong+3+7 200
999 WORDS_spéciale~7 256
999 WORDFREQ_7.09 256
999 WORDSALL_spéciale~7 256
999 COSIND_-0.06 256
999 COSGEN_-0.06 256
105 ESRank5 256
201 ESForwSacShort 256
999 WORDS_l'ONU~9 197
999 WORDFREQ_N/A 197
999 WORDSALL_de~8_l'ONU~9 197
999 COSIND_N/A 197
106 ESRank6 197
202 ESForwSacLong+2+4 197
999 WORDS_chargée~10 156
999 WORDFREQ_1.69 156
999 WORDSALL_chargée~10 156
999 COSIND_-0.01 156
999 COSGEN_-0.01 156
107 ESRank7 156
201 ESForwSacShort 156
999 WORDS_désarmer~12 135
999 WORDFREQ_1.96 135
999 WORDSALL_de~11_désarmer~12 135
999 COSIND_-0.04 135
999 COSGEN_-0.04 135
108 ESRank8 135
202 ESForwSacLong+2+4 135
999 WORDS_l'Irak~13 178
999 WORDFREQ_N/A 178
999 WORDSALL_l'Irak~13 178
999 COSIND_N/A 178
109 ESRank9 178
201 ESForwSacShort 178
999 WORDS_l'Irak~13 147
999 WORDFREQ_N/A 147
999 WORDSALL_l'Irak~13 147
999 COSIND_N/A 147
110 ESRank10 147
203 ESBackSacRefixation 147
200 ESRankN 147
199 ESRankNMinus1 178
198 ESRankNMinus2 135
197 ESRankNMinus3 156
196 ESRankNMinus4 197
195 ESRankNMinus5 256
194 ESRankNMinus6 200
193 ESRankNMinus7 237
192 ESRankNMinus8 100
191 ESRankNMinus9 143
