999 WORDS_déflagration~1 165
999 WORDFREQ_1.55 165
999 WORDSALL_La~0_déflagration~1 165
999 COSIND_0.00 165
999 COSGEN_0.00 165
101 ESRank1 165
999 WORDS_déflagration~1 181
999 WORDFREQ_1.55 181
999 WORDSALL_La~0_déflagration~1 181
999 COSIND_0.00 181
999 COSGEN_0.00 181
102 ESRank2 181
203 ESBackSacRefixation 181
999 WORDS_déflagration~1 166
999 WORDFREQ_1.55 166
999 WORDSALL_déflagration~1 166
999 COSIND_0.00 166
999 COSGEN_0.00 166
103 ESRank3 166
203 ESBackSacRefixation 166
999 WORDS_déflagration~1 155
999 WORDFREQ_1.55 155
999 WORDSALL_La~0_déflagration~1 155
999 COSIND_0.00 155
999 COSGEN_0.00 155
104 ESRank4 155
203 ESBackSacRefixation 155
999 WORDS_déflagration~1 156
999 WORDFREQ_1.55 156
999 WORDSALL_La~0_déflagration~1 156
999 COSIND_0.00 156
999 COSGEN_0.00 156
105 ESRank5 156
203 ESBackSacRefixation 156
999 WORDS_déflagration~1 245
999 WORDFREQ_1.55 245
999 WORDSALL_déflagration~1 245
999 COSIND_0.00 245
999 COSGEN_0.00 245
106 ESRank6 245
203 ESBackSacRefixation 245
999 WORDS_déflagration~1 218
999 WORDFREQ_1.55 218
999 WORDSALL_déflagration~1 218
999 COSIND_0.00 218
999 COSGEN_0.00 218
107 ESRank7 218
203 ESBackSacRefixation 218
999 WORDS_produite~3 219
999 WORDFREQ_3.31 219
999 WORDSALL_s'est~2_produite~3 219
999 COSIND_-0.03 219
999 COSGEN_-0.03 219
108 ESRank8 219
202 ESForwSacLong+2+7 219
999 WORDS_produite~3 228
999 WORDFREQ_3.31 228
999 WORDSALL_produite~3 228
999 COSIND_-0.03 228
999 COSGEN_-0.03 228
109 ESRank9 228
203 ESBackSacRefixation 228
999 WORDS_passage~5 200
999 WORDFREQ_136.82 200
999 WORDSALL_au~4_passage~5 200
999 COSIND_0.07 200
999 COSGEN_0.07 200
110 ESRank10 200
202 ESForwSacLong+2+4 200
999 WORDS_véhicule~7 171
999 WORDFREQ_14.86 171
999 WORDSALL_La~0_déflagration~1_véhicule~7 171
999 COSIND_-0.00 171
999 COSGEN_-0.00 171
111 ESRank11 171
202 ESForwSacLong+2+6 171
999 WORDS_véhicule~7 121
999 WORDFREQ_14.86 121
999 WORDSALL_La~0_déflagration~1_véhicule~7 121
999 COSIND_-0.00 121
999 COSGEN_-0.00 121
112 ESRank12 121
203 ESBackSacRefixation 121
999 WORDS_véhicule~7 130
999 WORDFREQ_14.86 130
999 WORDSALL_déflagration~1_véhicule~7 130
999 COSIND_-0.00 130
999 COSGEN_-0.00 130
113 ESRank13 130
203 ESBackSacRefixation 130
999 WORDS_militaire~8 281
999 WORDFREQ_69.19 281
999 WORDSALL_s'est~2_produite~3_militaire~8 281
999 COSIND_0.24 281
999 COSGEN_0.24 281
114 ESRank14 281
201 ESForwSacShort 281
999 WORDS_route~11 200
999 WORDFREQ_251.35 200
999 WORDSALL_produite~3_route~11 200
999 COSIND_0.02 200
999 COSGEN_0.02 200
115 ESRank15 200
202 ESForwSacLong+3+9 200
999 WORDS_route~11 196
999 WORDFREQ_251.35 196
999 WORDSALL_une~10_route~11 196
999 COSIND_0.02 196
999 COSGEN_0.02 196
116 ESRank16 196
203 ESBackSacRefixation 196
999 WORDS_centre-ville~13 187
999 WORDFREQ_0.54 187
999 WORDSALL_centre-ville~13 187
999 COSIND_N/A 187
117 ESRank17 187
202 ESForwSacLong+2+4 187
999 WORDS_centre-ville~13 91
999 WORDFREQ_0.54 91
999 WORDSALL_centre-ville~13 91
999 COSIND_N/A 91
118 ESRank18 91
203 ESBackSacRefixation 91
999 WORDS_centaine~16 156
999 WORDFREQ_10.54 156
999 WORDSALL_à~14_centaine~16 156
999 COSIND_0.06 156
999 COSGEN_0.06 156
119 ESRank19 156
202 ESForwSacLong+3+8 156
999 WORDS_centaine~16 182
999 WORDFREQ_10.54 182
999 WORDSALL_une~15_centaine~16 182
999 COSIND_0.06 182
999 COSGEN_0.06 182
120 ESRank20 182
203 ESBackSacRefixation 182
999 WORDS_mètres~18 226
999 WORDFREQ_108.24 226
999 WORDSALL_de~17_mètres~18 226
999 COSIND_-0.05 226
999 COSGEN_-0.05 226
202 ESForwSacLong+2+4 226
999 WORDS_base~20 142
999 WORDFREQ_31.96 142
999 WORDSALL_d'une~19_base~20 142
999 COSIND_0.08 142
999 COSGEN_0.08 142
202 ESForwSacLong+2+7 142
999 WORDS_base~20 109
999 WORDFREQ_31.96 109
999 WORDSALL_d'une~19_base~20 109
999 COSIND_0.08 109
999 COSGEN_0.08 109
203 ESBackSacRefixation 109
200 ESRankN 109
199 ESRankNMinus1 142
198 ESRankNMinus2 226
197 ESRankNMinus3 182
196 ESRankNMinus4 156
195 ESRankNMinus5 91
194 ESRankNMinus6 187
193 ESRankNMinus7 196
192 ESRankNMinus8 200
191 ESRankNMinus9 281
190 ESRankNMinus10 130
