# 125 Fixation 1 (287.5,281.7): Les~0 petits~1
# 103 Fixation 2 (315.3,278.3): Les~0 petits~1
# 176 Fixation 3 (445.8,276.7): boules~2
# 129 Fixation 4 (422.2,277.3): boules~2
# 432 Fixation 5 (537.4,270): de~3 graisse~4
# 402 Fixation 6 (664.7,280): enrobées~5
# 159 Fixation 7 (740.9,286.9): enrobées~5
# 240 Fixation 8 (303.9,336.8): graines~7
# 121 Fixation 9 (284,338.8): graines~7
# 139 Fixation 10 (393.3,339.4): diverses~8
# 85 Fixation 11 (603.3,342): très~10 appréciées~11
# 145 Fixation 12 (692.8,342.6): appréciées~11
# 117 Fixation 13 (738.2,351): appréciées~11
# 151 Fixation 14 (359.4,431): mésanges~13
# 231 Fixation 15 (406,488.2): rigueurs~20
# 133 Fixation 16 (404.9,480.9): rigueurs~20
# 408 Fixation 17 (557.8,469.9): de~21 l'hiver~22
%%
# Les~0 Fixations= "2/"
# petits~1 Fixations= "2/"
# boules~2 Fixations= "4/"
# de~3 Fixations= "5/"
# graisse~4 Fixations= "5/"
# enrobées~5 Fixations= "7/"
# de~6 Fixations= ""
# graines~7 Fixations= "9/"
# diverses~8 Fixations= "10/"
# sont~9 Fixations= ""
# très~10 Fixations= "11/"
# appréciées~11 Fixations= "13/"
# des~12 Fixations= ""
# mésanges~13 Fixations= "14/"
# qui~14 Fixations= ""
# les~15 Fixations= ""
# prennent~16 Fixations= ""
# d'assaut~17 Fixations= ""
# aux~18 Fixations= ""
# premières~19 Fixations= ""
# rigueurs~20 Fixations= "16/"
# de~21 Fixations= "17/"
# l'hiver~22 Fixations= "17/"
%%
#  LES[2] PETITS[2] BOULES[4] DE[5] GRAISSE[5] ENROBéES[7] de GRAINES[9] DIVERSES[10] sont TRèS[11] APPRéCIéES[13] des MéSANGES[14] qui les prennent d'assaut aux premières RIGUEURS[16] DE[17] L'HIVER[17]
# s13 chasse_oiseaux-m2 PercentageOfWordsProcessed= 0.608695652173913 PercentageOfWordsReallyProcessed= 0.608695652173913
