999 WORDS_vacanciers~2 144
999 WORDFREQ_1.89 144
999 WORDSALL_vacanciers~2 144
999 COSIND_0.41 144
999 COSGEN_0.41 144
101 ESRank1 144
999 WORDS_vacanciers~2 115
999 WORDFREQ_1.89 115
999 WORDSALL_Pour~0_vacanciers~2 115
999 COSIND_0.41 115
999 COSGEN_0.41 115
102 ESRank2 115
203 ESBackSacRefixation 115
999 WORDS_souhaitent~4 176
999 WORDFREQ_0.95 176
999 WORDSALL_qui~3_souhaitent~4 176
999 COSIND_0.02 176
999 COSGEN_0.02 176
103 ESRank3 176
202 ESForwSacLong+2+5 176
999 WORDS_souhaitent~4 127
999 WORDFREQ_0.95 127
999 WORDSALL_souhaitent~4 127
999 COSIND_0.02 127
999 COSGEN_0.02 127
104 ESRank4 127
203 ESBackSacRefixation 127
999 WORDS_avant~5 130
999 WORDFREQ_574.32 130
999 WORDSALL_souhaitent~4_avant~5 130
999 COSIND_-0.02 130
999 COSGEN_-0.02 130
105 ESRank5 130
201 ESForwSacShort 130
999 WORDS_reposer~8 192
999 WORDFREQ_20.95 192
999 WORDSALL_tout~6_reposer~8 192
999 COSIND_0.13 192
999 COSGEN_0.13 192
106 ESRank6 192
202 ESForwSacLong+3+9 192
999 WORDS_reposer~8 97
999 WORDFREQ_20.95 97
999 WORDSALL_se~7_reposer~8 97
999 COSIND_0.13 97
999 COSGEN_0.13 97
107 ESRank7 97
203 ESBackSacRefixation 97
999 WORDS_cadre~11 339
999 WORDFREQ_29.8 339
999 WORDSALL_un~10_cadre~11 339
999 COSIND_0.01 339
999 COSGEN_0.01 339
108 ESRank8 339
202 ESForwSacLong+3+9 339
999 WORDS_bucolique~12 195
999 WORDFREQ_0.95 195
999 WORDSALL_cadre~11_bucolique~12 195
999 COSIND_0.26 195
999 COSGEN_0.26 195
109 ESRank9 195
201 ESForwSacShort 195
999 WORDS_cadre~11 159
999 WORDFREQ_29.8 159
999 WORDSALL_dans~9_cadre~11 159
999 COSIND_0.01 159
999 COSGEN_0.01 159
110 ESRank10 159
205 ESBackSacRegrShort 159
999 WORDS_cadre~11 289
999 WORDFREQ_29.8 289
999 WORDSALL_cadre~11 289
999 COSIND_0.01 289
999 COSGEN_0.01 289
111 ESRank11 289
203 ESBackSacRefixation 289
999 WORDS_proposent~15 204
999 WORDFREQ_2.16 204
999 WORDSALL_résidences~14_proposent~15 204
999 COSIND_0.12 204
999 COSGEN_0.12 204
112 ESRank12 204
202 ESForwSacLong+4+27 204
999 WORDS_résidences~14 288
999 WORDFREQ_2.09 288
999 WORDSALL_les~13_résidences~14 288
999 COSIND_0.15 288
999 COSGEN_0.15 288
113 ESRank13 288
205 ESBackSacRegrShort 288
999 WORDS_proposent~15 268
999 WORDFREQ_2.16 268
999 WORDSALL_résidences~14_proposent~15 268
999 COSIND_0.12 268
999 COSGEN_0.12 268
114 ESRank14 268
201 ESForwSacShort 268
999 WORDS_proposent~15 410
999 WORDFREQ_2.16 410
999 WORDSALL_proposent~15 410
999 COSIND_0.12 410
999 COSGEN_0.12 410
115 ESRank15 410
203 ESBackSacRefixation 410
999 WORDS_proposent~15 105
999 WORDFREQ_2.16 105
999 WORDSALL_proposent~15 105
999 COSIND_0.12 105
999 COSGEN_0.12 105
116 ESRank16 105
203 ESBackSacRefixation 105
999 WORDS_hébergement~17 270
999 WORDFREQ_0.68 270
999 WORDSALL_un~16_hébergement~17 270
999 COSIND_0.42 270
999 COSGEN_0.42 270
117 ESRank17 270
202 ESForwSacLong+2+4 270
999 WORDS_adapté~18 214
999 WORDFREQ_2.36 214
999 WORDSALL_adapté~18 214
999 COSIND_0.01 214
999 COSGEN_0.01 214
118 ESRank18 214
201 ESForwSacShort 214
999 WORDS_permettant~20 211
999 WORDFREQ_6.15 211
999 WORDSALL_leur~19_permettant~20 211
999 COSIND_0.02 211
999 COSGEN_0.02 211
119 ESRank19 211
202 ESForwSacLong+2+6 211
999 WORDS_partir~22 210
999 WORDFREQ_167.77 210
999 WORDSALL_de~21_partir~22 210
999 COSIND_0.23 210
999 COSGEN_0.23 210
120 ESRank20 210
202 ESForwSacLong+2+4 210
999 WORDS_avec~23 129
999 WORDFREQ_4000.41 129
999 WORDSALL_avec~23 129
999 COSIND_N/A 129
201 ESForwSacShort 129
999 WORDS_adapté~18 374
999 WORDFREQ_2.36 374
999 WORDSALL_adapté~18 374
999 COSIND_0.01 374
999 COSGEN_0.01 374
206 ESBackSacRegrLong-5-27 374
999 WORDS_adapté~18 89
999 WORDFREQ_2.36 89
999 WORDSALL_adapté~18 89
999 COSIND_0.01 89
999 COSGEN_0.01 89
203 ESBackSacRefixation 89
999 WORDS_sans~27 164
999 WORDFREQ_2224.12 164
999 WORDSALL_sans~27 164
999 COSIND_N/A 164
202 ESForwSacLong+9+50 164
999 WORDS_rester~30 161
999 WORDFREQ_123.78 161
999 WORDSALL_pour~28_rester~30 161
999 COSIND_-0.01 161
999 COSGEN_-0.01 161
202 ESForwSacLong+3+13 161
999 WORDS_amis~25 134
999 WORDFREQ_143.45 134
999 WORDSALL_amis~25 134
999 COSIND_0.01 134
999 COSGEN_0.01 134
206 ESBackSacRegrLong-5-27 134
200 ESRankN 134
199 ESRankNMinus1 161
198 ESRankNMinus2 164
197 ESRankNMinus3 89
196 ESRankNMinus4 374
195 ESRankNMinus5 129
194 ESRankNMinus6 210
193 ESRankNMinus7 211
192 ESRankNMinus8 214
191 ESRankNMinus9 270
190 ESRankNMinus10 105
