999 WORDS_japonaises~5 94
999 WORDFREQ_1.49 94
999 WORDSALL_Les~0_agences~1_japonaises~5 94
999 COSIND_-0.08 94
999 COSGEN_-0.08 94
101 ESRank1 94
999 WORDS_japonaises~5 99
999 WORDFREQ_1.49 99
999 WORDSALL_Les~0_agences~1_japonaises~5 99
999 COSIND_-0.08 99
999 COSGEN_-0.08 99
102 ESRank2 99
203 ESBackSacRefixation 99
999 WORDS_agences~1 107
999 WORDFREQ_3.65 107
999 WORDSALL_Les~0_agences~1 107
999 COSIND_-0.04 107
999 COSGEN_-0.04 107
103 ESRank3 107
206 ESBackSacRegrLong-4-26 107
999 WORDS_spatiales~2 144
999 WORDFREQ_0.14 144
999 WORDSALL_agences~1_spatiales~2 144
999 COSIND_0.01 144
999 COSGEN_0.01 144
104 ESRank4 144
201 ESForwSacShort 144
999 WORDS_spatiales~2 143
999 WORDFREQ_0.14 143
999 WORDSALL_spatiales~2 143
999 COSIND_0.01 143
999 COSGEN_0.01 143
105 ESRank5 143
203 ESBackSacRefixation 143
999 WORDS_françaises~3 252
999 WORDFREQ_45.07 252
999 WORDSALL_françaises~3 252
999 COSIND_-0.00 252
999 COSGEN_-0.00 252
106 ESRank6 252
201 ESForwSacShort 252
999 WORDS_japonaises~5 181
999 WORDFREQ_1.49 181
999 WORDSALL_Les~0_agences~1_japonaises~5 181
999 COSIND_-0.08 181
999 COSGEN_-0.08 181
107 ESRank7 181
202 ESForwSacLong+2+4 181
999 WORDS_décidé~7 155
999 WORDFREQ_73.78 155
999 WORDSALL_ont~6_décidé~7 155
999 COSIND_-0.05 155
999 COSGEN_-0.05 155
108 ESRank8 155
202 ESForwSacLong+2+5 155
999 WORDS_décidé~7 152
999 WORDFREQ_73.78 152
999 WORDSALL_décidé~7 152
999 COSIND_-0.05 152
999 COSGEN_-0.05 152
109 ESRank9 152
203 ESBackSacRefixation 152
999 WORDS_créer~9 170
999 WORDFREQ_16.22 170
999 WORDSALL_de~8_créer~9 170
999 COSIND_0.01 170
999 COSGEN_0.01 170
110 ESRank10 170
202 ESForwSacLong+2+4 170
999 WORDS_groupes~11 170
999 WORDFREQ_36.62 170
999 WORDSALL_des~10_groupes~11 170
999 COSIND_0.03 170
999 COSGEN_0.03 170
111 ESRank11 170
202 ESForwSacLong+2+5 170
999 WORDS_travail~13 140
999 WORDFREQ_223.99 140
999 WORDSALL_japonaises~5_travail~13 140
999 COSIND_0.01 140
999 COSGEN_0.01 140
112 ESRank12 140
202 ESForwSacLong+2+4 140
999 WORDS_travail~13 112
999 WORDFREQ_223.99 112
999 WORDSALL_japonaises~5_travail~13 112
999 COSIND_0.01 112
999 COSGEN_0.01 112
113 ESRank13 112
203 ESBackSacRefixation 112
999 WORDS_ont~6 135
999 WORDFREQ_553.31 135
999 WORDSALL_ont~6 135
999 COSIND_-0.01 135
999 COSGEN_-0.01 135
114 ESRank14 135
206 ESBackSacRegrLong-7-35 135
999 WORDS_suivi~16 208
999 WORDFREQ_0.68 208
999 WORDSALL_le~15_suivi~16 208
999 COSIND_-0.05 208
999 COSGEN_-0.05 208
115 ESRank15 208
202 ESForwSacLong+10+50 208
999 WORDS_suivi~16 138
999 WORDFREQ_0.68 138
999 WORDSALL_sur~14_suivi~16 138
999 COSIND_-0.05 138
999 COSGEN_-0.05 138
116 ESRank16 138
203 ESBackSacRefixation 138
999 WORDS_sera~22 168
999 WORDFREQ_66.69 168
999 WORDSALL_sur~14_suivi~16_sera~22 168
999 COSIND_-0.00 168
999 COSGEN_-0.00 168
117 ESRank17 168
202 ESForwSacLong+6+33 168
999 WORDS_meilleure~28 237
999 WORDFREQ_24.86 237
999 WORDSALL_d'eux~21_sera~22_meilleure~28 237
999 COSIND_-0.04 237
999 COSGEN_-0.04 237
118 ESRank18 237
202 ESForwSacLong+6+31 237
999 WORDS_utilisation~29 109
999 WORDFREQ_4.12 109
999 WORDSALL_chargé~23_utilisation~29 109
999 COSIND_0.05 109
999 COSGEN_0.05 109
119 ESRank19 109
201 ESForwSacShort 109
200 ESRankN 109
199 ESRankNMinus1 237
198 ESRankNMinus2 168
197 ESRankNMinus3 138
196 ESRankNMinus4 208
195 ESRankNMinus5 135
194 ESRankNMinus6 112
193 ESRankNMinus7 140
192 ESRankNMinus8 170
191 ESRankNMinus9 170
190 ESRankNMinus10 152
