999 WORDS_Mentir~0 155
999 WORDFREQ_15.2 155
999 WORDSALL_Mentir~0 155
999 COSIND_0.01 155
999 COSGEN_0.01 155
101 ESRank1 155
999 WORDS_Mentir~0 133
999 WORDFREQ_15.2 133
999 WORDSALL_Mentir~0 133
999 COSIND_0.01 133
999 COSGEN_0.01 133
102 ESRank2 133
203 ESBackSacRefixation 133
999 WORDS_serment~2 426
999 WORDFREQ_8.85 426
999 WORDSALL_sous~1_serment~2 426
999 COSIND_0.23 426
999 COSGEN_0.23 426
103 ESRank3 426
202 ESForwSacLong+2+6 426
999 WORDS_insulte~5 174
999 WORDFREQ_6.96 174
999 WORDSALL_c'est~3_insulte~5 174
999 COSIND_-0.04 174
999 COSGEN_-0.04 174
104 ESRank4 174
202 ESForwSacLong+3+11 174
999 WORDS_ 227
999 WORDFREQ_ 227
999 WORDSALL_ 227
105 ESRank5 227
999 WORDS_bafouer~15 540
999 WORDFREQ_0.68 540
999 WORDSALL_c'est~14_bafouer~15 540
999 COSIND_0.13 540
999 COSGEN_0.13 540
106 ESRank6 540
999 WORDS_ 308
999 WORDFREQ_ 308
999 WORDSALL_ 308
107 ESRank7 308
999 WORDS_insulte~5 128
999 WORDFREQ_6.96 128
999 WORDSALL_c'est~3_insulte~5 128
999 COSIND_-0.04 128
999 COSGEN_-0.04 128
108 ESRank8 128
999 WORDS_Faire~9 193
999 WORDFREQ_1555.14 193
999 WORDSALL_Faire~9 193
999 COSIND_0.03 193
999 COSGEN_0.03 193
109 ESRank9 193
202 ESForwSacLong+4+16 193
999 WORDS_bafouer~15 206
999 WORDFREQ_0.68 206
999 WORDSALL_bafouer~15 206
999 COSIND_0.13 206
999 COSGEN_0.13 206
110 ESRank10 206
202 ESForwSacLong+6+33 206
999 WORDS_prison~24 248
999 WORDFREQ_64.66 248
999 WORDSALL_prison~24 248
999 COSIND_0.02 248
999 COSGEN_0.02 248
111 ESRank11 248
202 ESForwSacLong+9+27 248
999 WORDS_prison~24 220
999 WORDFREQ_64.66 220
999 WORDSALL_prison~24 220
999 COSIND_0.02 220
999 COSGEN_0.02 220
112 ESRank12 220
203 ESBackSacRefixation 220
200 ESRankN 220
199 ESRankNMinus1 248
198 ESRankNMinus2 206
197 ESRankNMinus3 193
196 ESRankNMinus4 128
195 ESRankNMinus5 308
194 ESRankNMinus6 540
193 ESRankNMinus7 227
192 ESRankNMinus8 174
191 ESRankNMinus9 426
190 ESRankNMinus10 133
