999 WORDS_Bien~0 187
999 WORDFREQ_36.55 187
999 WORDSALL_Bien~0 187
999 COSIND_0.02 187
999 COSGEN_0.02 187
101 ESRank1 187
999 WORDS_plus~1 124
999 WORDFREQ_5014.53 124
999 WORDSALL_Bien~0_plus~1 124
999 COSIND_0.02 124
999 COSGEN_0.02 124
102 ESRank2 124
201 ESForwSacShort 124
999 WORDS_connaissance~4 195
999 WORDFREQ_55.81 195
999 WORDSALL_connaissance~4 195
999 COSIND_0.12 195
999 COSGEN_0.12 195
103 ESRank3 195
202 ESForwSacLong+3+8 195
999 WORDS_langue~6 171
999 WORDFREQ_103.78 171
999 WORDSALL_d'une~5_langue~6 171
999 COSIND_0.05 171
999 COSGEN_0.05 171
104 ESRank4 171
202 ESForwSacLong+2+7 171
999 WORDS_morte~7 244
999 WORDFREQ_28.18 244
999 WORDSALL_morte~7 244
999 COSIND_-0.01 244
999 COSGEN_-0.01 244
105 ESRank5 244
201 ESForwSacShort 244
999 WORDS_l'apprentissage~8 166
999 WORDFREQ_10.14 166
999 WORDSALL_l'apprentissage~8 166
999 COSIND_0.47 166
999 COSGEN_0.47 166
106 ESRank6 166
201 ESForwSacShort 166
999 WORDS_latin~10 253
999 WORDFREQ_14.93 253
999 WORDSALL_du~9_latin~10 253
999 COSIND_0.06 253
999 COSGEN_0.06 253
107 ESRank7 253
202 ESForwSacLong+2+4 253
999 WORDS_morte~7 154
999 WORDFREQ_28.18 154
999 WORDSALL_morte~7 154
999 COSIND_-0.01 154
999 COSGEN_-0.01 154
108 ESRank8 154
206 ESBackSacRegrLong-3-20 154
999 WORDS_collège~13 127
999 WORDFREQ_25 127
999 WORDSALL_collège~13 127
999 COSIND_0.01 127
999 COSGEN_0.01 127
109 ESRank9 127
202 ESForwSacLong+6+34 127
999 WORDS_exercice~16 151
999 WORDFREQ_17.5 151
999 WORDSALL_exercice~16 151
999 COSIND_0.06 151
999 COSGEN_0.06 151
110 ESRank10 151
202 ESForwSacLong+3+8 151
999 WORDS_raisonnement~18 227
999 WORDFREQ_7.91 227
999 WORDSALL_raisonnement~18 227
999 COSIND_0.07 227
999 COSGEN_0.07 227
111 ESRank11 227
202 ESForwSacLong+2+4 227
999 WORDS_Il~23 209
999 WORDFREQ_15832.09 209
999 WORDSALL_Il~23 209
999 COSIND_N/A 209
112 ESRank12 209
202 ESForwSacLong+5+32 209
999 WORDS_supérieure~33 207
999 WORDFREQ_18.65 207
999 WORDSALL_supérieure~33 207
999 COSIND_0.20 207
999 COSGEN_0.20 207
113 ESRank13 207
202 ESForwSacLong+10+54 207
999 WORDS_supérieure~33 163
999 WORDFREQ_18.65 163
999 WORDSALL_supérieure~33 163
999 COSIND_0.20 163
999 COSGEN_0.20 163
114 ESRank14 163
203 ESBackSacRefixation 163
200 ESRankN 163
199 ESRankNMinus1 207
198 ESRankNMinus2 209
197 ESRankNMinus3 227
196 ESRankNMinus4 151
195 ESRankNMinus5 127
194 ESRankNMinus6 154
193 ESRankNMinus7 253
192 ESRankNMinus8 166
191 ESRankNMinus9 244
190 ESRankNMinus10 171
