999 WORDS_millier~1 124
999 WORDFREQ_2.36 124
999 WORDSALL_Un~0_millier~1 124
999 COSIND_0.08 124
999 COSGEN_0.08 124
101 ESRank1 124
999 WORDS_d'agriculteurs~2 143
999 WORDFREQ_1.08 143
999 WORDSALL_d'agriculteurs~2 143
999 COSIND_0.63 143
999 COSGEN_0.63 143
102 ESRank2 143
201 ESForwSacShort 143
999 WORDS_d'agriculteurs~2 102
999 WORDFREQ_1.08 102
999 WORDSALL_d'agriculteurs~2 102
999 COSIND_0.63 102
999 COSGEN_0.63 102
103 ESRank3 102
203 ESBackSacRefixation 102
999 WORDS_paralysé~4 204
999 WORDFREQ_4.12 204
999 WORDSALL_ont~3_paralysé~4 204
999 COSIND_0.24 204
999 COSGEN_0.24 204
104 ESRank4 204
202 ESForwSacLong+2+5 204
999 WORDS_centre~6 134
999 WORDFREQ_80 134
999 WORDSALL_centre~6 134
999 COSIND_0.05 134
999 COSGEN_0.05 134
105 ESRank5 134
202 ESForwSacLong+2+4 134
999 WORDS_centre~6 144
999 WORDFREQ_80 144
999 WORDSALL_centre~6 144
999 COSIND_0.05 144
999 COSGEN_0.05 144
106 ESRank6 144
203 ESBackSacRefixation 144
999 WORDS_d'Auch~7 107
999 WORDFREQ_N/A 107
999 WORDSALL_d'Auch~7 107
999 COSIND_N/A 107
107 ESRank7 107
201 ESForwSacShort 107
999 WORDS_exprimer~9 138
999 WORDFREQ_25.95 138
999 WORDSALL_exprimer~9 138
999 COSIND_0.04 138
999 COSGEN_0.04 138
108 ESRank8 138
202 ESForwSacLong+2+6 138
999 WORDS_inquiétude~11 199
999 WORDFREQ_41.35 199
999 WORDSALL_leur~10_inquiétude~11 199
999 COSIND_0.21 199
999 COSGEN_0.21 199
109 ESRank9 199
202 ESForwSacLong+2+6 199
999 WORDS_réforme~14 121
999 WORDFREQ_4.93 121
999 WORDSALL_réforme~14 121
999 COSIND_0.21 121
999 COSGEN_0.21 121
110 ESRank10 121
202 ESForwSacLong+3+8 121
999 WORDS_politique~17 158
999 WORDFREQ_65.88 158
999 WORDSALL_la~16_politique~17 158
999 COSIND_0.08 158
999 COSGEN_0.08 158
111 ESRank11 158
202 ESForwSacLong+3+7 158
999 WORDS_agricole~18 118
999 WORDFREQ_4.32 118
999 WORDSALL_agricole~18 118
999 COSIND_0.70 118
999 COSGEN_0.70 118
112 ESRank12 118
201 ESForwSacShort 118
999 WORDS_à~20 171
999 WORDFREQ_19209.05 171
999 WORDSALL_commune~19_à~20 171
999 COSIND_N/A 171
113 ESRank13 171
202 ESForwSacLong+2+9 171
999 WORDS_l'appel~21 122
999 WORDFREQ_56.69 122
999 WORDSALL_l'appel~21 122
999 COSIND_0.13 122
999 COSGEN_0.13 122
114 ESRank14 122
201 ESForwSacShort 122
999 WORDS_Fédération~24 154
999 WORDFREQ_2.23 154
999 WORDSALL_la~23_Fédération~24 154
999 COSIND_0.39 154
999 COSGEN_0.39 154
115 ESRank15 154
202 ESForwSacLong+3+7 154
999 WORDS_Départementale~25 178
999 WORDFREQ_0.47 178
999 WORDSALL_Départementale~25 178
999 COSIND_0.37 178
999 COSGEN_0.37 178
116 ESRank16 178
201 ESForwSacShort 178
999 WORDS_Syndicats~27 111
999 WORDFREQ_3.24 111
999 WORDSALL_des~26_Syndicats~27 111
999 COSIND_0.86 111
999 COSGEN_0.86 111
117 ESRank17 111
202 ESForwSacLong+2+5 111
200 ESRankN 111
199 ESRankNMinus1 178
198 ESRankNMinus2 154
197 ESRankNMinus3 122
196 ESRankNMinus4 171
195 ESRankNMinus5 118
194 ESRankNMinus6 158
193 ESRankNMinus7 121
192 ESRankNMinus8 199
191 ESRankNMinus9 138
190 ESRankNMinus10 107
