# 253 Fixation 1 (222.1,301.8): Les~0 labels~1 refrain~8
# 144 Fixation 2 (262.5,297.4): Les~0 labels~1 refrain~8
# 151 Fixation 3 (308.4,299.7): Les~0 labels~1
# 113 Fixation 4 (353.4,299.5): labels~1
# 179 Fixation 5 (428.6,297.7): alertent~2
# 143 Fixation 6 (411.1,297.2): labels~1 alertent~2
# 298 Fixation 7 (529.8,299): le~3 public~4
# 104 Fixation 8 (491.8,301.3): alertent~2 plates-formes~10
# 183 Fixation 9 (643.3,300.1): public~4
# 135 Fixation 10 (719.1,299.6): avec~5 même~7
# 175 Fixation 11 (253,338.1): Les~0 labels~1 refrain~8
# 235 Fixation 12 (268.6,342.7): Les~0 labels~1 refrain~8
# 245 Fixation 13 (385.8,350.7): les~9 plates-formes~10 téléchargement~12
# 148 Fixation 14 (448,354.8): les~9 plates-formes~10
# 206 Fixation 15 (534.6,356): plates-formes~10
# 142 Fixation 16 (578.5,355.4): plates-formes~10 tuent~14
# 149 Fixation 17 (478.1,352.7): plates-formes~10
# 113 Fixation 18 (436.2,348.2): alertent~2 plates-formes~10
# 290 Fixation 19 (585.5,357.4): plates-formes~10 tuent~14
# 142 Fixation 20 (262.1,394.3): refrain~8
# 143 Fixation 21 (362.1,396.3): refrain~8 téléchargement~12
# 238 Fixation 22 (470.6,407.7): plates-formes~10 illégales~13
# 140 Fixation 23 (513.8,416): illégales~13
# 129 Fixation 24 (616.9,423.5): tuent~14
# 299 Fixation 25 (718.9,426.3): l'industrie~15
# 124 Fixation 26 (294.5,462.6): téléchargement~12 musicale~16
# 292 Fixation 27 (252.9,471.3): téléchargement~12 musicale~16
# 186 Fixation 28 (414.7,466.7): téléchargement~12 illégales~13
%%
# Les~0 Fixations= "12/"
# labels~1 Fixations= "12/"
# alertent~2 Fixations= "18/"
# le~3 Fixations= "7/"
# public~4 Fixations= "9/"
# avec~5 Fixations= "10/"
# le~6 Fixations= ""
# même~7 Fixations= "10/"
# refrain~8 Fixations= "21/"
# les~9 Fixations= "14/"
# plates-formes~10 Fixations= "22/"
# de~11 Fixations= ""
# téléchargement~12 Fixations= "28/"
# illégales~13 Fixations= "28/"
# tuent~14 Fixations= "24/"
# l'industrie~15 Fixations= "25/"
# musicale~16 Fixations= "27/"
# Pendant~17 Fixations= ""
# ce~18 Fixations= ""
# temps~19 Fixations= ""
# les~20 Fixations= ""
# marchands~21 Fixations= ""
# de~22 Fixations= ""
# disques~23 Fixations= ""
# ont~24 Fixations= ""
# le~25 Fixations= ""
# moral~26 Fixations= ""
# en~27 Fixations= ""
# berne~28 Fixations= ""
%%
#  LES[12] LABELS[12] ALERTENT[18] LE[7] PUBLIC[9] AVEC[10] le MêME[10] REFRAIN[21] LES[14] PLATES-FORMES[22] de TéLéCHARGEMENT[28] ILLéGALES[28] TUENT[24] L'INDUSTRIE[25] MUSICALE[27] Pendant ce temps les marchands de disques ont le moral en berne
# s06 reforme_enseignement-a2 PercentageOfWordsProcessed= 0.517241379310345 PercentageOfWordsReallyProcessed= 0.882352941176471
