999 WORDS_nageuse~1 414
999 WORDFREQ_0.41 414
999 WORDSALL_La~0_nageuse~1 414
999 COSIND_-0.06 414
999 COSGEN_-0.06 414
101 ESRank1 414
999 WORDS_a~2 205
999 WORDFREQ_2926.69 205
999 WORDSALL_a~2 205
999 COSIND_N/A 205
102 ESRank2 205
201 ESForwSacShort 205
999 WORDS_décroché~3 268
999 WORDFREQ_4.8 268
999 WORDSALL_a~2_décroché~3 268
999 COSIND_0.00 268
999 COSGEN_0.00 268
103 ESRank3 268
201 ESForwSacShort 268
999 WORDS_décroché~3 107
999 WORDFREQ_4.8 107
999 WORDSALL_a~2_décroché~3 107
999 COSIND_0.00 107
999 COSGEN_0.00 107
104 ESRank4 107
203 ESBackSacRefixation 107
999 WORDS_deuxième~5 350
999 WORDFREQ_58.58 350
999 WORDSALL_sa~4_deuxième~5 350
999 COSIND_0.07 350
999 COSGEN_0.07 350
105 ESRank5 350
202 ESForwSacLong+2+4 350
999 WORDS_médaille~6 279
999 WORDFREQ_9.53 279
999 WORDSALL_deuxième~5_médaille~6 279
999 COSIND_-0.05 279
999 COSGEN_-0.05 279
106 ESRank6 279
201 ESForwSacShort 279
999 WORDS_d'or~7 203
999 WORDFREQ_127.23 203
999 WORDSALL_La~0_nageuse~1_d'or~7 203
999 COSIND_-0.07 203
999 COSGEN_-0.07 203
107 ESRank7 203
201 ESForwSacShort 203
999 WORDS_d'or~7 413
999 WORDFREQ_127.23 413
999 WORDSALL_La~0_nageuse~1_d'or~7 413
999 COSIND_-0.07 413
999 COSGEN_-0.07 413
108 ESRank8 413
203 ESBackSacRefixation 413
999 WORDS_championnats~9 225
999 WORDFREQ_0.41 225
999 WORDSALL_nageuse~1_a~2_championnats~9 225
999 COSIND_-0.03 225
999 COSGEN_-0.03 225
109 ESRank9 225
202 ESForwSacLong+2+5 225
999 WORDS_d'Europe~10 264
999 WORDFREQ_N/A 264
999 WORDSALL_sa~4_deuxième~5_d'Europe~10 264
999 COSIND_N/A 264
110 ESRank10 264
201 ESForwSacShort 264
999 WORDS_natation~12 177
999 WORDFREQ_1.22 177
999 WORDSALL_médaille~6_natation~12 177
999 COSIND_-0.08 177
999 COSGEN_-0.08 177
111 ESRank11 177
202 ESForwSacLong+2+4 177
999 WORDS_petit~14 193
999 WORDFREQ_653.78 193
999 WORDSALL_en~13_petit~14 193
999 COSIND_-0.00 193
999 COSGEN_-0.00 193
112 ESRank12 193
202 ESForwSacLong+2+4 193
999 WORDS_petit~14 137
999 WORDFREQ_653.78 137
999 WORDSALL_en~13_petit~14 137
999 COSIND_-0.00 137
999 COSGEN_-0.00 137
113 ESRank13 137
203 ESBackSacRefixation 137
200 ESRankN 137
199 ESRankNMinus1 193
198 ESRankNMinus2 177
197 ESRankNMinus3 264
196 ESRankNMinus4 225
195 ESRankNMinus5 413
194 ESRankNMinus6 203
193 ESRankNMinus7 279
192 ESRankNMinus8 350
191 ESRankNMinus9 107
190 ESRankNMinus10 268
