999 WORDS_trafiquants~1 94
999 WORDFREQ_2.09 94
999 WORDSALL_Des~0_trafiquants~1 94
999 COSIND_0.02 94
999 COSGEN_0.02 94
101 ESRank1 94
999 WORDS_trafiquants~1 229
999 WORDFREQ_2.09 229
999 WORDSALL_trafiquants~1 229
999 COSIND_0.02 229
999 COSGEN_0.02 229
102 ESRank2 229
203 ESBackSacRefixation 229
999 WORDS_trafiquants~1 143
999 WORDFREQ_2.09 143
999 WORDSALL_trafiquants~1 143
999 COSIND_0.02 143
999 COSGEN_0.02 143
103 ESRank3 143
203 ESBackSacRefixation 143
999 WORDS_cocaïne~3 151
999 WORDFREQ_1.22 151
999 WORDSALL_de~2_cocaïne~3 151
999 COSIND_-0.01 151
999 COSGEN_-0.01 151
104 ESRank4 151
202 ESForwSacLong+2+4 151
999 WORDS_colombiens~4 265
999 WORDFREQ_0.07 265
999 WORDSALL_colombiens~4 265
999 COSIND_-0.02 265
999 COSGEN_-0.02 265
105 ESRank5 265
201 ESForwSacShort 265
999 WORDS_sabordés~7 264
999 WORDFREQ_0.27 264
999 WORDSALL_Des~0_trafiquants~1_été~6_sabordés~7 264
999 COSIND_0.03 264
999 COSGEN_0.03 264
106 ESRank6 264
202 ESForwSacLong+3+11 264
999 WORDS_sabordés~7 98
999 WORDFREQ_0.27 98
999 WORDSALL_trafiquants~1_sabordés~7 98
999 COSIND_0.03 98
999 COSGEN_0.03 98
107 ESRank7 98
203 ESBackSacRefixation 98
999 WORDS_sous-marin~10 352
999 WORDFREQ_2.7 352
999 WORDSALL_de~2_cocaïne~3_sous-marin~10 352
999 COSIND_N/A 352
108 ESRank8 352
202 ESForwSacLong+3+8 352
999 WORDS_sous-marin~10 141
999 WORDFREQ_2.7 141
999 WORDSALL_colombiens~4_sous-marin~10 141
999 COSIND_N/A 141
109 ESRank9 141
203 ESBackSacRefixation 141
999 WORDS_large~12 138
999 WORDFREQ_35.61 138
999 WORDSALL_colombiens~4_ont~5_large~12 138
999 COSIND_0.19 138
999 COSGEN_0.19 138
110 ESRank10 138
202 ESForwSacLong+2+4 138
999 WORDS_large~12 185
999 WORDFREQ_35.61 185
999 WORDSALL_colombiens~4_large~12 185
999 COSIND_0.19 185
999 COSGEN_0.19 185
111 ESRank11 185
203 ESBackSacRefixation 185
999 WORDS_Pacifique~16 306
999 WORDFREQ_3.11 306
999 WORDSALL_sabordés~7_Pacifique~16 306
999 COSIND_0.10 306
999 COSGEN_0.10 306
112 ESRank12 306
202 ESForwSacLong+4+13 306
999 WORDS_sous-marin~10 187
999 WORDFREQ_2.7 187
999 WORDSALL_sous-marin~10 187
999 COSIND_N/A 187
113 ESRank13 187
206 ESBackSacRegrLong-6-22 187
999 WORDS_deuxième~19 138
999 WORDFREQ_58.58 138
999 WORDSALL_au~11_large~12_deuxième~19 138
999 COSIND_-0.02 138
999 COSGEN_-0.02 138
114 ESRank14 138
202 ESForwSacLong+9+41 138
999 WORDS_forces~23 191
999 WORDFREQ_126.35 191
999 WORDSALL_côte~15_forces~23 191
999 COSIND_0.01 191
999 COSGEN_0.01 191
115 ESRank15 191
202 ESForwSacLong+4+14 191
999 WORDS_forces~23 92
999 WORDFREQ_126.35 92
999 WORDSALL_Pacifique~16_forces~23 92
999 COSIND_0.01 92
999 COSGEN_0.01 92
116 ESRank16 92
203 ESBackSacRefixation 92
999 WORDS_colombiennes~24 232
999 WORDFREQ_N/A 232
999 WORDSALL_C'est~17_deuxième~19_colombiennes~24 232
999 COSIND_N/A 232
117 ESRank17 232
201 ESForwSacShort 232
999 WORDS_arrêtent~25 143
999 WORDFREQ_10.81 143
999 WORDSALL_deuxième~19_arrêtent~25 143
999 COSIND_0.02 143
999 COSGEN_0.02 143
118 ESRank18 143
201 ESForwSacShort 143
999 WORDS_arrêtent~25 97
999 WORDFREQ_10.81 97
999 WORDSALL_la~18_deuxième~19_arrêtent~25 97
999 COSIND_0.02 97
999 COSGEN_0.02 97
119 ESRank19 97
203 ESBackSacRefixation 97
999 WORDS_afin~28 176
999 WORDFREQ_0.95 176
999 WORDSALL_les~22_forces~23_afin~28 176
999 COSIND_N/A 176
120 ESRank20 176
202 ESForwSacLong+3+10 176
999 WORDS_cargaison~32 144
999 WORDFREQ_3.18 144
999 WORDSALL_la~31_cargaison~32 144
999 COSIND_0.14 144
999 COSGEN_0.14 144
202 ESForwSacLong+4+19 144
200 ESRankN 144
199 ESRankNMinus1 176
198 ESRankNMinus2 97
197 ESRankNMinus3 143
196 ESRankNMinus4 232
195 ESRankNMinus5 92
194 ESRankNMinus6 191
193 ESRankNMinus7 138
192 ESRankNMinus8 187
191 ESRankNMinus9 306
190 ESRankNMinus10 185
