999 WORDS_Aucune~0 225
999 WORDFREQ_174.73 225
999 WORDSALL_Aucune~0 225
999 COSIND_N/A 225
101 ESRank1 225
999 WORDS_preuve~1 227
999 WORDFREQ_50.54 227
999 WORDSALL_Aucune~0_preuve~1 227
999 COSIND_0.17 227
999 COSGEN_0.17 227
102 ESRank2 227
201 ESForwSacShort 227
999 WORDS_scientifique~2 323
999 WORDFREQ_4.46 323
999 WORDSALL_scientifique~2 323
999 COSIND_-0.08 323
999 COSGEN_-0.08 323
103 ESRank3 323
201 ESForwSacShort 323
999 WORDS_permet~4 178
999 WORDFREQ_23.99 178
999 WORDSALL_ne~3_permet~4 178
999 COSIND_0.04 178
999 COSGEN_0.04 178
104 ESRank4 178
202 ESForwSacLong+2+4 178
999 WORDS_permet~4 119
999 WORDFREQ_23.99 119
999 WORDSALL_ne~3_permet~4 119
999 COSIND_0.04 119
999 COSGEN_0.04 119
105 ESRank5 119
203 ESBackSacRefixation 119
999 WORDS_aujourd'hui~5 206
999 WORDFREQ_158.24 206
999 WORDSALL_Aucune~0_preuve~1_aujourd'hui~5 206
999 COSIND_N/A 206
106 ESRank6 206
201 ESForwSacShort 206
999 WORDS_aujourd'hui~5 255
999 WORDFREQ_158.24 255
999 WORDSALL_Aucune~0_aujourd'hui~5 255
999 COSIND_N/A 255
107 ESRank7 255
203 ESBackSacRefixation 255
999 WORDS_démontrer~7 234
999 WORDFREQ_5.61 234
999 WORDSALL_démontrer~7 234
999 COSIND_0.02 234
999 COSGEN_0.02 234
108 ESRank8 234
202 ESForwSacLong+2+4 234
999 WORDS_démontrer~7 92
999 WORDFREQ_5.61 92
999 WORDSALL_de~6_démontrer~7 92
999 COSIND_0.02 92
999 COSGEN_0.02 92
109 ESRank9 92
203 ESBackSacRefixation 92
999 WORDS_présente~13 163
999 WORDFREQ_27.5 163
999 WORDSALL_que~8_l'utilisation~9_présente~13 163
999 COSIND_0.06 163
999 COSGEN_0.06 163
110 ESRank10 163
202 ESForwSacLong+6+44 163
999 WORDS_l'utilisation~9 198
999 WORDFREQ_4.12 198
999 WORDSALL_l'utilisation~9 198
999 COSIND_0.10 198
999 COSGEN_0.10 198
111 ESRank11 198
206 ESBackSacRegrLong-4-26 198
999 WORDS_téléphones~11 192
999 WORDFREQ_2.84 192
999 WORDSALL_aujourd'hui~5_téléphones~11 192
999 COSIND_-0.04 192
999 COSGEN_-0.04 192
112 ESRank12 192
202 ESForwSacLong+2+5 192
999 WORDS_téléphones~11 179
999 WORDFREQ_2.84 179
999 WORDSALL_téléphones~11 179
999 COSIND_-0.04 179
999 COSGEN_-0.04 179
113 ESRank13 179
203 ESBackSacRefixation 179
999 WORDS_mobiles~12 291
999 WORDFREQ_5.68 291
999 WORDSALL_mobiles~12 291
999 COSIND_0.02 291
999 COSGEN_0.02 291
114 ESRank14 291
201 ESForwSacShort 291
999 WORDS_présente~13 263
999 WORDFREQ_27.5 263
999 WORDSALL_présente~13 263
999 COSIND_0.06 263
999 COSGEN_0.06 263
115 ESRank15 263
201 ESForwSacShort 263
999 WORDS_risque~15 179
999 WORDFREQ_30.27 179
999 WORDSALL_un~14_risque~15 179
999 COSIND_-0.02 179
999 COSGEN_-0.02 179
116 ESRank16 179
202 ESForwSacLong+2+4 179
999 WORDS_risque~15 113
999 WORDFREQ_30.27 113
999 WORDSALL_un~14_risque~15 113
999 COSIND_-0.02 113
999 COSGEN_-0.02 113
117 ESRank17 113
203 ESBackSacRefixation 113
999 WORDS_notable~16 536
999 WORDFREQ_3.65 536
999 WORDSALL_notable~16 536
999 COSIND_0.08 536
999 COSGEN_0.08 536
118 ESRank18 536
201 ESForwSacShort 536
999 WORDS_santé~19 159
999 WORDFREQ_52.43 159
999 WORDSALL_pour~17_santé~19 159
999 COSIND_-0.10 159
999 COSGEN_-0.10 159
119 ESRank19 159
202 ESForwSacLong+3+9 159
999 WORDS_santé~19 185
999 WORDFREQ_52.43 185
999 WORDSALL_la~18_santé~19 185
999 COSIND_-0.10 185
999 COSGEN_-0.10 185
120 ESRank20 185
203 ESBackSacRefixation 185
999 WORDS_communiqué~21 269
999 WORDFREQ_7.03 269
999 WORDSALL_communiqué~21 269
999 COSIND_-0.04 269
999 COSGEN_-0.04 269
202 ESForwSacLong+2+4 269
999 WORDS_communiqué~21 94
999 WORDFREQ_7.03 94
999 WORDSALL_Le~20_communiqué~21 94
999 COSIND_-0.04 94
999 COSGEN_-0.04 94
203 ESBackSacRefixation 94
999 WORDS_ministère~23 219
999 WORDFREQ_14.32 219
999 WORDSALL_ministère~23 219
999 COSIND_0.01 219
999 COSGEN_0.01 219
202 ESForwSacLong+2+4 219
999 WORDS_ministère~23 132
999 WORDFREQ_14.32 132
999 WORDSALL_ministère~23 132
999 COSIND_0.01 132
999 COSGEN_0.01 132
203 ESBackSacRefixation 132
200 ESRankN 132
199 ESRankNMinus1 219
198 ESRankNMinus2 94
197 ESRankNMinus3 269
196 ESRankNMinus4 185
195 ESRankNMinus5 159
194 ESRankNMinus6 536
193 ESRankNMinus7 113
192 ESRankNMinus8 179
191 ESRankNMinus9 263
190 ESRankNMinus10 291
