999 WORDS_via~1 192
999 WORDFREQ_5.41 192
999 WORDSALL_Les~0_via~1 192
999 COSIND_0.18 192
999 COSGEN_0.18 192
101 ESRank1 192
999 WORDS_via~1 252
999 WORDFREQ_5.41 252
999 WORDSALL_Les~0_via~1 252
999 COSIND_0.18 252
999 COSGEN_0.18 252
102 ESRank2 252
203 ESBackSacRefixation 252
999 WORDS_sports~5 286
999 WORDFREQ_5.27 286
999 WORDSALL_et~3_sports~5 286
999 COSIND_0.24 286
999 COSGEN_0.24 286
103 ESRank3 286
202 ESForwSacLong+4+16 286
999 WORDS_d'eau~6 174
999 WORDFREQ_417.84 174
999 WORDSALL_sports~5_d'eau~6 174
999 COSIND_0.20 174
999 COSGEN_0.20 174
104 ESRank4 174
201 ESForwSacShort 174
999 WORDS_succès~10 187
999 WORDFREQ_53.72 187
999 WORDSALL_un~9_succès~10 187
999 COSIND_-0.00 187
999 COSGEN_-0.00 187
105 ESRank5 187
202 ESForwSacLong+4+21 187
999 WORDS_constant~11 135
999 WORDFREQ_6.55 135
999 WORDSALL_constant~11 135
999 COSIND_0.02 135
999 COSGEN_0.02 135
106 ESRank6 135
201 ESForwSacShort 135
999 WORDS_candidats~13 336
999 WORDFREQ_3.99 336
999 WORDSALL_candidats~13 336
999 COSIND_-0.01 336
999 COSGEN_-0.01 336
107 ESRank7 336
202 ESForwSacLong+2+5 336
999 WORDS_succès~10 175
999 WORDFREQ_53.72 175
999 WORDSALL_un~9_succès~10 175
999 COSIND_-0.00 175
999 COSGEN_-0.00 175
108 ESRank8 175
206 ESBackSacRegrLong-3-14 175
999 WORDS_constant~11 114
999 WORDFREQ_6.55 114
999 WORDSALL_succès~10_constant~11 114
999 COSIND_0.02 114
999 COSGEN_0.02 114
109 ESRank9 114
201 ESForwSacShort 114
999 WORDS_vertige~15 213
999 WORDFREQ_24.26 213
999 WORDSALL_au~14_vertige~15 213
999 COSIND_0.10 213
999 COSGEN_0.10 213
110 ESRank10 213
202 ESForwSacLong+4+18 213
999 WORDS_cinquantaine~22 167
999 WORDFREQ_9.86 167
999 WORDSALL_sur~20_cinquantaine~22 167
999 COSIND_0.24 167
999 COSGEN_0.24 167
111 ESRank11 167
202 ESForwSacLong+7+33 167
999 WORDS_parcours~24 147
999 WORDFREQ_17.64 147
999 WORDSALL_de~23_parcours~24 147
999 COSIND_0.20 147
999 COSGEN_0.20 147
112 ESRank12 147
202 ESForwSacLong+2+4 147
200 ESRankN 147
199 ESRankNMinus1 167
198 ESRankNMinus2 213
197 ESRankNMinus3 114
196 ESRankNMinus4 175
195 ESRankNMinus5 336
194 ESRankNMinus6 135
193 ESRankNMinus7 187
192 ESRankNMinus8 174
191 ESRankNMinus9 286
190 ESRankNMinus10 252
