999 WORDS_Trois~0 135
999 WORDFREQ_660.34 135
999 WORDSALL_Trois~0 135
999 COSIND_0.02 135
999 COSGEN_0.02 135
101 ESRank1 135
999 WORDS_jours~1 184
999 WORDFREQ_515.41 184
999 WORDSALL_Trois~0_jours~1 184
999 COSIND_0.01 184
999 COSGEN_0.01 184
102 ESRank2 184
201 ESForwSacShort 184
999 WORDS_après~2 186
999 WORDFREQ_821.55 186
999 WORDSALL_après~2 186
999 COSIND_0.01 186
999 COSGEN_0.01 186
103 ESRank3 186
201 ESForwSacShort 186
999 WORDS_tir~4 165
999 WORDFREQ_16.01 165
999 WORDSALL_le~3_tir~4 165
999 COSIND_-0.05 165
999 COSGEN_-0.05 165
104 ESRank4 165
202 ESForwSacLong+2+4 165
999 WORDS_missile~6 282
999 WORDFREQ_0.41 282
999 WORDSALL_du~5_missile~6 282
999 COSIND_-0.07 282
999 COSGEN_-0.07 282
105 ESRank5 282
202 ESForwSacLong+2+4 282
999 WORDS_missile~6 154
999 WORDFREQ_0.41 154
999 WORDSALL_missile~6 154
999 COSIND_-0.07 154
999 COSGEN_-0.07 154
106 ESRank6 154
203 ESBackSacRefixation 154
999 WORDS_Agni-2~8 194
999 WORDFREQ_N/A 194
999 WORDSALL_Trois~0_Agni-2~8 194
999 COSIND_N/A 194
107 ESRank7 194
202 ESForwSacLong+2+8 194
200 ESRankN 194
199 ESRankNMinus1 154
198 ESRankNMinus2 282
197 ESRankNMinus3 165
196 ESRankNMinus4 186
195 ESRankNMinus5 184
194 ESRankNMinus6 135
