# 141 Fixation 1 (241,276.6): Les~0 laboratoires~1
# 200 Fixation 2 (334.1,276.6): Les~0 laboratoires~1
# 195 Fixation 3 (528.2,366.2): leur~9 existence~10
# 139 Fixation 4 (615.3,347.8): ainsi~3 réalisé~4 existence~10
# 184 Fixation 5 (701.3,355.4): même~11
# 331 Fixation 6 (410.9,397.5): coup~7 dur~8
# 176 Fixation 7 (485.4,470.6): médicaments~15
%%
# Les~0 Fixations= "2/"
# laboratoires~1 Fixations= "2/"
# ont~2 Fixations= ""
# ainsi~3 Fixations= "4/"
# réalisé~4 Fixations= "4/"
# qu'au~5 Fixations= ""
# premier~6 Fixations= ""
# coup~7 Fixations= "6/"
# dur~8 Fixations= "6/"
# leur~9 Fixations= "3/"
# existence~10 Fixations= "4/"
# même~11 Fixations= "5/"
# était~12 Fixations= ""
# menacée~13 Fixations= ""
# Les~14 Fixations= ""
# médicaments~15 Fixations= "7/"
# nouveaux~16 Fixations= ""
# n'étaient~17 Fixations= ""
# plus~18 Fixations= ""
# assez~19 Fixations= ""
# nombreux~20 Fixations= ""
# pour~21 Fixations= ""
# compenser~22 Fixations= ""
# la~23 Fixations= ""
# chute~24 Fixations= ""
# de~25 Fixations= ""
# leurs~26 Fixations= ""
# brevets~27 Fixations= ""
# dans~28 Fixations= ""
# le~29 Fixations= ""
# domaine~30 Fixations= ""
# public~31 Fixations= ""
%%
#  LES[2] LABORATOIRES[2] ont AINSI[4] RéALISé[4] qu'au premier COUP[6] DUR[6] LEUR[3] EXISTENCE[4] MêME[5] était menacée Les MéDICAMENTS[7] nouveaux n'étaient plus assez nombreux pour compenser la chute de leurs brevets dans le domaine public
# s21 conflit_israelo_palestinien-a2 PercentageOfWordsProcessed= 0.3125 PercentageOfWordsReallyProcessed= 0.625
