# 131 Fixation 1 (273.7,253): Toute~0
# 172 Fixation 2 (389.9,253.8): la~1 magie~2
# 171 Fixation 3 (512.5,262.4): des~3 hauts~4
# 129 Fixation 4 (348,318.1): basaltiques~6
# 86 Fixation 5 (288.7,342): basaltiques~6
# 161 Fixation 6 (568.7,339.2): neige~9
# 162 Fixation 7 (662.3,347.9): en~10 plus~11
# 231 Fixation 8 (354.9,439.6): programme~13
# 183 Fixation 9 (455.4,435): randonnée~14
# 198 Fixation 10 (609.3,422.9): en~15 raquettes~16
# 142 Fixation 11 (364.7,485.9): ski~19
# 171 Fixation 12 (589,491.4): relaxation~23
# 150 Fixation 13 (676.1,559.1): montagne~31
%%
# Toute~0 Fixations= "1/"
# la~1 Fixations= "2/"
# magie~2 Fixations= "2/"
# des~3 Fixations= "3/"
# hauts~4 Fixations= "3/"
# plateaux~5 Fixations= ""
# basaltiques~6 Fixations= "5/"
# avec~7 Fixations= ""
# la~8 Fixations= ""
# neige~9 Fixations= "6/"
# en~10 Fixations= "7/"
# plus~11 Fixations= "7/"
# Au~12 Fixations= ""
# programme~13 Fixations= "8/"
# randonnée~14 Fixations= "9/"
# en~15 Fixations= "10/"
# raquettes~16 Fixations= "10/"
# avec~17 Fixations= ""
# guide~18 Fixations= ""
# ski~19 Fixations= "11/"
# de~20 Fixations= ""
# fond~21 Fixations= ""
# et~22 Fixations= ""
# relaxation~23 Fixations= "12/"
# dans~24 Fixations= ""
# les~25 Fixations= ""
# eaux~26 Fixations= ""
# chaudes~27 Fixations= ""
# thermales~28 Fixations= ""
# de~29 Fixations= ""
# la~30 Fixations= ""
# montagne~31 Fixations= "13/"
%%
#  TOUTE[1] LA[2] MAGIE[2] DES[3] HAUTS[3] plateaux BASALTIQUES[5] avec la NEIGE[6] EN[7] PLUS[7] Au PROGRAMME[8] RANDONNéE[9] EN[10] RAQUETTES[10] avec guide SKI[11] de fond et RELAXATION[12] dans les eaux chaudes thermales de la MONTAGNE[13]
# s21 tourisme_montagne-f2 PercentageOfWordsProcessed= 0.5 PercentageOfWordsReallyProcessed= 0.5
