999 WORDS_CRIIRAD~1 228
999 WORDFREQ_N/A 228
999 WORDSALL_La~0_CRIIRAD~1 228
999 COSIND_N/A 228
101 ESRank1 228
999 WORDS_dénoncé~3 185
999 WORDFREQ_3.24 185
999 WORDSALL_a~2_dénoncé~3 185
999 COSIND_0.13 185
999 COSGEN_0.13 185
102 ESRank2 185
202 ESForwSacLong+2+3 185
999 WORDS_sous-évaluation~5 165
999 WORDFREQ_N/A 165
999 WORDSALL_la~4_sous-évaluation~5 165
999 COSIND_N/A 165
103 ESRank3 165
202 ESForwSacLong+2+4 165
999 WORDS_sous-évaluation~5 151
999 WORDFREQ_N/A 151
999 WORDSALL_sous-évaluation~5 151
999 COSIND_N/A 151
104 ESRank4 151
203 ESBackSacRefixation 151
999 WORDS_Cogema~8 200
999 WORDFREQ_N/A 200
999 WORDSALL_la~7_Cogema~8 200
999 COSIND_N/A 200
105 ESRank5 200
202 ESForwSacLong+3+8 200
999 WORDS_radioactivité~11 217
999 WORDFREQ_0.07 217
999 WORDSALL_de~9_radioactivité~11 217
999 COSIND_0.79 217
999 COSGEN_0.79 217
106 ESRank6 217
202 ESForwSacLong+3+7 217
999 WORDS_produite~12 334
999 WORDFREQ_0.2 334
999 WORDSALL_produite~12 334
999 COSIND_0.47 334
999 COSGEN_0.47 334
107 ESRank7 334
201 ESForwSacShort 334
999 WORDS_Cogema~8 163
999 WORDFREQ_N/A 163
999 WORDSALL_la~7_Cogema~8 163
999 COSIND_N/A 163
108 ESRank8 163
206 ESBackSacRegrLong-4-22 163
200 ESRankN 163
199 ESRankNMinus1 334
198 ESRankNMinus2 217
197 ESRankNMinus3 200
196 ESRankNMinus4 151
195 ESRankNMinus5 165
194 ESRankNMinus6 185
193 ESRankNMinus7 228
