999 WORDS_CRIIRAD~1 276
999 WORDFREQ_N/A 276
999 WORDSALL_La~0_CRIIRAD~1 276
999 COSIND_N/A 276
101 ESRank1 276
999 WORDS_CRIIRAD~1 170
999 WORDFREQ_N/A 170
999 WORDSALL_La~0_CRIIRAD~1 170
999 COSIND_N/A 170
102 ESRank2 170
203 ESBackSacRefixation 170
999 WORDS_dénoncé~3 183
999 WORDFREQ_3.24 183
999 WORDSALL_a~2_dénoncé~3 183
999 COSIND_0.13 183
999 COSGEN_0.13 183
103 ESRank3 183
202 ESForwSacLong+2+3 183
999 WORDS_dénoncé~3 161
999 WORDFREQ_3.24 161
999 WORDSALL_a~2_dénoncé~3 161
999 COSIND_0.13 161
999 COSGEN_0.13 161
104 ESRank4 161
203 ESBackSacRefixation 161
999 WORDS_sous-évaluation~5 242
999 WORDFREQ_N/A 242
999 WORDSALL_la~4_sous-évaluation~5 242
999 COSIND_N/A 242
105 ESRank5 242
202 ESForwSacLong+2+4 242
999 WORDS_ 297
999 WORDFREQ_ 297
999 WORDSALL_ 297
106 ESRank6 297
999 WORDS_Cogema~8 357
999 WORDFREQ_N/A 357
999 WORDSALL_la~7_Cogema~8 357
999 COSIND_N/A 357
107 ESRank7 357
999 WORDS_radioactivité~11 169
999 WORDFREQ_0.07 169
999 WORDSALL_radioactivité~11 169
999 COSIND_0.79 169
999 COSGEN_0.79 169
108 ESRank8 169
202 ESForwSacLong+3+7 169
999 WORDS_radioactivité~11 157
999 WORDFREQ_0.07 157
999 WORDSALL_la~10_radioactivité~11 157
999 COSIND_0.79 157
999 COSGEN_0.79 157
109 ESRank9 157
203 ESBackSacRefixation 157
999 WORDS_sous-évaluation~5 269
999 WORDFREQ_N/A 269
999 WORDSALL_sous-évaluation~5 269
999 COSIND_N/A 269
110 ESRank10 269
206 ESBackSacRegrLong-6-21 269
999 WORDS_eaux~15 248
999 WORDFREQ_42.03 248
999 WORDSALL_des~14_eaux~15 248
999 COSIND_0.22 248
999 COSGEN_0.22 248
111 ESRank11 248
202 ESForwSacLong+10+53 248
999 WORDS_ruissellement~17 217
999 WORDFREQ_4.12 217
999 WORDSALL_ruissellement~17 217
999 COSIND_0.14 217
999 COSGEN_0.14 217
112 ESRank12 217
202 ESForwSacLong+2+4 217
999 WORDS_eaux~15 240
999 WORDFREQ_42.03 240
999 WORDSALL_eaux~15 240
999 COSIND_0.22 240
999 COSGEN_0.22 240
113 ESRank13 240
206 ESBackSacRegrLong-2-4 240
999 WORDS_eaux~15 239
999 WORDFREQ_42.03 239
999 WORDSALL_des~14_eaux~15 239
999 COSIND_0.22 239
999 COSGEN_0.22 239
114 ESRank14 239
203 ESBackSacRefixation 239
999 WORDS_par~6 281
999 WORDFREQ_3727.09 281
999 WORDSALL_par~6 281
999 COSIND_N/A 281
115 ESRank15 281
206 ESBackSacRegrLong-9-49 281
999 WORDS_par~6 117
999 WORDFREQ_3727.09 117
999 WORDSALL_par~6 117
999 COSIND_N/A 117
116 ESRank16 117
203 ESBackSacRefixation 117
999 WORDS_ruissellement~17 210
999 WORDFREQ_4.12 210
999 WORDSALL_ruissellement~17 210
999 COSIND_0.14 210
999 COSGEN_0.14 210
117 ESRank17 210
202 ESForwSacLong+11+57 210
999 WORDS_ruissellement~17 151
999 WORDFREQ_4.12 151
999 WORDSALL_de~16_ruissellement~17 151
999 COSIND_0.14 151
999 COSGEN_0.14 151
118 ESRank18 151
203 ESBackSacRefixation 151
999 WORDS_eaux~15 277
999 WORDFREQ_42.03 277
999 WORDSALL_des~14_eaux~15 277
999 COSIND_0.22 277
999 COSGEN_0.22 277
119 ESRank19 277
206 ESBackSacRegrLong-2-4 277
999 WORDS_eaux~15 182
999 WORDFREQ_42.03 182
999 WORDSALL_des~14_eaux~15 182
999 COSIND_0.22 182
999 COSGEN_0.22 182
120 ESRank20 182
203 ESBackSacRefixation 182
999 WORDS_ruissellement~17 205
999 WORDFREQ_4.12 205
999 WORDSALL_ruissellement~17 205
999 COSIND_0.14 205
999 COSGEN_0.14 205
202 ESForwSacLong+2+4 205
999 WORDS_ruissellement~17 161
999 WORDFREQ_4.12 161
999 WORDSALL_de~16_ruissellement~17 161
999 COSIND_0.14 161
999 COSGEN_0.14 161
203 ESBackSacRefixation 161
999 WORDS_d'anciennes~18 307
999 WORDFREQ_18.65 307
999 WORDSALL_d'anciennes~18 307
999 COSIND_-0.04 307
999 COSGEN_-0.04 307
201 ESForwSacShort 307
999 WORDS_produite~12 209
999 WORDFREQ_0.2 209
999 WORDSALL_produite~12 209
999 COSIND_0.47 209
999 COSGEN_0.47 209
206 ESBackSacRegrLong-6-31 209
999 WORDS_d'uranium~20 177
999 WORDFREQ_0.47 177
999 WORDSALL_d'uranium~20 177
999 COSIND_0.90 177
999 COSGEN_0.90 177
202 ESForwSacLong+8+49 177
999 WORDS_d'uranium~20 219
999 WORDFREQ_0.47 219
999 WORDSALL_d'uranium~20 219
999 COSIND_0.90 219
999 COSGEN_0.90 219
203 ESBackSacRefixation 219
999 WORDS_Loire-atlantique~22 211
999 WORDFREQ_N/A 211
999 WORDSALL_Loire-atlantique~22 211
999 COSIND_N/A 211
202 ESForwSacLong+2+4 211
999 WORDS_Loire-atlantique~22 158
999 WORDFREQ_N/A 158
999 WORDSALL_en~21_Loire-atlantique~22 158
999 COSIND_N/A 158
203 ESBackSacRefixation 158
999 WORDS_Loire-atlantique~22 179
999 WORDFREQ_N/A 179
999 WORDSALL_en~21_Loire-atlantique~22 179
999 COSIND_N/A 179
203 ESBackSacRefixation 179
200 ESRankN 179
199 ESRankNMinus1 158
198 ESRankNMinus2 211
197 ESRankNMinus3 219
196 ESRankNMinus4 177
195 ESRankNMinus5 209
194 ESRankNMinus6 307
193 ESRankNMinus7 161
192 ESRankNMinus8 205
191 ESRankNMinus9 182
190 ESRankNMinus10 277
