999 WORDS_salon~7 88
999 WORDFREQ_84.12 88
999 WORDSALL_Le~0_bombardier~1_salon~7 88
999 COSIND_-0.05 88
999 COSGEN_-0.05 88
101 ESRank1 88
999 WORDS_bombardier~1 331
999 WORDFREQ_0.68 331
999 WORDSALL_Le~0_bombardier~1 331
999 COSIND_-0.03 331
999 COSGEN_-0.03 331
102 ESRank2 331
206 ESBackSacRegrLong-6-29 331
999 WORDS_Spirit~2 185
999 WORDFREQ_N/A 185
999 WORDSALL_Spirit~2 185
999 COSIND_N/A 185
103 ESRank3 185
201 ESForwSacShort 185
999 WORDS_Spirit~2 138
999 WORDFREQ_N/A 138
999 WORDSALL_Spirit~2 138
999 COSIND_N/A 138
104 ESRank4 138
203 ESBackSacRefixation 138
999 WORDS_visiteurs~5 217
999 WORDFREQ_16.76 217
999 WORDSALL_les~4_visiteurs~5 217
999 COSIND_-0.08 217
999 COSGEN_-0.08 217
105 ESRank5 217
202 ESForwSacLong+3+9 217
999 WORDS_visiteurs~5 130
999 WORDFREQ_16.76 130
999 WORDSALL_visiteurs~5 130
999 COSIND_-0.08 130
999 COSGEN_-0.08 130
106 ESRank6 130
203 ESBackSacRefixation 130
999 WORDS_salon~7 243
999 WORDFREQ_84.12 243
999 WORDSALL_Le~0_bombardier~1_salon~7 243
999 COSIND_-0.05 243
999 COSGEN_-0.05 243
107 ESRank7 243
202 ESForwSacLong+2+4 243
999 WORDS_Bourget~9 209
999 WORDFREQ_N/A 209
999 WORDSALL_bombardier~1_Bourget~9 209
999 COSIND_N/A 209
108 ESRank8 209
202 ESForwSacLong+2+4 209
999 WORDS_entraperçu~11 212
999 WORDFREQ_0.07 212
999 WORDSALL_que~3_visiteurs~5_entraperçu~11 212
999 COSIND_0.04 212
999 COSGEN_0.04 212
109 ESRank9 212
202 ESForwSacLong+2+5 212
999 WORDS_entraperçu~11 345
999 WORDFREQ_0.07 345
999 WORDSALL_ont~10_entraperçu~11 345
999 COSIND_0.04 345
999 COSGEN_0.04 345
110 ESRank10 345
203 ESBackSacRefixation 345
999 WORDS_entraperçu~11 246
999 WORDFREQ_0.07 246
999 WORDSALL_entraperçu~11 246
999 COSIND_0.04 246
999 COSGEN_0.04 246
111 ESRank11 246
203 ESBackSacRefixation 246
999 WORDS_entraperçu~11 185
999 WORDFREQ_0.07 185
999 WORDSALL_ont~10_entraperçu~11 185
999 COSIND_0.04 185
999 COSGEN_0.04 185
112 ESRank12 185
203 ESBackSacRefixation 185
999 WORDS_visiteurs~5 152
999 WORDFREQ_16.76 152
999 WORDSALL_visiteurs~5 152
999 COSIND_-0.08 152
999 COSGEN_-0.08 152
113 ESRank13 152
206 ESBackSacRegrLong-6-25 152
999 WORDS_visiteurs~5 194
999 WORDFREQ_16.76 194
999 WORDSALL_visiteurs~5 194
999 COSIND_-0.08 194
999 COSGEN_-0.08 194
114 ESRank14 194
203 ESBackSacRefixation 194
999 WORDS_temps~15 272
999 WORDFREQ_1289.39 272
999 WORDSALL_salon~7_temps~15 272
999 COSIND_0.02 272
999 COSGEN_0.02 272
115 ESRank15 272
202 ESForwSacLong+10+48 272
999 WORDS_très~17 160
999 WORDFREQ_1120.81 160
999 WORDSALL_d'un~16_très~17 160
999 COSIND_N/A 160
116 ESRank16 160
202 ESForwSacLong+2+6 160
999 WORDS_bref~18 159
999 WORDFREQ_35.2 159
999 WORDSALL_très~17_bref~18 159
999 COSIND_-0.08 159
999 COSGEN_-0.08 159
117 ESRank17 159
201 ESForwSacShort 159
999 WORDS_passage~19 199
999 WORDFREQ_136.82 199
999 WORDSALL_bref~18_passage~19 199
999 COSIND_-0.06 199
999 COSGEN_-0.06 199
118 ESRank18 199
201 ESForwSacShort 199
999 WORDS_au-dessus~20 122
999 WORDFREQ_0.07 122
999 WORDSALL_entraperçu~11_juin~13_au-dessus~20 122
999 COSIND_N/A 122
119 ESRank19 122
201 ESForwSacShort 122
999 WORDS_têtes~23 174
999 WORDFREQ_61.96 174
999 WORDSALL_temps~15_têtes~23 174
999 COSIND_0.02 174
999 COSGEN_0.02 174
120 ESRank20 174
202 ESForwSacLong+3+10 174
200 ESRankN 174
199 ESRankNMinus1 122
198 ESRankNMinus2 199
197 ESRankNMinus3 159
196 ESRankNMinus4 160
195 ESRankNMinus5 272
194 ESRankNMinus6 194
193 ESRankNMinus7 152
192 ESRankNMinus8 185
191 ESRankNMinus9 246
190 ESRankNMinus10 345
