999 WORDS_livres~1 124
999 WORDFREQ_134.73 124
999 WORDSALL_Des~0_livres~1 124
999 COSIND_-0.02 124
999 COSGEN_-0.02 124
101 ESRank1 124
999 WORDS_mémoires~3 177
999 WORDFREQ_5.14 177
999 WORDSALL_de~2_mémoires~3 177
999 COSIND_-0.02 177
999 COSGEN_-0.02 177
102 ESRank2 177
202 ESForwSacLong+2+4 177
999 WORDS_d'anciens~4 238
999 WORDFREQ_39.86 238
999 WORDSALL_d'anciens~4 238
999 COSIND_-0.01 238
999 COSGEN_-0.01 238
103 ESRank3 238
201 ESForwSacShort 238
999 WORDS_déportés~5 249
999 WORDFREQ_4.66 249
999 WORDSALL_déportés~5 249
999 COSIND_0.05 249
999 COSGEN_0.05 249
104 ESRank4 249
201 ESForwSacShort 249
999 WORDS_paraît~8 415
999 WORDFREQ_113.92 415
999 WORDSALL_Des~0_livres~1_paraît~8 415
999 COSIND_0.01 415
999 COSGEN_0.01 415
105 ESRank5 415
202 ESForwSacLong+3+7 415
999 WORDS_paraît~8 153
999 WORDFREQ_113.92 153
999 WORDSALL_Des~0_livres~1_paraît~8 153
999 COSIND_0.01 153
999 COSGEN_0.01 153
106 ESRank6 153
203 ESBackSacRefixation 153
999 WORDS_régulièrement~9 412
999 WORDFREQ_27.77 412
999 WORDSALL_de~2_mémoires~3_régulièrement~9 412
999 COSIND_-0.11 412
999 COSGEN_-0.11 412
107 ESRank7 412
201 ESForwSacShort 412
999 WORDS_inégal~15 151
999 WORDFREQ_2.84 151
999 WORDSALL_De~10_qualité~11_inégal~15 151
999 COSIND_0.06 151
999 COSGEN_0.06 151
108 ESRank8 151
202 ESForwSacLong+6+37 151
999 WORDS_qualité~11 198
999 WORDFREQ_42.7 198
999 WORDSALL_De~10_qualité~11 198
999 COSIND_0.05 198
999 COSGEN_0.05 198
109 ESRank9 198
206 ESBackSacRegrLong-4-25 198
999 WORDS_paraît~8 120
999 WORDFREQ_113.92 120
999 WORDSALL_il~6_paraît~8 120
999 COSIND_0.01 120
999 COSGEN_0.01 120
110 ESRank10 120
206 ESBackSacRegrLong-3-20 120
999 WORDS_inégale~12 128
999 WORDFREQ_1.69 128
999 WORDSALL_il~6_paraît~8_inégale~12 128
999 COSIND_0.06 128
999 COSGEN_0.06 128
111 ESRank11 128
202 ESForwSacLong+4+29 128
999 WORDS_d'intérêt~14 223
999 WORDFREQ_75 223
999 WORDSALL_paraît~8_régulièrement~9_d'intérêt~14 223
999 COSIND_0.05 223
999 COSGEN_0.05 223
112 ESRank12 223
202 ESForwSacLong+2+4 223
999 WORDS_histoire~22 138
999 WORDFREQ_292.23 138
999 WORDSALL_d'intérêt~14_inégal~15_histoire~22 138
999 COSIND_0.01 138
999 COSGEN_0.01 138
113 ESRank13 138
202 ESForwSacLong+8+39 138
999 WORDS_histoire~22 172
999 WORDFREQ_292.23 172
999 WORDSALL_d'intérêt~14_histoire~22 172
999 COSIND_0.01 172
999 COSGEN_0.01 172
114 ESRank14 172
203 ESBackSacRefixation 172
200 ESRankN 172
199 ESRankNMinus1 138
198 ESRankNMinus2 223
197 ESRankNMinus3 128
196 ESRankNMinus4 120
195 ESRankNMinus5 198
194 ESRankNMinus6 151
193 ESRankNMinus7 412
192 ESRankNMinus8 153
191 ESRankNMinus9 415
190 ESRankNMinus10 249
