999 WORDS_Code~1 154
999 WORDFREQ_13.58 154
999 WORDSALL_Le~0_Code~1 154
999 COSIND_0.10 154
999 COSGEN_0.10 154
101 ESRank1 154
999 WORDS_Code~1 149
999 WORDFREQ_13.58 149
999 WORDSALL_Le~0_Code~1 149
999 COSIND_0.10 149
999 COSGEN_0.10 149
102 ESRank2 149
203 ESBackSacRefixation 149
999 WORDS_procédure~3 207
999 WORDFREQ_3.38 207
999 WORDSALL_Code~1_procédure~3 207
999 COSIND_0.28 207
999 COSGEN_0.28 207
103 ESRank3 207
202 ESForwSacLong+2+4 207
999 WORDS_pénale~4 185
999 WORDFREQ_0.2 185
999 WORDSALL_procédure~3_pénale~4 185
999 COSIND_0.49 185
999 COSGEN_0.49 185
104 ESRank4 185
201 ESForwSacShort 185
999 WORDS_pénale~4 189
999 WORDFREQ_0.2 189
999 WORDSALL_procédure~3_pénale~4 189
999 COSIND_0.49 189
999 COSGEN_0.49 189
105 ESRank5 189
203 ESBackSacRefixation 189
999 WORDS_procédure~3 189
999 WORDFREQ_3.38 189
999 WORDSALL_de~2_procédure~3 189
999 COSIND_0.28 189
999 COSGEN_0.28 189
106 ESRank6 189
205 ESBackSacRegrShort 189
999 WORDS_réaffirme~5 264
999 WORDFREQ_0 264
999 WORDSALL_pénale~4_réaffirme~5 264
999 COSIND_0.19 264
999 COSGEN_0.19 264
107 ESRank7 264
202 ESForwSacLong+2+9 264
999 WORDS_réaffirme~5 100
999 WORDFREQ_0 100
999 WORDSALL_réaffirme~5 100
999 COSIND_0.19 100
999 COSGEN_0.19 100
108 ESRank8 100
203 ESBackSacRefixation 100
999 WORDS_principe~7 98
999 WORDFREQ_30.88 98
999 WORDSALL_principe~7 98
999 COSIND_0.05 98
999 COSGEN_0.05 98
109 ESRank9 98
202 ESForwSacLong+2+4 98
999 WORDS_principe~7 126
999 WORDFREQ_30.88 126
999 WORDSALL_principe~7 126
999 COSIND_0.05 126
999 COSGEN_0.05 126
110 ESRank10 126
203 ESBackSacRefixation 126
999 WORDS_publicité~10 144
999 WORDFREQ_12.57 144
999 WORDSALL_de~8_publicité~10 144
999 COSIND_0.03 144
999 COSGEN_0.03 144
111 ESRank11 144
202 ESForwSacLong+3+7 144
999 WORDS_publicité~10 145
999 WORDFREQ_12.57 145
999 WORDSALL_la~9_publicité~10 145
999 COSIND_0.03 145
999 COSGEN_0.03 145
112 ESRank12 145
203 ESBackSacRefixation 145
999 WORDS_débats~12 155
999 WORDFREQ_6.35 155
999 WORDSALL_des~11_débats~12 155
999 COSIND_0.06 155
999 COSGEN_0.06 155
113 ESRank13 155
202 ESForwSacLong+2+5 155
999 WORDS_débats~12 173
999 WORDFREQ_6.35 173
999 WORDSALL_des~11_débats~12 173
999 COSIND_0.06 173
999 COSGEN_0.06 173
114 ESRank14 173
203 ESBackSacRefixation 173
999 WORDS_débats~12 148
999 WORDFREQ_6.35 148
999 WORDSALL_débats~12 148
999 COSIND_0.06 148
999 COSGEN_0.06 148
115 ESRank15 148
203 ESBackSacRefixation 148
999 WORDS_indique~14 123
999 WORDFREQ_10.2 123
999 WORDSALL_indique~14 123
999 COSIND_0.02 123
999 COSGEN_0.02 123
116 ESRank16 123
202 ESForwSacLong+2+4 123
999 WORDS_indique~14 113
999 WORDFREQ_10.2 113
999 WORDSALL_indique~14 113
999 COSIND_0.02 113
999 COSGEN_0.02 113
117 ESRank17 113
203 ESBackSacRefixation 113
999 WORDS_débats~17 170
999 WORDFREQ_6.35 170
999 WORDSALL_que~15_débats~17 170
999 COSIND_0.06 170
999 COSGEN_0.06 170
118 ESRank18 170
202 ESForwSacLong+3+9 170
999 WORDS_débats~17 149
999 WORDFREQ_6.35 149
999 WORDSALL_les~16_débats~17 149
999 COSIND_0.06 149
999 COSGEN_0.06 149
119 ESRank19 149
203 ESBackSacRefixation 149
999 WORDS_sont~18 161
999 WORDFREQ_713.18 161
999 WORDSALL_débats~17_sont~18 161
999 COSIND_0.05 161
999 COSGEN_0.05 161
120 ESRank20 161
201 ESForwSacShort 161
999 WORDS_publics~19 198
999 WORDFREQ_14.46 198
999 WORDSALL_sont~18_publics~19 198
999 COSIND_-0.04 198
999 COSGEN_-0.04 198
201 ESForwSacShort 198
999 WORDS_à~20 151
999 WORDFREQ_19209.05 151
999 WORDSALL_publics~19_à~20 151
999 COSIND_N/A 151
201 ESForwSacShort 151
999 WORDS_moins~21 144
999 WORDFREQ_718.18 144
999 WORDSALL_moins~21 144
999 COSIND_N/A 144
201 ESForwSacShort 144
999 WORDS_moins~21 204
999 WORDFREQ_718.18 204
999 WORDSALL_moins~21 204
999 COSIND_N/A 204
203 ESBackSacRefixation 204
999 WORDS_publicité~24 150
999 WORDFREQ_12.57 150
999 WORDSALL_que~22_publicité~24 150
999 COSIND_0.03 150
999 COSGEN_0.03 150
202 ESForwSacLong+3+8 150
999 WORDS_publicité~24 135
999 WORDFREQ_12.57 135
999 WORDSALL_la~23_publicité~24 135
999 COSIND_0.03 135
999 COSGEN_0.03 135
203 ESBackSacRefixation 135
999 WORDS_soit~26 201
999 WORDFREQ_167.03 201
999 WORDSALL_soit~26 201
999 COSIND_N/A 201
202 ESForwSacLong+2+4 201
999 WORDS_soit~26 203
999 WORDFREQ_167.03 203
999 WORDSALL_ne~25_soit~26 203
999 COSIND_N/A 203
203 ESBackSacRefixation 203
999 WORDS_soit~26 107
999 WORDFREQ_167.03 107
999 WORDSALL_ne~25_soit~26 107
999 COSIND_N/A 107
203 ESBackSacRefixation 107
200 ESRankN 107
199 ESRankNMinus1 203
198 ESRankNMinus2 201
197 ESRankNMinus3 135
196 ESRankNMinus4 150
195 ESRankNMinus5 204
194 ESRankNMinus6 144
193 ESRankNMinus7 151
192 ESRankNMinus8 198
191 ESRankNMinus9 161
190 ESRankNMinus10 149
