999 WORDS_ministre~1 167
999 WORDFREQ_61.01 167
999 WORDSALL_Le~0_ministre~1 167
999 COSIND_0.02 167
999 COSGEN_0.02 167
101 ESRank1 167
999 WORDS_irakien~2 177
999 WORDFREQ_0.07 177
999 WORDSALL_ministre~1_irakien~2 177
999 COSIND_N/A 177
102 ESRank2 177
201 ESForwSacShort 177
999 WORDS_l'Arabie~8 243
999 WORDFREQ_N/A 243
999 WORDSALL_l'Arabie~8 243
999 COSIND_N/A 243
103 ESRank3 243
202 ESForwSacLong+6+32 243
999 WORDS_saoudite~9 129
999 WORDFREQ_0.07 129
999 WORDSALL_saoudite~9 129
999 COSIND_N/A 129
104 ESRank4 129
201 ESForwSacShort 129
999 WORDS_d'avoir~10 139
999 WORDFREQ_649.26 139
999 WORDSALL_d'avoir~10 139
999 COSIND_0.02 139
999 COSGEN_0.02 139
105 ESRank5 139
201 ESForwSacShort 139
999 WORDS_marché~13 212
999 WORDFREQ_57.36 212
999 WORDSALL_le~12_marché~13 212
999 COSIND_-0.05 212
999 COSGEN_-0.05 212
106 ESRank6 212
202 ESForwSacLong+3+12 212
999 WORDS_pétrole~15 173
999 WORDFREQ_14.73 173
999 WORDSALL_du~14_pétrole~15 173
999 COSIND_0.55 173
999 COSGEN_0.55 173
107 ESRank7 173
202 ESForwSacLong+2+4 173
999 WORDS_réclamé~18 266
999 WORDFREQ_2.64 266
999 WORDSALL_Il~16_a~17_réclamé~18 266
999 COSIND_-0.02 266
999 COSGEN_-0.02 266
108 ESRank8 266
202 ESForwSacLong+3+6 266
999 WORDS_saoudienne~24 292
999 WORDFREQ_0 292
999 WORDSALL_saoudienne~24 292
999 COSIND_N/A 292
109 ESRank9 292
202 ESForwSacLong+6+33 292
999 WORDS_production~23 231
999 WORDFREQ_12.3 231
999 WORDSALL_la~22_production~23 231
999 COSIND_0.19 231
999 COSGEN_0.19 231
110 ESRank10 231
205 ESBackSacRegrShort 231
999 WORDS_prix~28 172
999 WORDFREQ_107.5 172
999 WORDSALL_prix~28 172
999 COSIND_0.99 172
999 COSGEN_0.99 172
111 ESRank11 172
202 ESForwSacLong+5+25 172
999 WORDS_prix~28 192
999 WORDFREQ_107.5 192
999 WORDSALL_que~26_prix~28 192
999 COSIND_0.99 192
999 COSGEN_0.99 192
112 ESRank12 192
203 ESBackSacRefixation 192
999 WORDS_prix~28 242
999 WORDFREQ_107.5 242
999 WORDSALL_que~26_prix~28 242
999 COSIND_0.99 242
999 COSGEN_0.99 242
113 ESRank13 242
203 ESBackSacRefixation 242
200 ESRankN 242
199 ESRankNMinus1 192
198 ESRankNMinus2 172
197 ESRankNMinus3 231
196 ESRankNMinus4 292
195 ESRankNMinus5 266
194 ESRankNMinus6 173
193 ESRankNMinus7 212
192 ESRankNMinus8 139
191 ESRankNMinus9 129
190 ESRankNMinus10 243
