999 WORDS_syndicats~1 162
999 WORDFREQ_3.24 162
999 WORDSALL_Les~0_syndicats~1 162
999 COSIND_0.86 162
999 COSGEN_0.86 162
101 ESRank1 162
999 WORDS_avaient~3 155
999 WORDFREQ_524.26 155
999 WORDSALL_avaient~3 155
999 COSIND_0.04 155
999 COSGEN_0.04 155
102 ESRank2 155
202 ESForwSacLong+2+5 155
999 WORDS_lancé~4 150
999 WORDFREQ_24.66 150
999 WORDSALL_lancé~4 150
999 COSIND_0.11 150
999 COSGEN_0.11 150
103 ESRank3 150
201 ESForwSacShort 150
999 WORDS_syndicats~1 247
999 WORDFREQ_3.24 247
999 WORDSALL_Les~0_syndicats~1 247
999 COSIND_0.86 247
999 COSGEN_0.86 247
104 ESRank4 247
206 ESBackSacRegrLong-3-13 247
999 WORDS_avaient~3 242
999 WORDFREQ_524.26 242
999 WORDSALL_avaient~3 242
999 COSIND_0.04 242
999 COSGEN_0.04 242
105 ESRank5 242
202 ESForwSacLong+2+5 242
999 WORDS_l'aménagement~12 248
999 WORDFREQ_1.82 248
999 WORDSALL_l'aménagement~12 248
999 COSIND_0.12 248
999 COSGEN_0.12 248
106 ESRank6 248
202 ESForwSacLong+9+60 248
999 WORDS_temps~14 175
999 WORDFREQ_1289.39 175
999 WORDSALL_temps~14 175
999 COSIND_-0.01 175
999 COSGEN_-0.01 175
107 ESRank7 175
202 ESForwSacLong+2+4 175
999 WORDS_travail~16 164
999 WORDFREQ_223.99 164
999 WORDSALL_travail~16 164
999 COSIND_0.02 164
999 COSGEN_0.02 164
108 ESRank8 164
202 ESForwSacLong+2+4 164
999 WORDS_l'embauche~19 224
999 WORDFREQ_2.97 224
999 WORDSALL_que~18_l'embauche~19 224
999 COSIND_0.20 224
999 COSGEN_0.20 224
109 ESRank9 224
202 ESForwSacLong+3+11 224
999 WORDS_trente~21 177
999 WORDFREQ_79.12 177
999 WORDSALL_de~20_trente~21 177
999 COSIND_0.09 177
999 COSGEN_0.09 177
110 ESRank10 177
202 ESForwSacLong+2+4 177
999 WORDS_supplémentaires~23 175
999 WORDFREQ_5.47 175
999 WORDSALL_supplémentaires~23 175
999 COSIND_0.11 175
999 COSGEN_0.11 175
111 ESRank11 175
202 ESForwSacLong+2+11 175
999 WORDS_supplémentaires~23 161
999 WORDFREQ_5.47 161
999 WORDSALL_supplémentaires~23 161
999 COSIND_0.11 161
999 COSGEN_0.11 161
112 ESRank12 161
203 ESBackSacRefixation 161
999 WORDS_syndicats~1 195
999 WORDFREQ_3.24 195
999 WORDSALL_Les~0_syndicats~1 195
999 COSIND_0.86 195
999 COSGEN_0.86 195
113 ESRank13 195
206 ESBackSacRegrLong-22-148 195
999 WORDS_syndicats~1 186
999 WORDFREQ_3.24 186
999 WORDSALL_Les~0_syndicats~1 186
999 COSIND_0.86 186
999 COSGEN_0.86 186
114 ESRank14 186
203 ESBackSacRefixation 186
999 WORDS_syndicats~1 245
999 WORDFREQ_3.24 245
999 WORDSALL_Les~0_syndicats~1 245
999 COSIND_0.86 245
999 COSGEN_0.86 245
115 ESRank15 245
203 ESBackSacRefixation 245
999 WORDS_lancé~4 323
999 WORDFREQ_24.66 323
999 WORDSALL_lancé~4 323
999 COSIND_0.11 323
999 COSGEN_0.11 323
116 ESRank16 323
202 ESForwSacLong+3+13 323
999 WORDS_avaient~3 309
999 WORDFREQ_524.26 309
999 WORDSALL_qui~2_avaient~3 309
999 COSIND_0.04 309
999 COSGEN_0.04 309
117 ESRank17 309
205 ESBackSacRegrShort 309
200 ESRankN 309
199 ESRankNMinus1 323
198 ESRankNMinus2 245
197 ESRankNMinus3 186
196 ESRankNMinus4 195
195 ESRankNMinus5 161
194 ESRankNMinus6 175
193 ESRankNMinus7 177
192 ESRankNMinus8 224
191 ESRankNMinus9 164
190 ESRankNMinus10 175
