999 WORDS_Proche-orient~0 156
999 WORDFREQ_N/A 156
999 WORDSALL_Proche-orient~0 156
999 COSIND_N/A 156
101 ESRank1 156
999 WORDS_Proche-orient~0 156
999 WORDFREQ_N/A 156
999 WORDSALL_Proche-orient~0 156
999 COSIND_N/A 156
102 ESRank2 156
203 ESBackSacRefixation 156
999 WORDS_chef~2 173
999 WORDFREQ_172.57 173
999 WORDSALL_le~1_chef~2 173
999 COSIND_0.02 173
999 COSGEN_0.02 173
103 ESRank3 173
202 ESForwSacLong+2+4 173
999 WORDS_gouvernement~4 106
999 WORDFREQ_119.73 106
999 WORDSALL_gouvernement~4 106
999 COSIND_-0.00 106
999 COSGEN_-0.00 106
104 ESRank4 106
202 ESForwSacLong+2+4 106
999 WORDS_promis~6 221
999 WORDFREQ_42.43 221
999 WORDSALL_promis~6 221
999 COSIND_0.01 221
999 COSGEN_0.01 221
105 ESRank5 221
202 ESForwSacLong+2+3 221
999 WORDS_retirer~8 160
999 WORDFREQ_21.96 160
999 WORDSALL_retirer~8 160
999 COSIND_-0.07 160
999 COSGEN_-0.07 160
106 ESRank6 160
202 ESForwSacLong+2+4 160
999 WORDS_l'armée~9 166
999 WORDFREQ_114.46 166
999 WORDSALL_l'armée~9 166
999 COSIND_-0.04 166
999 COSGEN_-0.04 166
107 ESRank7 166
201 ESForwSacShort 166
999 WORDS_israélienne~10 124
999 WORDFREQ_0.07 124
999 WORDSALL_israélienne~10 124
999 COSIND_0.11 124
999 COSGEN_0.11 124
108 ESRank8 124
201 ESForwSacShort 124
999 WORDS_sud~13 287
999 WORDFREQ_6.62 287
999 WORDSALL_Liban~12_sud~13 287
999 COSIND_0.05 287
999 COSGEN_0.05 287
109 ESRank9 287
202 ESForwSacLong+3+10 287
999 WORDS_délai~16 219
999 WORDFREQ_14.59 219
999 WORDSALL_un~15_délai~16 219
999 COSIND_0.02 219
999 COSGEN_0.02 219
110 ESRank10 219
202 ESForwSacLong+3+9 219
999 WORDS_simultanément~23 163
999 WORDFREQ_5.81 163
999 WORDSALL_simultanément~23 163
999 COSIND_0.04 163
999 COSGEN_0.04 163
111 ESRank11 163
202 ESForwSacLong+7+34 163
999 WORDS_dispositif~30 176
999 WORDFREQ_5.07 176
999 WORDSALL_dispositif~30 176
999 COSIND_-0.09 176
999 COSGEN_-0.09 176
112 ESRank12 176
202 ESForwSacLong+7+33 176
999 WORDS_militaire~31 238
999 WORDFREQ_69.19 238
999 WORDSALL_militaire~31 238
999 COSIND_0.17 238
999 COSGEN_0.17 238
113 ESRank13 238
201 ESForwSacShort 238
999 WORDS_conflit~34 175
999 WORDFREQ_11.08 175
999 WORDSALL_conflit~34 175
999 COSIND_1.00 175
999 COSGEN_1.00 175
114 ESRank14 175
202 ESForwSacLong+3+12 175
200 ESRankN 175
199 ESRankNMinus1 238
198 ESRankNMinus2 176
197 ESRankNMinus3 163
196 ESRankNMinus4 219
195 ESRankNMinus5 287
194 ESRankNMinus6 124
193 ESRankNMinus7 166
192 ESRankNMinus8 160
191 ESRankNMinus9 221
190 ESRankNMinus10 106
