999 WORDS_Pakistan~10 188
999 WORDFREQ_N/A 188
999 WORDSALL_jours~1_Agni-2~8_Pakistan~10 188
999 COSIND_N/A 188
101 ESRank1 188
999 WORDS_Agni-2~8 117
999 WORDFREQ_N/A 117
999 WORDSALL_Trois~0_jours~1_Agni-2~8 117
999 COSIND_N/A 117
102 ESRank2 117
206 ESBackSacRegrLong-2-4 117
999 WORDS_jours~1 155
999 WORDFREQ_515.41 155
999 WORDSALL_jours~1 155
999 COSIND_0.01 155
999 COSGEN_0.01 155
103 ESRank3 155
206 ESBackSacRegrLong-7-33 155
999 WORDS_après~2 145
999 WORDFREQ_821.55 145
999 WORDSALL_après~2 145
999 COSIND_0.01 145
999 COSGEN_0.01 145
104 ESRank4 145
201 ESForwSacShort 145
999 WORDS_tir~4 172
999 WORDFREQ_16.01 172
999 WORDSALL_tir~4 172
999 COSIND_-0.05 172
999 COSGEN_-0.05 172
105 ESRank5 172
202 ESForwSacLong+2+4 172
999 WORDS_missile~6 143
999 WORDFREQ_0.41 143
999 WORDSALL_du~5_missile~6 143
999 COSIND_-0.07 143
999 COSGEN_-0.07 143
106 ESRank6 143
202 ESForwSacLong+2+4 143
999 WORDS_indien~7 99
999 WORDFREQ_3.18 99
999 WORDSALL_missile~6_indien~7 99
999 COSIND_0.20 99
999 COSGEN_0.20 99
107 ESRank7 99
201 ESForwSacShort 99
999 WORDS_Agni-2~8 257
999 WORDFREQ_N/A 257
999 WORDSALL_Agni-2~8 257
999 COSIND_N/A 257
108 ESRank8 257
201 ESForwSacShort 257
999 WORDS_Pakistan~10 82
999 WORDFREQ_N/A 82
999 WORDSALL_après~2_Pakistan~10 82
999 COSIND_N/A 82
109 ESRank9 82
202 ESForwSacLong+2+4 82
999 WORDS_Agni-2~8 299
999 WORDFREQ_N/A 299
999 WORDSALL_Trois~0_Agni-2~8 299
999 COSIND_N/A 299
110 ESRank10 299
206 ESBackSacRegrLong-2-4 299
999 WORDS_a~11 179
999 WORDFREQ_2926.69 179
999 WORDSALL_après~2_Pakistan~10_a~11 179
999 COSIND_N/A 179
111 ESRank11 179
202 ESForwSacLong+3+13 179
999 WORDS_répliqué~12 255
999 WORDFREQ_N/A 255
999 WORDSALL_tir~4_a~11_répliqué~12 255
999 COSIND_N/A 255
112 ESRank12 255
201 ESForwSacShort 255
200 ESRankN 255
199 ESRankNMinus1 179
198 ESRankNMinus2 299
197 ESRankNMinus3 82
196 ESRankNMinus4 257
195 ESRankNMinus5 99
194 ESRankNMinus6 143
193 ESRankNMinus7 172
192 ESRankNMinus8 145
191 ESRankNMinus9 155
190 ESRankNMinus10 117
