999 WORDS_équipe~1 217
999 WORDFREQ_26.28 217
999 WORDSALL_Une~0_équipe~1 217
999 COSIND_0.06 217
999 COSGEN_0.06 217
101 ESRank1 217
999 WORDS_équipe~1 277
999 WORDFREQ_26.28 277
999 WORDSALL_équipe~1 277
999 COSIND_0.06 277
999 COSGEN_0.06 277
102 ESRank2 277
203 ESBackSacRefixation 277
999 WORDS_laboratoire~3 188
999 WORDFREQ_12.91 188
999 WORDSALL_d'un~2_laboratoire~3 188
999 COSIND_0.11 188
999 COSGEN_0.11 188
103 ESRank3 188
202 ESForwSacLong+2+6 188
999 WORDS_japonais~4 368
999 WORDFREQ_9.19 368
999 WORDSALL_japonais~4 368
999 COSIND_-0.02 368
999 COSGEN_-0.02 368
104 ESRank4 368
201 ESForwSacShort 368
999 WORDS_a~5 127
999 WORDFREQ_2926.69 127
999 WORDSALL_japonais~4_a~5 127
999 COSIND_N/A 127
105 ESRank5 127
201 ESForwSacShort 127
999 WORDS_point~8 207
999 WORDFREQ_272.57 207
999 WORDSALL_au~7_point~8 207
999 COSIND_-0.00 207
999 COSGEN_-0.00 207
106 ESRank6 207
202 ESForwSacLong+3+8 207
999 WORDS_point~8 187
999 WORDFREQ_272.57 187
999 WORDSALL_au~7_point~8 187
999 COSIND_-0.00 187
999 COSGEN_-0.00 187
107 ESRank7 187
203 ESBackSacRefixation 187
999 WORDS_logiciel~10 228
999 WORDFREQ_0.14 228
999 WORDSALL_point~8_logiciel~10 228
999 COSIND_0.03 228
999 COSGEN_0.03 228
108 ESRank8 228
202 ESForwSacLong+2+4 228
999 WORDS_traitement~12 276
999 WORDFREQ_11.08 276
999 WORDSALL_de~11_traitement~12 276
999 COSIND_-0.06 276
999 COSGEN_-0.06 276
109 ESRank9 276
202 ESForwSacLong+2+4 276
999 WORDS_d'images~13 212
999 WORDFREQ_69.53 212
999 WORDSALL_traitement~12_d'images~13 212
999 COSIND_0.06 212
999 COSGEN_0.06 212
110 ESRank10 212
201 ESForwSacShort 212
999 WORDS_capable~14 103
999 WORDFREQ_69.73 103
999 WORDSALL_capable~14 103
999 COSIND_0.22 103
999 COSGEN_0.22 103
111 ESRank11 103
201 ESForwSacShort 103
999 WORDS_capable~14 318
999 WORDFREQ_69.73 318
999 WORDSALL_capable~14 318
999 COSIND_0.22 318
999 COSGEN_0.22 318
112 ESRank12 318
203 ESBackSacRefixation 318
999 WORDS_deviner~16 279
999 WORDFREQ_25.95 279
999 WORDSALL_de~15_deviner~16 279
999 COSIND_0.08 279
999 COSGEN_0.08 279
113 ESRank13 279
202 ESForwSacLong+2+4 279
999 WORDS_présence~18 188
999 WORDFREQ_133.11 188
999 WORDSALL_deviner~16_présence~18 188
999 COSIND_0.09 188
999 COSGEN_0.09 188
114 ESRank14 188
202 ESForwSacLong+2+4 188
999 WORDS_présence~18 147
999 WORDFREQ_133.11 147
999 WORDSALL_la~17_présence~18 147
999 COSIND_0.09 147
999 COSGEN_0.09 147
115 ESRank15 147
203 ESBackSacRefixation 147
999 WORDS_présence~18 221
999 WORDFREQ_133.11 221
999 WORDSALL_présence~18 221
999 COSIND_0.09 221
999 COSGEN_0.09 221
116 ESRank16 221
203 ESBackSacRefixation 221
999 WORDS_aériennes~25 99
999 WORDFREQ_6.15 99
999 WORDSALL_aériennes~25 99
999 COSIND_-0.10 99
999 COSGEN_-0.10 99
117 ESRank17 99
202 ESForwSacLong+7+37 99
999 WORDS_aériennes~25 138
999 WORDFREQ_6.15 138
999 WORDSALL_aériennes~25 138
999 COSIND_-0.10 138
999 COSGEN_-0.10 138
118 ESRank18 138
203 ESBackSacRefixation 138
999 WORDS_filtrage~30 148
999 WORDFREQ_0.07 148
999 WORDSALL_de~29_filtrage~30 148
999 COSIND_-0.09 148
999 COSGEN_-0.09 148
119 ESRank19 148
202 ESForwSacLong+5+23 148
999 WORDS_photographies~24 489
999 WORDFREQ_17.3 489
999 WORDSALL_de~23_photographies~24 489
999 COSIND_0.05 489
999 COSGEN_0.05 489
120 ESRank20 489
206 ESBackSacRegrLong-6-34 489
999 WORDS_dispositif~28 187
999 WORDFREQ_5.07 187
999 WORDSALL_dispositif~28 187
999 COSIND_0.03 187
999 COSGEN_0.03 187
202 ESForwSacLong+4+20 187
999 WORDS_dispositif~28 193
999 WORDFREQ_5.07 193
999 WORDSALL_dispositif~28 193
999 COSIND_0.03 193
999 COSGEN_0.03 193
203 ESBackSacRefixation 193
200 ESRankN 193
199 ESRankNMinus1 187
198 ESRankNMinus2 489
197 ESRankNMinus3 148
196 ESRankNMinus4 138
195 ESRankNMinus5 99
194 ESRankNMinus6 221
193 ESRankNMinus7 147
192 ESRankNMinus8 188
191 ESRankNMinus9 279
190 ESRankNMinus10 318
