999 WORDS_pays~9 160
999 WORDFREQ_241.55 160
999 WORDSALL_Inde~1_l'épais~2_nord~7_pays~9 160
999 COSIND_0.01 160
999 COSGEN_0.01 160
101 ESRank1 160
999 WORDS_l'épais~2 180
999 WORDFREQ_41.01 180
999 WORDSALL_l'épais~2 180
999 COSIND_-0.00 180
999 COSGEN_-0.00 180
102 ESRank2 180
206 ESBackSacRegrLong-7-36 180
999 WORDS_Inde~1 86
999 WORDFREQ_0.14 86
999 WORDSALL_En~0_Inde~1 86
999 COSIND_-0.05 86
999 COSGEN_-0.05 86
103 ESRank3 86
205 ESBackSacRegrShort 86
999 WORDS_l'épais~2 175
999 WORDFREQ_41.01 175
999 WORDSALL_l'épais~2 175
999 COSIND_-0.00 175
999 COSGEN_-0.00 175
104 ESRank4 175
201 ESForwSacShort 175
999 WORDS_l'épais~2 85
999 WORDFREQ_41.01 85
999 WORDSALL_l'épais~2 85
999 COSIND_-0.00 85
999 COSGEN_-0.00 85
105 ESRank5 85
203 ESBackSacRefixation 85
999 WORDS_brouillard~3 129
999 WORDFREQ_32.84 129
999 WORDSALL_brouillard~3 129
999 COSIND_-0.02 129
999 COSGEN_-0.02 129
106 ESRank6 129
201 ESForwSacShort 129
999 WORDS_recouvre~5 289
999 WORDFREQ_0 289
999 WORDSALL_qui~4_recouvre~5 289
999 COSIND_-0.01 289
999 COSGEN_-0.01 289
107 ESRank7 289
202 ESForwSacLong+2+5 289
999 WORDS_pays~9 149
999 WORDFREQ_241.55 149
999 WORDSALL_Inde~1_l'épais~2_nord~7_pays~9 149
999 COSIND_0.01 149
999 COSGEN_0.01 149
108 ESRank8 149
202 ESForwSacLong+4+12 149
999 WORDS_nord~7 218
999 WORDFREQ_72.3 218
999 WORDSALL_En~0_Inde~1_nord~7 218
999 COSIND_-0.05 218
999 COSGEN_-0.05 218
109 ESRank9 218
206 ESBackSacRegrLong-2-4 218
999 WORDS_pays~9 97
999 WORDFREQ_241.55 97
999 WORDSALL_l'épais~2_pays~9 97
999 COSIND_0.01 97
999 COSGEN_0.01 97
110 ESRank10 97
202 ESForwSacLong+2+4 97
999 WORDS_pays~9 193
999 WORDFREQ_241.55 193
999 WORDSALL_l'épais~2_brouillard~3_pays~9 193
999 COSIND_0.01 193
999 COSGEN_0.01 193
111 ESRank11 193
203 ESBackSacRefixation 193
999 WORDS_plusieurs~11 333
999 WORDFREQ_203.58 333
999 WORDSALL_brouillard~3_plusieurs~11 333
999 COSIND_0.04 333
999 COSGEN_0.04 333
112 ESRank12 333
202 ESForwSacLong+2+8 333
999 WORDS_jours~12 127
999 WORDFREQ_515.41 127
999 WORDSALL_qui~4_recouvre~5_plusieurs~11_jours~12 127
999 COSIND_0.03 127
999 COSGEN_0.03 127
113 ESRank13 127
201 ESForwSacShort 127
999 WORDS_s'ajoute~15 147
999 WORDFREQ_29.19 147
999 WORDSALL_le~6_nord~7_s'ajoute~15 147
999 COSIND_0.01 147
999 COSGEN_0.01 147
114 ESRank14 147
202 ESForwSacLong+3+8 147
999 WORDS_à~16 125
999 WORDFREQ_19209.05 125
999 WORDSALL_du~8_pays~9_à~16 125
999 COSIND_N/A 125
115 ESRank15 125
201 ESForwSacShort 125
999 WORDS_vague~18 350
999 WORDFREQ_38.18 350
999 WORDSALL_depuis~10_plusieurs~11_vague~18 350
999 COSIND_0.03 350
999 COSGEN_0.03 350
116 ESRank16 350
202 ESForwSacLong+2+5 350
999 WORDS_froid~20 293
999 WORDFREQ_71.96 293
999 WORDSALL_plusieurs~11_froid~20 293
999 COSIND_-0.01 293
999 COSGEN_-0.01 293
117 ESRank17 293
202 ESForwSacLong+2+4 293
999 WORDS_plusieurs~11 198
999 WORDFREQ_203.58 198
999 WORDSALL_plusieurs~11 198
999 COSIND_0.04 198
999 COSGEN_0.04 198
118 ESRank18 198
206 ESBackSacRegrLong-9-39 198
999 WORDS_s'ajoute~15 226
999 WORDFREQ_29.19 226
999 WORDSALL_s'ajoute~15 226
999 COSIND_0.01 226
999 COSGEN_0.01 226
119 ESRank19 226
202 ESForwSacLong+4+14 226
999 WORDS_l'état~22 133
999 WORDFREQ_192.03 133
999 WORDSALL_qui~14_s'ajoute~15_l'état~22 133
999 COSIND_0.01 133
999 COSGEN_0.01 133
120 ESRank20 133
202 ESForwSacLong+7+28 133
999 WORDS_à~16 379
999 WORDFREQ_19209.05 379
999 WORDSALL_s'ajoute~15_à~16 379
999 COSIND_N/A 379
206 ESBackSacRegrLong-6-25 379
999 WORDS_paralyse~25 91
999 WORDFREQ_2.09 91
999 WORDSALL_vague~18_paralyse~25 91
999 COSIND_0.24 91
999 COSGEN_0.24 91
202 ESForwSacLong+9+46 91
999 WORDS_paralyse~25 184
999 WORDFREQ_2.09 184
999 WORDSALL_vague~18_paralyse~25 184
999 COSIND_0.24 184
999 COSGEN_0.24 184
203 ESBackSacRefixation 184
999 WORDS_l'état~22 232
999 WORDFREQ_192.03 232
999 WORDSALL_l'état~22 232
999 COSIND_0.01 232
999 COSGEN_0.01 232
206 ESBackSacRegrLong-3-14 232
999 WORDS_Rajasthan~24 117
999 WORDFREQ_N/A 117
999 WORDSALL_du~23_Rajasthan~24 117
999 COSIND_N/A 117
202 ESForwSacLong+2+4 117
999 WORDS_à~16 100
999 WORDFREQ_19209.05 100
999 WORDSALL_s'ajoute~15_à~16 100
999 COSIND_N/A 100
206 ESBackSacRegrLong-8-36 100
999 WORDS_brouillard~3 279
999 WORDFREQ_32.84 279
999 WORDSALL_l'épais~2_brouillard~3 279
999 COSIND_-0.02 279
999 COSGEN_-0.02 279
206 ESBackSacRegrLong-13-69 279
999 WORDS_l'épais~2 275
999 WORDFREQ_41.01 275
999 WORDSALL_l'épais~2 275
999 COSIND_-0.00 275
999 COSGEN_-0.00 275
205 ESBackSacRegrShort 275
999 WORDS_brouillard~3 188
999 WORDFREQ_32.84 188
999 WORDSALL_brouillard~3 188
999 COSIND_-0.02 188
999 COSGEN_-0.02 188
201 ESForwSacShort 188
200 ESRankN 188
199 ESRankNMinus1 275
198 ESRankNMinus2 279
197 ESRankNMinus3 100
196 ESRankNMinus4 117
195 ESRankNMinus5 232
194 ESRankNMinus6 184
193 ESRankNMinus7 91
192 ESRankNMinus8 379
191 ESRankNMinus9 133
190 ESRankNMinus10 226
