999 WORDS_L'équipe~0 133
999 WORDFREQ_26.28 133
999 WORDSALL_L'équipe~0 133
999 COSIND_0.07 133
999 COSGEN_0.07 133
101 ESRank1 133
999 WORDS_cycliste~1 181
999 WORDFREQ_2.43 181
999 WORDSALL_cycliste~1 181
999 COSIND_0.57 181
999 COSGEN_0.57 181
102 ESRank2 181
201 ESForwSacShort 181
999 WORDS_retrouvé~3 209
999 WORDFREQ_55 209
999 WORDSALL_retrouvé~3 209
999 COSIND_0.05 209
999 COSGEN_0.05 209
103 ESRank3 209
202 ESForwSacLong+2+3 209
999 WORDS_couleurs~5 192
999 WORDFREQ_80.07 192
999 WORDSALL_couleurs~5 192
999 COSIND_-0.09 192
999 COSGEN_-0.09 192
104 ESRank4 192
202 ESForwSacLong+2+10 192
999 WORDS_représentants~13 141
999 WORDFREQ_13.11 141
999 WORDSALL_représentants~13 141
999 COSIND_-0.09 141
999 COSGEN_-0.09 141
105 ESRank5 141
202 ESForwSacLong+8+37 141
999 WORDS_figuraient~14 147
999 WORDFREQ_3.99 147
999 WORDSALL_figuraient~14 147
999 COSIND_0.11 147
999 COSGEN_0.11 147
106 ESRank6 147
201 ESForwSacShort 147
999 WORDS_figuraient~14 114
999 WORDFREQ_3.99 114
999 WORDSALL_figuraient~14 114
999 COSIND_0.11 114
999 COSGEN_0.11 114
107 ESRank7 114
203 ESBackSacRefixation 114
200 ESRankN 114
199 ESRankNMinus1 147
198 ESRankNMinus2 141
197 ESRankNMinus3 192
196 ESRankNMinus4 209
195 ESRankNMinus5 181
194 ESRankNMinus6 133
