# 297 Fixation 1 (272.9,295): Les~0 pluies~1
# 180 Fixation 2 (306.7,289.4): Les~0 pluies~1
# 164 Fixation 3 (390,285.9): pluies~1 intenses~2
# 241 Fixation 4 (464.5,290.1): intenses~2
# 758 Fixation 5 (514.4,281.4): intenses~2 ont~3
# 207 Fixation 6 (598.6,271): duré~4
# 255 Fixation 7 (265.5,343.8): heures~6
# 309 Fixation 8 (404.2,352.8): causant~7
# 236 Fixation 9 (328.9,415.5): circulation~11
# 163 Fixation 10 (288.5,414.3): circulation~11
# 115 Fixation 11 (276.3,472.5): régions~18
%%
# Les~0 Fixations= "2/"
# pluies~1 Fixations= "3/"
# intenses~2 Fixations= "5/"
# ont~3 Fixations= "5/"
# duré~4 Fixations= "6/"
# plusieurs~5 Fixations= ""
# heures~6 Fixations= "7/"
# causant~7 Fixations= "8/"
# l'interruption~8 Fixations= ""
# de~9 Fixations= ""
# la~10 Fixations= ""
# circulation~11 Fixations= "10/"
# et~12 Fixations= ""
# isolant~13 Fixations= ""
# un~14 Fixations= ""
# certain~15 Fixations= ""
# nombre~16 Fixations= ""
# de~17 Fixations= ""
# régions~18 Fixations= "11/"
# Le~19 Fixations= ""
# bureau~20 Fixations= ""
# prévoit~21 Fixations= ""
# une~22 Fixations= ""
# augmentation~23 Fixations= ""
# de~24 Fixations= ""
# ces~25 Fixations= ""
# dérèglements~26 Fixations= ""
# climatiques~27 Fixations= ""
# au~28 Fixations= ""
# niveau~29 Fixations= ""
# de~30 Fixations= ""
# la~31 Fixations= ""
# planète~32 Fixations= ""
%%
#  LES[2] PLUIES[3] INTENSES[5] ONT[5] DURé[6] plusieurs HEURES[7] CAUSANT[8] l'interruption de la CIRCULATION[10] et isolant un certain nombre de RéGIONS[11] Le bureau prévoit une augmentation de ces dérèglements climatiques au niveau de la planète
# s14 rechauffement_climatique-m1 PercentageOfWordsProcessed= 0.272727272727273 PercentageOfWordsReallyProcessed= 0.473684210526316
