999 WORDS_fin~9 149
999 WORDFREQ_303.31 149
999 WORDSALL_Entre~0_31~2_fin~9 149
999 COSIND_-0.03 149
999 COSGEN_-0.03 149
101 ESRank1 149
999 WORDS_31~2 217
999 WORDFREQ_N/A 217
999 WORDSALL_Entre~0_31~2 217
999 COSIND_N/A 217
102 ESRank2 217
206 ESBackSacRegrLong-7-36 217
999 WORDS_décembre~3 126
999 WORDFREQ_31.15 126
999 WORDSALL_31~2_décembre~3 126
999 COSIND_-0.04 126
999 COSGEN_-0.04 126
103 ESRank3 126
201 ESForwSacShort 126
999 WORDS_minuit~5 179
999 WORDFREQ_29.80 179
999 WORDSALL_à~4_minuit~5 179
999 COSIND_-0.04 179
999 COSGEN_-0.04 179
104 ESRank4 179
202 ESForwSacLong+2+4 179
999 WORDS_minuit~5 100
999 WORDFREQ_29.80 100
999 WORDSALL_à~4_minuit~5 100
999 COSIND_-0.04 100
999 COSGEN_-0.04 100
105 ESRank5 100
203 ESBackSacRefixation 100
999 WORDS_jusqu'à~7 239
999 WORDFREQ_0.27 239
999 WORDSALL_et~6_jusqu'à~7 239
999 COSIND_N/A 239
106 ESRank6 239
202 ESForwSacLong+2+4 239
999 WORDS_jusqu'à~7 114
999 WORDFREQ_0.27 114
999 WORDSALL_jusqu'à~7 114
999 COSIND_N/A 114
107 ESRank7 114
203 ESBackSacRefixation 114
999 WORDS_mois~11 120
999 WORDFREQ_304.86 120
999 WORDSALL_fin~9_mois~11 120
999 COSIND_-0.01 120
999 COSGEN_-0.01 120
108 ESRank8 120
202 ESForwSacLong+4+11 120
999 WORDS_fin~9 164
999 WORDFREQ_303.31 164
999 WORDSALL_fin~9 164
999 COSIND_-0.03 164
999 COSGEN_-0.03 164
109 ESRank9 164
206 ESBackSacRegrLong-2-4 164
999 WORDS_mois~11 100
999 WORDFREQ_304.86 100
999 WORDSALL_du~10_mois~11 100
999 COSIND_-0.01 100
999 COSGEN_-0.01 100
110 ESRank10 100
202 ESForwSacLong+2+4 100
999 WORDS_janvier~13 250
999 WORDFREQ_30.61 250
999 WORDSALL_de~12_janvier~13 250
999 COSIND_0.00 250
999 COSGEN_0.00 250
111 ESRank11 250
202 ESForwSacLong+2+4 250
999 WORDS_clubs~15 153
999 WORDFREQ_2.84 153
999 WORDSALL_les~14_clubs~15 153
999 COSIND_-0.04 153
999 COSGEN_-0.04 153
112 ESRank12 153
202 ESForwSacLong+2+5 153
999 WORDS_clubs~15 163
999 WORDFREQ_2.84 163
999 WORDSALL_les~14_clubs~15 163
999 COSIND_-0.04 163
999 COSGEN_-0.04 163
113 ESRank13 163
203 ESBackSacRefixation 163
999 WORDS_football~17 135
999 WORDFREQ_6.28 135
999 WORDSALL_fin~9_mois~11_football~17 135
999 COSIND_-0.02 135
999 COSGEN_-0.02 135
114 ESRank14 135
202 ESForwSacLong+2+4 135
999 WORDS_football~17 131
999 WORDFREQ_6.28 131
999 WORDSALL_fin~9_football~17 131
999 COSIND_-0.02 131
999 COSGEN_-0.02 131
115 ESRank15 131
203 ESBackSacRefixation 131
999 WORDS_autorisés~19 155
999 WORDFREQ_1.49 155
999 WORDSALL_de~12_janvier~13_sont~18_autorisés~19 155
999 COSIND_0.01 155
999 COSGEN_0.01 155
116 ESRank16 155
202 ESForwSacLong+2+6 155
999 WORDS_autorisés~19 128
999 WORDFREQ_1.49 128
999 WORDSALL_janvier~13_autorisés~19 128
999 COSIND_0.01 128
999 COSGEN_0.01 128
117 ESRank17 128
203 ESBackSacRefixation 128
999 WORDS_renouveler~21 225
999 WORDFREQ_5.81 225
999 WORDSALL_renouveler~21 225
999 COSIND_0.03 225
999 COSGEN_0.03 225
118 ESRank18 225
202 ESForwSacLong+2+4 225
200 ESRankN 225
199 ESRankNMinus1 128
198 ESRankNMinus2 155
197 ESRankNMinus3 131
196 ESRankNMinus4 135
195 ESRankNMinus5 163
194 ESRankNMinus6 153
193 ESRankNMinus7 250
192 ESRankNMinus8 100
191 ESRankNMinus9 164
190 ESRankNMinus10 120
