999 WORDS_États-Unis~1 131
999 WORDFREQ_N/A 131
999 WORDSALL_Les~0_États-Unis~1 131
999 COSIND_N/A 131
101 ESRank1 131
999 WORDS_États-Unis~1 130
999 WORDFREQ_N/A 130
999 WORDSALL_États-Unis~1 130
999 COSIND_N/A 130
102 ESRank2 130
203 ESBackSacRefixation 130
999 WORDS_nombreuses~4 149
999 WORDFREQ_17.91 149
999 WORDSALL_de~3_nombreuses~4 149
999 COSIND_0.07 149
999 COSGEN_0.07 149
103 ESRank3 149
202 ESForwSacLong+3+7 149
999 WORDS_ONG~5 161
999 WORDFREQ_N/A 161
999 WORDSALL_nombreuses~4_ONG~5 161
999 COSIND_N/A 161
104 ESRank4 161
201 ESForwSacShort 161
999 WORDS_préparent~6 236
999 WORDFREQ_3.72 236
999 WORDSALL_préparent~6 236
999 COSIND_-0.10 236
999 COSGEN_-0.10 236
105 ESRank5 236
201 ESForwSacShort 236
999 WORDS_juridiquement~7 162
999 WORDFREQ_0.27 162
999 WORDSALL_juridiquement~7 162
999 COSIND_0.34 162
999 COSGEN_0.34 162
106 ESRank6 162
201 ESForwSacShort 162
999 WORDS_mise~9 219
999 WORDFREQ_36.08 219
999 WORDSALL_une~8_mise~9 219
999 COSIND_-0.03 219
999 COSGEN_-0.03 219
107 ESRank7 219
202 ESForwSacLong+2+5 219
999 WORDS_accusation~11 279
999 WORDFREQ_5.74 279
999 WORDSALL_accusation~11 279
999 COSIND_0.18 279
999 COSGEN_0.18 279
108 ESRank8 279
202 ESForwSacLong+2+4 279
999 WORDS_crimes~13 129
999 WORDFREQ_15.74 129
999 WORDSALL_pour~12_crimes~13 129
999 COSIND_0.52 129
999 COSGEN_0.52 129
109 ESRank9 129
202 ESForwSacLong+2+6 129
999 WORDS_accusation~11 165
999 WORDFREQ_5.74 165
999 WORDSALL_accusation~11 165
999 COSIND_0.18 165
999 COSGEN_0.18 165
110 ESRank10 165
206 ESBackSacRegrLong-2-6 165
999 WORDS_crimes~13 190
999 WORDFREQ_15.74 190
999 WORDSALL_pour~12_crimes~13 190
999 COSIND_0.52 190
999 COSGEN_0.52 190
111 ESRank11 190
202 ESForwSacLong+2+6 190
999 WORDS_l'humanité~15 173
999 WORDFREQ_23.85 173
999 WORDSALL_contre~14_l'humanité~15 173
999 COSIND_0.51 173
999 COSGEN_0.51 173
112 ESRank12 173
202 ESForwSacLong+2+8 173
999 WORDS_l'humanité~15 89
999 WORDFREQ_23.85 89
999 WORDSALL_l'humanité~15 89
999 COSIND_0.51 89
999 COSGEN_0.51 89
113 ESRank13 89
203 ESBackSacRefixation 89
999 WORDS_Tribunal~18 166
999 WORDFREQ_15 166
999 WORDSALL_devant~16_Tribunal~18 166
999 COSIND_0.81 166
999 COSGEN_0.81 166
114 ESRank14 166
202 ESForwSacLong+3+11 166
999 WORDS_Tribunal~18 152
999 WORDFREQ_15 152
999 WORDSALL_le~17_Tribunal~18 152
999 COSIND_0.81 152
999 COSGEN_0.81 152
115 ESRank15 152
203 ESBackSacRefixation 152
999 WORDS_pénal~19 277
999 WORDFREQ_2.91 277
999 WORDSALL_pénal~19 277
999 COSIND_0.53 277
999 COSGEN_0.53 277
116 ESRank16 277
201 ESForwSacShort 277
999 WORDS_international~20 119
999 WORDFREQ_9.12 119
999 WORDSALL_international~20 119
999 COSIND_0.87 119
999 COSGEN_0.87 119
117 ESRank17 119
201 ESForwSacShort 119
999 WORDS_dirigeants~22 374
999 WORDFREQ_7.77 374
999 WORDSALL_dirigeants~22 374
999 COSIND_0.08 374
999 COSGEN_0.08 374
118 ESRank18 374
202 ESForwSacLong+2+5 374
200 ESRankN 374
199 ESRankNMinus1 119
198 ESRankNMinus2 277
197 ESRankNMinus3 152
196 ESRankNMinus4 166
195 ESRankNMinus5 89
194 ESRankNMinus6 173
193 ESRankNMinus7 190
192 ESRankNMinus8 165
191 ESRankNMinus9 129
190 ESRankNMinus10 279
