999 WORDS_sont~1 135
999 WORDFREQ_713.18 135
999 WORDSALL_Qui~0_sont~1 135
999 COSIND_0.05 135
999 COSGEN_0.05 135
101 ESRank1 135
999 WORDS_s'offrir~10 141
999 WORDFREQ_50.34 141
999 WORDSALL_sont~1_étudiants~3_s'offrir~10 141
999 COSIND_0.10 141
999 COSGEN_0.10 141
102 ESRank2 141
202 ESForwSacLong+9+44 141
999 WORDS_étudiants~3 140
999 WORDFREQ_18.78 140
999 WORDSALL_ces~2_étudiants~3 140
999 COSIND_0.01 140
999 COSGEN_0.01 140
103 ESRank3 140
206 ESBackSacRegrLong-7-29 140
999 WORDS_n'ont~5 164
999 WORDFREQ_240.61 164
999 WORDSALL_qui~4_n'ont~5 164
999 COSIND_-0.09 164
999 COSGEN_-0.09 164
104 ESRank4 164
202 ESForwSacLong+2+5 164
999 WORDS_euros~15 171
999 WORDFREQ_0 171
999 WORDSALL_n'ont~5_euros~15 171
999 COSIND_N/A 171
105 ESRank5 171
202 ESForwSacLong+10+42 171
999 WORDS_moyens~8 184
999 WORDFREQ_58.31 184
999 WORDSALL_Qui~0_sont~1_moyens~8 184
999 COSIND_-0.04 184
999 COSGEN_-0.04 184
106 ESRank6 184
206 ESBackSacRegrLong-7-27 184
999 WORDS_s'offrir~10 216
999 WORDFREQ_50.34 216
999 WORDSALL_de~9_s'offrir~10 216
999 COSIND_0.10 216
999 COSGEN_0.10 216
107 ESRank7 216
202 ESForwSacLong+2+4 216
999 WORDS_repas~12 178
999 WORDFREQ_76.62 178
999 WORDSALL_un~11_repas~12 178
999 COSIND_0.23 178
999 COSGEN_0.23 178
108 ESRank8 178
202 ESForwSacLong+2+4 178
999 WORDS_3~14 190
999 WORDFREQ_N/A 190
999 WORDSALL_repas~12_à~13_3~14 190
999 COSIND_N/A 190
109 ESRank9 190
202 ESForwSacLong+2+4 190
999 WORDS_Principalement~16 234
999 WORDFREQ_6.08 234
999 WORDSALL_Principalement~16 234
999 COSIND_0.01 234
999 COSGEN_0.01 234
110 ESRank10 234
202 ESForwSacLong+2+7 234
999 WORDS_étudiants~18 177
999 WORDFREQ_18.78 177
999 WORDSALL_des~17_étudiants~18 177
999 COSIND_0.01 177
999 COSGEN_0.01 177
111 ESRank11 177
202 ESForwSacLong+2+5 177
999 WORDS_étrangers~19 153
999 WORDFREQ_14.86 153
999 WORDSALL_étrangers~19 153
999 COSIND_0.02 153
999 COSGEN_0.02 153
112 ESRank12 153
201 ESForwSacShort 153
200 ESRankN 153
199 ESRankNMinus1 177
198 ESRankNMinus2 234
197 ESRankNMinus3 190
196 ESRankNMinus4 178
195 ESRankNMinus5 216
194 ESRankNMinus6 184
193 ESRankNMinus7 171
192 ESRankNMinus8 164
191 ESRankNMinus9 140
190 ESRankNMinus10 141
