999 WORDS_inquiétude~1 125
999 WORDFREQ_41.35 125
999 WORDSALL_Une~0_inquiétude~1 125
999 COSIND_-0.01 125
999 COSGEN_-0.01 125
101 ESRank1 125
999 WORDS_inquiétude~1 134
999 WORDFREQ_41.35 134
999 WORDSALL_inquiétude~1 134
999 COSIND_-0.01 134
999 COSGEN_-0.01 134
102 ESRank2 134
203 ESBackSacRefixation 134
999 WORDS_particulière~2 173
999 WORDFREQ_20 173
999 WORDSALL_particulière~2 173
999 COSIND_-0.00 173
999 COSGEN_-0.00 173
103 ESRank3 173
201 ESForwSacShort 173
999 WORDS_pointe~3 146
999 WORDFREQ_7.84 146
999 WORDSALL_pointe~3 146
999 COSIND_0.22 146
999 COSGEN_0.22 146
104 ESRank4 146
201 ESForwSacShort 146
999 WORDS_à~5 114
999 WORDFREQ_19209.05 114
999 WORDSALL_pointe~3_à~5 114
999 COSIND_N/A 114
105 ESRank5 114
202 ESForwSacLong+2+7 114
999 WORDS_responsabilité~7 134
999 WORDFREQ_18.11 134
999 WORDSALL_Une~0_inquiétude~1_responsabilité~7 134
999 COSIND_-0.03 134
999 COSGEN_-0.03 134
106 ESRank6 134
202 ESForwSacLong+2+4 134
999 WORDS_responsabilité~7 109
999 WORDFREQ_18.11 109
999 WORDSALL_inquiétude~1_responsabilité~7 109
999 COSIND_-0.03 109
999 COSGEN_-0.03 109
107 ESRank7 109
203 ESBackSacRefixation 109
999 WORDS_pénale~8 141
999 WORDFREQ_0.2 141
999 WORDSALL_particulière~2_pénale~8 141
999 COSIND_0.02 141
999 COSGEN_0.02 141
108 ESRank8 141
201 ESForwSacShort 141
999 WORDS_chefs~10 151
999 WORDFREQ_33.38 151
999 WORDSALL_pointe~3_chefs~10 151
999 COSIND_-0.02 151
999 COSGEN_-0.02 151
109 ESRank9 151
202 ESForwSacLong+2+5 151
999 WORDS_d'établissement~11 137
999 WORDFREQ_17.36 137
999 WORDSALL_la~6_responsabilité~7_d'établissement~11 137
999 COSIND_-0.00 137
999 COSGEN_-0.00 137
110 ESRank10 137
201 ESForwSacShort 137
999 WORDS_responsabilité~7 110
999 WORDFREQ_18.11 110
999 WORDSALL_responsabilité~7 110
999 COSIND_-0.03 110
999 COSGEN_-0.03 110
111 ESRank11 110
206 ESBackSacRegrLong-4-19 110
999 WORDS_jeu~14 184
999 WORDFREQ_130.68 184
999 WORDSALL_pénale~8_mise~12_jeu~14 184
999 COSIND_-0.07 184
999 COSGEN_-0.07 184
112 ESRank12 184
202 ESForwSacLong+7+44 184
999 WORDS_d'accidents~16 206
999 WORDFREQ_8.18 206
999 WORDSALL_d'établissement~11_d'accidents~16 206
999 COSIND_-0.10 206
999 COSGEN_-0.10 206
113 ESRank13 206
202 ESForwSacLong+2+6 206
999 WORDS_survenus~17 139
999 WORDFREQ_0.95 139
999 WORDSALL_mise~12_survenus~17 139
999 COSIND_-0.04 139
999 COSGEN_-0.04 139
114 ESRank14 139
201 ESForwSacShort 139
999 WORDS_cause~19 126
999 WORDFREQ_188.04 126
999 WORDSALL_jeu~14_cause~19 126
999 COSIND_-0.03 126
999 COSGEN_-0.03 126
115 ESRank15 126
202 ESForwSacLong+2+4 126
999 WORDS_d'équipements~20 145
999 WORDFREQ_2.09 145
999 WORDSALL_lors~15_d'équipements~20 145
999 COSIND_-0.13 145
999 COSGEN_-0.13 145
116 ESRank16 145
201 ESForwSacShort 145
999 WORDS_l'entretien~24 243
999 WORDFREQ_20.54 243
999 WORDSALL_l'entretien~24 243
999 COSIND_0.00 243
999 COSGEN_0.00 243
117 ESRank17 243
202 ESForwSacLong+4+23 243
999 WORDS_locales~29 128
999 WORDFREQ_4.8 128
999 WORDSALL_l'entretien~24_locales~29 128
999 COSIND_0.01 128
999 COSGEN_0.01 128
118 ESRank18 128
202 ESForwSacLong+5+31 128
999 WORDS_collectivités~28 214
999 WORDFREQ_0.34 214
999 WORDSALL_collectivités~28 214
999 COSIND_-0.00 214
999 COSGEN_-0.00 214
119 ESRank19 214
205 ESBackSacRegrShort 214
999 WORDS_survenus~17 132
999 WORDFREQ_0.95 132
999 WORDSALL_d'accidents~16_survenus~17 132
999 COSIND_-0.04 132
999 COSGEN_-0.04 132
120 ESRank20 132
206 ESBackSacRegrLong-11-74 132
999 WORDS_survenus~17 133
999 WORDFREQ_0.95 133
999 WORDSALL_survenus~17 133
999 COSIND_-0.04 133
999 COSGEN_-0.04 133
203 ESBackSacRefixation 133
200 ESRankN 133
199 ESRankNMinus1 132
198 ESRankNMinus2 214
197 ESRankNMinus3 128
196 ESRankNMinus4 243
195 ESRankNMinus5 145
194 ESRankNMinus6 126
193 ESRankNMinus7 139
192 ESRankNMinus8 206
191 ESRankNMinus9 184
190 ESRankNMinus10 110
