999 WORDS_familles~1 113
999 WORDFREQ_32.7 113
999 WORDSALL_Les~0_familles~1 113
999 COSIND_0.38 113
999 COSGEN_0.38 113
101 ESRank1 113
999 WORDS_familles~1 109
999 WORDFREQ_32.7 109
999 WORDSALL_Les~0_familles~1 109
999 COSIND_0.38 109
999 COSGEN_0.38 109
102 ESRank2 109
203 ESBackSacRefixation 109
999 WORDS_ayant~2 238
999 WORDFREQ_3.85 238
999 WORDSALL_familles~1_ayant~2 238
999 COSIND_0.09 238
999 COSGEN_0.09 238
103 ESRank3 238
201 ESForwSacShort 238
999 WORDS_jumeaux~4 155
999 WORDFREQ_16.01 155
999 WORDSALL_des~3_jumeaux~4 155
999 COSIND_0.11 155
999 COSGEN_0.11 155
104 ESRank4 155
202 ESForwSacLong+2+5 155
999 WORDS_jumeaux~4 124
999 WORDFREQ_16.01 124
999 WORDSALL_ayant~2_jumeaux~4 124
999 COSIND_0.11 124
999 COSGEN_0.11 124
105 ESRank5 124
203 ESBackSacRefixation 124
999 WORDS_bénéficient~5 163
999 WORDFREQ_0.47 163
999 WORDSALL_jumeaux~4_bénéficient~5 163
999 COSIND_0.40 163
999 COSGEN_0.40 163
106 ESRank6 163
201 ESForwSacShort 163
999 WORDS_jumeaux~4 159
999 WORDFREQ_16.01 159
999 WORDSALL_jumeaux~4 159
999 COSIND_0.11 159
999 COSGEN_0.11 159
107 ESRank7 159
205 ESBackSacRegrShort 159
999 WORDS_mêmes~7 213
999 WORDFREQ_18.38 213
999 WORDSALL_des~6_mêmes~7 213
999 COSIND_N/A 213
108 ESRank8 213
202 ESForwSacLong+3+19 213
999 WORDS_prestations~8 215
999 WORDFREQ_1.01 215
999 WORDSALL_prestations~8 215
999 COSIND_0.62 215
999 COSGEN_0.62 215
109 ESRank9 215
201 ESForwSacShort 215
999 WORDS_familiales~9 201
999 WORDFREQ_4.8 201
999 WORDSALL_familiales~9 201
999 COSIND_0.65 201
999 COSGEN_0.65 201
110 ESRank10 201
201 ESForwSacShort 201
999 WORDS_familiales~9 101
999 WORDFREQ_4.8 101
999 WORDSALL_familiales~9 101
999 COSIND_0.65 101
999 COSGEN_0.65 101
111 ESRank11 101
203 ESBackSacRefixation 101
999 WORDS_familiales~9 208
999 WORDFREQ_4.8 208
999 WORDSALL_familiales~9 208
999 COSIND_0.65 208
999 COSGEN_0.65 208
112 ESRank12 208
203 ESBackSacRefixation 208
999 WORDS_autres~12 245
999 WORDFREQ_2.64 245
999 WORDSALL_autres~12 245
999 COSIND_-0.04 245
999 COSGEN_-0.04 245
113 ESRank13 245
202 ESForwSacLong+3+9 245
999 WORDS_congés~15 132
999 WORDFREQ_3.99 132
999 WORDSALL_mais~13_congés~15 132
999 COSIND_0.22 132
999 COSGEN_0.22 132
114 ESRank14 132
202 ESForwSacLong+3+10 132
999 WORDS_congés~15 104
999 WORDFREQ_3.99 104
999 WORDSALL_mais~13_congés~15 104
999 COSIND_0.22 104
999 COSGEN_0.22 104
115 ESRank15 104
203 ESBackSacRefixation 104
999 WORDS_congés~15 212
999 WORDFREQ_3.99 212
999 WORDSALL_les~14_congés~15 212
999 COSIND_0.22 212
999 COSGEN_0.22 212
116 ESRank16 212
203 ESBackSacRefixation 212
999 WORDS_maternité~16 147
999 WORDFREQ_4.05 147
999 WORDSALL_maternité~16 147
999 COSIND_0.10 147
999 COSGEN_0.10 147
117 ESRank17 147
201 ESForwSacShort 147
999 WORDS_maternité~16 164
999 WORDFREQ_4.05 164
999 WORDSALL_congés~15_maternité~16 164
999 COSIND_0.10 164
999 COSGEN_0.10 164
118 ESRank18 164
203 ESBackSacRefixation 164
999 WORDS_sont~17 171
999 WORDFREQ_713.18 171
999 WORDSALL_sont~17 171
999 COSIND_0.09 171
999 COSGEN_0.09 171
119 ESRank19 171
201 ESForwSacShort 171
999 WORDS_18~21 157
999 WORDFREQ_N/A 157
999 WORDSALL_longs~19_18~21 157
999 COSIND_N/A 157
120 ESRank20 157
202 ESForwSacLong+4+15 157
200 ESRankN 157
199 ESRankNMinus1 171
198 ESRankNMinus2 164
197 ESRankNMinus3 147
196 ESRankNMinus4 212
195 ESRankNMinus5 104
194 ESRankNMinus6 132
193 ESRankNMinus7 245
192 ESRankNMinus8 208
191 ESRankNMinus9 101
190 ESRankNMinus10 201
