999 WORDS_football~1 154
999 WORDFREQ_6.28 154
999 WORDSALL_Le~0_football~1 154
999 COSIND_0.02 154
999 COSGEN_0.02 154
101 ESRank1 154
999 WORDS_américain~2 212
999 WORDFREQ_25.95 212
999 WORDSALL_football~1_américain~2 212
999 COSIND_-0.00 212
999 COSGEN_-0.00 212
102 ESRank2 212
201 ESForwSacShort 212
999 WORDS_américain~2 164
999 WORDFREQ_25.95 164
999 WORDSALL_américain~2 164
999 COSIND_-0.00 164
999 COSGEN_-0.00 164
103 ESRank3 164
203 ESBackSacRefixation 164
999 WORDS_sport~5 177
999 WORDFREQ_15.54 177
999 WORDSALL_est~3_sport~5 177
999 COSIND_0.01 177
999 COSGEN_0.01 177
104 ESRank4 177
202 ESForwSacLong+3+8 177
999 WORDS_sport~5 128
999 WORDFREQ_15.54 128
999 WORDSALL_est~3_sport~5 128
999 COSIND_0.01 128
999 COSGEN_0.01 128
105 ESRank5 128
203 ESBackSacRefixation 128
999 WORDS_collectif~6 233
999 WORDFREQ_4.73 233
999 WORDSALL_Le~0_football~1_collectif~6 233
999 COSIND_0.04 233
999 COSGEN_0.04 233
106 ESRank6 233
201 ESForwSacShort 233
999 WORDS_connu~7 209
999 WORDFREQ_16.01 209
999 WORDSALL_football~1_américain~2_connu~7 209
999 COSIND_0.16 209
999 COSGEN_0.16 209
107 ESRank7 209
201 ESForwSacShort 209
200 ESRankN 209
199 ESRankNMinus1 233
198 ESRankNMinus2 128
197 ESRankNMinus3 177
196 ESRankNMinus4 164
195 ESRankNMinus5 212
194 ESRankNMinus6 154
