999 WORDS_marges~1 173
999 WORDFREQ_2.23 173
999 WORDSALL_marges~1 173
999 COSIND_0.12 173
999 COSGEN_0.12 173
101 ESRank1 173
999 WORDS_croissance~3 227
999 WORDFREQ_3.92 227
999 WORDSALL_de~2_croissance~3 227
999 COSIND_0.79 227
999 COSGEN_0.79 227
102 ESRank2 227
202 ESForwSacLong+2+4 227
999 WORDS_pourraient~4 287
999 WORDFREQ_26.62 287
999 WORDSALL_pourraient~4 287
999 COSIND_0.03 287
999 COSGEN_0.03 287
103 ESRank3 287
201 ESForwSacShort 287
999 WORDS_être~5 84
999 WORDFREQ_505.61 84
999 WORDSALL_pourraient~4_être~5 84
999 COSIND_-0.01 84
999 COSGEN_-0.01 84
104 ESRank4 84
201 ESForwSacShort 84
999 WORDS_marges~1 216
999 WORDFREQ_2.23 216
999 WORDSALL_marges~1 216
999 COSIND_0.12 216
999 COSGEN_0.12 216
105 ESRank5 216
206 ESBackSacRegrLong-4-26 216
999 WORDS_marges~1 135
999 WORDFREQ_2.23 135
999 WORDSALL_Les~0_marges~1 135
999 COSIND_0.12 135
999 COSGEN_0.12 135
106 ESRank6 135
203 ESBackSacRefixation 135
999 WORDS_croissance~3 286
999 WORDFREQ_3.92 286
999 WORDSALL_croissance~3 286
999 COSIND_0.79 286
999 COSGEN_0.79 286
107 ESRank7 286
202 ESForwSacLong+2+4 286
999 WORDS_croissance~3 161
999 WORDFREQ_3.92 161
999 WORDSALL_de~2_croissance~3 161
999 COSIND_0.79 161
999 COSGEN_0.79 161
108 ESRank8 161
203 ESBackSacRefixation 161
999 WORDS_croissance~3 193
999 WORDFREQ_3.92 193
999 WORDSALL_croissance~3 193
999 COSIND_0.79 193
999 COSGEN_0.79 193
109 ESRank9 193
203 ESBackSacRefixation 193
999 WORDS_pourraient~4 239
999 WORDFREQ_26.62 239
999 WORDSALL_pourraient~4 239
999 COSIND_0.03 239
999 COSGEN_0.03 239
110 ESRank10 239
201 ESForwSacShort 239
999 WORDS_augmentées~6 236
999 WORDFREQ_0.07 236
999 WORDSALL_augmentées~6 236
999 COSIND_0.05 236
999 COSGEN_0.05 236
111 ESRank11 236
202 ESForwSacLong+2+7 236
999 WORDS_augmentées~6 163
999 WORDFREQ_0.07 163
999 WORDSALL_augmentées~6 163
999 COSIND_0.05 163
999 COSGEN_0.05 163
112 ESRank12 163
203 ESBackSacRefixation 163
999 WORDS_réformes~9 326
999 WORDFREQ_6.42 326
999 WORDSALL_des~8_réformes~9 326
999 COSIND_-0.01 326
999 COSGEN_-0.01 326
113 ESRank13 326
202 ESForwSacLong+3+9 326
999 WORDS_structurelles~10 231
999 WORDFREQ_N/A 231
999 WORDSALL_structurelles~10 231
999 COSIND_N/A 231
114 ESRank14 231
201 ESForwSacShort 231
999 WORDS_structurelles~10 107
999 WORDFREQ_N/A 107
999 WORDSALL_structurelles~10 107
999 COSIND_N/A 107
115 ESRank15 107
203 ESBackSacRefixation 107
999 WORDS_marchés~13 308
999 WORDFREQ_5.07 308
999 WORDSALL_sur~11_marchés~13 308
999 COSIND_0.05 308
999 COSGEN_0.05 308
116 ESRank16 308
202 ESForwSacLong+3+9 308
999 WORDS_travail~15 451
999 WORDFREQ_223.99 451
999 WORDSALL_marchés~13_travail~15 451
999 COSIND_0.02 451
999 COSGEN_0.02 451
117 ESRank17 451
202 ESForwSacLong+2+4 451
999 WORDS_entraînant~19 273
999 WORDFREQ_7.64 273
999 WORDSALL_entraînant~19 273
999 COSIND_-0.01 273
999 COSGEN_-0.01 273
118 ESRank18 273
202 ESForwSacLong+4+14 273
999 WORDS_accélération~21 246
999 WORDFREQ_2.64 246
999 WORDSALL_une~20_accélération~21 246
999 COSIND_0.45 246
999 COSGEN_0.45 246
119 ESRank19 246
202 ESForwSacLong+2+5 246
999 WORDS_de~22 316
999 WORDFREQ_38928.92 316
999 WORDSALL_de~22 316
999 COSIND_N/A 316
120 ESRank20 316
201 ESForwSacShort 316
999 WORDS_accélération~21 224
999 WORDFREQ_2.64 224
999 WORDSALL_accélération~21 224
999 COSIND_0.45 224
999 COSGEN_0.45 224
205 ESBackSacRegrShort 224
999 WORDS_de~22 137
999 WORDFREQ_38928.92 137
999 WORDSALL_de~22 137
999 COSIND_N/A 137
201 ESForwSacShort 137
999 WORDS_croissance~24 151
999 WORDFREQ_3.92 151
999 WORDSALL_croissance~24 151
999 COSIND_0.79 151
999 COSGEN_0.79 151
202 ESForwSacLong+2+4 151
999 WORDS_croissance~24 132
999 WORDFREQ_3.92 132
999 WORDSALL_croissance~24 132
999 COSIND_0.79 132
999 COSGEN_0.79 132
203 ESBackSacRefixation 132
999 WORDS_stabilité~26 269
999 WORDFREQ_3.18 269
999 WORDSALL_la~25_stabilité~26 269
999 COSIND_0.35 269
999 COSGEN_0.35 269
202 ESForwSacLong+2+4 269
999 WORDS_stabilité~26 132
999 WORDFREQ_3.18 132
999 WORDSALL_la~25_stabilité~26 132
999 COSIND_0.35 132
999 COSGEN_0.35 132
203 ESBackSacRefixation 132
999 WORDS_croissance~24 226
999 WORDFREQ_3.92 226
999 WORDSALL_croissance~24 226
999 COSIND_0.79 226
999 COSGEN_0.79 226
206 ESBackSacRegrLong-2-4 226
999 WORDS_stabilité~26 219
999 WORDFREQ_3.18 219
999 WORDSALL_la~25_stabilité~26 219
999 COSIND_0.35 219
999 COSGEN_0.35 219
202 ESForwSacLong+2+4 219
999 WORDS_stabilité~26 138
999 WORDFREQ_3.18 138
999 WORDSALL_la~25_stabilité~26 138
999 COSIND_0.35 138
999 COSGEN_0.35 138
203 ESBackSacRefixation 138
999 WORDS_prix~28 155
999 WORDFREQ_107.5 155
999 WORDSALL_des~27_prix~28 155
999 COSIND_-0.03 155
999 COSGEN_-0.03 155
202 ESForwSacLong+2+5 155
999 WORDS_excédent~31 292
999 WORDFREQ_0.54 292
999 WORDSALL_excédent~31 292
999 COSIND_0.27 292
999 COSGEN_0.27 292
202 ESForwSacLong+3+7 292
999 WORDS_prix~28 136
999 WORDFREQ_107.5 136
999 WORDSALL_stabilité~26_prix~28 136
999 COSIND_-0.03 136
999 COSGEN_-0.03 136
206 ESBackSacRegrLong-3-7 136
999 WORDS_ 160
999 WORDFREQ_ 160
999 WORDSALL_ 160
999 WORDS_stabilité~26 141
999 WORDFREQ_3.18 141
999 WORDSALL_la~25_stabilité~26 141
999 COSIND_0.35 141
999 COSGEN_0.35 141
999 WORDS_courants~37 209
999 WORDFREQ_1.42 209
999 WORDSALL_courants~37 209
999 COSIND_-0.01 209
999 COSGEN_-0.01 209
202 ESForwSacLong+11+54 209
999 WORDS_excédent~31 144
999 WORDFREQ_0.54 144
999 WORDSALL_excédent~31 144
999 COSIND_0.27 144
999 COSGEN_0.27 144
206 ESBackSacRegrLong-6-29 144
999 WORDS_stabilité~26 162
999 WORDFREQ_3.18 162
999 WORDSALL_stabilité~26 162
999 COSIND_0.35 162
999 COSGEN_0.35 162
206 ESBackSacRegrLong-5-16 162
999 WORDS_prix~28 135
999 WORDFREQ_107.5 135
999 WORDSALL_des~27_prix~28 135
999 COSIND_-0.03 135
999 COSGEN_-0.03 135
202 ESForwSacLong+2+5 135
999 WORDS_excédent~31 202
999 WORDFREQ_0.54 202
999 WORDSALL_excédent~31 202
999 COSIND_0.27 202
999 COSGEN_0.27 202
202 ESForwSacLong+3+7 202
200 ESRankN 202
199 ESRankNMinus1 135
198 ESRankNMinus2 162
197 ESRankNMinus3 144
196 ESRankNMinus4 209
195 ESRankNMinus5 141
194 ESRankNMinus6 160
193 ESRankNMinus7 136
192 ESRankNMinus8 292
191 ESRankNMinus9 155
190 ESRankNMinus10 138
