999 WORDS_déflagration~1 190
999 WORDFREQ_1.55 190
999 WORDSALL_La~0_déflagration~1 190
999 COSIND_0.00 190
999 COSGEN_0.00 190
101 ESRank1 190
999 WORDS_militaire~8 190
999 WORDFREQ_69.19 190
999 WORDSALL_déflagration~1_militaire~8 190
999 COSIND_0.24 190
999 COSGEN_0.24 190
102 ESRank2 190
202 ESForwSacLong+7+42 190
999 WORDS_déflagration~1 89
999 WORDFREQ_1.55 89
999 WORDSALL_déflagration~1 89
999 COSIND_0.00 89
999 COSGEN_0.00 89
103 ESRank3 89
206 ESBackSacRegrLong-7-42 89
999 WORDS_produite~3 234
999 WORDFREQ_3.31 234
999 WORDSALL_s'est~2_produite~3 234
999 COSIND_-0.03 234
999 COSGEN_-0.03 234
104 ESRank4 234
202 ESForwSacLong+2+7 234
999 WORDS_passage~5 148
999 WORDFREQ_136.82 148
999 WORDSALL_au~4_passage~5 148
999 COSIND_0.07 148
999 COSGEN_0.07 148
105 ESRank5 148
202 ESForwSacLong+2+4 148
999 WORDS_véhicule~7 205
999 WORDFREQ_14.86 205
999 WORDSALL_La~0_déflagration~1_véhicule~7 205
999 COSIND_-0.00 205
999 COSGEN_-0.00 205
106 ESRank6 205
202 ESForwSacLong+2+6 205
999 WORDS_militaire~8 192
999 WORDFREQ_69.19 192
999 WORDSALL_s'est~2_produite~3_militaire~8 192
999 COSIND_0.24 192
999 COSGEN_0.24 192
107 ESRank7 192
201 ESForwSacShort 192
999 WORDS_route~11 152
999 WORDFREQ_251.35 152
999 WORDSALL_produite~3_route~11 152
999 COSIND_0.02 152
999 COSGEN_0.02 152
108 ESRank8 152
202 ESForwSacLong+3+9 152
999 WORDS_à~14 151
999 WORDFREQ_19209.05 151
999 WORDSALL_à~14 151
999 COSIND_N/A 151
109 ESRank9 151
202 ESForwSacLong+3+17 151
999 WORDS_l'armée~22 147
999 WORDFREQ_114.46 147
999 WORDSALL_à~14_l'armée~22 147
999 COSIND_-0.13 147
999 COSGEN_-0.13 147
110 ESRank10 147
202 ESForwSacLong+8+39 147
999 WORDS_turque~23 148
999 WORDFREQ_2.7 148
999 WORDSALL_centaine~16_turque~23 148
999 COSIND_-0.07 148
999 COSGEN_-0.07 148
111 ESRank11 148
201 ESForwSacShort 148
999 WORDS_selon~24 82
999 WORDFREQ_110.88 82
999 WORDSALL_de~17_mètres~18_selon~24 82
999 COSIND_0.04 82
999 COSGEN_0.04 82
112 ESRank12 82
201 ESForwSacShort 82
200 ESRankN 82
199 ESRankNMinus1 148
198 ESRankNMinus2 147
197 ESRankNMinus3 151
196 ESRankNMinus4 152
195 ESRankNMinus5 192
194 ESRankNMinus6 205
193 ESRankNMinus7 148
192 ESRankNMinus8 234
191 ESRankNMinus9 89
190 ESRankNMinus10 190
