999 WORDS_économie~1 137
999 WORDFREQ_15.74 137
999 WORDSALL_Une~0_économie~1 137
999 COSIND_0.88 137
999 COSGEN_0.88 137
101 ESRank1 137
999 WORDS_économie~1 156
999 WORDFREQ_15.74 156
999 WORDSALL_Une~0_économie~1 156
999 COSIND_0.88 156
999 COSGEN_0.88 156
102 ESRank2 156
203 ESBackSacRefixation 156
999 WORDS_New~2 263
999 WORDFREQ_3.51 263
999 WORDSALL_économie~1_New~2 263
999 COSIND_N/A 263
103 ESRank3 263
201 ESForwSacShort 263
999 WORDS_Age~3 120
999 WORDFREQ_0.47 120
999 WORDSALL_New~2_Age~3 120
999 COSIND_0.02 120
999 COSGEN_0.02 120
104 ESRank4 120
201 ESForwSacShort 120
999 WORDS_Age~3 254
999 WORDFREQ_0.47 254
999 WORDSALL_Age~3 254
999 COSIND_0.02 254
999 COSGEN_0.02 254
105 ESRank5 254
203 ESBackSacRefixation 254
999 WORDS_économie~6 213
999 WORDFREQ_15.74 213
999 WORDSALL_une~5_économie~6 213
999 COSIND_0.88 213
999 COSGEN_0.88 213
106 ESRank6 213
202 ESForwSacLong+3+9 213
999 WORDS_économie~6 175
999 WORDFREQ_15.74 175
999 WORDSALL_économie~6 175
999 COSIND_0.88 175
999 COSGEN_0.88 175
107 ESRank7 175
203 ESBackSacRefixation 175
999 WORDS_économie~6 382
999 WORDFREQ_15.74 382
999 WORDSALL_économie~6 382
999 COSIND_0.88 382
999 COSGEN_0.88 382
108 ESRank8 382
203 ESBackSacRefixation 382
999 WORDS_croissance~10 159
999 WORDFREQ_3.92 159
999 WORDSALL_laquelle~8_croissance~10 159
999 COSIND_0.79 159
999 COSGEN_0.79 159
109 ESRank9 159
202 ESForwSacLong+4+18 159
999 WORDS_laquelle~8 176
999 WORDFREQ_182.36 176
999 WORDSALL_laquelle~8 176
999 COSIND_N/A 176
110 ESRank10 176
206 ESBackSacRegrLong-2-4 176
999 WORDS_croissance~10 209
999 WORDFREQ_3.92 209
999 WORDSALL_la~9_croissance~10 209
999 COSIND_0.79 209
999 COSGEN_0.79 209
111 ESRank11 209
202 ESForwSacLong+2+4 209
999 WORDS_croissance~10 205
999 WORDFREQ_3.92 205
999 WORDSALL_laquelle~8_croissance~10 205
999 COSIND_0.79 205
999 COSGEN_0.79 205
112 ESRank12 205
203 ESBackSacRefixation 205
999 WORDS_croissance~10 175
999 WORDFREQ_3.92 175
999 WORDSALL_laquelle~8_croissance~10 175
999 COSIND_0.79 175
999 COSGEN_0.79 175
113 ESRank13 175
203 ESBackSacRefixation 175
999 WORDS_croissance~10 198
999 WORDFREQ_3.92 198
999 WORDSALL_laquelle~8_croissance~10 198
999 COSIND_0.79 198
999 COSGEN_0.79 198
114 ESRank14 198
203 ESBackSacRefixation 198
999 WORDS_croissance~10 142
999 WORDFREQ_3.92 142
999 WORDSALL_la~9_croissance~10 142
999 COSIND_0.79 142
999 COSGEN_0.79 142
115 ESRank15 142
203 ESBackSacRefixation 142
999 WORDS_l'efficacité~12 153
999 WORDFREQ_8.51 153
999 WORDSALL_de~11_l'efficacité~12 153
999 COSIND_0.04 153
999 COSGEN_0.04 153
116 ESRank16 153
202 ESForwSacLong+2+4 153
999 WORDS_l'efficacité~12 216
999 WORDFREQ_8.51 216
999 WORDSALL_l'efficacité~12 216
999 COSIND_0.04 216
999 COSGEN_0.04 216
117 ESRank17 216
203 ESBackSacRefixation 216
999 WORDS_l'efficacité~12 238
999 WORDFREQ_8.51 238
999 WORDSALL_de~11_l'efficacité~12 238
999 COSIND_0.04 238
999 COSGEN_0.04 238
118 ESRank18 238
203 ESBackSacRefixation 238
999 WORDS_Age~3 217
999 WORDFREQ_0.47 217
999 WORDSALL_Age~3 217
999 COSIND_0.02 217
999 COSGEN_0.02 217
119 ESRank19 217
206 ESBackSacRegrLong-9-50 217
999 WORDS_l'efficacité~12 149
999 WORDFREQ_8.51 149
999 WORDSALL_l'efficacité~12 149
999 COSIND_0.04 149
999 COSGEN_0.04 149
120 ESRank20 149
202 ESForwSacLong+9+50 149
999 WORDS_l'efficacité~12 90
999 WORDFREQ_8.51 90
999 WORDSALL_l'efficacité~12 90
999 COSIND_0.04 90
999 COSGEN_0.04 90
203 ESBackSacRefixation 90
999 WORDS_avec~13 205
999 WORDFREQ_4000.41 205
999 WORDSALL_avec~13 205
999 COSIND_N/A 205
201 ESForwSacShort 205
999 WORDS_laquelle~14 184
999 WORDFREQ_182.36 184
999 WORDSALL_laquelle~14 184
999 COSIND_N/A 184
201 ESForwSacShort 184
999 WORDS_utilisons~16 162
999 WORDFREQ_0.07 162
999 WORDSALL_nous~15_utilisons~16 162
999 COSIND_-0.01 162
999 COSGEN_-0.01 162
202 ESForwSacLong+2+6 162
999 WORDS_ressources~18 153
999 WORDFREQ_16.55 153
999 WORDSALL_les~17_ressources~18 153
999 COSIND_0.04 153
999 COSGEN_0.04 153
202 ESForwSacLong+2+5 153
999 WORDS_ressources~18 169
999 WORDFREQ_16.55 169
999 WORDSALL_les~17_ressources~18 169
999 COSIND_0.04 169
999 COSGEN_0.04 169
203 ESBackSacRefixation 169
999 WORDS_productives~19 201
999 WORDFREQ_0.14 201
999 WORDSALL_productives~19 201
999 COSIND_0.31 201
999 COSGEN_0.31 201
201 ESForwSacShort 201
999 WORDS_trouve~21 243
999 WORDFREQ_163.78 243
999 WORDSALL_se~20_trouve~21 243
999 COSIND_0.00 243
999 COSGEN_0.00 243
202 ESForwSacLong+2+4 243
999 WORDS_durablement~22 182
999 WORDFREQ_0.74 182
999 WORDSALL_trouve~21_durablement~22 182
999 COSIND_0.33 182
999 COSGEN_0.33 182
201 ESForwSacShort 182
999 WORDS_durablement~22 103
999 WORDFREQ_0.74 103
999 WORDSALL_durablement~22 103
999 COSIND_0.33 103
999 COSGEN_0.33 103
203 ESBackSacRefixation 103
999 WORDS_accélérée~23 200
999 WORDFREQ_2.23 200
999 WORDSALL_accélérée~23 200
999 COSIND_0.32 200
999 COSGEN_0.32 200
201 ESForwSacShort 200
999 WORDS_l'inflation~24 142
999 WORDFREQ_2.3 142
999 WORDSALL_l'inflation~24 142
999 COSIND_0.40 142
999 COSGEN_0.40 142
201 ESForwSacShort 142
999 WORDS_accélérée~23 279
999 WORDFREQ_2.23 279
999 WORDSALL_accélérée~23 279
999 COSIND_0.32 279
999 COSGEN_0.32 279
205 ESBackSacRegrShort 279
999 WORDS_accélérée~23 178
999 WORDFREQ_2.23 178
999 WORDSALL_accélérée~23 178
999 COSIND_0.32 178
999 COSGEN_0.32 178
203 ESBackSacRefixation 178
999 WORDS_l'inflation~24 159
999 WORDFREQ_2.3 159
999 WORDSALL_l'inflation~24 159
999 COSIND_0.40 159
999 COSGEN_0.40 159
201 ESForwSacShort 159
999 WORDS_maîtrisée~25 227
999 WORDFREQ_0.68 227
999 WORDSALL_maîtrisée~25 227
999 COSIND_0.22 227
999 COSGEN_0.22 227
201 ESForwSacShort 227
999 WORDS_maîtrisée~25 317
999 WORDFREQ_0.68 317
999 WORDSALL_maîtrisée~25 317
999 COSIND_0.22 317
999 COSGEN_0.22 317
203 ESBackSacRefixation 317
999 WORDS_aboli~29 172
999 WORDFREQ_1.28 172
999 WORDSALL_cycle~28_aboli~29 172
999 COSIND_N/A 172
202 ESForwSacLong+4+13 172
999 WORDS_maîtrisée~25 162
999 WORDFREQ_0.68 162
999 WORDSALL_maîtrisée~25 162
999 COSIND_0.22 162
999 COSGEN_0.22 162
206 ESBackSacRegrLong-4-13 162
999 WORDS_maîtrisée~25 125
999 WORDFREQ_0.68 125
999 WORDSALL_maîtrisée~25 125
999 COSIND_0.22 125
999 COSGEN_0.22 125
203 ESBackSacRefixation 125
999 WORDS_maîtrisée~25 168
999 WORDFREQ_0.68 168
999 WORDSALL_maîtrisée~25 168
999 COSIND_0.22 168
999 COSGEN_0.22 168
203 ESBackSacRefixation 168
200 ESRankN 168
199 ESRankNMinus1 125
198 ESRankNMinus2 162
197 ESRankNMinus3 172
196 ESRankNMinus4 317
195 ESRankNMinus5 227
194 ESRankNMinus6 159
193 ESRankNMinus7 178
192 ESRankNMinus8 279
191 ESRankNMinus9 142
190 ESRankNMinus10 200
