# 136 Fixation 1 (285.5,297.8): Une~0 équipe~1
# 114 Fixation 2 (421.6,285): d'un~2 laboratoire~3
# 143 Fixation 3 (491.3,283): laboratoire~3
# 146 Fixation 4 (623.9,252.1): japonais~4
# 175 Fixation 5 (670.8,257.4): japonais~4
# 109 Fixation 6 (701.8,270.1): japonais~4 a~5
# 97 Fixation 7 (652.9,386.5): présence~18 mines~20
# 167 Fixation 8 (716.3,352.2): d'images~13
# 163 Fixation 9 (417.8,379.6): un~9 logiciel~10
# 183 Fixation 10 (551.7,399.7): la~17 présence~18
# 158 Fixation 11 (688.5,418.1): de~19 mines~20
# 151 Fixation 12 (329.4,430.5): capable~14
# 155 Fixation 13 (400.6,435.4): de~15 deviner~16
# 224 Fixation 14 (582.3,449.4): aériennes~25
# 96 Fixation 15 (694.8,464.1): aériennes~25
# 152 Fixation 16 (382.1,489.3): de~23 photographies~24
# 148 Fixation 17 (296.5,491.6): partir~22
# 149 Fixation 18 (448.7,498): photographies~24
# 145 Fixation 19 (434.3,361.4): un~9 logiciel~10
# 123 Fixation 20 (471.9,358.1): logiciel~10
# 160 Fixation 21 (578.6,365.9): de~11 traitement~12
# 166 Fixation 22 (724.5,357): d'images~13
# 150 Fixation 23 (330.4,371.5): point~8
# 174 Fixation 24 (437.5,375.4): un~9 logiciel~10
# 171 Fixation 25 (550.1,394.2): la~17 présence~18
# 201 Fixation 26 (691.3,428.9): de~19 mines~20
# 182 Fixation 27 (387.1,422.3): de~15 deviner~16
%%
# Une~0 Fixations= "1/"
# équipe~1 Fixations= "1/"
# d'un~2 Fixations= "2/"
# laboratoire~3 Fixations= "3/"
# japonais~4 Fixations= "6/"
# a~5 Fixations= "6/"
# mis~6 Fixations= ""
# au~7 Fixations= ""
# point~8 Fixations= "23/"
# un~9 Fixations= "24/"
# logiciel~10 Fixations= "24/"
# de~11 Fixations= "21/"
# traitement~12 Fixations= "21/"
# d'images~13 Fixations= "22/"
# capable~14 Fixations= "12/"
# de~15 Fixations= "27/"
# deviner~16 Fixations= "27/"
# la~17 Fixations= "25/"
# présence~18 Fixations= "25/"
# de~19 Fixations= "26/"
# mines~20 Fixations= "26/"
# à~21 Fixations= ""
# partir~22 Fixations= "17/"
# de~23 Fixations= "16/"
# photographies~24 Fixations= "18/"
# aériennes~25 Fixations= "15/"
# et~26 Fixations= ""
# d'un~27 Fixations= ""
# dispositif~28 Fixations= ""
# de~29 Fixations= ""
# filtrage~30 Fixations= ""
%%
#  UNE[1] éQUIPE[1] D'UN[2] LABORATOIRE[3] JAPONAIS[6] A[6] mis au POINT[23] UN[24] LOGICIEL[24] DE[21] TRAITEMENT[21] D'IMAGES[22] CAPABLE[12] DE[27] DEVINER[27] LA[25] PRéSENCE[25] DE[26] MINES[26] à PARTIR[17] DE[16] PHOTOGRAPHIES[18] AéRIENNES[15] et d'un dispositif de filtrage
# s10 observation_planetes-m2 PercentageOfWordsProcessed= 0.741935483870968 PercentageOfWordsReallyProcessed= 0.884615384615385
