# 125 Fixation 1 (295,293.7): Ils~0 sont~1
# 139 Fixation 2 (405.6,286.1): encore~2 six~3
# 138 Fixation 3 (495.3,273): six~3
# 153 Fixation 4 (558.9,266.3): candidats~4
# 166 Fixation 5 (668.4,270.6): à~5 vouloir~6
# 164 Fixation 6 (319.3,346.5): Ils~0 sont~1 tenter~7
# 122 Fixation 7 (424.6,342.2): encore~2 six~3 tour~9
# 145 Fixation 8 (493,339.4): six~3 monde~11
# 176 Fixation 9 (623.9,335.9): candidats~4 à~5 ballon~13
# 136 Fixation 10 (313.4,408.7): tenter~7 escale~15
# 144 Fixation 11 (385.4,402.2): le~8 tour~9
# 220 Fixation 12 (489.3,406.6): du~10 monde~11 circumnavigation~17
# 191 Fixation 13 (656.1,505.1): et~23 d'audace~24
# 210 Fixation 14 (687.3,495.8): d'audace~24
# 158 Fixation 15 (674.4,531.7): d'audace~24 techniques~31
# 129 Fixation 16 (425.3,533.6): autant~20 courage~22
# 167 Fixation 17 (497.4,536.3): de~21 courage~22 connaissances~30
# 161 Fixation 18 (311,530.8): réclame~19 moyens~27
# 151 Fixation 19 (552.6,423.1): circumnavigation~17
# 86 Fixation 20 (570.7,419.1): circumnavigation~17
# 114 Fixation 21 (467.7,402.6): tour~9 monde~11 circumnavigation~17
%%
# Ils~0 Fixations= "6/"
# sont~1 Fixations= "6/"
# encore~2 Fixations= "7/"
# six~3 Fixations= "8/"
# candidats~4 Fixations= "9/"
# à~5 Fixations= "9/"
# vouloir~6 Fixations= "5/"
# tenter~7 Fixations= "10/"
# le~8 Fixations= "11/"
# tour~9 Fixations= "21/"
# du~10 Fixations= "12/"
# monde~11 Fixations= "21/"
# en~12 Fixations= ""
# ballon~13 Fixations= "9/"
# sans~14 Fixations= ""
# escale~15 Fixations= "10/"
# Cette~16 Fixations= ""
# circumnavigation~17 Fixations= "21/"
# aérienne~18 Fixations= ""
# réclame~19 Fixations= "18/"
# autant~20 Fixations= "16/"
# de~21 Fixations= "17/"
# courage~22 Fixations= "17/"
# et~23 Fixations= "13/"
# d'audace~24 Fixations= "15/"
# que~25 Fixations= ""
# de~26 Fixations= ""
# moyens~27 Fixations= "18/"
# et~28 Fixations= ""
# de~29 Fixations= ""
# connaissances~30 Fixations= "17/"
# techniques~31 Fixations= "15/"
%%
#  ILS[6] SONT[6] ENCORE[7] SIX[8] CANDIDATS[9] à[9] VOULOIR[5] TENTER[10] LE[11] TOUR[21] DU[12] MONDE[21] en BALLON[9] sans ESCALE[10] Cette CIRCUMNAVIGATION[21] aérienne RéCLAME[18] AUTANT[16] DE[17] COURAGE[17] ET[13] D'AUDACE[15] que de MOYENS[18] et de CONNAISSANCES[17] TECHNIQUES[15]
# s10 dechets_nucleaires-a2 PercentageOfWordsProcessed= 0.75 PercentageOfWordsReallyProcessed= 0.75
