999 WORDS_Somme~3 189
999 WORDFREQ_72.7 189
999 WORDSALL_baie~1_Somme~3 189
999 COSIND_-0.02 189
999 COSGEN_-0.02 189
101 ESRank1 189
999 WORDS_hiver~5 127
999 WORDFREQ_96.28 127
999 WORDSALL_Somme~3_hiver~5 127
999 COSIND_0.02 127
999 COSGEN_0.02 127
102 ESRank2 127
202 ESForwSacLong+2+4 127
999 WORDS_baie~1 194
999 WORDFREQ_14.86 194
999 WORDSALL_La~0_baie~1 194
999 COSIND_-0.02 194
999 COSGEN_-0.02 194
103 ESRank3 194
206 ESBackSacRegrLong-4-13 194
999 WORDS_Somme~3 125
999 WORDFREQ_72.7 125
999 WORDSALL_Somme~3 125
999 COSIND_-0.02 125
999 COSGEN_-0.02 125
104 ESRank4 125
202 ESForwSacLong+2+4 125
999 WORDS_Somme~3 109
999 WORDFREQ_72.7 109
999 WORDSALL_de~2_Somme~3 109
999 COSIND_-0.02 109
999 COSGEN_-0.02 109
105 ESRank5 109
203 ESBackSacRefixation 109
999 WORDS_Somme~3 162
999 WORDFREQ_72.7 162
999 WORDSALL_baie~1_Somme~3 162
999 COSIND_-0.02 162
999 COSGEN_-0.02 162
106 ESRank6 162
203 ESBackSacRefixation 162
999 WORDS_silence~8 145
999 WORDFREQ_313.24 145
999 WORDSALL_La~0_baie~1_silence~8 145
999 COSIND_0.06 145
999 COSGEN_0.06 145
107 ESRank7 145
202 ESForwSacLong+5+22 145
999 WORDS_hiver~5 208
999 WORDFREQ_96.28 208
999 WORDSALL_en~4_hiver~5 208
999 COSIND_0.02 208
999 COSGEN_0.02 208
108 ESRank8 208
206 ESBackSacRegrLong-3-13 208
999 WORDS_l'espace~6 173
999 WORDFREQ_78.58 173
999 WORDSALL_l'espace~6 173
999 COSIND_0.12 173
999 COSGEN_0.12 173
109 ESRank9 173
201 ESForwSacShort 173
999 WORDS_silence~8 213
999 WORDFREQ_313.24 213
999 WORDSALL_La~0_baie~1_silence~8 213
999 COSIND_0.06 213
999 COSGEN_0.06 213
110 ESRank10 213
202 ESForwSacLong+2+4 213
999 WORDS_silence~8 132
999 WORDFREQ_313.24 132
999 WORDSALL_La~0_baie~1_silence~8 132
999 COSIND_0.06 132
999 COSGEN_0.06 132
111 ESRank11 132
203 ESBackSacRefixation 132
999 WORDS_instants~10 136
999 WORDFREQ_54.32 136
999 WORDSALL_Somme~3_hiver~5_instants~10 136
999 COSIND_0.05 136
999 COSGEN_0.05 136
112 ESRank12 136
202 ESForwSacLong+2+5 136
999 WORDS_instants~10 278
999 WORDFREQ_54.32 278
999 WORDSALL_Somme~3_instants~10 278
999 COSIND_0.05 278
999 COSGEN_0.05 278
113 ESRank13 278
203 ESBackSacRefixation 278
999 WORDS_fugaces~11 263
999 WORDFREQ_1.22 263
999 WORDSALL_hiver~5_fugaces~11 263
999 COSIND_-0.01 263
999 COSGEN_-0.01 263
114 ESRank14 263
201 ESForwSacShort 263
999 WORDS_Somme~3 173
999 WORDFREQ_72.7 173
999 WORDSALL_baie~1_Somme~3 173
999 COSIND_-0.02 173
999 COSGEN_-0.02 173
115 ESRank15 173
206 ESBackSacRegrLong-8-43 173
999 WORDS_baie~1 218
999 WORDFREQ_14.86 218
999 WORDSALL_La~0_baie~1 218
999 COSIND_-0.02 218
999 COSGEN_-0.02 218
116 ESRank16 218
206 ESBackSacRegrLong-2-4 218
999 WORDS_Somme~3 209
999 WORDFREQ_72.7 209
999 WORDSALL_de~2_Somme~3 209
999 COSIND_-0.02 209
999 COSGEN_-0.02 209
117 ESRank17 209
202 ESForwSacLong+2+4 209
999 WORDS_fugaces~11 248
999 WORDFREQ_1.22 248
999 WORDSALL_en~4_hiver~5_fugaces~11 248
999 COSIND_-0.01 248
999 COSGEN_-0.01 248
118 ESRank18 248
202 ESForwSacLong+8+43 248
999 WORDS_instants~10 223
999 WORDFREQ_54.32 223
999 WORDSALL_Somme~3_instants~10 223
999 COSIND_0.05 223
999 COSGEN_0.05 223
119 ESRank19 223
205 ESBackSacRegrShort 223
999 WORDS_fugaces~11 136
999 WORDFREQ_1.22 136
999 WORDSALL_hiver~5_fugaces~11 136
999 COSIND_-0.01 136
999 COSGEN_-0.01 136
120 ESRank20 136
201 ESForwSacShort 136
999 WORDS_coucher~18 105
999 WORDFREQ_8.11 105
999 WORDSALL_fugaces~11_coucher~18 105
999 COSIND_0.03 105
999 COSGEN_0.03 105
202 ESForwSacLong+7+36 105
999 WORDS_lumières~14 292
999 WORDFREQ_35.61 292
999 WORDSALL_silence~8_lumières~14 292
999 COSIND_-0.04 292
999 COSGEN_-0.04 292
206 ESBackSacRegrLong-4-19 292
999 WORDS_magiques~15 182
999 WORDFREQ_6.08 182
999 WORDSALL_des~9_instants~10_magiques~15 182
999 COSIND_-0.17 182
999 COSGEN_-0.17 182
201 ESForwSacShort 182
999 WORDS_lumières~14 268
999 WORDFREQ_35.61 268
999 WORDSALL_silence~8_lumières~14 268
999 COSIND_-0.04 268
999 COSGEN_-0.04 268
205 ESBackSacRegrShort 268
999 WORDS_instants~10 124
999 WORDFREQ_54.32 124
999 WORDSALL_instants~10 124
999 COSIND_0.05 124
999 COSGEN_0.05 124
206 ESBackSacRegrLong-4-16 124
999 WORDS_fugaces~11 152
999 WORDFREQ_1.22 152
999 WORDSALL_instants~10_fugaces~11 152
999 COSIND_-0.01 152
999 COSGEN_-0.01 152
201 ESForwSacShort 152
999 WORDS_coucher~18 287
999 WORDFREQ_8.11 287
999 WORDSALL_ce~17_coucher~18 287
999 COSIND_0.03 287
999 COSGEN_0.03 287
202 ESForwSacLong+7+36 287
999 WORDS_magiques~15 166
999 WORDFREQ_6.08 166
999 WORDSALL_lumières~14_magiques~15 166
999 COSIND_-0.17 166
999 COSGEN_-0.17 166
206 ESBackSacRegrLong-3-10 166
999 WORDS_lumières~14 138
999 WORDFREQ_35.61 138
999 WORDSALL_lumières~14 138
999 COSIND_-0.04 138
999 COSGEN_-0.04 138
205 ESBackSacRegrShort 138
999 WORDS_pointe~23 174
999 WORDFREQ_69.05 174
999 WORDSALL_magiques~15_pointe~23 174
999 COSIND_0.04 174
999 COSGEN_0.04 174
202 ESForwSacLong+9+44 174
999 WORDS_Hourdel~25 280
999 WORDFREQ_N/A 280
999 WORDSALL_Comme~16_coucher~18_Hourdel~25 280
999 COSIND_N/A 280
202 ESForwSacLong+2+4 280
999 WORDS_Hourdel~25 280
999 WORDFREQ_N/A 280
999 WORDSALL_Comme~16_coucher~18_Hourdel~25 280
999 COSIND_N/A 280
203 ESBackSacRefixation 280
999 WORDS_fugaces~11 204
999 WORDFREQ_1.22 204
999 WORDSALL_en~4_hiver~5_fugaces~11 204
999 COSIND_-0.01 204
999 COSGEN_-0.01 204
206 ESBackSacRegrLong-14-71 204
999 WORDS_instants~10 204
999 WORDFREQ_54.32 204
999 WORDSALL_Somme~3_instants~10 204
999 COSIND_0.05 204
999 COSGEN_0.05 204
205 ESBackSacRegrShort 204
999 WORDS_Somme~3 238
999 WORDFREQ_72.7 238
999 WORDSALL_de~2_Somme~3 238
999 COSIND_-0.02 238
999 COSGEN_-0.02 238
206 ESBackSacRegrLong-7-34 238
999 WORDS_baie~1 208
999 WORDFREQ_14.86 208
999 WORDSALL_La~0_baie~1 208
999 COSIND_-0.02 208
999 COSGEN_-0.02 208
206 ESBackSacRegrLong-2-4 208
200 ESRankN 208
199 ESRankNMinus1 238
198 ESRankNMinus2 204
197 ESRankNMinus3 204
196 ESRankNMinus4 280
195 ESRankNMinus5 280
194 ESRankNMinus6 174
193 ESRankNMinus7 138
192 ESRankNMinus8 166
191 ESRankNMinus9 287
190 ESRankNMinus10 152
