# 173 Fixation 1 (353.4,280.8): L'économie~0
# 264 Fixation 2 (431.9,278.3): algérienne~1
# 207 Fixation 3 (539.4,320.2): pétrole~8 brut~9
# 156 Fixation 4 (623.2,357.8): Après~10
# 213 Fixation 5 (398.2,410.5): à~13 niveaux~15
# 171 Fixation 6 (534.9,417.4): niveaux~15 jamais~16
# 143 Fixation 7 (643.5,424.6): observés~17
# 156 Fixation 8 (390.6,452.3): par~19 pays~21
# 197 Fixation 9 (338.3,463.9): l'annonce~18
# 212 Fixation 10 (484,506): les~20 pays~21
# 226 Fixation 11 (632.9,538.4): a~28 redressé~29
%%
# L'économie~0 Fixations= "1/"
# algérienne~1 Fixations= "2/"
# dépend~2 Fixations= ""
# de~3 Fixations= ""
# l'évolution~4 Fixations= ""
# des~5 Fixations= ""
# cours~6 Fixations= ""
# du~7 Fixations= ""
# pétrole~8 Fixations= "3/"
# brut~9 Fixations= "3/"
# Après~10 Fixations= "4/"
# être~11 Fixations= ""
# tombés~12 Fixations= ""
# à~13 Fixations= "5/"
# des~14 Fixations= ""
# niveaux~15 Fixations= "6/"
# jamais~16 Fixations= "6/"
# observés~17 Fixations= "7/"
# l'annonce~18 Fixations= "9/"
# par~19 Fixations= "8/"
# les~20 Fixations= "10/"
# pays~21 Fixations= "10/"
# producteurs~22 Fixations= ""
# d'une~23 Fixations= ""
# réduction~24 Fixations= ""
# de~25 Fixations= ""
# la~26 Fixations= ""
# production~27 Fixations= ""
# a~28 Fixations= "11/"
# redressé~29 Fixations= "11/"
# les~30 Fixations= ""
# prix~31 Fixations= ""
%%
#  L'éCONOMIE[1] ALGéRIENNE[2] dépend de l'évolution des cours du PéTROLE[3] BRUT[3] APRèS[4] être tombés à[5] des NIVEAUX[6] JAMAIS[6] OBSERVéS[7] L'ANNONCE[9] PAR[8] LES[10] PAYS[10] producteurs d'une réduction de la production A[11] REDRESSé[11] les prix
# s21 prix_petrole-f1 PercentageOfWordsProcessed= 0.46875 PercentageOfWordsReallyProcessed= 0.5
