999 WORDS_ligne~2 267
999 WORDFREQ_101.01 267
999 WORDSALL_3e~1_ligne~2 267
999 COSIND_0.13 267
999 COSGEN_0.13 267
101 ESRank1 267
999 WORDS_ligne~2 168
999 WORDFREQ_101.01 168
999 WORDSALL_3e~1_ligne~2 168
999 COSIND_0.13 168
999 COSGEN_0.13 168
102 ESRank2 168
203 ESBackSacRefixation 168
999 WORDS_XV~4 551
999 WORDFREQ_N/A 551
999 WORDSALL_du~3_XV~4 551
999 COSIND_N/A 551
103 ESRank3 551
202 ESForwSacLong+2+4 551
999 WORDS_XV~4 198
999 WORDFREQ_N/A 198
999 WORDSALL_XV~4 198
999 COSIND_N/A 198
104 ESRank4 198
203 ESBackSacRefixation 198
999 WORDS_d'Angleterre~5 177
999 WORDFREQ_0.47 177
999 WORDSALL_d'Angleterre~5 177
999 COSIND_0.05 177
999 COSGEN_0.05 177
105 ESRank5 177
201 ESForwSacShort 177
999 WORDS_85~7 186
999 WORDFREQ_N/A 186
999 WORDSALL_d'Angleterre~5_85~7 186
999 COSIND_N/A 186
106 ESRank6 186
202 ESForwSacLong+2+5 186
999 WORDS_85~7 170
999 WORDFREQ_N/A 170
999 WORDSALL_aux~6_85~7 170
999 COSIND_N/A 170
107 ESRank7 170
203 ESBackSacRefixation 170
999 WORDS_sélections~8 169
999 WORDFREQ_0.27 169
999 WORDSALL_Le~0_3e~1_sélections~8 169
999 COSIND_-0.04 169
999 COSGEN_-0.04 169
108 ESRank8 169
201 ESForwSacShort 169
999 WORDS_sélections~8 203
999 WORDFREQ_0.27 203
999 WORDSALL_Le~0_3e~1_sélections~8 203
999 COSIND_-0.04 203
999 COSGEN_-0.04 203
109 ESRank9 203
203 ESBackSacRefixation 203
999 WORDS_annoncé~10 218
999 WORDFREQ_15.68 218
999 WORDSALL_a~9_annoncé~10 218
999 COSIND_0.04 218
999 COSGEN_0.04 218
110 ESRank10 218
202 ESForwSacLong+2+3 218
999 WORDS_annoncé~10 91
999 WORDFREQ_15.68 91
999 WORDSALL_annoncé~10 91
999 COSIND_0.04 91
999 COSGEN_0.04 91
111 ESRank11 91
203 ESBackSacRefixation 91
999 WORDS_retraite~12 325
999 WORDFREQ_38.78 325
999 WORDSALL_sa~11_retraite~12 325
999 COSIND_-0.00 325
999 COSGEN_-0.00 325
112 ESRank12 325
202 ESForwSacLong+2+4 325
999 WORDS_internationale~13 159
999 WORDFREQ_10 159
999 WORDSALL_sélections~8_internationale~13 159
999 COSIND_-0.03 159
999 COSGEN_-0.03 159
113 ESRank13 159
201 ESForwSacShort 159
999 WORDS_internationale~13 296
999 WORDFREQ_10 296
999 WORDSALL_internationale~13 296
999 COSIND_-0.03 296
999 COSGEN_-0.03 296
114 ESRank14 296
203 ESBackSacRefixation 296
999 WORDS_retraite~20 188
999 WORDFREQ_38.78 188
999 WORDSALL_dans~14_colonnes~16_retraite~20 188
999 COSIND_-0.00 188
999 COSGEN_-0.00 188
115 ESRank15 188
202 ESForwSacLong+7+35 188
999 WORDS_bien~21 83
999 WORDFREQ_36.55 83
999 WORDSALL_dans~14_colonnes~16_bien~21 83
999 COSIND_0.02 83
999 COSGEN_0.02 83
116 ESRank16 83
201 ESForwSacShort 83
999 WORDS_colonnes~16 261
999 WORDFREQ_24.12 261
999 WORDSALL_les~15_colonnes~16 261
999 COSIND_-0.03 261
999 COSGEN_-0.03 261
117 ESRank17 261
206 ESBackSacRegrLong-5-26 261
999 WORDS_méritée~22 116
999 WORDFREQ_1.42 116
999 WORDSALL_colonnes~16_méritée~22 116
999 COSIND_0.02 116
999 COSGEN_0.02 116
118 ESRank18 116
202 ESForwSacLong+6+31 116
999 WORDS_tabloïd~18 194
999 WORDFREQ_0 194
999 WORDSALL_internationale~13_tabloïd~18 194
999 COSIND_N/A 194
119 ESRank19 194
206 ESBackSacRegrLong-4-19 194
999 WORDS_tabloïd~18 121
999 WORDFREQ_0 121
999 WORDSALL_tabloïd~18 121
999 COSIND_N/A 121
120 ESRank20 121
203 ESBackSacRefixation 121
999 WORDS_tabloïd~18 127
999 WORDFREQ_0 127
999 WORDSALL_tabloïd~18 127
999 COSIND_N/A 127
203 ESBackSacRefixation 127
999 WORDS_retraite~20 413
999 WORDFREQ_38.78 413
999 WORDSALL_Une~19_retraite~20 413
999 COSIND_-0.00 413
999 COSGEN_-0.00 413
202 ESForwSacLong+2+5 413
999 WORDS_méritée~22 389
999 WORDFREQ_1.42 389
999 WORDSALL_bien~21_méritée~22 389
999 COSIND_0.02 389
999 COSGEN_0.02 389
202 ESForwSacLong+2+6 389
999 WORDS_du~17 193
999 WORDFREQ_6882.16 193
999 WORDSALL_du~17 193
999 COSIND_N/A 193
206 ESBackSacRegrLong-5-28 193
999 WORDS_bien~26 216
999 WORDFREQ_36.55 216
999 WORDSALL_vie~25_bien~26 216
999 COSIND_0.02 216
999 COSGEN_0.02 216
202 ESForwSacLong+9+51 216
999 WORDS_bien~26 209
999 WORDFREQ_36.55 209
999 WORDSALL_vie~25_bien~26 209
999 COSIND_0.02 209
999 COSGEN_0.02 209
203 ESBackSacRefixation 209
200 ESRankN 209
199 ESRankNMinus1 216
198 ESRankNMinus2 193
197 ESRankNMinus3 389
196 ESRankNMinus4 413
195 ESRankNMinus5 127
194 ESRankNMinus6 121
193 ESRankNMinus7 194
192 ESRankNMinus8 116
191 ESRankNMinus9 261
190 ESRankNMinus10 83
