# 122 Fixation 1 (329.5,290.3): L'équipe~0
# 116 Fixation 2 (487.9,273.5): France~2
# 140 Fixation 3 (621.8,270.8): football~4 a~5
# 246 Fixation 4 (339.8,350.9): l'Australie~7
# 162 Fixation 5 (367.9,409.3): L'entraineur~15
# 94 Fixation 6 (480.6,410.8): est~16 très~17
# 249 Fixation 7 (568.3,414.1): satisfait~18
# 97 Fixation 8 (676.9,410.1): de~19
# 107 Fixation 9 (352.7,463.1): équipe~21 envisage~23
# 128 Fixation 10 (284.6,475.3): équipe~21
# 138 Fixation 11 (494.5,479.9): envisage~23
%%
# L'équipe~0 Fixations= "1/"
# de~1 Fixations= ""
# France~2 Fixations= "2/"
# de~3 Fixations= ""
# football~4 Fixations= "3/"
# a~5 Fixations= "3/"
# vaincu~6 Fixations= ""
# l'Australie~7 Fixations= "4/"
# en~8 Fixations= ""
# finale~9 Fixations= ""
# de~10 Fixations= ""
# la~11 Fixations= ""
# Coupe~12 Fixations= ""
# du~13 Fixations= ""
# Monde~14 Fixations= ""
# L'entraineur~15 Fixations= "5/"
# est~16 Fixations= "6/"
# très~17 Fixations= "6/"
# satisfait~18 Fixations= "7/"
# de~19 Fixations= "8/"
# son~20 Fixations= ""
# équipe~21 Fixations= "10/"
# et~22 Fixations= ""
# envisage~23 Fixations= "11/"
# les~24 Fixations= ""
# rencontres~25 Fixations= ""
# futures~26 Fixations= ""
# avec~27 Fixations= ""
# enthousiasme~28 Fixations= ""
# et~29 Fixations= ""
# sérénité~30 Fixations= ""
%%
#  L'éQUIPE[1] de FRANCE[2] de FOOTBALL[3] A[3] vaincu L'AUSTRALIE[4] en finale de la Coupe du Monde L'ENTRAINEUR[5] EST[6] TRèS[6] SATISFAIT[7] DE[8] son éQUIPE[10] et ENVISAGE[11] les rencontres futures avec enthousiasme et sérénité
# s19 victoire_footballeurs-f2 PercentageOfWordsProcessed= 0.387096774193548 PercentageOfWordsReallyProcessed= 0.5
