999 WORDS_direction~1 140
999 WORDFREQ_103.04 140
999 WORDSALL_La~0_direction~1 140
999 COSIND_0.55 140
999 COSGEN_0.55 140
101 ESRank1 140
999 WORDS_l'entreprise~3 120
999 WORDFREQ_29.05 120
999 WORDSALL_de~2_l'entreprise~3 120
999 COSIND_-0.07 120
999 COSGEN_-0.07 120
102 ESRank2 120
202 ESForwSacLong+2+4 120
999 WORDS_l'entreprise~3 152
999 WORDFREQ_29.05 152
999 WORDSALL_l'entreprise~3 152
999 COSIND_-0.07 152
999 COSGEN_-0.07 152
103 ESRank3 152
203 ESBackSacRefixation 152
999 WORDS_l'existence~5 151
999 WORDFREQ_93.85 151
999 WORDSALL_l'existence~5 151
999 COSIND_-0.04 151
999 COSGEN_-0.04 151
104 ESRank4 151
202 ESForwSacLong+2+10 151
999 WORDS_document~7 141
999 WORDFREQ_6.69 141
999 WORDSALL_document~7 141
999 COSIND_-0.04 141
999 COSGEN_-0.04 141
105 ESRank5 141
202 ESForwSacLong+2+4 141
999 WORDS_incriminé~8 215
999 WORDFREQ_0.07 215
999 WORDSALL_document~7_incriminé~8 215
999 COSIND_-0.00 215
999 COSGEN_-0.00 215
106 ESRank6 215
201 ESForwSacShort 215
999 WORDS_collaborateur~13 171
999 WORDFREQ_3.78 171
999 WORDSALL_collaborateur~13 171
999 COSIND_-0.02 171
999 COSGEN_-0.02 171
107 ESRank7 171
202 ESForwSacLong+5+31 171
999 WORDS_externe~14 158
999 WORDFREQ_0.54 158
999 WORDSALL_externe~14 158
999 COSIND_0.05 158
999 COSGEN_0.05 158
108 ESRank8 158
201 ESForwSacShort 158
999 WORDS_recrutement~18 124
999 WORDFREQ_3.51 124
999 WORDSALL_processus~16_recrutement~18 124
999 COSIND_0.01 124
999 COSGEN_0.01 124
109 ESRank9 124
202 ESForwSacLong+4+17 124
999 WORDS_recrutement~18 146
999 WORDFREQ_3.51 146
999 WORDSALL_recrutement~18 146
999 COSIND_0.01 146
999 COSGEN_0.01 146
110 ESRank10 146
203 ESBackSacRefixation 146
999 WORDS_inadmissible~20 158
999 WORDFREQ_2.64 158
999 WORDSALL_inadmissible~20 158
999 COSIND_0.19 158
999 COSGEN_0.19 158
111 ESRank11 158
202 ESForwSacLong+2+5 158
999 WORDS_cautionne~23 114
999 WORDFREQ_0 114
999 WORDSALL_Elle~21_cautionne~23 114
999 COSIND_0.08 114
999 COSGEN_0.08 114
112 ESRank12 114
202 ESForwSacLong+3+9 114
999 WORDS_cautionne~23 153
999 WORDFREQ_0 153
999 WORDSALL_ne~22_cautionne~23 153
999 COSIND_0.08 153
999 COSGEN_0.08 153
113 ESRank13 153
203 ESBackSacRefixation 153
999 WORDS_absolument~24 121
999 WORDFREQ_63.45 121
999 WORDSALL_absolument~24 121
999 COSIND_-0.10 121
999 COSGEN_-0.10 121
114 ESRank14 121
201 ESForwSacShort 121
999 WORDS_action~27 162
999 WORDFREQ_72.91 162
999 WORDSALL_cette~26_action~27 162
999 COSIND_0.02 162
999 COSGEN_0.02 162
115 ESRank15 162
202 ESForwSacLong+3+11 162
999 WORDS_action~27 172
999 WORDFREQ_72.91 172
999 WORDSALL_pas~25_action~27 172
999 COSIND_0.02 172
999 COSGEN_0.02 172
116 ESRank16 172
203 ESBackSacRefixation 172
200 ESRankN 172
199 ESRankNMinus1 162
198 ESRankNMinus2 121
197 ESRankNMinus3 153
196 ESRankNMinus4 114
195 ESRankNMinus5 158
194 ESRankNMinus6 146
193 ESRankNMinus7 124
192 ESRankNMinus8 158
191 ESRankNMinus9 171
190 ESRankNMinus10 215
