# 123 Fixation 1 (281.5,284.1): Une~0 bonne~1
# 136 Fixation 2 (323.9,274.1): Une~0 bonne~1
# 248 Fixation 3 (427,276.8): connaissance~2
# 284 Fixation 4 (598.4,282.4): du~3 fonctionnement~4
# 171 Fixation 5 (673.8,284.9): fonctionnement~4
# 92 Fixation 6 (706.5,290): fonctionnement~4
# 178 Fixation 7 (593,283.2): du~3 fonctionnement~4
# 243 Fixation 8 (299.4,340.6): l'ordinateur~6
# 140 Fixation 9 (452.7,340.4): et~7 d'Internet~8
# 214 Fixation 10 (520.9,339.9): d'Internet~8
# 212 Fixation 11 (649.8,343): est~9 importante~10
# 181 Fixation 12 (606.8,342.2): est~9 importante~10
# 333 Fixation 13 (315.1,412.1): Des~11 systèmes~12
# 142 Fixation 14 (371.9,405.3): systèmes~12
# 161 Fixation 15 (479.4,406.2): de~13 formation~14
# 237 Fixation 16 (637.7,403.3): à~15 distance~16
# 183 Fixation 17 (613.8,408.1): à~15 distance~16
# 134 Fixation 18 (586.7,404.1): formation~14 à~15
# 97 Fixation 19 (709.9,401.6): distance~16
# 257 Fixation 20 (365.7,465): pédagogie~20
%%
# Une~0 Fixations= "2/"
# bonne~1 Fixations= "2/"
# connaissance~2 Fixations= "3/"
# du~3 Fixations= "7/"
# fonctionnement~4 Fixations= "7/"
# de~5 Fixations= ""
# l'ordinateur~6 Fixations= "8/"
# et~7 Fixations= "9/"
# d'Internet~8 Fixations= "10/"
# est~9 Fixations= "12/"
# importante~10 Fixations= "12/"
# Des~11 Fixations= "13/"
# systèmes~12 Fixations= "14/"
# de~13 Fixations= "15/"
# formation~14 Fixations= "18/"
# à~15 Fixations= "18/"
# distance~16 Fixations= "19/"
# et~17 Fixations= ""
# de~18 Fixations= ""
# la~19 Fixations= ""
# pédagogie~20 Fixations= "20/"
# pour~21 Fixations= ""
# adultes~22 Fixations= ""
# en~23 Fixations= ""
# formation~24 Fixations= ""
# continue~25 Fixations= ""
# vont~26 Fixations= ""
# être~27 Fixations= ""
# mis~28 Fixations= ""
# en~29 Fixations= ""
# place~30 Fixations= ""
%%
#  UNE[2] BONNE[2] CONNAISSANCE[3] DU[7] FONCTIONNEMENT[7] de L'ORDINATEUR[8] ET[9] D'INTERNET[10] EST[12] IMPORTANTE[12] DES[13] SYSTèMES[14] DE[15] FORMATION[18] à[18] DISTANCE[19] et de la PéDAGOGIE[20] pour adultes en formation continue vont être mis en place
# s01 formation_informatique-f2 PercentageOfWordsProcessed= 0.548387096774194 PercentageOfWordsReallyProcessed= 0.80952380952381
