999 WORDS_baie~1 115
999 WORDFREQ_14.86 115
999 WORDSALL_La~0_baie~1 115
999 COSIND_-0.02 115
999 COSGEN_-0.02 115
101 ESRank1 115
999 WORDS_Somme~3 134
999 WORDFREQ_72.7 134
999 WORDSALL_de~2_Somme~3 134
999 COSIND_-0.02 134
999 COSGEN_-0.02 134
102 ESRank2 134
202 ESForwSacLong+2+4 134
999 WORDS_hiver~5 152
999 WORDFREQ_96.28 152
999 WORDSALL_Somme~3_hiver~5 152
999 COSIND_0.02 152
999 COSGEN_0.02 152
103 ESRank3 152
202 ESForwSacLong+2+4 152
999 WORDS_l'espace~6 175
999 WORDFREQ_78.58 175
999 WORDSALL_l'espace~6 175
999 COSIND_0.12 175
999 COSGEN_0.12 175
104 ESRank4 175
201 ESForwSacShort 175
999 WORDS_silence~8 205
999 WORDFREQ_313.24 205
999 WORDSALL_La~0_baie~1_silence~8 205
999 COSIND_0.06 205
999 COSGEN_0.06 205
105 ESRank5 205
202 ESForwSacLong+2+4 205
999 WORDS_instants~10 181
999 WORDFREQ_54.32 181
999 WORDSALL_Somme~3_instants~10 181
999 COSIND_0.05 181
999 COSGEN_0.05 181
106 ESRank6 181
202 ESForwSacLong+2+5 181
999 WORDS_fugaces~11 195
999 WORDFREQ_1.22 195
999 WORDSALL_fugaces~11 195
999 COSIND_-0.01 195
999 COSGEN_-0.01 195
107 ESRank7 195
201 ESForwSacShort 195
999 WORDS_coucher~18 98
999 WORDFREQ_8.11 98
999 WORDSALL_fugaces~11_coucher~18 98
999 COSIND_0.03 98
999 COSGEN_0.03 98
108 ESRank8 98
202 ESForwSacLong+7+36 98
999 WORDS_coucher~18 202
999 WORDFREQ_8.11 202
999 WORDSALL_fugaces~11_coucher~18 202
999 COSIND_0.03 202
999 COSGEN_0.03 202
109 ESRank9 202
203 ESBackSacRefixation 202
999 WORDS_fugaces~11 215
999 WORDFREQ_1.22 215
999 WORDSALL_instants~10_fugaces~11 215
999 COSIND_-0.01 215
999 COSGEN_-0.01 215
110 ESRank10 215
206 ESBackSacRegrLong-7-36 215
999 WORDS_coucher~18 122
999 WORDFREQ_8.11 122
999 WORDSALL_ce~17_coucher~18 122
999 COSIND_0.03 122
999 COSGEN_0.03 122
111 ESRank11 122
202 ESForwSacLong+7+36 122
999 WORDS_lumières~14 90
999 WORDFREQ_35.61 90
999 WORDSALL_lumières~14 90
999 COSIND_-0.04 90
999 COSGEN_-0.04 90
112 ESRank12 90
206 ESBackSacRegrLong-4-19 90
999 WORDS_lumières~14 167
999 WORDFREQ_35.61 167
999 WORDSALL_lumières~14 167
999 COSIND_-0.04 167
999 COSGEN_-0.04 167
113 ESRank13 167
203 ESBackSacRefixation 167
999 WORDS_pointe~23 186
999 WORDFREQ_69.05 186
999 WORDSALL_magiques~15_pointe~23 186
999 COSIND_0.04 186
999 COSGEN_0.04 186
114 ESRank14 186
202 ESForwSacLong+9+44 186
999 WORDS_Hourdel~25 186
999 WORDFREQ_N/A 186
999 WORDSALL_Comme~16_coucher~18_Hourdel~25 186
999 COSIND_N/A 186
115 ESRank15 186
202 ESForwSacLong+2+4 186
200 ESRankN 186
199 ESRankNMinus1 186
198 ESRankNMinus2 167
197 ESRankNMinus3 90
196 ESRankNMinus4 122
195 ESRankNMinus5 215
194 ESRankNMinus6 202
193 ESRankNMinus7 98
192 ESRankNMinus8 195
191 ESRankNMinus9 181
190 ESRankNMinus10 205
