# 142 Fixation 1 (317.4,289.5): Le~0 fondateur~1
# 182 Fixation 2 (504.5,289.3): la~3 guérilla~4
# 262 Fixation 3 (647.5,283.1): en~5 rébellion~6
# 254 Fixation 4 (314.2,349.9): contre~7 autorités~9 allusion~13
# 117 Fixation 5 (433.4,409): autorités~9 l'opération~15
# 295 Fixation 6 (516.2,435.6): l'opération~15 otages~21
# 144 Fixation 7 (563.6,488.5): qui~22 a~23
# 132 Fixation 8 (634.8,491): a~23 capoté~24
%%
# Le~0 Fixations= "1/"
# fondateur~1 Fixations= "1/"
# de~2 Fixations= ""
# la~3 Fixations= "2/"
# guérilla~4 Fixations= "2/"
# en~5 Fixations= "3/"
# rébellion~6 Fixations= "3/"
# contre~7 Fixations= "4/"
# les~8 Fixations= ""
# autorités~9 Fixations= "5/"
# ne~10 Fixations= ""
# fait~11 Fixations= ""
# aucune~12 Fixations= ""
# allusion~13 Fixations= "4/"
# à~14 Fixations= ""
# l'opération~15 Fixations= "6/"
# humanitaire~16 Fixations= ""
# visant~17 Fixations= ""
# à~18 Fixations= ""
# remettre~19 Fixations= ""
# trois~20 Fixations= ""
# otages~21 Fixations= "6/"
# qui~22 Fixations= "7/"
# a~23 Fixations= "8/"
# capoté~24 Fixations= "8/"
# en~25 Fixations= ""
# début~26 Fixations= ""
# de~27 Fixations= ""
# semaine~28 Fixations= ""
# dernière~29 Fixations= ""
%%
#  LE[1] FONDATEUR[1] de LA[2] GUéRILLA[2] EN[3] RéBELLION[3] CONTRE[4] les AUTORITéS[5] ne fait aucune ALLUSION[4] à L'OPéRATION[6] humanitaire visant à remettre trois OTAGES[6] QUI[7] A[8] CAPOTé[8] en début de semaine dernière
# s07 course_voiliers-a2 PercentageOfWordsProcessed= 0.466666666666667 PercentageOfWordsReallyProcessed= 0.56
