999 WORDS_brûlons~2 103
999 WORDFREQ_0.27 103
999 WORDSALL_Quand~0_brûlons~2 103
999 COSIND_0.04 103
999 COSGEN_0.04 103
101 ESRank1 103
999 WORDS_brûlons~2 156
999 WORDFREQ_0.27 156
999 WORDSALL_nous~1_brûlons~2 156
999 COSIND_0.04 156
999 COSGEN_0.04 156
102 ESRank2 156
203 ESBackSacRefixation 156
999 WORDS_combustibles~4 208
999 WORDFREQ_0.47 208
999 WORDSALL_des~3_combustibles~4 208
999 COSIND_0.20 208
999 COSGEN_0.20 208
103 ESRank3 208
202 ESForwSacLong+2+5 208
999 WORDS_fossiles~5 160
999 WORDFREQ_0.88 160
999 WORDSALL_fossiles~5 160
999 COSIND_0.53 160
999 COSGEN_0.53 160
104 ESRank4 160
201 ESForwSacShort 160
999 WORDS_émettons~7 176
999 WORDFREQ_0.07 176
999 WORDSALL_émettons~7 176
999 COSIND_0.19 176
999 COSGEN_0.19 176
105 ESRank5 176
202 ESForwSacLong+2+6 176
999 WORDS_gaz~9 120
999 WORDFREQ_28.65 120
999 WORDSALL_des~8_gaz~9 120
999 COSIND_0.61 120
999 COSGEN_0.61 120
106 ESRank6 120
202 ESForwSacLong+2+5 120
999 WORDS_effet~11 119
999 WORDFREQ_173.18 119
999 WORDSALL_à~10_effet~11 119
999 COSIND_0.67 119
999 COSGEN_0.67 119
107 ESRank7 119
202 ESForwSacLong+2+4 119
999 WORDS_réchauffer~23 124
999 WORDFREQ_11.62 124
999 WORDSALL_de~21_réchauffer~23 124
999 COSIND_0.16 124
999 COSGEN_0.16 124
108 ESRank8 124
202 ESForwSacLong+12+62 124
999 WORDS_réchauffer~23 215
999 WORDFREQ_11.62 215
999 WORDSALL_la~22_réchauffer~23 215
999 COSIND_0.16 215
999 COSGEN_0.16 215
109 ESRank9 215
203 ESBackSacRefixation 215
200 ESRankN 215
199 ESRankNMinus1 124
198 ESRankNMinus2 119
197 ESRankNMinus3 120
196 ESRankNMinus4 176
195 ESRankNMinus5 160
194 ESRankNMinus6 208
193 ESRankNMinus7 156
192 ESRankNMinus8 103
