# 156 Fixation 1 (288.8,267.9): Il~0 s'agit~1
# 197 Fixation 2 (455,275.4): de~2 citoyens~4
# 185 Fixation 3 (567.3,349): gouvernement~11
# 178 Fixation 4 (677,366): est~12 défendre~14
# 251 Fixation 5 (673.4,412.4): Des~20 mesures~21
# 288 Fixation 6 (498.2,470.2): mais~24 également~25
# 173 Fixation 7 (486.7,547.6): organisations~30
# 109 Fixation 8 (584.8,543.2): internationales~31
# 257 Fixation 9 (376,560.5): les~29 organisations~30
%%
# Il~0 Fixations= "1/"
# s'agit~1 Fixations= "1/"
# de~2 Fixations= "2/"
# nos~3 Fixations= ""
# citoyens~4 Fixations= "2/"
# et~5 Fixations= ""
# le~6 Fixations= ""
# devoir~7 Fixations= ""
# de~8 Fixations= ""
# n'importe~9 Fixations= ""
# quel~10 Fixations= ""
# gouvernement~11 Fixations= "3/"
# est~12 Fixations= "4/"
# de~13 Fixations= ""
# défendre~14 Fixations= "4/"
# les~15 Fixations= ""
# intérêts~16 Fixations= ""
# de~17 Fixations= ""
# ses~18 Fixations= ""
# citoyens~19 Fixations= ""
# Des~20 Fixations= "5/"
# mesures~21 Fixations= "5/"
# sont~22 Fixations= ""
# prises~23 Fixations= ""
# mais~24 Fixations= "6/"
# également~25 Fixations= "6/"
# une~26 Fixations= ""
# coopération~27 Fixations= ""
# avec~28 Fixations= ""
# les~29 Fixations= "9/"
# organisations~30 Fixations= "9/"
# internationales~31 Fixations= "8/"
%%
#  IL[1] S'AGIT[1] DE[2] nos CITOYENS[2] et le devoir de n'importe quel GOUVERNEMENT[3] EST[4] de DéFENDRE[4] les intérêts de ses citoyens DES[5] MESURES[5] sont prises MAIS[6] éGALEMENT[6] une coopération avec LES[9] ORGANISATIONS[9] INTERNATIONALES[8]
# s21 associations_humanitaires-m1 PercentageOfWordsProcessed= 0.4375 PercentageOfWordsReallyProcessed= 0.4375
