999 WORDS_modistes~2 169
999 WORDFREQ_0.41 169
999 WORDSALL_aux~1_modistes~2 169
999 COSIND_0.04 169
999 COSGEN_0.04 169
101 ESRank1 169
999 WORDS_parisiennes~3 263
999 WORDFREQ_2.3 263
999 WORDSALL_parisiennes~3 263
999 COSIND_0.08 263
999 COSGEN_0.08 263
102 ESRank2 263
201 ESForwSacShort 263
999 WORDS_modistes~2 325
999 WORDFREQ_0.41 325
999 WORDSALL_C'est~0_modistes~2 325
999 COSIND_0.04 325
999 COSGEN_0.04 325
103 ESRank3 325
205 ESBackSacRegrShort 325
999 WORDS_printemps~6 163
999 WORDFREQ_60.88 163
999 WORDSALL_printemps~6 163
999 COSIND_0.46 163
999 COSGEN_0.46 163
104 ESRank4 163
202 ESForwSacLong+4+20 163
999 WORDS_fait~7 168
999 WORDFREQ_1459.26 168
999 WORDSALL_fait~7 168
999 COSIND_-0.02 168
999 COSGEN_-0.02 168
105 ESRank5 168
201 ESForwSacShort 168
999 WORDS_premières~9 190
999 WORDFREQ_60.2 190
999 WORDSALL_premières~9 190
999 COSIND_0.02 190
999 COSGEN_0.02 190
106 ESRank6 190
202 ESForwSacLong+2+5 190
999 WORDS_confidences~10 212
999 WORDFREQ_14.39 212
999 WORDSALL_confidences~10 212
999 COSIND_0.02 212
999 COSGEN_0.02 212
107 ESRank7 212
201 ESForwSacShort 212
999 WORDS_offre~13 149
999 WORDFREQ_29.8 149
999 WORDSALL_offre~13 149
999 COSIND_0.03 149
999 COSGEN_0.03 149
108 ESRank8 149
202 ESForwSacLong+3+9 149
999 WORDS_offre~13 153
999 WORDFREQ_29.8 153
999 WORDSALL_leur~12_offre~13 153
999 COSIND_0.03 153
999 COSGEN_0.03 153
109 ESRank9 153
203 ESBackSacRefixation 153
999 WORDS_premiers~15 178
999 WORDFREQ_77.7 178
999 WORDSALL_premiers~15 178
999 COSIND_0.02 178
999 COSGEN_0.02 178
110 ESRank10 178
202 ESForwSacLong+2+5 178
999 WORDS_bouquets~16 160
999 WORDFREQ_11.08 160
999 WORDSALL_bouquets~16 160
999 COSIND_0.16 160
999 COSGEN_0.16 160
111 ESRank11 160
201 ESForwSacShort 160
999 WORDS_pailles~18 230
999 WORDFREQ_1.08 230
999 WORDSALL_pailles~18 230
999 COSIND_0.66 230
999 COSGEN_0.66 230
112 ESRank12 230
202 ESForwSacLong+2+5 230
999 WORDS_rubans~20 280
999 WORDFREQ_7.97 280
999 WORDSALL_ses~19_rubans~20 280
999 COSIND_0.47 280
999 COSGEN_0.47 280
113 ESRank13 280
202 ESForwSacLong+2+5 280
999 WORDS_petits~22 163
999 WORDFREQ_244.19 163
999 WORDSALL_ses~21_petits~22 163
999 COSIND_0.06 163
999 COSGEN_0.06 163
114 ESRank14 163
202 ESForwSacLong+2+5 163
999 WORDS_canotiers~23 168
999 WORDFREQ_0.68 168
999 WORDSALL_canotiers~23 168
999 COSIND_0.27 168
999 COSGEN_0.27 168
115 ESRank15 168
201 ESForwSacShort 168
999 WORDS_saurait~27 189
999 WORDFREQ_33.92 189
999 WORDSALL_car~24_saurait~27 189
999 COSIND_-0.03 189
999 COSGEN_-0.03 189
116 ESRank16 189
202 ESForwSacLong+4+11 189
999 WORDS_saurait~27 176
999 WORDFREQ_33.92 176
999 WORDSALL_saurait~27 176
999 COSIND_-0.03 176
999 COSGEN_-0.03 176
117 ESRank17 176
203 ESBackSacRefixation 176
999 WORDS_printemps~31 85
999 WORDFREQ_60.88 85
999 WORDSALL_avoir~29_printemps~31 85
999 COSIND_0.46 85
999 COSGEN_0.46 85
118 ESRank18 85
202 ESForwSacLong+4+12 85
999 WORDS_printemps~31 132
999 WORDFREQ_60.88 132
999 WORDSALL_printemps~31 132
999 COSIND_0.46 132
999 COSGEN_0.46 132
119 ESRank19 132
203 ESBackSacRefixation 132
999 WORDS_canotier~33 243
999 WORDFREQ_2.36 243
999 WORDSALL_canotier~33 243
999 COSIND_0.27 243
999 COSGEN_0.27 243
120 ESRank20 243
202 ESForwSacLong+2+6 243
200 ESRankN 243
199 ESRankNMinus1 132
198 ESRankNMinus2 85
197 ESRankNMinus3 176
196 ESRankNMinus4 189
195 ESRankNMinus5 168
194 ESRankNMinus6 163
193 ESRankNMinus7 280
192 ESRankNMinus8 230
191 ESRankNMinus9 160
190 ESRankNMinus10 178
