# 254 Fixation 1 (321.6,293.9): Il~0 point~2 feuilleton~8
# 186 Fixation 2 (306.4,292.8): Il~0 point~2 feuilleton~8
# 148 Fixation 3 (378.9,292.8): n'est~1 point~2
# 194 Fixation 4 (319.6,301.7): Il~0 point~2 feuilleton~8
# 303 Fixation 5 (495.2,291.8): de~3 bon~4
# 226 Fixation 6 (564.2,294.4): bon~4 mercato~5
# 245 Fixation 7 (501.9,364.2): l'animer~10
# 205 Fixation 8 (312.7,361.5): feuilleton~8
# 207 Fixation 9 (624.6,288.8): mercato~5
# 211 Fixation 10 (666.5,386): Les~11 transferts~12
# 209 Fixation 11 (642.8,430.7): pas~17 électrisé~18 cercle~25
# 190 Fixation 12 (601.1,501.3): premier~24
# 196 Fixation 13 (422.4,521.6): en~21 dehors~22
# 260 Fixation 14 (334.1,534.6): les~19 foules~20 admirateurs~27
%%
# Il~0 Fixations= "4/"
# n'est~1 Fixations= "3/"
# point~2 Fixations= "4/"
# de~3 Fixations= "5/"
# bon~4 Fixations= "6/"
# mercato~5 Fixations= "9/"
# sans~6 Fixations= ""
# un~7 Fixations= ""
# feuilleton~8 Fixations= "8/"
# pour~9 Fixations= ""
# l'animer~10 Fixations= "7/"
# Les~11 Fixations= "10/"
# transferts~12 Fixations= "10/"
# des~13 Fixations= ""
# deux~14 Fixations= ""
# footballeurs~15 Fixations= ""
# n'ont~16 Fixations= ""
# pas~17 Fixations= "11/"
# électrisé~18 Fixations= "11/"
# les~19 Fixations= "14/"
# foules~20 Fixations= "14/"
# en~21 Fixations= "13/"
# dehors~22 Fixations= "13/"
# du~23 Fixations= ""
# premier~24 Fixations= "12/"
# cercle~25 Fixations= "11/"
# des~26 Fixations= ""
# admirateurs~27 Fixations= "14/"
# de~28 Fixations= ""
# l'un~29 Fixations= ""
# et~30 Fixations= ""
# de~31 Fixations= ""
# l'autre~32 Fixations= ""
%%
#  IL[4] N'EST[3] POINT[4] DE[5] BON[6] MERCATO[9] sans un FEUILLETON[8] pour L'ANIMER[7] LES[10] TRANSFERTS[10] des deux footballeurs n'ont PAS[11] éLECTRISé[11] LES[14] FOULES[14] EN[13] DEHORS[13] du PREMIER[12] CERCLE[11] des ADMIRATEURS[14] de l'un et de l'autre
# s14 chef_russie-a1 PercentageOfWordsProcessed= 0.575757575757576 PercentageOfWordsReallyProcessed= 0.678571428571429
