999 WORDS_moral~1 190
999 WORDFREQ_14.19 190
999 WORDSALL_Le~0_moral~1 190
999 COSIND_-0.03 190
999 COSGEN_-0.03 190
101 ESRank1 190
999 WORDS_boursiers~3 153
999 WORDFREQ_0.07 153
999 WORDSALL_moral~1_boursiers~3 153
999 COSIND_-0.01 153
999 COSGEN_-0.01 153
102 ESRank2 153
202 ESForwSacLong+2+5 153
999 WORDS_boursiers~3 170
999 WORDFREQ_0.07 170
999 WORDSALL_des~2_boursiers~3 170
999 COSIND_-0.01 170
999 COSGEN_-0.01 170
103 ESRank3 170
203 ESBackSacRefixation 170
999 WORDS_boursiers~3 150
999 WORDFREQ_0.07 150
999 WORDSALL_boursiers~3 150
999 COSIND_-0.01 150
999 COSGEN_-0.01 150
104 ESRank4 150
203 ESBackSacRefixation 150
999 WORDS_sérieusement~5 165
999 WORDFREQ_21.76 165
999 WORDSALL_s'est~4_sérieusement~5 165
999 COSIND_-0.02 165
999 COSGEN_-0.02 165
105 ESRank5 165
202 ESForwSacLong+2+7 165
999 WORDS_sérieusement~5 205
999 WORDFREQ_21.76 205
999 WORDSALL_s'est~4_sérieusement~5 205
999 COSIND_-0.02 205
999 COSGEN_-0.02 205
106 ESRank6 205
203 ESBackSacRefixation 205
999 WORDS_dégradé~6 317
999 WORDFREQ_0.47 317
999 WORDSALL_Le~0_moral~1_dégradé~6 317
999 COSIND_0.12 317
999 COSGEN_0.12 317
107 ESRank7 317
201 ESForwSacShort 317
999 WORDS_doutent~8 294
999 WORDFREQ_1.82 294
999 WORDSALL_des~2_boursiers~3_doutent~8 294
999 COSIND_-0.04 294
999 COSGEN_-0.04 294
108 ESRank8 294
202 ESForwSacLong+2+5 294
999 WORDS_doutent~8 252
999 WORDFREQ_1.82 252
999 WORDSALL_des~2_boursiers~3_doutent~8 252
999 COSIND_-0.04 252
999 COSGEN_-0.04 252
109 ESRank9 252
203 ESBackSacRefixation 252
999 WORDS_doutent~8 162
999 WORDFREQ_1.82 162
999 WORDSALL_des~2_boursiers~3_doutent~8 162
999 COSIND_-0.04 162
999 COSGEN_-0.04 162
110 ESRank10 162
203 ESBackSacRefixation 162
999 WORDS_désormais~9 311
999 WORDFREQ_88.45 311
999 WORDSALL_s'est~4_sérieusement~5_désormais~9 311
999 COSIND_0.03 311
999 COSGEN_0.03 311
111 ESRank11 311
201 ESForwSacShort 311
999 WORDS_fluctuation~15 143
999 WORDFREQ_0.07 143
999 WORDSALL_de~14_fluctuation~15 143
999 COSIND_-0.07 143
999 COSGEN_-0.07 143
112 ESRank12 143
202 ESForwSacLong+6+29 143
999 WORDS_fixées~20 127
999 WORDFREQ_2.97 127
999 WORDSALL_de~14_fluctuation~15_fixées~20 127
999 COSIND_-0.13 127
999 COSGEN_-0.13 127
113 ESRank13 127
202 ESForwSacLong+5+27 127
999 WORDS_mercredi~21 230
999 WORDFREQ_11.82 230
999 WORDSALL_fluctuation~15_mercredi~21 230
999 COSIND_0.00 230
999 COSGEN_0.00 230
114 ESRank14 230
201 ESForwSacShort 230
200 ESRankN 230
199 ESRankNMinus1 127
198 ESRankNMinus2 143
197 ESRankNMinus3 311
196 ESRankNMinus4 162
195 ESRankNMinus5 252
194 ESRankNMinus6 294
193 ESRankNMinus7 317
192 ESRankNMinus8 205
191 ESRankNMinus9 165
190 ESRankNMinus10 150
