999 WORDS_réaction~1 151
999 WORDFREQ_20 151
999 WORDSALL_Cette~0_réaction~1 151
999 COSIND_-0.05 151
999 COSGEN_-0.05 151
101 ESRank1 151
999 WORDS_conduit~2 178
999 WORDFREQ_33.45 178
999 WORDSALL_conduit~2 178
999 COSIND_-0.07 178
999 COSGEN_-0.07 178
102 ESRank2 178
201 ESForwSacShort 178
999 WORDS_industriels~3 162
999 WORDFREQ_2.23 162
999 WORDSALL_industriels~3 162
999 COSIND_-0.00 162
999 COSGEN_-0.00 162
103 ESRank3 162
201 ESForwSacShort 162
999 WORDS_industriels~3 90
999 WORDFREQ_2.23 90
999 WORDSALL_industriels~3 90
999 COSIND_-0.00 90
999 COSGEN_-0.00 90
104 ESRank4 90
203 ESBackSacRefixation 90
999 WORDS_à~7 208
999 WORDFREQ_19209.05 208
999 WORDSALL_à~7 208
999 COSIND_N/A 208
105 ESRank5 208
202 ESForwSacLong+4+23 208
999 WORDS_D'autant~10 191
999 WORDFREQ_240.41 191
999 WORDSALL_D'autant~10 191
999 COSIND_N/A 191
106 ESRank6 191
202 ESForwSacLong+3+13 191
999 WORDS_champion~13 127
999 WORDFREQ_10.81 127
999 WORDSALL_le~12_champion~13 127
999 COSIND_-0.05 127
999 COSGEN_-0.05 127
107 ESRank7 127
202 ESForwSacLong+3+8 127
999 WORDS_champion~13 101
999 WORDFREQ_10.81 101
999 WORDSALL_que~11_champion~13 101
999 COSIND_-0.05 101
999 COSGEN_-0.05 101
108 ESRank8 101
203 ESBackSacRefixation 101
999 WORDS_OGM~15 209
999 WORDFREQ_N/A 209
999 WORDSALL_des~14_OGM~15 209
999 COSIND_N/A 209
109 ESRank9 209
202 ESForwSacLong+2+5 209
999 WORDS_chiffre~19 221
999 WORDFREQ_12.7 221
999 WORDSALL_vu~17_chiffre~19 221
999 COSIND_0.15 221
999 COSGEN_0.15 221
110 ESRank10 221
202 ESForwSacLong+4+10 221
999 WORDS_baisser~21 125
999 WORDFREQ_12.7 125
999 WORDSALL_baisser~21 125
999 COSIND_0.24 125
999 COSGEN_0.24 125
111 ESRank11 125
202 ESForwSacLong+2+11 125
999 WORDS_d'affaire~20 191
999 WORDFREQ_150.54 191
999 WORDSALL_d'affaire~20 191
999 COSIND_0.06 191
999 COSGEN_0.06 191
112 ESRank12 191
205 ESBackSacRegrShort 191
999 WORDS_valeurs~23 233
999 WORDFREQ_11.55 233
999 WORDSALL_valeurs~23 233
999 COSIND_0.54 233
999 COSGEN_0.54 233
113 ESRank13 233
202 ESForwSacLong+3+13 233
999 WORDS_biotechnologie~25 292
999 WORDFREQ_0 292
999 WORDSALL_biotechnologie~25 292
999 COSIND_N/A 292
114 ESRank14 292
202 ESForwSacLong+2+4 292
999 WORDS_perdu~27 263
999 WORDFREQ_115.07 263
999 WORDSALL_perdu~27 263
999 COSIND_0.12 263
999 COSGEN_0.12 263
115 ESRank15 263
202 ESForwSacLong+2+5 263
999 WORDS_attrait~30 222
999 WORDFREQ_6.96 222
999 WORDSALL_leur~29_attrait~30 222
999 COSIND_-0.04 222
999 COSGEN_-0.04 222
116 ESRank16 222
202 ESForwSacLong+3+9 222
200 ESRankN 222
199 ESRankNMinus1 263
198 ESRankNMinus2 292
197 ESRankNMinus3 233
196 ESRankNMinus4 191
195 ESRankNMinus5 125
194 ESRankNMinus6 221
193 ESRankNMinus7 209
192 ESRankNMinus8 101
191 ESRankNMinus9 127
190 ESRankNMinus10 191
