# 192 Fixation 1 (322,304.9): Le~0 problème~1
# 120 Fixation 2 (363.9,286.8): problème~1
# 155 Fixation 3 (473.6,279.2): que~2 devra~3
# 171 Fixation 4 (609.4,276.9): gérer~4
# 326 Fixation 5 (553.5,275.7): devra~3 gérer~4
# 100 Fixation 6 (622.2,274): gérer~4
# 278 Fixation 7 (326.6,350.7): est~7 canaliser~9
# 128 Fixation 8 (373.2,336.8): de~8 canaliser~9
# 96 Fixation 9 (275.9,337.3): est~7 canaliser~9
# 222 Fixation 10 (504.8,338.7): le~10 retour~11
# 323 Fixation 11 (642.2,338.6): des~12 sinistrés~13
# 306 Fixation 12 (350.2,389.6): les~15 familles~16
# 121 Fixation 13 (497.7,400.6): d'accueil~17
# 153 Fixation 14 (291.4,402.1): dans~14 familles~16
# 144 Fixation 15 (405.2,398.3): familles~16
# 148 Fixation 16 (503.5,403.7): d'accueil~17
# 222 Fixation 17 (665,405.8): Le~18 préalable~19
# 308 Fixation 18 (341.1,461.7): leur~21 identification~22
# 251 Fixation 19 (408.2,462): identification~22
# 164 Fixation 20 (597.7,462.8): car~23 n'ont~25
# 169 Fixation 21 (677.2,458.2): ils~24 n'ont~25
# 187 Fixation 22 (335.2,515.6): pièce~28
%%
# Le~0 Fixations= "1/"
# problème~1 Fixations= "2/"
# que~2 Fixations= "3/"
# devra~3 Fixations= "5/"
# gérer~4 Fixations= "6/"
# le~5 Fixations= ""
# gouvernement~6 Fixations= ""
# est~7 Fixations= "9/"
# de~8 Fixations= "8/"
# canaliser~9 Fixations= "9/"
# le~10 Fixations= "10/"
# retour~11 Fixations= "10/"
# des~12 Fixations= "11/"
# sinistrés~13 Fixations= "11/"
# dans~14 Fixations= "14/"
# les~15 Fixations= "12/"
# familles~16 Fixations= "15/"
# d'accueil~17 Fixations= "16/"
# Le~18 Fixations= "17/"
# préalable~19 Fixations= "17/"
# est~20 Fixations= ""
# leur~21 Fixations= "18/"
# identification~22 Fixations= "19/"
# car~23 Fixations= "20/"
# ils~24 Fixations= "21/"
# n'ont~25 Fixations= "21/"
# plus~26 Fixations= ""
# de~27 Fixations= ""
# pièce~28 Fixations= "22/"
# d'identité~29 Fixations= ""
%%
#  LE[1] PROBLèME[2] QUE[3] DEVRA[5] GéRER[6] le gouvernement EST[9] DE[8] CANALISER[9] LE[10] RETOUR[10] DES[11] SINISTRéS[11] DANS[14] LES[12] FAMILLES[15] D'ACCUEIL[16] LE[17] PRéALABLE[17] est LEUR[18] IDENTIFICATION[19] CAR[20] ILS[21] N'ONT[21] plus de PIèCE[22] d'identité
# s04 associations_humanitaires-m2 PercentageOfWordsProcessed= 0.8 PercentageOfWordsReallyProcessed= 0.827586206896552
