999 WORDS_brûlons~2 117
999 WORDFREQ_0.27 117
999 WORDSALL_Quand~0_brûlons~2 117
999 COSIND_0.04 117
999 COSGEN_0.04 117
101 ESRank1 117
999 WORDS_brûlons~2 139
999 WORDFREQ_0.27 139
999 WORDSALL_nous~1_brûlons~2 139
999 COSIND_0.04 139
999 COSGEN_0.04 139
102 ESRank2 139
203 ESBackSacRefixation 139
999 WORDS_brûlons~2 117
999 WORDFREQ_0.27 117
999 WORDSALL_brûlons~2 117
999 COSIND_0.04 117
999 COSGEN_0.04 117
103 ESRank3 117
203 ESBackSacRefixation 117
999 WORDS_combustibles~4 175
999 WORDFREQ_0.47 175
999 WORDSALL_combustibles~4 175
999 COSIND_0.20 175
999 COSGEN_0.20 175
104 ESRank4 175
202 ESForwSacLong+2+5 175
999 WORDS_fossiles~5 198
999 WORDFREQ_0.88 198
999 WORDSALL_fossiles~5 198
999 COSIND_0.53 198
999 COSGEN_0.53 198
105 ESRank5 198
201 ESForwSacShort 198
999 WORDS_émettons~7 121
999 WORDFREQ_0.07 121
999 WORDSALL_nous~6_émettons~7 121
999 COSIND_0.19 121
999 COSGEN_0.19 121
106 ESRank6 121
202 ESForwSacLong+2+6 121
999 WORDS_émettons~7 100
999 WORDFREQ_0.07 100
999 WORDSALL_émettons~7 100
999 COSIND_0.19 100
999 COSGEN_0.19 100
107 ESRank7 100
203 ESBackSacRefixation 100
999 WORDS_gaz~9 143
999 WORDFREQ_28.65 143
999 WORDSALL_des~8_gaz~9 143
999 COSIND_0.61 143
999 COSGEN_0.61 143
108 ESRank8 143
202 ESForwSacLong+2+5 143
999 WORDS_effet~11 184
999 WORDFREQ_173.18 184
999 WORDSALL_gaz~9_à~10_effet~11 184
999 COSIND_0.67 184
999 COSGEN_0.67 184
109 ESRank9 184
202 ESForwSacLong+2+4 184
999 WORDS_l'atmosphère~15 147
999 WORDFREQ_36.15 147
999 WORDSALL_dans~14_l'atmosphère~15 147
999 COSIND_0.61 147
999 COSGEN_0.61 147
110 ESRank10 147
202 ESForwSacLong+4+15 147
999 WORDS_l'atmosphère~15 161
999 WORDFREQ_36.15 161
999 WORDSALL_l'atmosphère~15 161
999 COSIND_0.61 161
999 COSGEN_0.61 161
111 ESRank11 161
203 ESBackSacRefixation 161
999 WORDS_a~18 143
999 WORDFREQ_1669.39 143
999 WORDSALL_ce~16_a~18 143
999 COSIND_N/A 143
112 ESRank12 143
202 ESForwSacLong+3+8 143
999 WORDS_a~18 129
999 WORDFREQ_1669.39 129
999 WORDSALL_qui~17_a~18 129
999 COSIND_N/A 129
113 ESRank13 129
203 ESBackSacRefixation 129
999 WORDS_conséquence~20 180
999 WORDFREQ_16.89 180
999 WORDSALL_conséquence~20 180
999 COSIND_0.24 180
999 COSGEN_0.24 180
114 ESRank14 180
202 ESForwSacLong+2+6 180
999 WORDS_réchauffer~23 157
999 WORDFREQ_11.62 157
999 WORDSALL_de~21_réchauffer~23 157
999 COSIND_0.16 157
999 COSGEN_0.16 157
115 ESRank15 157
202 ESForwSacLong+3+7 157
999 WORDS_réchauffer~23 200
999 WORDFREQ_11.62 200
999 WORDSALL_réchauffer~23 200
999 COSIND_0.16 200
999 COSGEN_0.16 200
116 ESRank16 200
203 ESBackSacRefixation 200
999 WORDS_contribuer~26 189
999 WORDFREQ_2.84 189
999 WORDSALL_contribuer~26 189
999 COSIND_0.07 189
999 COSGEN_0.07 189
117 ESRank17 189
202 ESForwSacLong+3+7 189
999 WORDS_fonte~29 144
999 WORDFREQ_8.31 144
999 WORDSALL_la~28_fonte~29 144
999 COSIND_0.47 144
999 COSGEN_0.47 144
118 ESRank18 144
202 ESForwSacLong+3+7 144
999 WORDS_glaciers~31 299
999 WORDFREQ_1.55 299
999 WORDSALL_des~30_glaciers~31 299
999 COSIND_0.34 299
999 COSGEN_0.34 299
119 ESRank19 299
202 ESForwSacLong+2+5 299
999 WORDS_réchauffer~23 157
999 WORDFREQ_11.62 157
999 WORDSALL_réchauffer~23 157
999 COSIND_0.16 157
999 COSGEN_0.16 157
120 ESRank20 157
206 ESBackSacRegrLong-8-34 157
999 WORDS_et~24 135
999 WORDFREQ_20879.73 135
999 WORDSALL_et~24 135
999 COSIND_N/A 135
201 ESForwSacShort 135
999 WORDS_glaciers~31 353
999 WORDFREQ_1.55 353
999 WORDSALL_des~30_glaciers~31 353
999 COSIND_0.34 353
999 COSGEN_0.34 353
202 ESForwSacLong+7+31 353
200 ESRankN 353
199 ESRankNMinus1 135
198 ESRankNMinus2 157
197 ESRankNMinus3 299
196 ESRankNMinus4 144
195 ESRankNMinus5 189
194 ESRankNMinus6 200
193 ESRankNMinus7 157
192 ESRankNMinus8 180
191 ESRankNMinus9 129
190 ESRankNMinus10 143
