999 WORDS_candidat~1 117
999 WORDFREQ_2.84 117
999 WORDSALL_Le~0_candidat~1 117
999 COSIND_0.04 117
999 COSGEN_0.04 117
101 ESRank1 117
999 WORDS_candidat~1 175
999 WORDFREQ_2.84 175
999 WORDSALL_candidat~1 175
999 COSIND_0.04 175
999 COSGEN_0.04 175
102 ESRank2 175
203 ESBackSacRefixation 175
999 WORDS_a~3 162
999 WORDFREQ_2926.69 162
999 WORDSALL_conservateur~2_a~3 162
999 COSIND_N/A 162
103 ESRank3 162
202 ESForwSacLong+2+14 162
999 WORDS_a~3 148
999 WORDFREQ_2926.69 148
999 WORDSALL_a~3 148
999 COSIND_N/A 148
104 ESRank4 148
203 ESBackSacRefixation 148
999 WORDS_conservateur~2 251
999 WORDFREQ_2.36 251
999 WORDSALL_conservateur~2 251
999 COSIND_0.15 251
999 COSGEN_0.15 251
105 ESRank5 251
205 ESBackSacRegrShort 251
999 WORDS_bénéficié~4 167
999 WORDFREQ_1.49 167
999 WORDSALL_a~3_bénéficié~4 167
999 COSIND_0.05 167
999 COSGEN_0.05 167
106 ESRank6 167
202 ESForwSacLong+2+3 167
999 WORDS_d'évangélistes~10 187
999 WORDFREQ_0.27 187
999 WORDSALL_a~3_bénéficié~4_d'évangélistes~10 187
999 COSIND_-0.03 187
999 COSGEN_-0.03 187
107 ESRank7 187
202 ESForwSacLong+6+31 187
999 WORDS_contingent~9 240
999 WORDFREQ_1.69 240
999 WORDSALL_conservateur~2_contingent~9 240
999 COSIND_-0.03 240
999 COSGEN_-0.03 240
108 ESRank8 240
205 ESBackSacRegrShort 240
200 ESRankN 240
199 ESRankNMinus1 187
198 ESRankNMinus2 167
197 ESRankNMinus3 251
196 ESRankNMinus4 148
195 ESRankNMinus5 162
194 ESRankNMinus6 175
193 ESRankNMinus7 117
