999 WORDS_salon~7 124
999 WORDFREQ_84.12 124
999 WORDSALL_Le~0_bombardier~1_salon~7 124
999 COSIND_-0.05 124
999 COSGEN_-0.05 124
101 ESRank1 124
999 WORDS_bombardier~1 152
999 WORDFREQ_0.68 152
999 WORDSALL_bombardier~1 152
999 COSIND_-0.03 152
999 COSGEN_-0.03 152
102 ESRank2 152
206 ESBackSacRegrLong-6-29 152
999 WORDS_Spirit~2 267
999 WORDFREQ_N/A 267
999 WORDSALL_Spirit~2 267
999 COSIND_N/A 267
103 ESRank3 267
201 ESForwSacShort 267
999 WORDS_entraperçu~11 125
999 WORDFREQ_0.07 125
999 WORDSALL_que~3_visiteurs~5_ont~10_entraperçu~11 125
999 COSIND_0.04 125
999 COSGEN_0.04 125
104 ESRank4 125
202 ESForwSacLong+9+43 125
999 WORDS_visiteurs~5 157
999 WORDFREQ_16.76 157
999 WORDSALL_les~4_visiteurs~5 157
999 COSIND_-0.08 157
999 COSGEN_-0.08 157
105 ESRank5 157
206 ESBackSacRegrLong-6-25 157
999 WORDS_visiteurs~5 141
999 WORDFREQ_16.76 141
999 WORDSALL_visiteurs~5 141
999 COSIND_-0.08 141
999 COSGEN_-0.08 141
106 ESRank6 141
203 ESBackSacRefixation 141
999 WORDS_salon~7 233
999 WORDFREQ_84.12 233
999 WORDSALL_Le~0_bombardier~1_salon~7 233
999 COSIND_-0.05 233
999 COSGEN_-0.05 233
107 ESRank7 233
202 ESForwSacLong+2+4 233
999 WORDS_Bourget~9 179
999 WORDFREQ_N/A 179
999 WORDSALL_bombardier~1_Bourget~9 179
999 COSIND_N/A 179
108 ESRank8 179
202 ESForwSacLong+2+4 179
999 WORDS_entraperçu~11 83
999 WORDFREQ_0.07 83
999 WORDSALL_Spirit~2_ont~10_entraperçu~11 83
999 COSIND_0.04 83
999 COSGEN_0.04 83
109 ESRank9 83
202 ESForwSacLong+2+5 83
999 WORDS_entraperçu~11 150
999 WORDFREQ_0.07 150
999 WORDSALL_entraperçu~11 150
999 COSIND_0.04 150
999 COSGEN_0.04 150
110 ESRank10 150
203 ESBackSacRefixation 150
999 WORDS_juin~13 242
999 WORDFREQ_51.28 242
999 WORDSALL_en~12_juin~13 242
999 COSIND_0.00 242
999 COSGEN_0.00 242
111 ESRank11 242
202 ESForwSacLong+2+4 242
999 WORDS_drôle~26 172
999 WORDFREQ_14.46 172
999 WORDSALL_passage~19_drôle~26 172
999 COSIND_-0.06 172
999 COSGEN_-0.06 172
112 ESRank12 172
202 ESForwSacLong+13+68 172
999 WORDS_machine~28 293
999 WORDFREQ_58.99 293
999 WORDSALL_de~27_machine~28 293
999 COSIND_-0.02 293
999 COSGEN_-0.02 293
113 ESRank13 293
202 ESForwSacLong+2+4 293
200 ESRankN 293
199 ESRankNMinus1 172
198 ESRankNMinus2 242
197 ESRankNMinus3 150
196 ESRankNMinus4 83
195 ESRankNMinus5 179
194 ESRankNMinus6 233
193 ESRankNMinus7 141
192 ESRankNMinus8 157
191 ESRankNMinus9 125
190 ESRankNMinus10 267
