# 144 Fixation 1 (286.1,275.7): Zinedine~0
# 156 Fixation 2 (437.5,288.1): Zidane~1 grand~2
# 160 Fixation 3 (478.9,346.9): Zidane~1 grand~2 France~9
# 173 Fixation 4 (586.6,348.2): artisan~3 finale~11
# 152 Fixation 5 (605,403.7): en~10 finale~11 Brésil~19
%%
# Zinedine~0 Fixations= "1/"
# Zidane~1 Fixations= "3/"
# grand~2 Fixations= "3/"
# artisan~3 Fixations= "4/"
# de~4 Fixations= ""
# la~5 Fixations= ""
# victoire~6 Fixations= ""
# de~7 Fixations= ""
# la~8 Fixations= ""
# France~9 Fixations= "3/"
# en~10 Fixations= "5/"
# finale~11 Fixations= "5/"
# de~12 Fixations= ""
# la~13 Fixations= ""
# coupe~14 Fixations= ""
# du~15 Fixations= ""
# monde~16 Fixations= ""
# contre~17 Fixations= ""
# le~18 Fixations= ""
# Brésil~19 Fixations= "5/"
# a~20 Fixations= ""
# été~21 Fixations= ""
# élu~22 Fixations= ""
# champion~23 Fixations= ""
# des~24 Fixations= ""
# champions~25 Fixations= ""
# du~26 Fixations= ""
# monde~27 Fixations= ""
%%
#  ZINEDINE[1] ZIDANE[3] GRAND[3] ARTISAN[4] de la victoire de la FRANCE[3] EN[5] FINALE[5] de la coupe du monde contre le BRéSIL[5] a été élu champion des champions du monde
# s21 decollage_fusee-a2 PercentageOfWordsProcessed= 0.285714285714286 PercentageOfWordsReallyProcessed= 0.4
