999 WORDS_malaise~1 134
999 WORDFREQ_23.38 134
999 WORDSALL_Le~0_malaise~1 134
999 COSIND_0.15 134
999 COSGEN_0.15 134
101 ESRank1 134
999 WORDS_personnels~3 145
999 WORDFREQ_0.61 145
999 WORDSALL_des~2_personnels~3 145
999 COSIND_0.48 145
999 COSGEN_0.48 145
102 ESRank2 145
202 ESForwSacLong+2+5 145
999 WORDS_personnels~3 162
999 WORDFREQ_0.61 162
999 WORDSALL_des~2_personnels~3 162
999 COSIND_0.48 162
999 COSGEN_0.48 162
103 ESRank3 162
203 ESBackSacRefixation 162
999 WORDS_porte~4 143
999 WORDFREQ_79.05 143
999 WORDSALL_porte~4 143
999 COSIND_-0.03 143
999 COSGEN_-0.03 143
104 ESRank4 143
201 ESForwSacShort 143
999 WORDS_également~5 133
999 WORDFREQ_71.01 133
999 WORDSALL_porte~4_également~5 133
999 COSIND_0.01 133
999 COSGEN_0.01 133
105 ESRank5 133
201 ESForwSacShort 133
999 WORDS_réforme~8 161
999 WORDFREQ_4.93 161
999 WORDSALL_sur~6_réforme~8 161
999 COSIND_0.08 161
999 COSGEN_0.08 161
106 ESRank6 161
202 ESForwSacLong+3+9 161
999 WORDS_réforme~8 126
999 WORDFREQ_4.93 126
999 WORDSALL_réforme~8 126
999 COSIND_0.08 126
999 COSGEN_0.08 126
107 ESRank7 126
203 ESBackSacRefixation 126
999 WORDS_statut~11 192
999 WORDFREQ_4.66 192
999 WORDSALL_leur~10_statut~11 192
999 COSIND_0.07 192
999 COSGEN_0.07 192
108 ESRank8 192
202 ESForwSacLong+3+9 192
999 WORDS_statut~11 106
999 WORDFREQ_4.66 106
999 WORDSALL_statut~11 106
999 COSIND_0.07 106
999 COSGEN_0.07 106
109 ESRank9 106
203 ESBackSacRefixation 106
999 WORDS_ont~13 164
999 WORDFREQ_553.31 164
999 WORDSALL_Ils~12_ont~13 164
999 COSIND_0.08 164
999 COSGEN_0.08 164
110 ESRank10 164
202 ESForwSacLong+2+5 164
999 WORDS_été~14 83
999 WORDFREQ_40.2 83
999 WORDSALL_Ils~12_ont~13_été~14 83
999 COSIND_0.03 83
999 COSGEN_0.03 83
111 ESRank11 83
201 ESForwSacShort 83
999 WORDS_avertis~15 143
999 WORDFREQ_3.51 143
999 WORDSALL_avertis~15 143
999 COSIND_N/A 143
112 ESRank12 143
201 ESForwSacShort 143
999 WORDS_direction~18 172
999 WORDFREQ_103.04 172
999 WORDSALL_la~17_direction~18 172
999 COSIND_0.55 172
999 COSGEN_0.55 172
113 ESRank13 172
202 ESForwSacLong+3+8 172
999 WORDS_teneur~21 186
999 WORDFREQ_1.35 186
999 WORDSALL_de~19_teneur~21 186
999 COSIND_0.03 186
999 COSGEN_0.03 186
114 ESRank14 186
202 ESForwSacLong+3+7 186
999 WORDS_réforme~24 144
999 WORDFREQ_4.93 144
999 WORDSALL_réforme~24 144
999 COSIND_0.08 144
999 COSGEN_0.08 144
115 ESRank15 144
202 ESForwSacLong+3+10 144
999 WORDS_avant~26 168
999 WORDFREQ_117.7 168
999 WORDSALL_juste~25_avant~26 168
999 COSIND_-0.01 168
999 COSGEN_-0.01 168
116 ESRank16 168
202 ESForwSacLong+2+7 168
999 WORDS_réunion~28 178
999 WORDFREQ_19.12 178
999 WORDSALL_la~27_réunion~28 178
999 COSIND_-0.00 178
999 COSGEN_-0.00 178
117 ESRank17 178
202 ESForwSacLong+2+4 178
999 WORDS_juste~25 155
999 WORDFREQ_109.46 155
999 WORDSALL_réforme~24_juste~25 155
999 COSIND_-0.06 155
999 COSGEN_-0.06 155
118 ESRank18 155
206 ESBackSacRegrLong-3-10 155
999 WORDS_procéder~33 143
999 WORDFREQ_10.14 143
999 WORDSALL_procéder~33 143
999 COSIND_0.02 143
999 COSGEN_0.02 143
119 ESRank19 143
202 ESForwSacLong+8+41 143
999 WORDS_examen~36 204
999 WORDFREQ_18.31 204
999 WORDSALL_son~35_examen~36 204
999 COSIND_-0.00 204
999 COSGEN_-0.00 204
120 ESRank20 204
202 ESForwSacLong+3+8 204
999 WORDS_à~34 106
999 WORDFREQ_19209.05 106
999 WORDSALL_à~34 106
999 COSIND_N/A 106
206 ESBackSacRegrLong-2-5 106
200 ESRankN 106
199 ESRankNMinus1 204
198 ESRankNMinus2 143
197 ESRankNMinus3 155
196 ESRankNMinus4 178
195 ESRankNMinus5 168
194 ESRankNMinus6 144
193 ESRankNMinus7 186
192 ESRankNMinus8 172
191 ESRankNMinus9 143
190 ESRankNMinus10 83
