999 WORDS_couple~1 169
999 WORDFREQ_47.23 169
999 WORDSALL_Un~0_couple~1 169
999 COSIND_0.02 169
999 COSGEN_0.02 169
101 ESRank1 169
999 WORDS_quinquagénaires~3 189
999 WORDFREQ_0.27 189
999 WORDSALL_de~2_quinquagénaires~3 189
999 COSIND_-0.05 189
999 COSGEN_-0.05 189
102 ESRank2 189
202 ESForwSacLong+2+4 189
999 WORDS_quinquagénaires~3 165
999 WORDFREQ_0.27 165
999 WORDSALL_quinquagénaires~3 165
999 COSIND_-0.05 165
999 COSGEN_-0.05 165
103 ESRank3 165
203 ESBackSacRefixation 165
999 WORDS_mosellans~4 196
999 WORDFREQ_N/A 196
999 WORDSALL_mosellans~4 196
999 COSIND_N/A 196
104 ESRank4 196
201 ESForwSacShort 196
999 WORDS_sera~5 155
999 WORDFREQ_66.69 155
999 WORDSALL_mosellans~4_sera~5 155
999 COSIND_0.04 155
999 COSGEN_0.04 155
105 ESRank5 155
201 ESForwSacShort 155
999 WORDS_mardi~7 267
999 WORDFREQ_15.47 267
999 WORDSALL_jugé~6_mardi~7 267
999 COSIND_0.01 267
999 COSGEN_0.01 267
106 ESRank6 267
202 ESForwSacLong+2+7 267
999 WORDS_jugé~6 90
999 WORDFREQ_11.62 90
999 WORDSALL_jugé~6 90
999 COSIND_0.32 90
999 COSGEN_0.32 90
107 ESRank7 90
205 ESBackSacRegrShort 90
999 WORDS_correctionnel~9 208
999 WORDFREQ_0 208
999 WORDSALL_correctionnel~9 208
999 COSIND_0.58 208
999 COSGEN_0.58 208
108 ESRank8 208
202 ESForwSacLong+3+10 208
999 WORDS_détention~11 192
999 WORDFREQ_2.84 192
999 WORDSALL_pour~10_détention~11 192
999 COSIND_0.20 192
999 COSGEN_0.20 192
109 ESRank9 192
202 ESForwSacLong+2+6 192
999 WORDS_usage~13 185
999 WORDFREQ_42.3 185
999 WORDSALL_et~12_usage~13 185
999 COSIND_0.20 185
999 COSGEN_0.20 185
110 ESRank10 185
202 ESForwSacLong+2+4 185
999 WORDS_personnel~14 159
999 WORDFREQ_18.38 159
999 WORDSALL_personnel~14 159
999 COSIND_0.01 159
999 COSGEN_0.01 159
111 ESRank11 159
201 ESForwSacShort 159
999 WORDS_stupéfiants~16 253
999 WORDFREQ_0.47 253
999 WORDSALL_stupéfiants~16 253
999 COSIND_0.21 253
999 COSGEN_0.21 253
112 ESRank12 253
202 ESForwSacLong+2+4 253
999 WORDS_stupéfiants~16 135
999 WORDFREQ_0.47 135
999 WORDSALL_de~15_stupéfiants~16 135
999 COSIND_0.21 135
999 COSGEN_0.21 135
113 ESRank13 135
203 ESBackSacRefixation 135
999 WORDS_personnel~14 178
999 WORDFREQ_18.38 178
999 WORDSALL_usage~13_personnel~14 178
999 COSIND_0.01 178
999 COSGEN_0.01 178
114 ESRank14 178
206 ESBackSacRegrLong-2-4 178
999 WORDS_stupéfiants~16 111
999 WORDFREQ_0.47 111
999 WORDSALL_de~15_stupéfiants~16 111
999 COSIND_0.21 111
999 COSGEN_0.21 111
115 ESRank15 111
202 ESForwSacLong+2+4 111
999 WORDS_Ils~17 124
999 WORDFREQ_2809.53 124
999 WORDSALL_Ils~17 124
999 COSIND_N/A 124
116 ESRank16 124
201 ESForwSacShort 124
999 WORDS_arrosaient~18 200
999 WORDFREQ_0.68 200
999 WORDSALL_arrosaient~18 200
999 COSIND_0.01 200
999 COSGEN_0.01 200
117 ESRank17 200
201 ESForwSacShort 200
999 WORDS_pots~20 146
999 WORDFREQ_15.74 146
999 WORDSALL_leurs~19_pots~20 146
999 COSIND_0.23 146
999 COSGEN_0.23 146
118 ESRank18 146
202 ESForwSacLong+2+7 146
999 WORDS_cannabis~22 225
999 WORDFREQ_0.14 225
999 WORDSALL_cannabis~22 225
999 COSIND_N/A 225
119 ESRank19 225
202 ESForwSacLong+2+4 225
999 WORDS_sur~23 127
999 WORDFREQ_5320.47 127
999 WORDSALL_sur~23 127
999 COSIND_N/A 127
120 ESRank20 127
201 ESForwSacShort 127
999 WORDS_rebord~25 199
999 WORDFREQ_17.3 199
999 WORDSALL_rebord~25 199
999 COSIND_0.00 199
999 COSGEN_0.00 199
202 ESForwSacLong+2+4 199
999 WORDS_rebord~25 134
999 WORDFREQ_17.3 134
999 WORDSALL_rebord~25 134
999 COSIND_0.00 134
999 COSGEN_0.00 134
203 ESBackSacRefixation 134
200 ESRankN 134
199 ESRankNMinus1 199
198 ESRankNMinus2 127
197 ESRankNMinus3 225
196 ESRankNMinus4 146
195 ESRankNMinus5 200
194 ESRankNMinus6 124
193 ESRankNMinus7 111
192 ESRankNMinus8 178
191 ESRankNMinus9 135
190 ESRankNMinus10 253
