999 WORDS_millier~1 160
999 WORDFREQ_2.36 160
999 WORDSALL_millier~1 160
999 COSIND_0.08 160
999 COSGEN_0.08 160
101 ESRank1 160
999 WORDS_d'agriculteurs~2 407
999 WORDFREQ_1.08 407
999 WORDSALL_d'agriculteurs~2 407
999 COSIND_0.63 407
999 COSGEN_0.63 407
102 ESRank2 407
201 ESForwSacShort 407
999 WORDS_millier~1 178
999 WORDFREQ_2.36 178
999 WORDSALL_Un~0_millier~1 178
999 COSIND_0.08 178
999 COSGEN_0.08 178
103 ESRank3 178
205 ESBackSacRegrShort 178
999 WORDS_paralysé~4 172
999 WORDFREQ_4.12 172
999 WORDSALL_ont~3_paralysé~4 172
999 COSIND_0.24 172
999 COSGEN_0.24 172
104 ESRank4 172
202 ESForwSacLong+3+20 172
999 WORDS_d'Auch~7 165
999 WORDFREQ_N/A 165
999 WORDSALL_d'Auch~7 165
999 COSIND_N/A 165
105 ESRank5 165
202 ESForwSacLong+3+11 165
999 WORDS_exprimer~9 155
999 WORDFREQ_25.95 155
999 WORDSALL_pour~8_exprimer~9 155
999 COSIND_0.04 155
999 COSGEN_0.04 155
106 ESRank6 155
202 ESForwSacLong+2+6 155
999 WORDS_centre~6 168
999 WORDFREQ_80 168
999 WORDSALL_centre~6 168
999 COSIND_0.05 168
999 COSGEN_0.05 168
107 ESRank7 168
206 ESBackSacRegrLong-3-13 168
999 WORDS_l'appel~21 115
999 WORDFREQ_56.69 115
999 WORDSALL_l'appel~21 115
999 COSIND_0.13 115
999 COSGEN_0.13 115
108 ESRank8 115
202 ESForwSacLong+15+91 115
999 WORDS_politique~17 184
999 WORDFREQ_65.88 184
999 WORDSALL_de~15_politique~17 184
999 COSIND_0.08 184
999 COSGEN_0.08 184
109 ESRank9 184
206 ESBackSacRegrLong-4-21 184
999 WORDS_l'appel~21 205
999 WORDFREQ_56.69 205
999 WORDSALL_à~20_l'appel~21 205
999 COSIND_0.13 205
999 COSGEN_0.13 205
110 ESRank10 205
202 ESForwSacLong+4+21 205
999 WORDS_Fédération~24 158
999 WORDFREQ_2.23 158
999 WORDSALL_de~22_Fédération~24 158
999 COSIND_0.39 158
999 COSGEN_0.39 158
111 ESRank11 158
202 ESForwSacLong+3+7 158
999 WORDS_Départementale~25 153
999 WORDFREQ_0.47 153
999 WORDSALL_Départementale~25 153
999 COSIND_0.37 153
999 COSGEN_0.37 153
112 ESRank12 153
201 ESForwSacShort 153
999 WORDS_Départementale~25 150
999 WORDFREQ_0.47 150
999 WORDSALL_Départementale~25 150
999 COSIND_0.37 150
999 COSGEN_0.37 150
113 ESRank13 150
203 ESBackSacRefixation 150
999 WORDS_Syndicats~27 149
999 WORDFREQ_3.24 149
999 WORDSALL_des~26_Syndicats~27 149
999 COSIND_0.86 149
999 COSGEN_0.86 149
114 ESRank14 149
202 ESForwSacLong+2+5 149
999 WORDS_d'Exploitants~28 89
999 WORDFREQ_0.34 89
999 WORDSALL_d'Exploitants~28 89
999 COSIND_0.76 89
999 COSGEN_0.76 89
115 ESRank15 89
201 ESForwSacShort 89
200 ESRankN 89
199 ESRankNMinus1 149
198 ESRankNMinus2 150
197 ESRankNMinus3 153
196 ESRankNMinus4 158
195 ESRankNMinus5 205
194 ESRankNMinus6 184
193 ESRankNMinus7 115
192 ESRankNMinus8 168
191 ESRankNMinus9 155
190 ESRankNMinus10 165
