999 WORDS_petit~1 116
999 WORDFREQ_653.78 116
999 WORDSALL_Un~0_petit~1 116
999 COSIND_0.01 116
999 COSGEN_0.01 116
101 ESRank1 116
999 WORDS_petit~1 93
999 WORDFREQ_653.78 93
999 WORDSALL_Un~0_petit~1 93
999 COSIND_0.01 93
999 COSGEN_0.01 93
102 ESRank2 93
203 ESBackSacRefixation 93
999 WORDS_bimoteur~2 147
999 WORDFREQ_0.27 147
999 WORDSALL_petit~1_bimoteur~2 147
999 COSIND_0.37 147
999 COSGEN_0.37 147
103 ESRank3 147
201 ESForwSacShort 147
999 WORDS_bimoteur~2 186
999 WORDFREQ_0.27 186
999 WORDSALL_bimoteur~2 186
999 COSIND_0.37 186
999 COSGEN_0.37 186
104 ESRank4 186
203 ESBackSacRefixation 186
999 WORDS_bimoteur~2 209
999 WORDFREQ_0.27 209
999 WORDSALL_petit~1_bimoteur~2 209
999 COSIND_0.37 209
999 COSGEN_0.37 209
105 ESRank5 209
203 ESBackSacRefixation 209
999 WORDS_bimoteur~2 135
999 WORDFREQ_0.27 135
999 WORDSALL_petit~1_bimoteur~2 135
999 COSIND_0.37 135
999 COSGEN_0.37 135
106 ESRank6 135
203 ESBackSacRefixation 135
999 WORDS_effectuait~4 156
999 WORDFREQ_1.35 156
999 WORDSALL_bimoteur~2_effectuait~4 156
999 COSIND_0.19 156
999 COSGEN_0.19 156
107 ESRank7 156
202 ESForwSacLong+2+5 156
999 WORDS_effectuait~4 178
999 WORDFREQ_1.35 178
999 WORDSALL_qui~3_effectuait~4 178
999 COSIND_0.19 178
999 COSGEN_0.19 178
108 ESRank8 178
203 ESBackSacRefixation 178
999 WORDS_effectuait~4 119
999 WORDFREQ_1.35 119
999 WORDSALL_effectuait~4 119
999 COSIND_0.19 119
999 COSGEN_0.19 119
109 ESRank9 119
203 ESBackSacRefixation 119
999 WORDS_liaison~6 146
999 WORDFREQ_26.69 146
999 WORDSALL_la~5_liaison~6 146
999 COSIND_0.26 146
999 COSGEN_0.26 146
110 ESRank10 146
202 ESForwSacLong+2+4 146
999 WORDS_liaison~6 203
999 WORDFREQ_26.69 203
999 WORDSALL_la~5_liaison~6 203
999 COSIND_0.26 203
999 COSGEN_0.26 203
111 ESRank11 203
203 ESBackSacRefixation 203
999 WORDS_Boston-Chicago~7 220
999 WORDFREQ_N/A 220
999 WORDSALL_Boston-Chicago~7 220
999 COSIND_N/A 220
112 ESRank12 220
201 ESForwSacShort 220
999 WORDS_Boston-Chicago~7 152
999 WORDFREQ_N/A 152
999 WORDSALL_Boston-Chicago~7 152
999 COSIND_N/A 152
113 ESRank13 152
203 ESBackSacRefixation 152
999 WORDS_Boston-Chicago~7 174
999 WORDFREQ_N/A 174
999 WORDSALL_Boston-Chicago~7 174
999 COSIND_N/A 174
114 ESRank14 174
203 ESBackSacRefixation 174
999 WORDS_Boston-Chicago~7 166
999 WORDFREQ_N/A 166
999 WORDSALL_Boston-Chicago~7 166
999 COSIND_N/A 166
115 ESRank15 166
203 ESBackSacRefixation 166
999 WORDS_atteri~9 135
999 WORDFREQ_N/A 135
999 WORDSALL_a~8_atteri~9 135
999 COSIND_N/A 135
116 ESRank16 135
202 ESForwSacLong+2+3 135
999 WORDS_atteri~9 131
999 WORDFREQ_N/A 131
999 WORDSALL_atteri~9 131
999 COSIND_N/A 131
117 ESRank17 131
203 ESBackSacRefixation 131
999 WORDS_urgence~11 145
999 WORDFREQ_21.35 145
999 WORDSALL_urgence~11 145
999 COSIND_0.02 145
999 COSGEN_0.02 145
118 ESRank18 145
202 ESForwSacLong+2+4 145
999 WORDS_urgence~11 162
999 WORDFREQ_21.35 162
999 WORDSALL_en~10_urgence~11 162
999 COSIND_0.02 162
999 COSGEN_0.02 162
119 ESRank19 162
203 ESBackSacRefixation 162
999 WORDS_à~12 138
999 WORDFREQ_19209.05 138
999 WORDSALL_urgence~11_à~12 138
999 COSIND_N/A 138
120 ESRank20 138
201 ESForwSacShort 138
999 WORDS_urgence~11 154
999 WORDFREQ_21.35 154
999 WORDSALL_en~10_urgence~11 154
999 COSIND_0.02 154
999 COSGEN_0.02 154
205 ESBackSacRegrShort 154
999 WORDS_Pittsburgh~13 268
999 WORDFREQ_N/A 268
999 WORDSALL_Pittsburgh~13 268
999 COSIND_N/A 268
202 ESForwSacLong+2+4 268
999 WORDS_Pittsburgh~13 150
999 WORDFREQ_N/A 150
999 WORDSALL_Pittsburgh~13 150
999 COSIND_N/A 150
203 ESBackSacRefixation 150
999 WORDS_Pittsburgh~13 148
999 WORDFREQ_N/A 148
999 WORDSALL_Pittsburgh~13 148
999 COSIND_N/A 148
203 ESBackSacRefixation 148
999 WORDS_hier~14 224
999 WORDFREQ_92.64 224
999 WORDSALL_hier~14 224
999 COSIND_0.05 224
999 COSGEN_0.05 224
201 ESForwSacShort 224
999 WORDS_raison~16 315
999 WORDFREQ_247.5 315
999 WORDSALL_en~15_raison~16 315
999 COSIND_0.09 315
999 COSGEN_0.09 315
202 ESForwSacLong+2+4 315
999 WORDS_hier~14 144
999 WORDFREQ_92.64 144
999 WORDSALL_hier~14 144
999 COSIND_0.05 144
999 COSGEN_0.05 144
206 ESBackSacRegrLong-2-4 144
999 WORDS_hier~14 88
999 WORDFREQ_92.64 88
999 WORDSALL_Pittsburgh~13_hier~14 88
999 COSIND_0.05 88
999 COSGEN_0.05 88
203 ESBackSacRefixation 88
999 WORDS_raison~16 295
999 WORDFREQ_247.5 295
999 WORDSALL_en~15_raison~16 295
999 COSIND_0.09 295
999 COSGEN_0.09 295
202 ESForwSacLong+2+4 295
200 ESRankN 295
199 ESRankNMinus1 88
198 ESRankNMinus2 144
197 ESRankNMinus3 315
196 ESRankNMinus4 224
195 ESRankNMinus5 148
194 ESRankNMinus6 150
193 ESRankNMinus7 268
192 ESRankNMinus8 154
191 ESRankNMinus9 138
190 ESRankNMinus10 162
