999 WORDS_L'équipe~0 105
999 WORDFREQ_26.28 105
999 WORDSALL_L'équipe~0 105
999 COSIND_0.18 105
999 COSGEN_0.18 105
101 ESRank1 105
999 WORDS_L'équipe~0 91
999 WORDFREQ_26.28 91
999 WORDSALL_L'équipe~0 91
999 COSIND_0.18 91
999 COSGEN_0.18 91
102 ESRank2 91
203 ESBackSacRefixation 91
999 WORDS_France~2 125
999 WORDFREQ_N/A 125
999 WORDSALL_de~1_France~2 125
999 COSIND_N/A 125
103 ESRank3 125
202 ESForwSacLong+2+4 125
999 WORDS_football~4 152
999 WORDFREQ_6.28 152
999 WORDSALL_de~3_football~4 152
999 COSIND_0.09 152
999 COSGEN_0.09 152
104 ESRank4 152
202 ESForwSacLong+2+4 152
999 WORDS_football~4 109
999 WORDFREQ_6.28 109
999 WORDSALL_football~4 109
999 COSIND_0.09 109
999 COSGEN_0.09 109
105 ESRank5 109
203 ESBackSacRefixation 109
999 WORDS_vaincu~6 148
999 WORDFREQ_6.62 148
999 WORDSALL_a~5_vaincu~6 148
999 COSIND_0.50 148
999 COSGEN_0.50 148
106 ESRank6 148
202 ESForwSacLong+2+3 148
999 WORDS_l'Australie~7 157
999 WORDFREQ_N/A 157
999 WORDSALL_l'Australie~7 157
999 COSIND_N/A 157
107 ESRank7 157
201 ESForwSacShort 157
999 WORDS_l'Australie~7 186
999 WORDFREQ_N/A 186
999 WORDSALL_l'Australie~7 186
999 COSIND_N/A 186
108 ESRank8 186
203 ESBackSacRefixation 186
200 ESRankN 186
199 ESRankNMinus1 157
198 ESRankNMinus2 148
197 ESRankNMinus3 109
196 ESRankNMinus4 152
195 ESRankNMinus5 125
194 ESRankNMinus6 91
193 ESRankNMinus7 105
